,Demand,Response_Time
0,2,10.5
1,5,2.0
2,5,27.0
3,4,21.5
4,9,22.0
5,10,25.0
6,4,27.0
7,6,42.5
8,4,21.5
9,11,25.0
10,11,26.0
11,7,67.0
12,6,45.5
13,4,25.5
14,0,25.5
15,3,3.0
16,5,39.0
17,6,25.0
18,5,22.0
19,9,47.0
20,1,26.0
21,0,26.0
22,4,2.5
23,6,27.0
24,10,2.5
25,5,26.0
26,4,2.0
27,3,75.0
28,0,75.0
29,2,46.0
30,10,49.0
31,7,26.0
32,12,18.0
33,7,49.0
34,7,25.0
35,2,6.5
36,7,27.0
37,4,33.5
38,10,21.5
39,12,23.0
40,3,49.0
41,7,27.0
42,2,33.0
43,4,39.0
44,5,47.0
45,5,18.0
46,6,27.0
47,4,50.5
48,8,24.0
49,2,68.5
50,2,23.0
51,1,23.0
52,7,42.0
53,7,3.0
54,3,24.0
55,5,27.0
56,2,22.5
57,1,41.0
58,4,23.0
59,6,45.0
60,11,20.0
61,3,49.0
62,5,49.0
63,1,27.0
64,0,27.0
65,4,38.5
66,16,25.0
67,8,20.0
68,4,48.0
69,1,26.0
70,1,11.0
71,2,26.0
72,2,36.0
73,4,26.5
74,4,7.5
75,7,41.0
76,6,17.5
77,3,23.0
78,1,47.0
79,10,26.0
80,12,3.0
81,11,26.0
82,4,44.5
83,5,26.0
84,1,51.0
85,3,27.0
86,1,26.0
87,4,26.5
88,8,26.5
89,10,45.0
90,2,62.0
91,2,45.0
92,10,48.5
93,8,24.0
94,3,3.0
95,10,13.0
96,10,46.0
97,7,22.0
98,2,26.5
99,4,23.0
100,5,21.0
101,12,25.5
102,8,21.5
103,5,48.0
104,13,47.0
105,6,18.0
106,3,69.0
107,10,48.5
108,4,27.0
109,2,25.0
110,7,69.0
111,14,25.0
112,4,22.0
113,4,9.5
114,3,3.0
115,13,26.0
116,5,22.0
117,2,61.0
118,0,61.0
119,4,37.5
120,2,37.5
121,5,26.0
122,7,27.0
123,4,23.0
124,6,46.0
125,3,26.0
126,2,35.0
127,7,27.0
128,11,46.0
129,1,3.0
130,10,27.0
131,8,51.0
132,6,46.0
133,2,21.5
134,10,7.5
135,6,51.0
136,8,48.0
137,1,16.0
138,1,38.0
139,6,49.0
140,3,71.0
141,2,19.0
142,27,22.0
143,11,51.0
144,0,51.0
145,0,51.0
146,8,25.0
147,1,0.0
148,9,25.0
149,9,25.0
150,10,16.0
151,10,23.5
152,15,46.0
153,8,176.0
154,4,21.0
155,8,26.5
156,7,22.0
157,12,22.5
158,13,26.0
159,13,74.0
160,10,48.0
161,2,18.5
162,3,24.0
163,3,3.0
164,19,21.0
165,13,139.0
166,1,48.0
167,0,48.0
168,0,48.0
169,0,48.0
170,0,48.0
171,1,0.0
172,0,0.0
173,0,0.0
174,0,0.0
175,0,0.0
176,0,0.0
177,2,43.5
178,9,26.0
179,13,44.0
180,4,30.5
181,0,30.5
182,0,30.5
183,0,30.5
184,0,30.5
185,0,30.5
186,0,30.5
187,0,30.5
188,6,60.5
189,3,22.0
190,0,22.0
191,5,0.0
192,15,19.0
193,7,27.0
194,8,2.5
195,6,25.0
196,6,43.5
197,9,27.0
198,6,11.5
199,6,11.5
200,7,26.0
201,7,3.0
202,3,24.0
203,0,24.0
204,3,20.0
205,6,21.5
206,4,21.0
207,12,21.0
208,2,26.5
209,3,27.0
210,0,27.0
211,2,37.5
212,11,27.0
213,7,27.0
214,8,3.0
215,5,3.0
216,4,21.0
217,3,0.0
218,2,23.0
219,5,22.0
220,4,35.0
221,9,24.0
222,8,3.0
223,4,26.5
224,5,20.0
225,9,11.0
226,4,14.0
227,0,14.0
228,7,24.0
229,2,48.5
230,2,39.0
231,2,27.0
232,3,20.0
233,7,27.0
234,4,2.0
235,3,3.0
236,6,26.0
237,4,61.5
238,1,72.0
239,4,35.0
240,5,2.0
241,8,24.5
242,7,25.0
243,7,43.0
244,6,44.5
245,5,26.0
246,6,27.0
247,4,36.5
248,3,21.0
249,5,27.0
250,4,44.0
251,6,27.0
252,5,25.0
253,3,20.0
254,10,27.0
255,6,27.0
256,7,25.0
257,8,48.0
258,6,24.5
259,5,24.0
260,1,20.0
261,7,27.0
262,3,25.0
263,4,20.0
264,5,46.0
265,10,37.0
266,4,14.5
267,3,27.0
268,8,27.0
269,7,19.0
270,11,23.0
271,4,47.0
272,5,52.0
273,2,21.0
274,0,21.0
275,4,39.0
276,3,25.0
277,4,27.0
278,7,50.0
279,2,17.5
280,1,18.0
281,0,18.0
282,2,35.0
283,4,25.5
284,4,13.0
285,7,51.0
286,3,23.0
287,2,2.5
288,4,25.5
289,10,22.5
290,6,21.0
291,6,14.0
292,0,14.0
293,2,50.5
294,0,50.5
295,1,2.0
296,4,23.0
297,17,25.0
298,13,3.0
299,4,48.5
300,5,34.0
301,0,34.0
302,4,39.0
303,6,47.5
304,4,27.0
305,7,24.0
306,8,22.0
307,4,34.5
308,1,24.0
309,3,27.0
310,6,22.5
311,5,27.0
312,11,26.0
313,8,54.0
314,1,26.0
315,4,25.5
316,2,24.0
317,9,22.0
318,9,25.0
319,0,25.0
320,5,51.0
321,5,27.0
322,5,21.0
323,1,28.0
324,7,19.0
325,10,26.0
326,8,23.0
327,3,75.0
328,6,70.0
329,1,52.0
330,1,13.0
331,9,26.0
332,9,26.0
333,10,26.0
334,5,48.0
335,4,24.5
336,2,49.5
337,5,74.0
338,3,27.0
339,9,27.0
340,9,27.0
341,12,49.5
342,7,51.0
343,2,36.5
344,5,27.0
345,6,21.5
346,13,22.0
347,7,26.0
348,3,70.0
349,6,26.5
350,1,12.0
351,4,38.5
352,3,16.0
353,3,22.0
354,5,24.0
355,10,46.0
356,3,22.0
357,3,26.0
358,6,15.0
359,4,14.0
360,4,21.5
361,9,23.0
362,6,50.5
363,1,26.0
364,2,26.0
365,7,24.0
366,6,25.5
367,10,26.5
368,10,24.5
369,4,70.0
370,5,26.0
371,1,3.0
372,9,25.0
373,11,27.0
374,6,24.5
375,12,25.0
376,5,73.0
377,10,24.0
378,0,24.0
379,5,25.0
380,5,27.0
381,5,27.0
382,4,13.5
383,7,43.0
384,7,27.0
385,2,37.5
386,0,37.5
387,4,37.5
388,4,36.5
389,3,82.0
390,5,66.0
391,2,23.0
392,0,23.0
393,0,23.0
394,3,51.0
395,10,27.0
396,15,20.0
397,6,48.0
398,3,27.0
399,3,16.0
400,4,37.0
401,6,24.0
402,4,26.5
403,4,2.0
404,2,43.0
405,4,25.5
406,0,25.5
407,3,26.0
408,3,2.0
409,6,43.0
410,6,27.0
411,4,2.5
412,5,24.0
413,2,25.5
414,4,33.0
415,5,27.0
416,6,9.5
417,3,3.0
418,7,3.0
419,5,47.0
420,2,47.5
421,4,28.5
422,8,25.0
423,6,26.0
424,7,2.0
425,4,70.0
426,4,48.5
427,3,25.0
428,0,25.0
429,2,37.5
430,5,26.0
431,0,26.0
432,3,47.0
433,5,24.0
434,2,48.0
435,2,202.5
436,3,64.0
437,1,48.0
438,3,24.0
439,3,51.0
440,5,26.0
441,3,72.0
442,3,27.0
443,4,14.0
444,8,26.5
445,8,48.0
446,2,61.5
447,8,35.0
448,2,91.5
449,3,27.0
450,7,27.0
451,5,91.0
452,6,24.5
453,5,47.0
454,4,61.0
455,3,10.0
456,1,24.0
457,1,99.0
458,8,16.5
459,2,122.0
460,5,48.0
461,6,26.0
462,2,15.0
463,7,17.0
464,19,27.0
465,16,45.0
466,6,34.5
467,6,51.0
468,6,37.0
469,3,3.0
470,6,18.0
471,15,51.0
472,4,25.0
473,1,28.0
474,12,48.0
475,2,103.5
476,2,108.0
477,9,20.0
478,19,27.0
479,8,7.5
480,15,27.0
481,8,48.0
482,16,33.5
483,3,22.0
484,4,11.5
485,10,21.5
486,11,45.0
487,6,57.0
488,11,61.0
489,7,50.0
490,7,26.0
491,4,38.5
492,11,21.0
493,4,56.5
494,10,73.0
495,5,51.0
496,16,27.0
497,0,27.0
498,6,47.5
499,13,20.0
500,9,49.0
501,11,25.0
502,7,1.0
503,6,47.0
504,2,50.0
505,1,51.0
506,30,27.0
507,9,26.0
508,12,21.0
509,7,74.0
510,6,70.0
511,1,22.0
512,1,43.0
513,24,47.5
514,10,27.0
515,8,23.0
516,4,46.0
517,1,93.0
518,1,51.0
519,5,25.0
520,6,26.0
521,15,24.0
522,4,26.0
523,8,68.5
524,6,69.5
525,2,27.0
526,2,57.0
527,14,25.5
528,16,25.0
529,11,24.0
530,9,44.0
531,4,35.0
532,3,27.0
533,10,24.5
534,23,27.0
535,11,27.0
536,8,26.5
537,3,0.0
538,3,48.0
539,6,22.0
540,2,87.0
541,4,10.5
542,13,26.0
543,4,2.5
544,2,23.0
545,6,25.0
546,5,22.0
547,4,24.0
548,9,90.0
549,6,67.0
550,1,45.0
551,0,45.0
552,0,45.0
553,0,45.0
554,0,45.0
555,0,45.0
556,11,26.0
557,13,3.0
558,10,3.0
559,7,49.0
560,2,107.5
561,2,36.5
562,10,38.0
563,14,27.0
564,13,26.0
565,3,46.0
566,9,26.0
567,3,25.0
568,10,42.0
569,11,21.0
570,4,26.5
571,6,22.5
572,1,47.0
573,1,46.0
574,6,25.5
575,2,13.0
576,5,27.0
577,10,27.0
578,0,27.0
579,0,27.0
580,0,27.0
581,2,28.5
582,1,74.0
583,0,74.0
584,0,74.0
585,0,74.0
586,0,74.0
587,0,74.0
588,0,74.0
589,7,27.0
590,0,27.0
591,0,27.0
592,0,27.0
593,0,27.0
594,3,25.0
595,1,50.0
596,9,17.0
597,8,23.0
598,2,2.0
599,6,79.5
600,11,51.0
601,5,45.0
602,4,32.5
603,2,31.0
604,9,47.0
605,17,26.0
606,4,51.0
607,10,71.0
608,6,26.5
609,2,13.5
610,8,3.0
611,4,43.0
612,8,45.5
613,3,3.0
614,4,51.0
615,9,27.0
616,2,37.0
617,1,26.0
618,6,26.5
619,5,27.0
620,6,26.0
621,9,45.0
622,5,44.0
623,2,43.5
624,4,18.0
625,4,20.5
626,2,2.5
627,9,18.0
628,2,26.0
629,6,25.5
630,3,46.0
631,2,27.0
632,2,121.5
633,10,35.5
634,4,26.0
635,5,50.0
636,2,60.5
637,5,46.0
638,4,17.0
639,3,25.0
640,4,35.5
641,3,26.0
642,3,73.0
643,8,27.0
644,6,37.5
645,0,37.5
646,3,27.0
647,6,24.0
648,9,25.0
649,1,112.0
650,8,26.0
651,3,25.0
652,2,21.5
653,1,20.0
654,4,24.5
655,1,146.0
656,6,70.5
657,7,51.0
658,0,51.0
659,2,25.5
660,15,27.0
661,15,38.0
662,5,17.0
663,14,50.5
664,6,25.5
665,3,23.0
666,2,2.0
667,11,26.0
668,4,25.5
669,1,24.0
670,0,24.0
671,6,27.0
672,3,28.0
673,6,45.0
674,5,27.0
675,3,51.0
676,1,2.0
677,3,73.0
678,7,25.0
679,3,24.0
680,7,23.0
681,3,120.0
682,8,26.5
683,5,75.0
684,7,46.0
685,7,26.0
686,3,23.0
687,1,27.0
688,7,26.0
689,8,42.0
690,11,27.0
691,5,50.0
692,7,26.0
693,3,88.0
694,0,88.0
695,0,88.0
696,14,23.0
697,7,24.0
698,8,47.0
699,6,25.5
700,0,25.5
701,4,26.5
702,13,3.0
703,4,13.5
704,9,15.0
705,3,49.0
706,8,46.0
707,5,26.0
708,4,18.0
709,5,25.0
710,7,21.0
711,11,18.0
712,4,25.5
713,8,58.5
714,3,27.0
715,8,26.0
716,5,26.0
717,3,27.0
718,5,27.0
719,3,51.0
720,3,73.0
721,1,51.0
722,15,24.0
723,6,23.5
724,8,26.5
725,14,27.0
726,13,46.0
727,7,27.0
728,6,34.0
729,9,27.0
730,12,22.5
731,17,49.0
732,8,27.0
733,10,71.0
734,14,49.5
735,4,19.5
736,7,25.0
737,9,27.0
738,6,17.5
739,2,27.0
740,7,48.0
741,8,26.0
742,4,23.0
743,7,24.0
744,8,25.0
745,6,26.5
746,9,27.0
747,6,56.0
748,15,27.0
749,6,68.0
750,1,48.0
751,2,39.0
752,2,37.0
753,8,21.0
754,9,119.0
755,4,51.0
756,1,38.0
757,1,49.0
758,9,48.0
759,12,35.5
760,12,96.0
761,11,72.0
762,6,68.0
763,7,24.0
764,11,27.0
765,13,43.0
766,12,26.0
767,12,26.5
768,14,50.5
769,11,23.0
770,9,48.0
771,3,24.0
772,15,22.0
773,5,27.0
774,9,24.0
775,5,50.0
776,17,25.0
777,5,22.0
778,7,27.0
779,5,27.0
780,7,18.0
781,3,26.0
782,8,48.0
783,7,27.0
784,5,21.0
785,7,21.0
786,6,32.0
787,23,2.0
788,23,27.0
789,14,35.5
790,7,48.0
791,3,19.0
792,3,3.0
793,13,27.0
794,13,22.0
795,7,24.0
796,10,45.0
797,6,27.0
798,5,3.0
799,14,20.5
800,6,24.5
801,16,47.5
802,9,72.0
803,5,70.0
804,2,61.0
805,13,38.0
806,11,26.0
807,10,22.0
808,6,27.0
809,6,23.0
810,2,46.0
811,5,26.0
812,5,26.0
813,5,26.0
814,4,17.5
815,10,25.0
816,15,23.0
817,9,49.0
818,7,25.0
819,1,70.0
820,6,26.0
821,0,26.0
822,15,92.0
823,11,23.0
824,11,48.0
825,5,27.0
826,4,23.5
827,10,26.0
828,19,24.0
829,12,33.0
830,10,21.5
831,12,49.5
832,11,21.0
833,8,19.5
834,14,13.0
835,9,48.0
836,6,25.5
837,4,81.5
838,8,49.5
839,18,24.5
840,4,49.0
841,21,26.0
842,10,48.0
843,13,27.0
844,16,74.0
845,18,71.5
846,14,24.0
847,6,37.5
848,4,1.5
849,11,22.0
850,12,36.0
851,11,49.0
852,13,27.0
853,1,2.0
854,3,18.0
855,4,23.5
856,4,26.0
857,7,25.0
858,10,47.5
859,11,48.0
860,20,26.0
861,6,24.0
862,7,40.0
863,10,24.0
864,5,23.0
865,6,23.5
866,10,26.0
867,11,47.0
868,1,94.0
869,2,33.0
870,0,33.0
871,0,33.0
872,0,33.0
873,11,66.0
874,8,165.5
875,1,49.0
876,1,17.0
877,0,17.0
878,0,17.0
879,0,17.0
880,0,17.0
881,0,17.0
882,0,17.0
883,0,17.0
884,0,17.0
885,0,17.0
886,0,17.0
887,0,17.0
888,0,17.0
889,2,91.5
890,1,0.0
891,9,24.0
892,13,27.0
893,13,27.0
894,12,22.0
895,18,26.0
896,7,23.0
897,5,24.0
898,11,24.0
899,15,40.0
900,12,25.0
901,12,47.5
902,14,34.0
903,10,20.5
904,1,26.0
905,2,21.5
906,12,26.0
907,6,1.5
908,9,37.0
909,14,22.5
910,5,3.0
911,4,44.0
912,6,46.0
913,15,45.0
914,14,61.5
915,10,89.5
916,12,72.5
917,3,44.0
918,1,27.0
919,19,47.0
920,13,22.0
921,14,26.0
922,7,73.0
923,8,72.0
924,1,19.0
925,2,48.5
926,10,23.0
927,9,26.0
928,8,23.5
929,11,3.0
930,5,26.0
931,0,26.0
932,0,26.0
933,0,0.0
934,4,71.0
935,1,18.0
936,7,47.0
937,8,26.5
938,1,28.0
939,2,24.5
940,5,19.0
941,10,25.5
942,13,24.0
943,6,25.5
944,6,26.0
945,2,25.0
946,6,25.5
947,7,23.0
948,4,2.0
949,6,24.0
950,6,1.5
951,8,62.5
952,5,48.0
953,1,17.0
954,15,24.0
955,18,23.0
956,29,48.0
957,5,3.0
958,0,3.0
959,0,3.0
960,0,3.0
961,0,3.0
962,0,3.0
963,0,3.0
964,0,3.0
965,0,3.0
966,0,3.0
967,0,3.0
968,0,3.0
969,0,3.0
970,0,3.0
971,0,3.0
972,0,3.0
973,0,3.0
974,0,3.0
975,13,22.0
976,10,12.0
977,12,3.5
978,10,3.0
979,7,41.0
980,1,97.0
981,0,97.0
982,0,97.0
983,0,97.0
984,0,97.0
985,0,97.0
986,0,97.0
987,0,97.0
988,4,35.0
989,7,20.0
990,8,19.5
991,10,24.0
992,8,20.0
993,3,1.0
994,1,119.0
995,7,27.0
996,0,27.0
997,0,27.0
998,0,27.0
999,0,27.0
1000,0,27.0
1001,0,27.0
1002,23,24.0
1003,24,24.0
1004,9,21.0
1005,8,84.0
1006,5,70.0
1007,5,27.0
1008,6,26.0
1009,5,27.0
1010,5,0.0
1011,8,32.5
1012,7,27.0
1013,11,49.0
1014,4,40.0
1015,5,24.0
1016,2,12.5
1017,6,27.0
1018,13,24.0
1019,7,25.0
1020,4,61.5
1021,5,39.0
1022,1,16.0
1023,3,25.0
1024,10,24.5
1025,10,25.0
1026,4,22.0
1027,4,23.5
1028,4,24.5
1029,2,30.0
1030,6,25.0
1031,6,21.0
1032,2,22.5
1033,10,27.0
1034,1,48.0
1035,2,49.0
1036,3,25.0
1037,4,26.5
1038,8,23.0
1039,5,20.0
1040,3,18.0
1041,4,48.0
1042,5,72.0
1043,5,41.0
1044,2,47.5
1045,7,23.0
1046,2,58.5
1047,8,74.5
1048,7,49.0
1049,8,24.0
1050,4,25.0
1051,2,22.0
1052,2,35.5
1053,6,12.0
1054,7,3.0
1055,4,26.5
1056,7,23.0
1057,1,22.0
1058,3,42.0
1059,6,18.5
1060,6,35.5
1061,5,3.0
1062,3,51.0
1063,2,60.5
1064,1,27.0
1065,2,42.0
1066,6,4.0
1067,6,24.5
1068,6,25.0
1069,3,75.0
1070,4,32.5
1071,3,50.0
1072,2,36.0
1073,7,21.0
1074,5,3.0
1075,6,95.0
1076,3,90.0
1077,1,48.0
1078,0,48.0
1079,0,48.0
1080,5,26.0
1081,7,27.0
1082,10,26.0
1083,5,46.0
1084,3,22.0
1085,1,0.0
1086,2,36.0
1087,5,26.0
1088,2,9.5
1089,6,11.0
1090,0,11.0
1091,3,27.0
1092,3,26.0
1093,3,43.0
1094,5,18.0
1095,6,12.5
1096,7,26.0
1097,7,51.0
1098,7,25.0
1099,2,3.5
1100,2,40.5
1101,4,54.5
1102,5,26.0
1103,3,20.0
1104,3,1.0
1105,3,26.0
1106,6,26.0
1107,4,68.5
1108,9,23.0
1109,4,44.5
1110,5,3.0
1111,7,48.0
1112,5,23.0
1113,1,11.0
1114,4,38.0
1115,5,27.0
1116,11,25.0
1117,5,73.0
1118,2,57.5
1119,0,57.5
1120,0,57.5
1121,8,20.0
1122,6,16.5
1123,7,26.0
1124,6,47.5
1125,5,51.0
1126,4,59.0
1127,5,25.0
1128,4,14.5
1129,8,25.0
1130,8,25.5
1131,4,59.5
1132,8,47.5
1133,4,31.5
1134,2,28.5
1135,3,26.0
1136,6,22.5
1137,9,23.0
1138,7,22.0
1139,5,3.0
1140,5,25.0
1141,5,22.0
1142,0,22.0
1143,4,47.5
1144,5,27.0
1145,8,9.5
1146,2,45.0
1147,2,61.0
1148,2,31.0
1149,2,36.5
1150,6,24.0
1151,6,23.0
1152,7,24.0
1153,1,1.0
1154,8,37.0
