,Demand,Response_Time
0,43,164.0
1,45,181.0
2,71,283.0
3,33,255.0
4,35,379.0
5,28,145.5
6,30,335.5
7,50,240.0
8,69,187.0
9,62,241.0
10,64,301.5
11,33,430.0
12,16,471.0
13,30,327.0
14,53,165.0
15,53,187.0
16,65,338.0
17,38,189.5
18,19,404.0
19,36,284.0
20,19,452.0
21,60,177.0
22,60,215.0
23,49,312.0
24,53,333.0
25,35,215.0
26,27,266.0
27,12,118.0
28,28,262.0
29,58,219.0
30,52,197.5
31,56,279.0
32,56,193.0
33,30,336.0
34,19,188.0
35,53,214.0
36,64,143.5
37,41,185.0
38,57,202.0
39,41,236.0
40,29,138.0
41,16,110.0
42,44,239.0
43,43,221.0
44,68,216.0
45,34,138.0
46,68,261.0
47,34,295.0
48,32,346.0
49,47,129.0
50,68,168.0
51,43,150.0
52,44,170.0
53,60,273.5
54,33,145.0
55,25,104.0
56,58,215.0
57,53,170.0
58,69,154.0
59,43,186.0
60,48,263.5
61,27,377.0
62,23,193.0
63,47,190.0
64,89,212.0
65,48,240.0
66,64,330.0
67,65,304.0
68,22,273.0
69,42,225.5
70,86,273.0
71,79,280.0
72,57,290.0
73,53,185.0
74,50,227.0
75,33,215.0
76,18,128.0
77,80,170.0
78,70,235.5
79,56,281.0
80,44,148.0
81,40,241.0
82,23,285.0
83,14,351.0
84,57,243.0
85,56,270.0
86,49,226.0
87,62,296.5
88,35,239.0
89,18,123.0
90,37,151.0
91,78,230.5
92,49,186.0
93,24,211.0
94,29,357.0
95,96,260.5
96,32,228.0
97,43,356.0
98,77,213.0
99,58,305.0
100,66,157.0
101,46,203.0
102,54,357.5
103,31,245.0
104,38,280.0
105,80,333.0
106,85,234.0
107,43,399.0
108,16,128.0
109,53,225.0
110,37,199.0
111,34,350.0
112,83,194.0
113,65,169.0
114,72,284.0
115,45,93.0
116,98,276.0
117,41,265.0
118,31,206.0
119,83,208.0
120,64,322.0
121,65,194.0
122,33,382.0
123,47,367.0
124,38,295.0
125,11,89.0
126,49,188.0
127,76,184.0
128,51,278.0
129,43,210.0
130,46,137.5
131,54,378.0
132,18,94.0
133,62,408.0
134,55,199.0
135,29,180.0
136,34,333.0
137,11,124.0
138,18,270.5
139,28,283.5
140,55,336.0
141,86,208.0
142,35,512.0
143,36,170.0
144,19,477.0
145,24,694.5
146,39,525.0
147,103,227.0
148,113,186.0
149,87,248.0
150,38,471.0
151,65,172.0
152,22,277.5
153,29,213.0
154,58,553.0
155,72,216.0
156,82,395.5
157,75,403.0
158,53,285.0
159,24,374.5
160,28,110.5
161,49,290.0
162,86,215.0
163,91,327.0
164,66,421.0
165,59,256.0
166,36,210.5
167,21,203.0
168,46,219.0
169,54,219.5
170,67,189.0
171,58,165.0
172,50,223.0
173,29,309.0
174,29,428.0
175,59,186.0
176,62,338.0
177,47,338.0
178,53,299.0
179,52,310.5
180,26,248.0
181,37,114.0
182,46,431.0
183,62,318.0
184,58,370.0
185,49,173.0
186,71,238.0
187,54,428.5
188,94,351.5
189,147,180.0
190,150,202.5
191,67,340.0
192,62,286.0
193,46,378.0
194,31,214.0
195,25,192.0
196,78,143.0
197,108,307.5
198,59,289.0
199,49,336.0
200,52,169.0
201,41,205.0
202,23,135.0
203,51,164.0
204,63,242.0
205,49,192.0
206,67,186.0
207,37,161.0
208,20,380.0
209,23,98.0
210,46,115.5
211,53,94.0
212,28,129.0
213,41,160.0
214,35,168.0
215,45,144.0
216,15,255.0
217,54,161.0
218,64,167.0
219,39,149.0
220,47,152.0
221,52,116.5
222,31,134.0
223,30,90.0
224,57,106.0
225,61,138.0
226,55,157.0
227,60,120.0
228,28,162.5
229,22,249.5
230,20,130.0
231,44,103.5
232,54,78.0
233,51,139.0
234,46,154.0
235,52,133.0
236,12,164.0
237,14,146.0
238,61,116.0
239,66,118.0
240,55,139.0
241,41,139.0
242,25,170.0
243,15,118.0
244,29,355.0
245,42,134.0
246,51,171.0
247,53,164.0
248,47,155.0
249,68,295.0
250,15,116.0
251,24,80.0
252,64,84.5
253,47,146.0
254,50,117.5
255,39,120.0
256,44,169.5
257,24,107.5
258,23,102.0
259,46,97.0
260,38,125.5
261,45,159.0
262,39,327.0
263,45,138.0
264,19,145.0
265,28,133.5
266,56,169.0
267,78,141.0
268,50,143.5
269,63,132.0
270,51,143.0
271,26,105.0
272,20,84.0
273,49,182.0
274,41,138.0
275,54,191.0
276,41,125.0
277,43,188.0
278,19,117.0
279,25,93.0
280,42,180.5
281,65,129.0
282,47,212.0
283,43,274.0
284,34,204.0
285,20,100.0
286,24,119.5
287,56,88.5
288,56,158.0
289,54,160.0
290,44,149.5
291,58,176.5
292,24,157.0
293,16,127.5
294,31,155.0
295,72,160.0
296,53,167.0
297,49,161.0
298,43,145.0
299,30,136.0
300,17,434.0
301,73,234.0
302,46,258.5
303,41,126.0
304,47,146.0
305,41,122.0
306,35,235.0
307,25,116.0
308,49,168.0
309,59,151.0
310,51,194.0
311,24,328.5
312,46,306.0
313,16,271.0
314,17,178.0
315,40,163.5
316,50,186.5
317,30,288.0
318,57,210.0
319,34,260.0
320,10,134.0
321,14,305.0
322,58,96.0
323,55,167.0
324,62,145.0
325,35,328.0
326,43,233.0
327,16,160.0
328,14,337.0
329,19,100.0
330,55,211.0
331,43,177.0
332,39,207.0
333,43,401.0
334,29,192.0
335,17,87.0
336,77,120.0
337,50,311.0
338,31,190.0
339,71,316.0
340,51,312.0
341,26,215.0
342,26,308.0
343,59,214.0
344,42,237.5
345,46,182.0
346,56,244.0
347,70,163.0
348,24,293.5
349,24,211.0
350,74,164.0
351,61,306.0
352,42,269.0
353,51,181.0
354,41,345.0
355,27,124.0
356,35,235.0
357,63,169.0
358,72,302.0
359,43,239.0
360,27,150.0
361,53,140.0
362,25,213.0
363,32,257.0
364,50,266.5
365,55,151.0
366,53,215.0
367,60,224.0
368,55,283.0
369,72,267.5
370,68,258.5
371,73,221.0
372,64,175.5
373,37,191.0
374,43,251.0
375,39,137.0
376,23,117.0
377,30,205.0
378,47,247.0
379,55,200.0
380,56,163.0
381,53,281.0
382,57,315.0
383,35,289.0
384,25,232.0
385,70,211.0
386,62,233.5
387,71,248.0
388,32,296.5
389,45,249.0
390,18,218.5
391,27,144.0
392,18,248.0
393,58,189.5
394,41,184.0
395,61,257.0
396,39,153.0
397,31,329.0
398,32,196.0
399,47,197.0
400,64,163.0
401,59,161.0
402,50,144.5
403,35,248.0
404,17,138.0
405,22,185.5
406,49,246.0
407,64,281.5
408,60,273.5
409,61,134.0
410,36,192.0
411,37,173.0
412,16,178.5
413,53,134.0
414,79,166.0
415,54,175.0
416,52,332.0
417,36,230.0
418,21,111.0
419,18,132.0
420,32,190.5
421,52,206.0
422,56,187.0
423,53,151.0
424,35,146.0
425,19,196.0
426,9,94.0
427,28,144.0
428,65,143.0
429,50,157.0
430,63,190.0
431,48,175.0
432,9,379.0
433,12,153.0
434,95,114.0
435,59,238.0
436,61,161.0
437,30,231.5
438,40,334.0
439,29,138.0
440,12,186.0
441,73,193.0
442,49,240.0
443,61,215.0
444,50,422.0
445,56,523.5
446,30,344.0
447,12,97.5
448,69,232.0
449,59,386.0
450,39,350.0
451,47,227.0
452,43,449.0
453,30,263.0
454,13,222.0
455,62,207.5
456,47,1532.0
457,60,472.0
458,36,413.0
459,65,302.0
460,28,446.0
461,11,287.0
462,55,556.0
463,66,604.5
464,78,408.0
465,68,317.0
466,49,321.0
467,40,559.0
468,28,260.0
469,77,574.0
470,76,180.5
471,54,359.0
472,73,142.0
473,36,485.0
474,16,406.5
475,12,358.0
476,70,514.5
477,50,1393.5
478,87,1465.0
479,48,266.0
480,62,324.0
481,33,1417.0
482,29,164.0
483,86,332.0
484,45,1412.0
485,68,295.5
486,85,457.0
487,106,522.0
488,45,453.0
489,47,274.0
490,83,400.0
491,82,181.0
492,74,474.0
493,82,300.5
494,93,503.0
495,59,480.0
496,29,167.0
497,79,571.0
498,75,389.0
499,78,373.0
500,76,328.0
501,42,401.0
502,21,549.0
503,13,109.0
504,43,319.0
505,82,664.0
506,78,483.5
507,38,155.0
508,41,575.0
509,25,816.0
510,12,190.0
511,42,495.0
512,82,211.0
513,89,211.0
514,78,351.5
515,76,232.0
516,44,455.0
517,39,205.0
518,132,265.5
519,91,226.0
520,62,218.0
521,55,351.0
522,55,338.0
523,39,294.0
524,30,489.5
525,74,182.0
526,68,225.5
527,64,206.0
528,52,330.0
529,62,323.0
530,37,241.0
531,27,205.0
532,73,317.0
533,98,242.5
534,52,284.0
535,32,262.0
536,45,146.0
537,48,96.0
538,27,258.0
539,97,266.0
540,51,678.0
541,76,312.0
542,74,339.0
543,45,426.0
544,49,407.0
545,35,299.0
546,50,167.5
547,88,337.0
548,62,440.0
549,41,768.0
550,73,507.0
551,33,197.0
552,27,283.0
553,82,333.0
554,60,176.5
555,64,302.0
556,65,241.0
557,68,446.0
558,33,143.0
559,21,170.0
560,42,291.5
561,63,308.0
562,61,189.0
563,44,412.5
564,36,264.0
565,24,336.0
566,24,196.0
567,76,158.0
568,61,280.0
569,57,348.0
570,43,184.0
571,55,277.0
572,29,430.0
573,32,82.0
574,61,185.0
575,43,166.0
576,60,189.5
577,48,327.0
578,41,281.0
579,23,215.0
580,33,193.0
581,66,241.0
582,46,228.0
583,70,271.5
584,46,332.5
585,48,189.0
586,30,188.0
587,20,117.0
588,63,187.0
589,61,152.0
590,54,188.0
591,40,154.0
592,58,185.0
593,34,289.0
594,26,127.0
595,52,319.5
596,62,213.5
597,54,286.0
598,66,175.5
599,44,219.5
600,18,184.5
601,28,148.5
602,52,188.5
603,74,188.0
604,44,189.5
605,59,224.0
606,43,261.0
607,25,115.0
608,24,69.0
609,56,142.0
610,48,182.5
611,39,146.0
612,51,205.0
613,19,120.0
614,19,199.0
615,17,120.0
616,53,125.0
617,64,187.0
618,55,215.0
619,81,142.0
620,50,169.0
621,28,148.5
622,22,265.0
623,58,241.0
624,53,136.0
625,58,175.5
626,46,125.5
627,24,145.0
628,27,192.0
629,16,268.5
630,60,169.0
631,49,146.0
632,57,143.0
633,28,139.0
634,53,177.0
635,33,139.0
636,16,347.0
637,73,220.0
638,41,327.0
639,40,184.0
640,35,165.0
641,40,252.0
642,17,289.0
643,21,220.0
644,57,274.0
645,62,203.5
646,71,189.0
647,34,240.0
648,40,120.0
649,26,153.0
650,19,92.0
651,60,217.0
652,63,165.0
653,54,192.0
654,57,138.0
655,21,263.0
656,14,183.5
657,17,125.0
658,30,249.5
659,79,119.0
660,55,214.0
661,36,141.5
662,27,141.0
663,33,208.0
664,16,107.5
665,51,170.0
666,43,214.0
667,38,140.0
668,35,260.0
669,26,242.0
670,22,379.0
671,26,348.5
672,77,151.0
673,88,165.0
674,49,283.0
675,26,361.5
676,31,311.0
677,27,225.0
678,23,179.0
679,45,324.0
680,36,195.5
681,44,258.0
682,38,174.5
683,29,233.0
684,29,382.0
685,10,192.0
686,55,335.0
687,51,149.0
688,44,294.5
689,47,330.0
690,68,248.0
691,25,309.0
692,24,290.5
693,45,158.0
694,15,309.0
695,66,286.5
696,64,167.0
697,48,274.0
698,12,106.0
699,23,117.0
700,55,136.0
701,21,197.0
702,61,286.0
703,48,171.0
704,44,248.0
705,26,382.0
706,12,94.5
707,60,275.0
708,40,199.0
709,39,288.0
710,47,138.0
711,41,166.0
712,30,228.5
713,14,99.5
714,32,162.0
715,44,112.0
716,58,175.5
717,43,260.0
718,47,285.0
719,19,208.0
720,10,421.0
721,47,162.0
722,53,254.0
723,60,275.5
724,53,238.0
725,30,147.0
726,25,381.0
727,23,356.0
728,59,193.0
729,50,160.5
730,67,218.0
731,73,202.0
732,36,245.0
733,44,336.0
734,7,29.0
735,64,234.5
736,47,230.0
737,41,286.0
738,49,290.0
739,46,261.0
740,20,308.0
741,10,200.5
742,73,184.0
743,39,329.0
744,47,198.0
745,58,159.0
746,57,309.0
747,40,376.0
748,12,216.5
749,43,187.0
750,56,196.0
751,53,146.0
752,50,234.5
753,21,158.0
754,25,241.0
755,17,428.0
756,18,75.5
757,50,117.0
758,67,238.0
759,52,332.0
760,20,233.5
761,33,120.0
762,12,140.0
763,44,177.0
764,49,103.0
765,46,195.5
766,37,183.0
767,52,245.0
768,18,234.0
769,17,249.0
770,67,236.0
771,59,211.0
772,38,236.5
773,42,260.5
774,36,245.5
775,26,601.0
776,15,194.0
777,79,263.0
778,23,325.0
779,75,305.0
780,64,184.0
781,32,286.5
782,29,369.0
783,16,162.0
784,48,275.5
785,55,215.0
786,52,201.5
787,55,167.0
788,39,336.0
789,25,186.0
790,9,382.0
791,44,232.0
792,55,240.0
793,60,254.5
794,33,346.0
795,47,288.0
796,12,157.5
797,15,1219.0
798,47,217.0
799,76,186.0
800,53,284.0
801,44,349.0
802,43,252.0
803,19,375.0
804,20,350.5
805,68,162.0
806,61,313.0
807,66,358.0
808,48,544.5
809,56,406.0
810,11,283.0
811,24,354.0
812,67,497.0
813,50,310.0
814,42,365.0
815,35,692.0
816,49,339.0
817,19,819.0
818,32,218.0
819,51,526.0
820,53,290.0
821,76,407.0
822,40,572.0
823,63,428.0
824,25,405.0
825,41,600.0
826,61,406.0
827,69,408.0
828,63,426.0
829,48,308.5
830,46,422.0
831,28,417.0
832,39,1606.0
833,68,378.0
834,49,373.0
835,56,312.0
836,22,1036.5
837,26,434.5
838,20,152.0
839,27,1121.0
840,51,314.0
841,69,184.0
842,55,457.0
843,44,256.0
844,35,1166.0
845,16,253.5
846,20,289.0
847,62,387.0
848,42,609.5
849,51,219.0
850,42,785.0
851,27,310.0
852,18,571.0
853,29,301.0
854,50,335.0
855,59,207.0
856,52,618.5
857,48,327.0
858,53,962.0
859,38,429.0
860,24,716.5
861,53,890.0
862,47,344.0
863,41,527.0
864,57,505.0
865,24,902.0
866,20,937.5
867,19,586.0
868,27,390.0
869,80,404.5
870,81,356.0
871,71,451.0
872,60,419.0
873,49,546.0
874,35,695.0
875,50,399.0
876,104,499.0
877,87,448.0
878,69,437.0
879,86,410.0
880,63,411.0
881,58,378.5
882,147,385.0
883,88,390.0
884,67,222.0
885,79,173.0
886,58,407.5
887,23,333.0
888,19,481.0
889,54,350.5
890,57,236.0
891,36,354.5
892,52,249.5
893,47,281.0
894,25,240.0
895,15,135.0
896,50,120.0
897,39,315.0
898,38,295.5
899,50,173.0
900,37,160.0
901,19,100.0
902,21,292.0
903,57,220.0
904,40,209.5
905,51,217.0
906,36,258.0
907,28,290.5
908,22,396.0
909,20,73.0
910,46,192.5
911,38,194.5
912,41,185.0
913,36,157.0
914,15,119.0
915,18,237.0
916,17,76.0
917,27,139.0
918,22,85.5
919,25,107.0
920,16,78.0
921,12,119.0
922,11,95.0
923,9,74.0
924,16,99.0
925,7,48.0
926,3,19.0
927,3,17.0
928,2,79.5
929,1,49.0
930,0,49.0
931,0,49.0
932,0,49.0
933,0,0.0
934,29,312.0
935,41,480.0
936,30,408.0
937,29,576.0
938,59,360.0
939,63,576.0
940,110,492.0
941,89,384.0
942,69,408.0
943,33,528.0
944,33,360.0
945,88,408.0
946,62,360.0
947,40,576.0
948,33,432.0
949,34,588.0
950,26,444.0
951,24,384.0
952,35,240.0
953,75,240.0
954,84,456.0
955,57,504.0
956,44,348.0
957,62,480.0
958,34,240.0
959,60,420.0
960,26,168.0
961,53,312.0
962,69,264.0
963,36,456.0
964,25,312.0
965,28,288.0
966,48,312.0
967,64,312.0
968,62,480.0
969,45,336.0
970,38,300.0
971,25,192.0
972,32,168.0
973,78,432.0
974,49,336.0
975,53,168.0
976,56,204.0
977,74,456.0
978,47,384.0
979,36,408.0
980,108,144.0
981,104,240.0
982,90,264.0
983,73,312.0
984,74,432.0
985,70,216.0
986,42,192.0
987,101,360.0
988,64,276.0
989,94,192.0
990,56,336.0
991,41,240.0
992,24,312.0
993,25,408.0
994,70,240.0
995,51,384.0
996,70,360.0
997,87,240.0
998,66,336.0
999,25,120.0
1000,23,360.0
1001,61,288.0
1002,57,336.0
1003,47,288.0
1004,48,336.0
1005,47,336.0
1006,27,384.0
1007,14,384.0
1008,56,216.0
1009,51,168.0
1010,58,324.0
1011,49,360.0
1012,51,240.0
1013,23,264.0
1014,16,360.0
1015,78,192.0
1016,54,336.0
1017,55,192.0
1018,63,336.0
1019,60,336.0
1020,23,216.0
1021,31,96.0
1022,62,288.0
1023,65,288.0
1024,37,264.0
1025,42,228.0
1026,57,192.0
1027,21,336.0
1028,32,360.0
1029,48,168.0
1030,58,312.0
1031,52,312.0
1032,86,216.0
1033,54,276.0
1034,28,300.0
1035,24,120.0
1036,51,216.0
1037,59,312.0
1038,61,288.0
1039,36,144.0
1040,44,336.0
1041,29,312.0
1042,25,192.0
1043,58,300.0
1044,47,264.0
1045,57,288.0
1046,46,288.0
1047,55,240.0
1048,23,384.0
1049,24,216.0
1050,55,96.0
1051,46,252.0
1052,67,192.0
1053,57,168.0
1054,36,240.0
1055,32,384.0
1056,28,192.0
1057,45,72.0
1058,39,312.0
1059,53,240.0
1060,43,336.0
1061,26,204.0
1062,21,408.0
1063,8,72.0
1064,52,252.0
1065,58,216.0
1066,34,336.0
1067,63,168.0
1068,31,192.0
1069,18,384.0
1070,21,144.0
1071,52,228.0
1072,60,192.0
1073,33,408.0
1074,31,192.0
1075,29,408.0
1076,24,384.0
1077,17,96.0
1078,11,96.0
1079,56,144.0
1080,43,312.0
1081,46,421.0
1082,56,168.0
1083,35,240.0
1084,15,264.0
1085,50,84.0
1086,37,302.0
1087,58,254.0
1088,42,225.5
1089,41,287.0
1090,21,270.0
1091,23,213.0
1092,78,220.5
1093,43,200.0
1094,42,283.0
1095,40,167.5
1096,44,258.5
1097,32,272.0
1098,27,266.0
1099,72,334.0
1100,74,298.0
1101,70,183.5
1102,39,426.0
1103,34,188.0
1104,18,262.0
1105,30,157.0
1106,71,327.0
1107,45,326.0
1108,41,192.0
1109,45,338.0
1110,29,256.0
1111,31,281.0
1112,36,377.0
1113,72,219.5
1114,54,359.0
1115,57,187.0
1116,41,255.0
1117,40,203.0
1118,19,292.0
1119,7,216.0
1120,79,288.0
1121,59,170.0
1122,46,298.5
1123,55,233.0
1124,32,269.0
1125,20,361.5
1126,21,126.0
1127,65,206.0
1128,56,227.0
1129,66,286.0
1130,46,288.0
1131,35,234.0
1132,15,229.0
1133,17,183.0
1134,77,208.0
1135,68,287.5
1136,77,333.0
1137,47,189.0
1138,33,307.0
1139,20,141.0
1140,24,115.0
1141,65,247.0
1142,48,249.0
1143,74,205.5
1144,70,350.0
1145,39,233.0
1146,23,223.0
1147,25,235.0
1148,50,213.5
1149,59,217.0
1150,46,189.5
1151,72,213.0
1152,108,147.5
1153,12,375.0
1154,11,101.0
