,Demand,Response_Time
0,11,38.0
1,7,39.0
2,4,34.0
3,7,132.0
4,12,97.0
5,8,75.0
6,17,48.0
7,13,37.0
8,11,23.0
9,6,76.5
10,7,27.0
11,7,66.0
12,5,49.0
13,4,21.5
14,9,27.0
15,9,22.0
16,5,28.0
17,7,25.0
18,3,120.0
19,4,238.0
20,2,85.0
21,12,51.0
22,6,55.5
23,4,29.5
24,7,21.0
25,2,121.0
26,3,68.0
27,4,44.0
28,3,40.0
29,3,2.0
30,3,25.0
31,3,23.0
32,3,67.0
33,1,48.0
34,7,38.0
35,5,37.0
36,4,126.0
37,4,19.0
38,15,18.0
39,5,96.0
40,3,76.0
41,1,48.0
42,3,29.0
43,5,233.0
44,4,32.5
45,2,113.0
46,3,164.0
47,3,51.0
48,1,119.0
49,2,55.5
50,2,113.0
51,2,38.5
52,2,14.5
53,3,70.0
54,2,24.5
55,1,259.0
56,2,52.0
57,4,46.0
58,6,101.0
59,7,114.0
60,3,118.0
61,1,228.0
62,4,60.0
63,5,169.0
64,3,43.0
65,1,17.0
66,3,23.0
67,0,23.0
68,1,51.0
69,1,25.0
70,2,56.0
71,1,60.0
72,0,60.0
73,6,85.0
74,3,89.0
75,2,33.5
76,0,33.5
77,1,24.0
78,1,137.0
79,1,205.0
80,5,99.0
81,2,116.5
82,3,90.0
83,2,29.0
84,3,67.0
85,5,62.0
86,4,30.5
87,1,100.0
88,4,80.5
89,2,48.5
90,4,298.0
91,4,52.0
92,4,108.5
93,0,108.5
94,1,95.0
95,0,95.0
96,4,226.0
97,2,23.5
98,2,469.0
99,1,129.0
100,2,40.5
101,2,734.0
102,2,154.5
103,0,154.5
104,2,100.5
105,3,21.0
106,3,403.0
107,4,254.5
108,0,254.5
109,3,257.0
110,1,48.0
111,1,25.0
112,0,25.0
113,2,279.0
114,1,122.0
115,2,576.5
116,0,576.5
117,0,576.5
118,2,142.0
119,3,64.0
120,1,2.0
121,1,292.0
122,5,91.0
123,1,121.0
124,1,46.0
125,0,46.0
126,3,172.0
127,3,18.0
128,1,119.0
129,0,119.0
130,0,119.0
131,1,72.0
132,3,30.0
133,4,49.5
134,1,31.0
135,0,31.0
136,0,31.0
137,0,31.0
138,1,71.0
139,2,44.5
140,4,31.5
141,1,157.0
142,2,119.0
143,1,193.0
144,0,193.0
145,2,90.0
146,1,28.0
147,0,28.0
148,2,143.0
149,2,17.5
150,1,185.0
151,3,92.0
152,2,64.0
153,0,64.0
154,1,38.0
155,0,38.0
156,1,717.0
157,0,717.0
158,0,717.0
159,1,94.0
160,0,94.0
161,0,94.0
162,0,94.0
163,0,94.0
164,2,107.5
165,1,98.0
166,1,49.0
167,6,50.5
168,18,98.5
169,4,26.0
170,22,145.5
171,12,146.5
172,6,126.5
173,4,66.5
174,1,49.0
175,1,22.0
176,3,145.0
177,2,118.0
178,1,96.0
179,0,96.0
180,1,38.0
181,0,38.0
182,1,95.0
183,2,40.0
184,2,3.5
185,0,3.5
186,1,5.0
187,0,5.0
188,3,94.0
189,0,94.0
190,1,53.0
191,2,105.0
192,3,114.0
193,2,87.5
194,0,87.5
195,3,67.0
196,0,67.0
197,0,67.0
198,4,33.0
199,2,212.0
200,3,68.0
201,3,46.0
202,2,21.0
203,3,154.0
204,1,0.0
205,3,49.0
206,3,111.0
207,0,111.0
208,1,66.0
209,1,20.0
210,0,20.0
211,2,185.5
212,7,30.0
213,6,93.0
214,4,266.0
215,3,95.0
216,5,26.0
217,4,67.0
218,4,59.5
219,2,20.5
220,4,94.0
221,2,165.0
222,5,47.0
223,1,1.0
224,2,562.5
225,4,694.0
226,2,149.5
227,4,95.0
228,3,89.0
229,2,80.5
230,1,19.0
231,1,215.0
232,4,23.0
233,2,27.5
234,8,164.0
235,3,74.0
236,1,473.0
237,3,28.0
238,2,67.0
239,2,357.0
240,2,175.5
241,7,26.0
242,1,117.0
243,1,40.0
244,0,40.0
245,2,476.0
246,2,113.5
247,4,122.5
248,5,143.0
249,5,117.0
250,3,288.0
251,4,71.0
252,7,51.0
253,9,26.0
254,7,26.0
255,6,234.5
256,8,105.5
257,2,513.0
258,0,513.0
259,11,47.0
260,5,141.0
261,3,18.0
262,4,116.0
263,3,169.0
264,1,86.0
265,1,260.0
266,7,45.0
267,3,23.0
268,0,23.0
269,8,116.0
270,2,103.5
271,1,219.0
272,3,192.0
273,11,25.0
274,7,43.0
275,8,43.0
276,13,89.0
277,5,93.0
278,8,66.0
279,5,66.0
280,10,43.5
281,3,49.0
282,14,22.0
283,10,52.5
284,13,286.0
285,5,102.0
286,2,139.5
287,13,70.0
288,10,356.5
289,9,41.0
290,14,22.0
291,10,114.5
292,16,120.5
293,19,118.0
294,1,14.0
295,17,44.0
296,16,139.5
297,14,100.5
298,12,93.5
299,13,48.0
300,4,236.5
301,20,79.5
302,17,71.0
303,9,278.0
304,4,358.5
305,8,71.0
306,10,48.5
307,10,22.0
308,11,30.0
309,19,63.0
310,15,116.0
311,5,117.0
312,9,143.0
313,7,44.0
314,11,21.0
315,23,28.0
316,25,20.0
317,17,49.0
318,16,21.0
319,11,87.0
320,12,80.5
321,13,45.0
322,18,20.5
323,20,31.0
324,17,144.0
325,10,121.5
326,8,97.0
327,11,75.0
328,11,64.0
329,6,36.5
330,13,39.0
331,16,78.5
332,21,86.0
333,15,71.0
334,2,44.0
335,8,93.0
336,16,97.5
337,14,71.0
338,19,56.0
339,18,96.5
340,14,116.0
341,11,63.0
342,11,50.0
343,15,43.0
344,14,21.0
345,12,38.0
346,10,19.5
347,12,72.0
348,14,67.0
349,5,29.0
350,12,22.0
351,10,17.5
352,17,116.0
353,10,98.5
354,9,94.0
355,7,67.0
356,5,116.0
357,11,43.0
358,10,29.5
359,10,164.5
360,9,92.0
361,9,138.0
362,9,51.0
363,7,618.0
364,14,69.0
365,5,48.0
366,7,126.0
367,12,20.0
368,6,66.0
369,7,46.0
370,6,23.0
371,10,70.5
372,6,223.5
373,10,39.0
374,9,21.0
375,4,83.5
376,8,43.0
377,5,26.0
378,7,21.0
379,8,239.0
380,6,130.0
381,6,203.5
382,6,74.5
383,6,65.5
384,7,47.0
385,6,23.0
386,8,71.0
387,7,47.0
388,5,23.0
389,8,101.0
390,6,75.5
391,1,95.0
392,1,39.0
393,5,133.0
394,6,51.5
395,13,22.0
396,5,92.0
397,8,43.5
398,5,93.0
399,7,49.0
400,9,23.0
401,4,153.5
402,11,161.0
403,12,109.5
404,7,142.0
405,3,88.0
406,2,165.0
407,3,68.0
408,6,78.0
409,3,341.0
410,8,131.0
411,7,50.0
412,4,452.5
413,4,69.0
414,2,47.5
415,4,598.0
416,4,164.5
417,1,425.0
418,4,182.0
419,1,87.0
420,4,71.5
421,5,50.0
422,3,165.0
423,7,117.0
424,1,124.0
425,2,74.5
426,3,116.0
427,4,57.5
428,3,70.0
429,4,39.0
430,2,95.0
431,4,116.0
432,8,99.0
433,4,42.5
434,7,70.0
435,8,21.5
436,4,125.5
437,0,125.5
438,0,125.5
439,2,163.0
440,0,163.0
441,1,24.0
442,1,24.0
443,4,101.0
444,0,101.0
445,2,102.5
446,1,571.0
447,3,71.0
448,4,68.0
449,3,76.0
450,2,37.5
451,3,145.0
452,2,578.5
453,2,251.5
454,1,76.0
455,6,64.5
456,5,46.0
457,3,113.0
458,4,93.0
459,2,429.5
460,2,79.0
461,2,95.0
462,3,18.0
463,0,18.0
464,3,26.0
465,1,500.0
466,1,65.0
467,5,61.0
468,1,698.0
469,1,95.0
470,1,143.0
471,1,528.0
472,0,528.0
473,6,75.0
474,3,60.0
475,2,35.0
476,2,37.5
477,2,155.0
478,5,287.0
479,3,113.0
480,4,110.0
481,4,165.5
482,3,363.0
483,3,341.0
484,1,20.0
485,3,288.0
486,1,89.0
487,0,89.0
488,0,89.0
489,1,95.0
490,1,170.0
491,1,33.0
492,3,119.0
493,0,119.0
494,2,232.0
495,0,232.0
496,3,21.0
497,1,6.0
498,0,6.0
499,1,144.0
500,0,144.0
501,3,102.0
502,0,102.0
503,0,102.0
504,0,102.0
505,2,278.5
506,1,169.0
507,3,22.0
508,1,95.0
509,1,287.0
510,1,116.0
511,1,381.0
512,4,298.0
513,6,217.5
514,2,505.5
515,4,157.5
516,1,146.0
517,5,115.0
518,3,88.0
519,4,71.5
520,2,95.0
521,1,146.0
522,2,267.5
523,0,267.5
524,1,63.0
525,3,348.0
526,1,307.0
527,1,22.0
528,3,364.0
529,0,364.0
530,0,364.0
531,0,364.0
532,5,175.0
533,1,150.0
534,4,46.5
535,0,46.5
536,3,162.0
537,3,76.0
538,0,76.0
539,1,1.0
540,2,95.0
541,5,25.0
542,0,25.0
543,2,725.0
544,2,482.0
545,0,482.0
546,3,207.0
547,1,341.0
548,3,151.0
549,5,139.0
550,9,153.0
551,7,88.0
552,4,126.5
553,31,191.0
554,0,191.0
555,7,179.0
556,2,73.0
557,3,112.0
558,3,117.0
559,1,109.0
560,5,91.0
561,1,48.0
562,3,168.0
563,4,88.5
564,5,70.0
565,7,382.0
566,1,95.0
567,2,46.0
568,2,360.0
569,1,169.0
570,1,95.0
571,5,78.0
572,1,95.0
573,1,450.0
574,3,237.0
575,1,189.0
576,2,145.5
577,2,166.5
578,2,95.0
579,0,95.0
580,3,99.0
581,0,99.0
582,4,231.0
583,18,212.0
584,18,190.5
585,28,172.5
586,5,210.0
587,5,185.0
588,4,160.0
589,1,41.0
590,0,41.0
591,1,116.0
592,5,317.0
593,4,67.5
594,2,286.0
595,2,172.0
596,1,337.0
597,5,209.0
598,9,179.0
599,1,95.0
600,9,252.0
601,4,97.0
602,7,177.0
603,0,177.0
604,3,159.0
605,5,95.0
606,2,242.0
607,1,95.0
608,7,42.0
609,9,42.0
610,14,47.5
611,13,28.0
612,5,258.0
613,4,138.5
614,6,213.5
615,32,186.0
616,9,103.0
617,9,134.0
618,3,121.0
619,8,97.0
620,2,71.5
621,2,45.0
622,6,105.0
623,4,33.5
624,2,50.5
625,3,134.0
626,2,106.0
627,4,109.0
628,9,132.0
629,7,121.0
630,4,104.0
631,2,101.0
632,3,52.0
633,5,84.0
634,4,421.0
635,10,77.5
636,4,176.0
637,7,63.0
638,5,40.0
639,9,48.0
640,7,145.0
641,7,123.0
642,1,95.0
643,3,208.0
644,10,126.5
645,14,41.0
646,11,44.0
647,10,53.5
648,11,104.0
649,10,270.5
650,5,96.0
651,7,184.0
652,4,192.0
653,10,136.5
654,4,346.0
655,8,438.0
656,16,121.0
657,3,50.0
658,3,75.0
659,7,306.0
660,12,310.5
661,9,113.0
662,11,261.0
663,10,236.5
664,7,195.0
665,4,167.5
666,8,261.5
667,4,380.0
668,7,282.0
669,3,120.0
670,14,81.5
671,20,72.0
672,24,65.0
673,22,47.0
674,13,142.0
675,12,103.0
676,11,99.0
677,6,148.0
678,11,74.0
679,21,73.0
680,15,42.0
681,16,112.5
682,21,119.0
683,10,110.5
684,16,46.5
685,12,100.0
686,20,69.5
687,5,183.0
688,11,160.0
689,16,140.5
690,14,118.5
691,12,97.5
692,11,70.0
693,15,69.0
694,18,22.5
695,20,116.0
696,15,98.0
697,7,102.0
698,14,73.0
699,16,49.5
700,21,30.0
701,15,149.0
702,11,117.0
703,17,189.0
704,7,76.0
705,10,47.5
706,14,29.5
707,20,50.0
708,8,47.0
709,17,51.0
710,8,30.5
711,11,237.0
712,9,120.0
713,6,111.5
714,11,68.0
715,9,136.0
716,10,132.0
717,9,99.0
718,7,71.0
719,6,52.0
720,7,42.0
721,10,67.5
722,11,45.0
723,10,166.5
724,8,255.0
725,7,116.0
726,11,95.0
727,7,73.0
728,2,158.5
729,7,238.0
730,8,214.5
731,8,153.5
732,7,86.0
733,7,137.0
734,5,113.0
735,10,170.5
736,11,209.0
737,16,183.5
738,12,167.0
739,5,159.0
740,7,140.0
741,6,91.5
742,19,58.0
743,9,66.0
744,7,517.0
745,10,149.5
746,14,426.5
747,7,66.0
748,4,199.5
749,7,332.0
750,8,313.0
751,4,419.5
752,7,286.0
753,9,283.0
754,5,263.0
755,0,263.0
756,5,198.0
757,9,195.0
758,6,262.0
759,9,307.0
760,5,90.0
761,1,61.0
762,6,67.0
763,11,213.0
764,9,27.0
765,3,219.0
766,12,231.0
767,10,167.0
768,10,141.0
769,4,58.5
770,6,100.5
771,6,234.0
772,5,123.0
773,3,98.0
774,8,119.0
775,8,70.5
776,6,47.5
777,12,50.0
778,8,148.0
779,7,141.0
780,4,102.5
781,5,76.0
782,5,90.0
783,3,214.0
784,8,238.5
785,3,199.0
786,7,175.0
787,7,147.0
788,5,316.0
789,4,101.0
790,1,361.0
791,2,25.0
792,4,361.5
793,7,291.0
794,4,262.0
795,6,242.0
796,3,221.0
797,1,186.0
798,3,189.0
799,5,141.0
800,5,120.0
801,4,101.5
802,3,90.0
803,4,103.5
804,1,95.0
805,4,102.0
806,0,102.0
807,7,45.0
808,2,743.0
809,4,143.5
810,2,192.5
811,0,192.5
812,2,642.0
813,1,95.0
814,2,167.0
815,4,149.0
816,8,323.5
817,1,125.0
818,1,95.0
819,0,95.0
820,3,31.0
821,0,31.0
822,3,353.0
823,2,95.0
824,4,95.0
825,7,53.0
826,7,49.0
827,1,95.0
828,2,212.5
829,2,189.0
830,3,74.0
831,3,55.0
832,1,114.0
833,3,709.0
834,5,191.0
835,1,496.0
836,0,496.0
837,2,368.0
838,1,95.0
839,0,95.0
840,6,542.0
841,2,95.0
842,3,504.0
843,2,473.5
844,3,453.0
845,0,453.0
846,3,404.0
847,2,313.5
848,4,352.5
849,1,331.0
850,3,332.0
851,2,132.0
852,0,132.0
853,2,239.5
854,0,239.5
855,2,44.5
856,1,168.0
857,2,128.5
858,5,107.0
859,2,90.0
860,1,49.0
861,2,283.5
862,3,177.0
863,1,139.0
864,0,139.0
865,1,293.0
866,0,293.0
867,3,238.0
868,0,238.0
869,3,192.0
870,0,192.0
871,0,192.0
872,0,192.0
873,1,93.0
874,2,79.0
875,1,47.0
876,0,47.0
877,4,215.0
878,2,195.5
879,6,123.5
880,2,98.0
881,3,124.0
882,12,95.0
883,7,172.0
884,2,145.5
885,6,79.0
886,0,79.0
887,0,79.0
888,1,740.0
889,4,266.5
890,8,326.0
891,1,215.0
892,5,199.0
893,5,399.0
894,0,399.0
895,0,399.0
896,3,98.0
897,2,238.0
898,3,217.0
899,1,195.0
900,2,311.5
901,0,311.5
902,0,311.5
903,3,98.0
904,4,187.5
905,1,134.0
906,2,191.0
907,1,295.0
908,1,147.0
909,3,117.0
910,0,117.0
911,3,73.0
912,4,51.5
913,0,51.5
914,1,119.0
915,2,88.0
916,0,88.0
917,0,88.0
918,3,243.0
919,1,222.0
920,1,193.0
921,1,174.0
922,3,146.0
923,0,146.0
924,1,91.0
925,5,70.0
926,4,50.0
927,0,50.0
928,0,50.0
929,0,50.0
930,0,50.0
931,0,50.0
932,0,50.0
933,0,0.0
934,0,0.0
935,0,0.0
936,0,0.0
937,0,0.0
938,1,31.0
939,4,139.5
940,1,126.0
941,0,126.0
942,4,114.0
943,0,114.0
944,0,114.0
945,0,114.0
946,1,242.0
947,0,242.0
948,0,242.0
949,0,242.0
950,2,226.0
951,2,122.5
952,4,99.5
953,0,99.5
954,1,552.0
955,0,552.0
956,1,509.0
957,2,130.5
958,3,210.0
959,1,188.0
960,5,57.0
961,8,142.5
962,6,137.5
963,2,120.0
964,2,98.0
965,0,98.0
966,5,67.0
967,11,50.0
968,19,26.0
969,4,108.0
970,13,95.0
971,2,65.5
972,3,51.0
973,4,43.5
974,6,73.0
975,4,107.5
976,4,27.0
977,0,27.0
978,1,90.0
979,0,90.0
980,1,63.0
981,1,23.0
982,1,40.0
983,1,87.0
984,1,61.0
985,1,40.0
986,2,116.0
987,10,162.5
988,4,144.5
989,1,17.0
990,2,282.5
991,1,66.0
992,0,66.0
993,1,45.0
994,2,106.0
995,5,163.0
996,4,134.0
997,2,66.0
998,12,76.5
999,2,83.5
1000,2,44.0
1001,9,19.0
1002,4,35.5
1003,6,22.5
1004,2,14.5
1005,1,263.0
1006,0,263.0
1007,2,72.5
1008,3,71.0
1009,2,45.0
1010,1,46.0
1011,4,24.0
1012,3,263.0
1013,1,430.0
1014,1,188.0
1015,3,21.0
1016,1,15.0
1017,0,15.0
1018,0,15.0
1019,4,291.0
1020,0,291.0
1021,1,91.0
1022,4,67.0
1023,0,67.0
1024,1,25.0
1025,3,281.0
1026,1,91.0
1027,2,105.5
1028,0,105.5
1029,1,19.0
1030,1,29.0
1031,7,145.0
1032,1,92.0
1033,0,92.0
1034,2,47.0
1035,5,26.0
1036,2,46.5
1037,3,50.0
1038,4,160.5
1039,4,161.0
1040,4,139.5
1041,7,83.0
1042,15,68.0
1043,2,26.5
1044,5,40.0
1045,3,45.0
1046,0,45.0
1047,2,167.0
1048,6,50.5
1049,3,25.0
1050,8,64.5
1051,6,67.5
1052,8,33.0
1053,3,93.0
1054,4,170.0
1055,6,48.0
1056,1,63.0
1057,9,27.0
1058,7,20.0
1059,4,95.0
1060,3,21.0
1061,5,69.0
1062,2,141.0
1063,5,27.0
1064,7,20.0
1065,5,61.0
1066,2,150.5
1067,4,19.0
1068,3,167.0
1069,3,85.0
1070,5,40.0
1071,3,47.0
1072,3,67.0
1073,3,51.0
1074,5,27.0
1075,7,95.0
1076,1,65.0
1077,11,49.0
1078,8,24.5
1079,13,16.0
1080,2,2.5
1081,3,18.0
1082,6,71.0
1083,8,45.0
1084,7,29.0
1085,2,95.0
1086,4,155.0
1087,3,126.0
1088,6,172.0
1089,4,73.5
1090,10,52.0
1091,11,45.0
1092,4,33.5
1093,7,24.0
1094,8,19.0
1095,14,19.0
1096,14,111.0
1097,8,89.0
1098,11,69.0
1099,4,67.0
1100,6,26.5
1101,11,26.0
1102,11,23.0
1103,11,69.0
1104,0,69.0
1105,10,57.5
1106,13,26.0
1107,18,18.0
1108,9,48.0
1109,11,25.0
1110,7,65.0
1111,4,56.0
1112,3,24.0
1113,3,14.0
1114,12,21.0
1115,11,22.0
1116,10,90.5
1117,9,70.0
1118,8,115.0
1119,5,23.0
1120,7,12.0
1121,10,50.5
1122,7,24.0
1123,5,140.0
1124,11,71.0
1125,3,47.0
1126,10,45.0
1127,3,26.0
1128,7,43.0
1129,16,21.0
1130,3,96.0
1131,11,87.0
1132,9,64.0
1133,10,45.0
1134,19,44.0
1135,6,17.5
1136,10,21.0
1137,7,92.0
1138,11,76.0
1139,15,54.0
1140,10,30.5
1141,10,28.0
1142,24,19.0
1143,9,6.0
1144,8,29.5
1145,6,129.5
1146,3,52.0
1147,5,46.0
1148,16,31.5
1149,5,23.0
1150,2,21.5
1151,4,95.5
1152,6,96.0
1153,7,74.0
1154,5,53.0
