,Demand,Response_Time
0,29,23.0
1,10,22.0
2,43,19.0
3,13,27.0
4,30,26.5
5,6,25.5
6,12,27.5
7,15,26.0
8,23,23.0
9,20,24.0
10,22,26.5
11,14,27.0
12,10,49.0
13,12,33.5
14,41,27.0
15,24,24.5
16,30,25.0
17,28,25.0
18,19,29.0
19,9,36.0
20,11,25.0
21,26,21.5
22,23,24.0
23,27,29.0
24,21,20.0
25,23,90.0
26,21,90.0
27,9,80.0
28,11,50.0
29,22,27.5
30,23,24.0
31,20,24.0
32,12,12.0
33,10,47.0
34,6,24.0
35,17,61.0
36,22,24.0
37,12,24.0
38,18,23.5
39,19,19.0
40,12,56.0
41,6,19.5
42,19,23.0
43,18,48.0
44,18,18.5
45,16,24.5
46,11,25.0
47,19,41.0
48,9,25.0
49,35,24.0
50,16,24.0
51,13,26.0
52,14,21.0
53,8,24.5
54,9,49.0
55,9,32.0
56,12,42.0
57,14,26.5
58,19,24.0
59,17,20.0
60,16,23.0
61,5,73.0
62,7,49.0
63,5,112.0
64,18,24.0
65,11,71.0
66,10,50.0
67,14,27.0
68,6,48.5
69,9,33.0
70,10,21.0
71,8,25.5
72,12,25.0
73,10,25.5
74,14,93.5
75,6,82.0
76,5,47.0
77,10,26.0
78,13,48.0
79,7,72.0
80,5,19.0
81,18,122.0
82,5,46.0
83,4,44.5
84,9,46.0
85,13,21.0
86,14,62.0
87,13,27.0
88,12,27.5
89,15,50.0
90,8,27.5
91,12,73.0
92,10,51.0
93,11,24.0
94,10,26.5
95,17,20.0
96,3,67.0
97,11,22.0
98,17,28.0
99,12,23.5
100,14,37.0
101,9,23.0
102,10,21.5
103,4,49.0
104,11,34.0
105,13,27.0
106,15,142.0
107,8,96.0
108,4,87.0
109,6,71.5
110,5,68.0
111,3,90.0
112,14,19.5
113,3,20.0
114,10,17.5
115,17,20.0
116,11,25.0
117,4,76.5
118,5,48.0
119,17,25.0
120,12,16.0
121,23,21.0
122,9,25.0
123,15,25.0
124,9,50.0
125,8,45.0
126,30,24.0
127,14,15.0
128,12,108.5
129,9,21.0
130,13,74.0
131,9,58.0
132,7,41.0
133,6,25.5
134,18,52.0
135,12,23.0
136,7,93.0
137,2,77.0
138,4,48.5
139,7,44.0
140,9,23.0
141,6,62.5
142,12,110.0
143,11,97.0
144,3,93.0
145,12,72.0
146,11,26.0
147,9,24.0
148,6,33.5
149,10,33.0
150,16,21.0
151,10,26.5
152,10,77.5
153,4,234.0
154,21,42.0
155,13,43.0
156,10,26.0
157,11,39.0
158,8,90.0
159,6,70.5
160,6,49.0
161,6,26.5
162,11,18.0
163,15,26.0
164,8,286.0
165,10,261.5
166,0,261.5
167,1,189.0
168,2,87.0
169,4,141.0
170,8,140.0
171,6,114.5
172,11,91.0
173,5,66.0
174,4,73.0
175,15,46.0
176,16,40.0
177,22,26.0
178,21,42.0
179,6,121.5
180,8,23.0
181,6,81.0
182,12,45.5
183,15,21.0
184,8,47.5
185,8,56.0
186,10,103.0
187,11,51.0
188,3,49.0
189,4,42.5
190,11,42.0
191,18,22.0
192,19,71.0
193,17,36.0
194,8,48.5
195,11,34.0
196,24,26.0
197,12,44.0
198,17,51.0
199,10,77.0
200,7,69.0
201,6,118.5
202,4,46.5
203,16,26.5
204,10,45.5
205,4,29.0
206,12,65.5
207,15,72.0
208,8,57.5
209,6,44.5
210,16,33.5
211,14,22.0
212,19,20.0
213,19,38.0
214,15,73.0
215,5,48.0
216,10,22.0
217,10,43.5
218,15,27.0
219,16,23.5
220,13,21.0
221,10,70.5
222,3,42.0
223,8,44.0
224,5,26.0
225,13,27.0
226,20,51.0
227,14,141.0
228,8,99.0
229,11,95.0
230,10,71.5
231,13,27.0
232,14,25.0
233,15,13.0
234,12,104.0
235,15,74.0
236,10,59.5
237,6,21.5
238,15,15.0
239,15,52.0
240,7,28.0
241,12,29.5
242,14,85.0
243,6,72.0
244,7,45.0
245,10,30.0
246,16,24.0
247,14,23.0
248,9,89.0
249,11,70.0
250,3,122.0
251,11,28.0
252,9,91.0
253,15,49.0
254,11,44.0
255,15,42.0
256,13,27.0
257,8,47.5
258,11,35.0
259,15,25.0
260,9,28.0
261,13,24.0
262,14,23.5
263,9,77.0
264,7,91.0
265,5,26.0
266,18,49.5
267,10,40.0
268,6,48.0
269,16,25.0
270,10,74.0
271,9,49.0
272,6,23.0
273,19,25.0
274,14,39.0
275,7,20.0
276,15,28.0
277,17,71.0
278,9,46.0
279,5,22.0
280,12,23.0
281,13,27.0
282,10,22.5
283,7,34.0
284,11,61.0
285,8,60.0
286,9,26.0
287,17,25.0
288,16,29.0
289,11,29.0
290,8,21.0
291,22,16.0
292,14,94.5
293,12,73.0
294,14,59.0
295,31,50.0
296,15,15.0
297,13,18.0
298,15,69.0
299,7,43.0
300,9,31.0
301,13,24.0
302,21,48.0
303,21,24.0
304,15,39.0
305,19,72.0
306,9,94.0
307,9,30.0
308,12,25.5
309,19,26.0
310,15,46.0
311,8,33.5
312,21,72.0
313,4,49.5
314,7,39.0
315,29,26.0
316,29,27.0
317,15,23.0
318,16,91.0
319,9,75.0
320,13,48.0
321,7,41.0
322,19,60.0
323,21,28.0
324,9,23.0
325,8,22.5
326,15,126.0
327,12,97.5
328,7,81.0
329,7,92.0
330,26,46.5
331,16,61.0
332,20,27.0
333,18,71.5
334,13,59.0
335,10,24.0
336,26,25.0
337,30,18.0
338,20,92.5
339,20,35.0
340,11,66.0
341,10,80.0
342,12,29.0
343,25,48.0
344,12,61.0
345,18,33.5
346,12,24.0
347,16,74.0
348,14,65.5
349,11,49.0
350,35,26.0
351,23,64.0
352,17,51.0
353,38,27.0
354,23,93.0
355,12,56.0
356,14,22.5
357,22,22.0
358,29,22.0
359,10,93.5
360,18,67.0
361,12,70.5
362,10,50.5
363,19,32.0
364,29,27.0
365,16,27.0
366,29,21.0
367,19,25.0
368,26,25.5
369,13,44.0
370,5,53.0
371,24,22.5
372,19,49.0
373,22,27.0
374,17,27.0
375,16,81.0
376,15,49.0
377,11,26.0
378,22,28.0
379,22,44.5
380,14,49.0
381,14,46.0
382,12,47.0
383,9,66.0
384,13,26.0
385,26,25.5
386,25,49.0
387,15,28.0
388,13,21.0
389,9,93.0
390,19,105.0
391,8,74.5
392,18,87.5
393,27,50.0
394,8,47.0
395,22,40.5
396,16,74.0
397,11,76.0
398,9,44.0
399,20,71.5
400,23,28.0
401,13,50.0
402,24,122.5
403,17,118.0
404,8,109.0
405,9,46.0
406,18,69.0
407,19,69.0
408,11,52.0
409,25,27.0
410,18,71.0
411,9,70.0
412,14,27.0
413,21,18.0
414,21,26.0
415,13,23.0
416,18,26.5
417,11,27.0
418,9,45.0
419,6,33.0
420,20,47.0
421,16,26.5
422,16,21.5
423,6,37.0
424,13,28.0
425,7,129.0
426,10,95.5
427,6,64.5
428,16,51.0
429,8,31.5
430,14,32.0
431,11,74.0
432,3,45.0
433,11,41.0
434,18,48.0
435,26,99.0
436,19,118.0
437,19,90.0
438,6,61.0
439,1,92.0
440,8,23.0
441,16,22.5
442,12,25.0
443,11,137.0
444,8,114.0
445,7,99.0
446,5,71.0
447,5,48.0
448,14,25.5
449,10,36.0
450,4,29.5
451,16,26.5
452,10,69.0
453,9,48.0
454,6,52.0
455,14,46.5
456,9,27.0
457,5,27.0
458,12,97.5
459,9,75.0
460,8,50.0
461,4,24.5
462,14,48.5
463,12,27.5
464,11,38.0
465,7,28.0
466,22,27.5
467,9,60.0
468,4,32.0
469,18,26.5
470,5,61.0
471,14,71.0
472,2,69.0
473,9,27.0
474,6,48.0
475,8,44.5
476,19,26.0
477,12,26.5
478,15,23.0
479,12,26.5
480,12,76.0
481,12,59.5
482,5,27.0
483,12,37.0
484,12,36.0
485,6,23.0
486,10,75.0
487,18,93.0
488,10,75.0
489,8,54.5
490,11,23.0
491,8,25.0
492,18,25.0
493,5,51.0
494,5,101.0
495,2,71.5
496,7,18.0
497,15,47.0
498,12,35.0
499,13,45.0
500,7,24.0
501,15,91.0
502,8,73.0
503,2,41.5
504,5,25.0
505,14,25.5
506,17,23.0
507,13,18.0
508,12,26.5
509,4,80.5
510,3,47.0
511,5,51.0
512,7,73.0
513,21,24.0
514,14,24.0
515,11,68.0
516,3,122.0
517,1,22.0
518,2,43.5
519,9,51.0
520,11,61.0
521,16,47.5
522,17,29.0
523,8,73.0
524,3,44.0
525,7,19.0
526,13,26.0
527,15,24.0
528,20,41.0
529,11,25.0
530,8,63.0
531,9,38.0
532,21,28.0
533,2,20.0
534,10,32.0
535,15,21.0
536,10,32.0
537,9,63.0
538,6,60.5
539,9,27.0
540,9,25.0
541,13,46.0
542,14,27.5
543,12,66.0
544,8,48.5
545,2,23.0
546,16,107.5
547,16,91.0
548,16,164.5
549,4,129.5
550,2,139.0
551,4,71.0
552,8,49.5
553,9,49.0
554,11,39.0
555,21,25.0
556,19,48.0
557,26,17.0
558,10,71.0
559,11,52.0
560,15,40.0
561,23,26.0
562,19,25.0
563,28,34.0
564,12,30.5
565,10,75.5
566,8,26.0
567,13,27.0
568,16,47.5
569,16,38.0
570,26,49.5
571,16,31.5
572,28,95.0
573,13,44.0
574,13,28.0
575,12,20.0
576,14,45.0
577,26,287.5
578,9,283.0
579,6,321.0
580,6,210.5
581,9,138.0
582,4,87.0
583,8,57.5
584,5,111.0
585,2,75.5
586,6,98.5
587,8,85.0
588,13,51.0
589,21,51.0
590,22,66.5
591,17,50.0
592,13,69.0
593,14,63.0
594,11,25.0
595,32,48.5
596,15,25.0
597,13,50.0
598,29,38.0
599,5,73.0
600,15,72.0
601,14,26.0
602,25,44.0
603,19,25.0
604,21,34.0
605,15,22.0
606,9,146.0
607,10,65.5
608,7,22.0
609,19,118.0
610,18,97.5
611,12,239.5
612,13,44.0
613,21,97.0
614,8,56.0
615,12,78.5
616,12,34.0
617,8,47.5
618,9,188.0
619,12,92.0
620,11,72.0
621,7,170.0
622,10,60.5
623,19,97.0
624,14,73.0
625,20,25.0
626,16,97.0
627,16,94.5
628,18,48.0
629,6,19.0
630,12,28.5
631,11,26.0
632,17,42.0
633,12,32.5
634,7,160.0
635,5,73.0
636,3,71.0
637,12,46.5
638,12,31.0
639,10,47.0
640,13,45.0
641,16,27.0
642,5,114.0
643,10,45.5
644,20,30.5
645,17,51.0
646,14,27.5
647,10,68.0
648,9,74.0
649,10,62.0
650,9,46.0
651,19,42.0
652,12,91.5
653,18,27.5
654,10,22.0
655,11,123.0
656,16,95.0
657,5,72.0
658,14,57.0
659,21,89.0
660,16,64.0
661,18,24.0
662,15,74.0
663,15,48.0
664,6,43.0
665,19,88.0
666,13,62.0
667,18,67.5
668,17,44.0
669,15,26.0
670,9,46.0
671,9,26.0
672,11,14.0
673,22,51.5
674,17,47.0
675,18,50.0
676,12,73.0
677,14,61.0
678,7,116.0
679,15,75.0
680,19,48.0
681,22,69.5
682,18,50.0
683,19,68.0
684,10,48.0
685,3,27.0
686,18,73.5
687,19,74.0
688,19,28.0
689,13,145.0
690,7,120.0
691,13,93.0
692,7,65.0
693,16,53.0
694,6,37.5
695,20,80.0
696,27,99.0
697,19,102.0
698,12,72.0
699,8,47.5
700,31,45.0
701,19,94.0
702,22,121.0
703,20,99.0
704,14,82.5
705,9,86.0
706,17,25.0
707,37,46.0
708,16,25.0
709,29,28.0
710,17,23.0
711,19,89.0
712,16,69.0
713,9,69.0
714,12,29.0
715,10,22.0
716,18,25.0
717,26,21.0
718,25,63.0
719,12,49.5
720,12,24.5
721,16,35.5
722,14,24.5
723,29,51.0
724,24,28.0
725,11,25.0
726,11,50.0
727,6,22.0
728,18,51.5
729,17,23.0
730,24,66.5
731,18,48.5
732,15,24.0
733,12,49.0
734,8,30.5
735,18,24.0
736,20,27.0
737,26,29.5
738,23,27.0
739,10,81.5
740,7,61.0
741,10,42.5
742,23,26.0
743,23,28.0
744,17,27.0
745,17,24.0
746,25,26.0
747,11,47.0
748,6,30.0
749,17,48.0
750,13,28.0
751,25,27.0
752,23,28.0
753,12,151.0
754,12,120.0
755,4,118.0
756,12,93.0
757,15,50.0
758,19,52.0
759,7,27.0
760,11,69.0
761,8,58.0
762,12,67.5
763,24,43.5
764,20,71.5
765,12,47.0
766,24,47.5
767,27,69.0
768,12,70.0
769,8,24.0
770,27,67.0
771,20,56.0
772,13,76.0
773,15,43.0
774,10,50.0
775,8,51.0
776,8,28.5
777,18,47.5
778,24,38.0
779,17,26.0
780,13,49.0
781,11,71.0
782,7,99.0
783,8,40.0
784,10,42.5
785,15,44.0
786,24,32.5
787,24,49.5
788,18,94.0
789,8,94.5
790,7,74.0
791,11,45.0
792,17,26.0
793,15,40.0
794,15,48.0
795,8,88.0
796,8,44.0
797,12,34.5
798,18,27.5
799,16,50.0
800,10,59.0
801,12,23.5
802,8,25.0
803,8,117.0
804,8,92.0
805,14,69.5
806,13,46.0
807,18,23.0
808,8,28.0
809,13,21.0
810,10,47.0
811,1,21.0
812,18,24.5
813,6,21.0
814,12,23.0
815,15,42.0
816,12,25.0
817,12,46.0
818,10,64.0
819,10,52.0
820,17,27.0
821,10,28.0
822,10,100.5
823,5,70.0
824,8,44.0
825,9,22.0
826,15,20.0
827,19,28.0
828,22,36.0
829,7,26.0
830,7,76.0
831,5,50.0
832,2,92.0
833,14,99.5
834,8,72.0
835,8,46.5
836,1,16.0
837,2,97.5
838,5,48.0
839,13,25.0
840,10,23.0
841,9,23.0
842,12,24.5
843,12,25.0
844,5,29.0
845,7,45.0
846,10,35.5
847,26,42.0
848,10,24.5
849,16,92.0
850,5,94.0
851,20,107.0
852,1,74.0
853,4,37.5
854,10,49.5
855,11,26.0
856,6,26.5
857,6,108.0
858,8,98.5
859,8,59.5
860,7,23.0
861,9,25.0
862,14,60.0
863,11,23.0
864,8,47.0
865,11,25.0
866,4,103.5
867,3,70.0
868,2,69.5
869,9,19.0
870,9,26.0
871,9,22.0
872,12,257.5
873,4,154.0
874,1,44.0
875,2,43.5
876,17,158.0
877,11,144.0
878,2,83.0
879,7,93.0
880,2,58.0
881,0,58.0
882,7,61.0
883,15,47.0
884,10,29.0
885,13,48.0
886,27,144.0
887,7,141.0
888,14,75.0
889,12,42.0
890,15,49.0
891,14,62.0
892,13,49.0
893,17,74.0
894,11,68.0
895,16,48.5
896,28,43.0
897,20,86.0
898,11,41.0
899,11,123.0
900,15,110.0
901,6,117.0
902,9,69.0
903,19,45.0
904,9,48.0
905,12,49.5
906,11,26.0
907,13,20.0
908,4,50.0
909,10,23.0
910,12,48.0
911,15,27.0
912,5,51.0
913,18,27.0
914,19,26.0
915,11,53.0
916,3,90.0
917,21,41.0
918,27,25.0
919,8,37.5
920,16,145.5
921,27,99.0
922,12,105.0
923,4,56.0
924,11,49.0
925,14,49.5
926,9,51.0
927,8,25.0
928,9,26.0
929,3,49.0
930,2,17.5
931,0,17.5
932,0,17.5
933,0,0.0
934,6,44.5
935,14,20.5
936,8,73.0
937,5,43.0
938,12,47.0
939,3,19.0
940,8,24.0
941,11,22.0
942,11,20.0
943,4,62.0
944,7,23.0
945,11,24.0
946,9,22.0
947,18,22.5
948,10,23.5
949,19,24.0
950,7,72.0
951,3,46.0
952,11,24.0
953,9,50.0
954,12,265.5
955,11,18.0
956,17,21.0
957,4,134.0
958,4,102.0
959,5,187.0
960,2,43.5
961,5,47.0
962,6,22.0
963,7,0.0
964,3,43.5
965,3,218.0
966,3,30.0
967,6,43.5
968,8,38.0
969,3,175.0
970,13,94.0
971,6,43.5
972,7,33.0
973,4,298.0
974,7,47.0
975,9,73.0
976,8,263.0
977,9,242.0
978,1,75.0
979,3,71.0
980,8,33.0
981,8,22.5
982,5,18.0
983,6,69.0
984,5,20.0
985,0,20.0
986,3,15.0
987,9,25.0
988,7,72.0
989,14,24.5
990,13,24.0
991,6,46.5
992,7,50.0
993,8,48.0
994,8,21.0
995,11,143.0
996,8,119.5
997,6,89.0
998,1,13.0
999,6,44.5
1000,14,23.0
1001,19,23.0
1002,41,21.0
1003,62,29.0
1004,57,23.0
1005,24,65.0
1006,14,48.5
1007,23,23.0
1008,33,28.0
1009,26,25.0
1010,28,27.0
1011,9,94.0
1012,16,50.5
1013,7,37.0
1014,7,23.0
1015,18,28.5
1016,14,34.5
1017,18,18.5
1018,12,27.0
1019,15,26.0
1020,16,69.5
1021,7,46.0
1022,13,21.0
1023,13,25.0
1024,20,26.0
1025,15,26.0
1026,4,41.5
1027,21,62.0
1028,5,42.0
1029,14,24.5
1030,12,24.5
1031,11,23.0
1032,11,26.0
1033,17,25.0
1034,13,69.0
1035,10,47.0
1036,20,37.0
1037,26,25.0
1038,19,24.0
1039,14,24.5
1040,16,24.5
1041,9,42.0
1042,13,21.0
1043,11,23.0
1044,13,44.0
1045,15,47.0
1046,13,93.0
1047,8,42.0
1048,14,47.0
1049,14,25.5
1050,23,24.0
1051,25,20.0
1052,21,19.0
1053,16,19.5
1054,18,22.5
1055,8,45.5
1056,8,23.5
1057,19,39.0
1058,24,25.5
1059,19,23.0
1060,15,27.0
1061,13,25.0
1062,19,44.0
1063,14,28.5
1064,19,25.0
1065,16,26.0
1066,22,24.5
1067,17,23.0
1068,17,19.0
1069,12,40.5
1070,10,23.5
1071,15,19.0
1072,21,22.0
1073,22,32.5
1074,14,25.0
1075,8,138.5
1076,6,120.5
1077,9,92.0
1078,10,74.0
1079,22,48.0
1080,25,24.0
1081,19,25.0
1082,9,74.0
1083,15,48.0
1084,9,22.0
1085,10,43.5
1086,16,24.0
1087,14,47.5
1088,14,25.0
1089,11,63.0
1090,8,70.0
1091,5,15.0
1092,19,48.0
1093,13,25.0
1094,18,26.5
1095,18,25.0
1096,11,20.0
1097,12,47.5
1098,8,22.5
1099,14,24.0
1100,20,24.5
1101,17,13.0
1102,15,23.0
1103,23,73.0
1104,13,47.0
1105,4,21.5
1106,10,10.5
1107,21,23.0
1108,19,24.0
1109,24,104.0
1110,21,25.0
1111,12,43.5
1112,11,24.0
1113,23,20.0
1114,15,9.0
1115,16,43.5
1116,19,17.0
1117,13,89.0
1118,6,68.0
1119,9,66.0
1120,28,26.0
1121,30,49.0
1122,23,26.0
1123,25,23.0
1124,39,64.0
1125,13,45.0
1126,27,42.0
1127,32,22.5
1128,17,25.0
1129,21,23.0
1130,17,46.0
1131,17,25.0
1132,19,65.0
1133,19,18.0
1134,43,19.0
1135,30,25.0
1136,17,21.0
1137,22,23.0
1138,21,25.0
1139,10,49.5
1140,21,24.0
1141,23,24.0
1142,17,24.0
1143,10,36.0
1144,16,22.0
1145,20,21.5
1146,10,40.5
1147,6,21.5
1148,22,23.5
1149,23,47.0
1150,19,32.0
1151,26,23.5
1152,21,27.0
1153,11,52.0
1154,21,40.0
