,Demand,Response_Time
0,45,48.0
1,27,5.0
2,39,8.0
3,31,5.0
4,37,9.0
5,43,4.0
6,56,0.0
7,73,6.0
8,85,2.0
9,80,3.0
10,43,7.0
11,45,51.0
12,26,24.5
13,15,22.0
14,40,11.0
15,57,10.0
16,46,2.0
17,29,15.0
18,30,0.0
19,16,5.0
20,19,2.0
21,42,2.5
22,63,1.0
23,69,3.0
24,54,5.5
25,64,1.0
26,21,5.0
27,26,5.0
28,42,5.0
29,83,4.0
30,56,16.5
31,25,40.0
32,24,16.5
33,18,8.5
34,13,19.0
35,19,26.0
36,17,30.0
37,16,17.5
38,27,22.0
39,20,67.0
40,15,47.0
41,13,1.0
42,43,11.0
43,36,0.0
44,24,68.5
45,44,2.0
46,30,2.0
47,17,17.0
48,16,10.0
49,34,35.5
50,30,17.0
51,13,5.0
52,12,22.5
53,12,17.5
54,11,28.0
55,8,5.0
56,22,22.0
57,22,23.5
58,21,12.0
59,33,17.0
60,12,8.0
61,22,8.5
62,18,4.0
63,15,26.0
64,21,20.0
65,18,9.5
66,10,16.0
67,14,37.0
68,5,10.0
69,8,50.5
70,19,11.0
71,21,21.0
72,9,27.0
73,21,44.0
74,18,10.0
75,8,47.0
76,8,5.5
77,19,2.0
78,25,31.0
79,19,22.0
80,20,17.0
81,19,14.0
82,25,23.0
83,8,0.0
84,32,5.5
85,17,22.0
86,18,16.5
87,26,0.0
88,15,19.0
89,9,1.0
90,11,12.0
91,26,0.0
92,11,8.0
93,10,18.0
94,6,21.0
95,12,43.0
96,8,34.0
97,8,34.0
98,19,23.0
99,17,20.0
100,15,17.0
101,7,23.0
102,6,10.0
103,4,2.5
104,5,23.0
105,12,10.0
106,71,9.0
107,35,7.0
108,16,18.5
109,12,33.5
110,6,10.0
111,5,38.0
112,29,18.0
113,6,10.0
114,12,24.0
115,5,7.0
116,15,70.0
117,5,9.0
118,7,9.0
119,15,16.0
120,10,41.5
121,8,12.5
122,17,10.0
123,31,69.0
124,37,0.0
125,12,11.5
126,9,1.0
127,17,15.0
128,22,1.0
129,18,5.0
130,12,8.5
131,15,0.0
132,3,12.0
133,11,14.0
134,11,7.0
135,10,5.0
136,8,57.0
137,5,3.0
138,8,16.5
139,5,24.0
140,14,1.0
141,25,0.0
142,8,0.0
143,8,8.5
144,9,9.0
145,12,0.0
146,13,26.0
147,21,76.0
148,49,45.0
149,40,17.0
150,21,10.0
151,21,26.0
152,10,10.0
153,5,12.0
154,14,10.0
155,32,13.5
156,45,0.0
157,18,0.0
158,16,5.5
159,5,69.0
160,24,1.0
161,12,5.0
162,14,64.0
163,13,10.0
164,24,10.0
165,23,10.0
166,8,24.0
167,7,23.0
168,13,5.0
169,9,12.0
170,12,21.0
171,7,9.0
172,14,25.0
173,20,2.0
174,9,11.0
175,11,49.0
176,22,19.5
177,11,7.0
178,21,24.0
179,10,3.5
180,7,18.0
181,4,34.0
182,8,13.5
183,16,1.0
184,14,9.5
185,20,1.5
186,25,10.0
187,13,2.0
188,42,3.0
189,55,4.0
190,47,2.0
191,59,17.0
192,52,1.5
193,29,51.0
194,32,0.5
195,9,1.0
196,37,0.0
197,21,21.0
198,13,29.0
199,16,3.0
200,19,10.0
201,11,10.0
202,12,10.0
203,9,20.0
204,29,0.0
205,33,0.0
206,23,0.0
207,11,69.0
208,15,54.0
209,11,26.0
210,22,23.0
211,18,16.5
212,24,33.5
213,26,2.5
214,14,10.0
215,15,54.0
216,7,10.0
217,6,10.0
218,12,50.5
219,21,8.0
220,21,8.0
221,25,39.0
222,6,11.5
223,8,49.0
224,13,8.0
225,9,0.0
226,20,23.0
227,13,15.0
228,6,7.0
229,5,21.0
230,3,47.0
231,23,44.0
232,17,8.0
233,8,5.5
234,19,63.0
235,15,10.0
236,10,7.5
237,2,10.0
238,14,42.0
239,26,15.5
240,14,7.5
241,19,9.0
242,11,9.0
243,4,7.5
244,3,25.0
245,11,10.0
246,14,0.0
247,21,16.0
248,8,3.0
249,29,48.0
250,6,28.0
251,12,6.0
252,24,9.5
253,20,20.0
254,48,0.0
255,15,13.0
256,12,7.5
257,15,0.0
258,8,19.0
259,22,1.0
260,13,7.0
261,10,4.5
262,12,19.5
263,17,6.0
264,15,22.0
265,15,0.0
266,23,5.0
267,21,0.0
268,12,7.0
269,19,1.0
270,9,14.0
271,10,10.0
272,7,4.0
273,16,15.0
274,19,21.0
275,18,17.0
276,29,0.0
277,20,54.0
278,13,4.0
279,14,2.5
280,29,10.0
281,27,0.0
282,24,1.0
283,21,0.0
284,14,40.5
285,15,48.0
286,7,7.0
287,16,19.0
288,37,2.0
289,44,44.5
290,47,2.0
291,51,6.0
292,58,33.5
293,44,30.0
294,33,11.0
295,60,14.0
296,39,1.0
297,55,1.0
298,34,1.0
299,36,9.0
300,23,12.0
301,42,2.5
302,55,0.0
303,21,15.0
304,25,33.0
305,30,22.0
306,32,0.0
307,28,0.0
308,33,4.0
309,28,6.0
310,40,5.5
311,48,4.0
312,22,62.0
313,19,4.0
314,56,5.5
315,50,25.0
316,71,1.0
317,62,15.5
318,41,10.0
319,40,4.0
320,43,2.0
321,36,5.5
322,43,17.0
323,24,3.5
324,52,42.0
325,58,0.0
326,47,4.0
327,19,21.0
328,13,25.0
329,31,10.0
330,51,1.0
331,107,1.0
332,124,2.0
333,107,3.0
334,60,5.5
335,36,23.0
336,49,7.0
337,48,8.5
338,67,3.0
339,81,0.0
340,144,1.0
341,129,1.0
342,112,1.0
343,134,2.0
344,109,1.0
345,80,0.0
346,114,1.0
347,20,0.0
348,20,0.0
349,153,0.0
350,20,0.0
351,20,0.0
352,141,0.0
353,156,0.0
354,88,0.0
355,47,3.0
356,40,1.0
357,65,0.0
358,56,0.0
359,47,3.0
360,31,2.0
361,74,0.0
362,54,0.0
363,42,0.5
364,78,1.0
365,79,0.0
366,61,0.0
367,20,0.0
368,20,0.0
369,20,0.0
370,20,0.0
371,20,0.0
372,20,0.0
373,156,0.0
374,61,0.0
375,79,0.0
376,58,0.0
377,48,1.0
378,51,0.0
379,57,0.0
380,38,1.0
381,41,0.0
382,42,15.5
383,61,3.0
384,48,0.0
385,68,3.5
386,49,0.0
387,46,19.0
388,38,0.0
389,22,21.5
390,12,10.0
391,10,22.5
392,18,17.5
393,24,0.0
394,24,20.0
395,43,5.0
396,34,9.5
397,56,3.0
398,45,1.0
399,33,19.0
400,45,2.0
401,46,3.0
402,25,0.0
403,34,1.5
404,20,25.0
405,12,3.5
406,20,1.0
407,19,13.0
408,34,8.5
409,27,2.0
410,32,0.0
411,22,21.0
412,14,4.0
413,14,26.0
414,34,13.0
415,27,8.0
416,23,49.0
417,16,59.5
418,19,48.0
419,8,10.5
420,17,36.0
421,21,1.0
422,24,2.0
423,17,24.0
424,17,10.0
425,15,5.0
426,8,26.0
427,13,3.0
428,31,1.0
429,16,6.0
430,28,14.0
431,14,17.0
432,13,19.0
433,12,10.0
434,15,15.0
435,36,9.5
436,28,24.5
437,14,46.5
438,13,47.0
439,9,3.0
440,41,0.0
441,24,17.0
442,32,42.5
443,17,7.0
444,6,12.0
445,18,34.0
446,12,40.0
447,13,19.0
448,14,1.5
449,20,9.5
450,13,24.0
451,23,2.0
452,28,46.5
453,11,22.0
454,15,4.0
455,35,0.0
456,12,10.0
457,14,13.0
458,21,1.0
459,14,10.0
460,6,5.5
461,17,0.0
462,22,60.0
463,18,3.5
464,85,0.0
465,36,3.0
466,24,25.0
467,18,22.5
468,10,0.0
469,10,16.0
470,25,5.0
471,11,45.0
472,94,0.0
473,19,3.0
474,7,21.0
475,5,10.0
476,19,21.0
477,14,2.5
478,9,10.0
479,16,1.0
480,24,14.5
481,7,13.0
482,13,5.0
483,5,2.0
484,23,52.0
485,12,19.0
486,17,14.0
487,10,25.0
488,22,21.5
489,10,10.0
490,16,5.5
491,11,11.0
492,16,10.0
493,18,68.5
494,44,8.0
495,8,57.5
496,24,0.0
497,22,39.5
498,21,25.0
499,23,2.0
500,16,22.0
501,11,10.0
502,14,0.0
503,10,0.0
504,7,61.0
505,26,30.0
506,14,23.0
507,7,32.0
508,11,2.0
509,5,10.0
510,9,16.0
511,5,23.0
512,7,0.0
513,12,1.5
514,11,3.0
515,11,19.0
516,11,20.0
517,6,17.0
518,9,9.0
519,28,11.5
520,15,2.0
521,25,10.0
522,49,3.0
523,18,5.5
524,6,6.5
525,78,0.0
526,6,22.5
527,5,20.0
528,23,1.0
529,19,10.0
530,32,0.0
531,15,7.0
532,15,0.0
533,10,21.5
534,18,10.0
535,17,1.0
536,25,26.0
537,13,0.0
538,8,4.0
539,34,4.0
540,17,11.0
541,12,18.5
542,18,3.0
543,24,10.0
544,20,4.0
545,7,0.0
546,20,31.5
547,16,1.5
548,14,0.5
549,6,13.5
550,11,2.0
551,5,29.0
552,6,0.0
553,7,10.0
554,7,28.0
555,10,12.5
556,17,7.0
557,14,66.5
558,14,2.0
559,4,25.0
560,7,1.0
561,15,19.0
562,14,9.5
563,18,22.5
564,28,41.5
565,27,18.0
566,12,0.0
567,25,23.0
568,13,23.0
569,11,50.0
570,10,31.0
571,18,25.5
572,15,11.0
573,22,10.0
574,21,5.0
575,23,0.0
576,22,8.0
577,19,1.0
578,24,18.0
579,20,52.0
580,26,72.0
581,23,9.0
582,8,26.5
583,10,22.5
584,7,4.0
585,9,16.0
586,11,10.0
587,5,19.0
588,12,20.5
589,21,17.0
590,15,7.0
591,16,3.5
592,12,13.5
593,6,26.0
594,3,10.0
595,13,18.0
596,14,12.0
597,23,5.0
598,22,15.0
599,10,8.0
600,9,14.0
601,9,5.0
602,21,27.0
603,24,2.5
604,24,24.5
605,12,5.5
606,16,6.5
607,28,7.0
608,9,10.0
609,21,45.0
610,23,24.0
611,34,22.0
612,23,24.0
613,21,26.0
614,7,0.0
615,5,3.0
616,30,28.0
617,38,23.5
618,36,9.5
619,20,25.5
620,20,52.0
621,13,51.0
622,16,15.0
623,25,20.0
624,20,7.0
625,21,1.0
626,18,2.5
627,26,10.0
628,35,15.0
629,30,11.5
630,28,18.5
631,23,49.0
632,19,12.0
633,16,10.5
634,21,3.0
635,7,47.0
636,9,1.0
637,13,43.0
638,25,20.0
639,24,4.0
640,16,25.5
641,16,4.0
642,5,9.0
643,7,7.0
644,16,9.5
645,32,26.5
646,22,21.5
647,62,14.0
648,105,30.0
649,39,5.0
650,19,8.0
651,20,21.0
652,31,21.0
653,17,24.0
654,32,1.0
655,17,2.0
656,14,16.0
657,14,6.0
658,6,27.5
659,24,19.0
660,37,20.0
661,19,21.0
662,21,18.0
663,10,37.5
664,6,31.0
665,19,9.0
666,17,16.0
667,29,14.0
668,15,18.0
669,18,8.0
670,24,22.5
671,68,0.0
672,20,0.0
673,20,0.0
674,20,5.0
675,97,17.0
676,47,44.0
677,30,8.5
678,38,3.5
679,47,8.0
680,55,17.0
681,105,5.0
682,55,41.0
683,56,5.0
684,39,11.0
685,36,14.0
686,54,17.0
687,35,13.0
688,27,17.0
689,46,20.5
690,51,65.0
691,39,6.0
692,73,4.0
693,79,39.0
694,94,29.0
695,69,22.0
696,41,34.0
697,34,11.5
698,27,9.0
699,40,10.0
700,56,35.5
701,27,9.0
702,53,26.0
703,91,41.0
704,57,18.0
705,42,13.5
706,55,25.0
707,67,20.0
708,31,30.0
709,118,0.0
710,20,0.0
711,20,0.0
712,145,0.0
713,101,0.0
714,57,26.0
715,36,22.5
716,34,8.5
717,29,24.0
718,35,41.0
719,18,0.0
720,17,6.0
721,26,8.5
722,23,16.0
723,39,19.0
724,37,7.0
725,20,13.5
726,17,23.0
727,26,3.5
728,32,10.0
729,16,14.5
730,31,14.0
731,15,10.0
732,26,8.0
733,18,17.5
734,19,3.0
735,24,8.0
736,17,22.0
737,20,22.5
738,22,12.5
739,19,8.0
740,30,4.0
741,19,10.0
742,14,17.5
743,31,21.0
744,26,7.5
745,31,22.0
746,33,25.0
747,19,20.0
748,17,10.0
749,17,26.0
750,16,13.0
751,17,25.0
752,21,39.0
753,20,4.0
754,16,2.5
755,10,8.5
756,14,6.0
757,22,12.0
758,17,3.0
759,24,7.5
760,18,10.5
761,14,45.5
762,7,13.0
763,33,23.0
764,25,10.0
765,24,38.5
766,18,15.0
767,11,43.0
768,19,11.0
769,10,1.5
770,18,11.5
771,27,10.0
772,15,6.0
773,24,13.0
774,19,11.0
775,7,2.0
776,21,3.0
777,29,6.0
778,22,10.0
779,14,26.5
780,17,18.0
781,6,10.0
782,6,10.0
783,16,12.0
784,26,41.0
785,20,24.5
786,28,11.5
787,15,3.0
788,19,7.0
789,15,36.0
790,6,1.0
791,9,1.0
792,20,5.0
793,18,18.5
794,11,25.0
795,8,12.5
796,11,5.0
797,14,3.0
798,24,29.5
799,8,42.0
800,17,25.0
801,12,28.0
802,15,20.0
803,10,7.5
804,10,43.0
805,20,21.0
806,14,4.5
807,10,19.5
808,11,1.0
809,14,9.0
810,11,7.0
811,3,19.0
812,25,12.0
813,7,11.0
814,11,8.0
815,23,16.0
816,22,2.5
817,14,24.5
818,11,15.0
819,16,9.5
820,19,21.0
821,16,14.5
822,17,12.0
823,17,23.0
824,8,7.5
825,12,9.5
826,8,3.0
827,18,1.5
828,8,9.0
829,11,24.0
830,6,28.5
831,9,3.0
832,8,8.5
833,18,0.0
834,23,3.0
835,7,6.0
836,12,6.0
837,8,11.5
838,9,48.0
839,9,5.0
840,12,51.0
841,12,29.0
842,14,6.5
843,24,11.0
844,6,8.5
845,3,1.0
846,11,1.0
847,14,13.0
848,14,26.0
849,14,5.0
850,8,48.5
851,9,19.0
852,4,29.5
853,2,33.0
854,8,11.0
855,11,3.0
856,16,12.0
857,6,0.0
858,7,49.0
859,29,0.0
860,17,4.0
861,14,9.5
862,24,32.5
863,54,0.0
864,13,39.0
865,6,10.0
866,1,10.0
867,2,65.5
868,11,0.0
869,23,3.0
870,28,7.0
871,25,4.0
872,29,6.0
873,11,8.0
874,14,4.0
875,46,0.0
876,36,0.0
877,31,1.0
878,21,1.0
879,31,2.0
880,40,0.0
881,63,0.0
882,82,0.0
883,76,0.0
884,63,0.0
885,63,6.0
886,60,0.0
887,34,16.5
888,45,7.0
889,38,5.0
890,54,18.0
891,41,2.0
892,21,10.0
893,22,10.0
894,25,25.0
895,15,0.0
896,16,4.0
897,10,60.0
898,18,4.5
899,18,10.0
900,24,3.0
901,10,2.0
902,11,11.0
903,10,14.5
904,8,0.0
905,19,13.0
906,26,2.0
907,15,1.0
908,5,6.0
909,3,8.0
910,10,17.0
911,22,0.0
912,11,2.0
913,9,12.0
914,16,57.5
915,7,13.0
916,12,3.0
917,16,0.0
918,13,20.0
919,11,3.0
920,7,5.0
921,5,2.0
922,10,2.5
923,8,5.0
924,7,2.0
925,8,0.5
926,0,0.5
927,0,0.5
928,1,1.0
929,2,0.0
930,1,9.0
931,1,4.0
932,0,4.0
933,0,0.0
934,10,24.0
935,13,8.0
936,7,27.0
937,3,0.0
938,19,24.0
939,13,21.0
940,18,10.5
941,37,2.0
942,18,3.0
943,35,25.0
944,18,5.5
945,29,10.0
946,31,10.0
947,26,10.0
948,25,21.0
949,22,10.0
950,31,25.0
951,28,0.0
952,19,8.0
953,30,0.5
954,33,67.0
955,21,23.0
956,26,2.5
957,8,35.5
958,6,0.0
959,1,10.0
960,6,44.5
961,14,10.0
962,15,10.0
963,19,19.0
964,19,1.0
965,25,0.0
966,14,5.5
967,10,0.5
968,10,10.5
969,17,2.0
970,31,0.0
971,20,0.0
972,6,4.5
973,16,0.0
974,4,10.0
975,11,5.0
976,19,2.0
977,15,1.0
978,10,40.0
979,19,10.0
980,113,0.0
981,61,0.0
982,38,2.0
983,45,0.0
984,30,17.5
985,44,2.5
986,42,11.5
987,42,0.0
988,38,0.5
989,48,1.0
990,22,8.0
991,27,16.0
992,25,8.0
993,4,1.0
994,22,3.5
995,13,10.0
996,32,29.5
997,29,10.0
998,23,19.0
999,24,2.0
1000,21,5.0
1001,35,1.0
1002,40,3.5
1003,55,2.0
1004,43,20.0
1005,29,1.0
1006,16,1.5
1007,14,8.5
1008,36,66.0
1009,19,0.0
1010,26,10.0
1011,20,1.0
1012,12,73.0
1013,14,4.5
1014,9,12.0
1015,17,2.0
1016,39,10.0
1017,16,67.0
1018,16,0.5
1019,24,1.0
1020,15,10.0
1021,16,2.0
1022,25,0.0
1023,22,1.0
1024,24,1.0
1025,36,12.5
1026,13,1.0
1027,13,0.0
1028,15,2.0
1029,28,1.5
1030,25,0.0
1031,40,16.5
1032,9,17.0
1033,16,23.5
1034,12,1.5
1035,11,5.0
1036,30,15.0
1037,23,0.0
1038,27,10.0
1039,28,10.0
1040,18,4.5
1041,17,8.0
1042,8,60.0
1043,22,15.0
1044,18,6.5
1045,34,13.5
1046,30,10.0
1047,14,17.5
1048,7,10.0
1049,15,25.0
1050,17,1.0
1051,32,10.0
1052,41,2.0
1053,31,1.0
1054,26,10.0
1055,11,10.0
1056,15,14.0
1057,23,10.0
1058,29,10.0
1059,67,0.0
1060,33,3.0
1061,28,56.0
1062,12,44.0
1063,16,32.0
1064,54,9.0
1065,54,7.0
1066,25,32.0
1067,9,0.0
1068,18,10.0
1069,10,23.0
1070,15,4.0
1071,14,3.0
1072,16,10.0
1073,25,1.0
1074,22,0.5
1075,20,0.5
1076,17,48.0
1077,7,2.0
1078,12,1.0
1079,52,8.5
1080,66,0.0
1081,66,0.0
1082,50,15.0
1083,32,1.5
1084,28,21.5
1085,34,0.5
1086,25,0.0
1087,22,23.5
1088,23,21.0
1089,38,2.0
1090,10,64.5
1091,14,1.5
1092,28,12.0
1093,24,23.0
1094,29,14.0
1095,95,14.0
1096,94,9.0
1097,81,2.0
1098,75,10.0
1099,73,1.0
1100,31,0.0
1101,38,2.5
1102,34,29.0
1103,48,69.0
1104,35,27.0
1105,21,7.0
1106,78,1.0
1107,112,0.0
1108,120,14.0
1109,73,12.0
1110,52,0.0
1111,35,1.0
1112,21,4.0
1113,39,1.0
1114,41,14.0
1115,40,10.0
1116,34,15.0
1117,26,39.5
1118,23,3.0
1119,58,7.0
1120,70,5.0
1121,64,15.0
1122,69,22.0
1123,38,22.0
1124,27,49.0
1125,42,10.0
1126,77,4.0
1127,87,0.0
1128,58,0.0
1129,31,14.0
1130,34,4.5
1131,34,44.5
1132,30,3.0
1133,20,0.0
1134,20,6.0
1135,20,0.0
1136,103,0.0
1137,94,0.0
1138,65,0.0
1139,41,0.0
1140,44,0.0
1141,46,0.0
1142,129,0.0
1143,20,0.0
1144,127,0.0
1145,100,0.0
1146,70,0.0
1147,64,0.0
1148,104,0.0
1149,125,0.0
1150,77,6.0
1151,60,22.5
1152,72,14.0
1153,24,37.5
1154,33,6.0
