,Demand,Response_Time
0,6,4.0
1,12,1.5
2,9,1.0
3,11,1.0
4,10,2.0
5,11,2.0
6,5,3.0
7,7,3.0
8,4,2.5
9,6,1.0
10,7,4.0
11,7,2.0
12,6,2.0
13,8,1.5
14,10,2.0
15,9,5.0
16,9,4.0
17,12,4.5
18,11,8.0
19,10,1.5
20,7,5.0
21,11,3.0
22,10,2.0
23,9,8.0
24,7,7.0
25,3,6.0
26,7,2.0
27,10,2.0
28,10,2.0
29,10,1.5
30,7,2.0
31,6,2.5
32,6,3.5
33,5,2.0
34,5,1.0
35,6,4.0
36,10,3.0
37,19,1.0
38,8,0.5
39,15,2.0
40,10,2.5
41,7,5.0
42,13,3.0
43,9,3.0
44,9,0.0
45,9,6.0
46,9,3.0
47,5,2.0
48,9,1.0
49,18,3.5
50,15,1.0
51,6,1.5
52,14,1.5
53,7,2.0
54,7,3.0
55,7,4.0
56,11,1.0
57,5,5.0
58,13,1.0
59,5,4.0
60,12,1.5
61,7,5.0
62,6,2.0
63,15,4.0
64,12,1.0
65,9,6.0
66,8,2.5
67,8,1.0
68,7,2.0
69,7,1.0
70,15,3.0
71,11,2.0
72,8,2.5
73,8,4.5
74,6,2.5
75,6,0.5
76,7,6.0
77,8,6.5
78,7,1.0
79,11,3.0
80,7,1.0
81,6,5.0
82,8,2.5
83,13,4.0
84,9,4.0
85,6,4.5
86,6,7.0
87,9,6.0
88,6,5.0
89,10,2.0
90,4,3.5
91,9,3.0
92,9,2.0
93,7,2.0
94,7,4.0
95,4,2.5
96,3,3.0
97,8,1.5
98,6,2.0
99,4,6.5
100,11,2.0
101,6,3.0
102,5,3.0
103,6,2.0
104,7,1.0
105,5,5.0
106,9,2.0
107,2,1.5
108,2,3.5
109,6,1.5
110,1,3.0
111,6,1.0
112,8,3.0
113,6,3.0
114,9,3.0
115,6,1.5
116,10,2.0
117,7,1.0
118,10,2.0
119,9,2.0
120,8,4.5
121,2,2.5
122,4,22.0
123,2,8.0
124,6,2.0
125,10,4.0
126,15,4.0
127,9,3.0
128,10,3.0
129,11,1.0
130,8,3.0
131,11,4.0
132,7,3.0
133,5,2.0
134,2,7.0
135,7,2.0
136,5,2.0
137,2,0.5
138,4,0.5
139,4,1.0
140,5,4.0
141,5,3.0
142,7,2.0
143,10,2.0
144,6,3.0
145,8,1.5
146,5,1.0
147,11,3.0
148,14,2.0
149,8,3.5
150,14,1.0
151,9,3.0
152,5,2.0
153,4,2.0
154,12,4.0
155,11,2.0
156,10,5.0
157,4,2.0
158,10,4.5
159,5,2.0
160,12,0.5
161,10,3.5
162,16,4.0
163,9,2.0
164,16,4.5
165,16,2.0
166,7,1.0
167,7,1.0
168,15,2.0
169,15,3.0
170,12,1.5
171,9,2.0
172,11,3.0
173,8,3.5
174,7,1.0
175,8,3.0
176,12,5.5
177,3,4.0
178,5,3.0
179,7,6.0
180,8,4.0
181,4,2.5
182,10,5.0
183,14,3.5
184,9,2.0
185,15,4.0
186,15,4.0
187,33,2.0
188,21,3.0
189,6,3.5
190,3,1.0
191,3,5.0
192,2,1.5
193,3,4.0
194,5,1.0
195,6,3.0
196,8,3.5
197,4,6.5
198,7,3.0
199,4,5.5
200,7,5.0
201,3,14.0
202,4,6.5
203,3,1.0
204,7,1.0
205,5,3.0
206,12,4.0
207,12,3.5
208,10,3.0
209,8,4.5
210,4,4.0
211,23,1.0
212,11,4.0
213,6,3.5
214,12,2.0
215,9,1.0
216,3,6.0
217,7,3.0
218,11,2.0
219,11,4.0
220,6,4.0
221,9,3.0
222,9,6.0
223,10,1.0
224,5,7.0
225,2,5.0
226,6,2.5
227,9,6.0
228,8,4.5
229,6,5.0
230,5,3.0
231,10,2.5
232,5,1.0
233,6,0.5
234,3,1.0
235,7,6.0
236,7,4.0
237,10,1.0
238,9,6.0
239,9,4.0
240,6,2.0
241,5,3.0
242,9,6.0
243,9,5.0
244,3,2.0
245,6,6.0
246,8,3.5
247,6,2.5
248,12,3.0
249,9,3.0
250,8,1.0
251,7,4.0
252,13,2.0
253,7,4.0
254,8,3.0
255,7,5.0
256,5,2.0
257,9,4.0
258,11,4.0
259,11,2.0
260,4,5.0
261,6,8.0
262,5,3.0
263,3,4.0
264,3,8.0
265,10,1.5
266,3,1.0
267,10,2.0
268,3,6.0
269,2,2.0
270,5,2.0
271,3,2.0
272,6,6.0
273,7,5.0
274,10,1.5
275,8,5.5
276,7,3.0
277,7,2.0
278,5,1.0
279,9,4.0
280,10,7.0
281,9,1.0
282,8,3.0
283,7,3.0
284,7,6.0
285,5,2.0
286,0,2.0
287,7,10.0
288,12,1.0
289,9,4.0
290,8,5.0
291,7,3.0
292,7,2.0
293,2,2.0
294,10,3.0
295,9,2.0
296,10,2.5
297,3,2.0
298,10,6.5
299,1,5.0
300,5,4.0
301,9,3.0
302,3,2.0
303,18,2.0
304,9,2.0
305,2,1.0
306,7,6.0
307,8,5.0
308,12,3.5
309,9,5.0
310,6,2.5
311,6,1.0
312,4,3.0
313,4,2.5
314,6,2.5
315,4,3.0
316,6,2.5
317,14,2.5
318,16,3.5
319,5,0.0
320,4,3.5
321,5,0.0
322,7,2.0
323,6,5.0
324,9,1.0
325,5,2.0
326,10,2.0
327,6,1.5
328,5,0.0
329,3,8.0
330,8,2.5
331,10,4.5
332,9,6.0
333,6,4.0
334,7,3.0
335,12,1.0
336,15,3.0
337,11,4.0
338,9,5.0
339,10,3.5
340,8,2.5
341,6,2.0
342,10,2.0
343,6,5.0
344,7,15.0
345,10,3.5
346,6,3.5
347,8,2.0
348,6,2.5
349,5,4.0
350,8,4.5
351,9,3.0
352,7,2.0
353,8,2.5
354,4,3.0
355,5,3.0
356,8,7.0
357,10,2.5
358,12,4.0
359,11,3.0
360,6,3.0
361,4,2.5
362,9,3.0
363,7,2.0
364,7,6.0
365,8,1.0
366,6,2.5
367,7,2.0
368,5,2.0
369,14,2.0
370,7,3.0
371,4,5.5
372,11,2.0
373,4,1.0
374,7,2.0
375,7,3.0
376,6,0.0
377,4,0.5
378,5,3.0
379,6,3.5
380,7,4.0
381,6,4.0
382,4,6.0
383,8,2.5
384,5,2.0
385,8,1.0
386,9,3.0
387,3,8.0
388,4,1.0
389,2,2.5
390,5,5.0
391,4,4.5
392,5,5.0
393,7,3.0
394,3,4.0
395,8,3.0
396,8,2.0
397,6,2.5
398,6,1.5
399,10,2.5
400,4,2.5
401,9,2.0
402,8,5.5
403,5,3.0
404,6,2.5
405,5,1.0
406,10,3.5
407,9,5.0
408,5,2.0
409,11,2.0
410,10,3.5
411,9,2.0
412,8,2.0
413,7,2.0
414,4,1.0
415,5,4.0
416,8,6.0
417,6,1.0
418,6,2.5
419,13,3.0
420,8,4.0
421,4,1.0
422,11,2.0
423,9,1.0
424,5,1.0
425,6,2.0
426,16,2.5
427,13,4.0
428,6,1.0
429,8,2.0
430,5,4.0
431,7,3.0
432,7,3.0
433,7,5.0
434,7,4.0
435,12,3.0
436,10,3.0
437,6,1.5
438,12,3.5
439,10,1.0
440,3,3.0
441,9,2.0
442,2,2.0
443,5,2.0
444,4,1.0
445,2,2.5
446,5,2.0
447,3,2.0
448,9,4.0
449,6,6.5
450,12,3.5
451,2,2.5
452,7,5.0
453,4,2.5
454,1,4.0
455,5,2.0
456,10,3.5
457,10,3.5
458,1,8.0
459,5,1.0
460,5,2.0
461,7,5.0
462,7,2.0
463,13,2.0
464,8,3.5
465,11,4.0
466,4,2.5
467,5,1.0
468,10,3.0
469,13,3.0
470,12,5.5
471,9,2.0
472,2,1.5
473,4,3.0
474,4,0.0
475,8,2.0
476,5,4.0
477,7,7.0
478,6,4.5
479,6,5.5
480,2,2.5
481,6,6.0
482,7,2.0
483,10,3.0
484,7,4.0
485,4,3.0
486,9,7.0
487,7,4.0
488,7,4.0
489,14,1.5
490,12,5.0
491,12,2.5
492,7,2.0
493,23,3.0
494,25,3.0
495,17,2.0
496,9,3.0
497,15,4.0
498,8,4.0
499,14,4.0
500,8,2.0
501,10,2.5
502,4,1.5
503,3,17.0
504,4,3.5
505,5,4.0
506,7,5.0
507,2,9.5
508,9,2.0
509,4,1.5
510,4,0.0
511,5,6.0
512,8,3.5
513,9,2.0
514,2,5.5
515,6,2.0
516,8,5.5
517,8,2.0
518,14,3.5
519,8,4.5
520,4,0.5
521,9,4.0
522,9,3.0
523,10,3.0
524,7,2.0
525,8,5.0
526,4,5.0
527,8,3.5
528,2,3.0
529,5,2.0
530,7,1.0
531,6,1.5
532,6,2.0
533,8,3.5
534,4,3.0
535,6,4.5
536,6,1.0
537,6,2.5
538,11,6.0
539,7,4.0
540,5,4.0
541,6,4.0
542,8,5.5
543,8,2.0
544,18,3.0
545,10,1.5
546,12,4.0
547,5,4.0
548,11,3.0
549,21,1.0
550,11,1.0
551,5,2.0
552,3,3.0
553,6,4.5
554,5,4.0
555,8,2.5
556,7,3.0
557,11,2.0
558,10,1.5
559,2,3.0
560,9,1.0
561,5,4.0
562,5,6.0
563,13,4.0
564,8,2.5
565,5,3.0
566,12,2.0
567,7,1.0
568,11,4.0
569,8,4.5
570,11,2.0
571,8,2.0
572,10,2.0
573,11,1.0
574,3,3.0
575,9,2.0
576,9,3.0
577,4,4.5
578,10,3.0
579,9,1.0
580,11,2.0
581,23,2.0
582,6,0.5
583,8,4.0
584,10,3.0
585,6,3.5
586,4,4.5
587,5,3.0
588,6,3.5
589,4,2.0
590,4,6.0
591,2,4.5
592,11,2.0
593,10,3.0
594,10,1.0
595,14,2.0
596,8,3.0
597,3,2.0
598,2,0.0
599,1,7.0
600,16,2.0
601,5,1.0
602,12,3.5
603,9,1.0
604,6,2.0
605,8,2.0
606,5,3.0
607,2,5.0
608,9,2.0
609,9,6.0
610,8,5.0
611,8,2.5
612,7,3.0
613,4,2.5
614,4,4.0
615,4,3.0
616,4,6.5
617,7,3.0
618,5,3.0
619,9,2.0
620,11,3.0
621,10,3.5
622,4,4.5
623,6,5.0
624,11,1.0
625,5,2.0
626,11,1.0
627,7,2.0
628,9,3.0
629,6,1.5
630,6,6.0
631,3,1.0
632,7,2.0
633,4,5.0
634,8,1.5
635,5,5.0
636,6,4.0
637,6,7.5
638,8,2.0
639,7,2.0
640,10,1.5
641,10,4.0
642,8,2.5
643,9,1.0
644,7,10.0
645,9,5.0
646,5,1.0
647,5,3.0
648,7,1.0
649,11,4.0
650,8,3.5
651,3,1.0
652,4,7.0
653,9,1.0
654,5,5.0
655,6,4.0
656,5,3.0
657,6,0.0
658,11,2.0
659,11,1.0
660,6,3.0
661,9,2.0
662,13,3.0
663,16,3.0
664,4,4.5
665,5,1.0
666,8,3.5
667,10,2.0
668,9,4.0
669,4,3.0
670,8,2.0
671,10,1.5
672,6,7.5
673,10,2.5
674,11,1.0
675,10,4.0
676,11,4.0
677,11,2.0
678,9,7.0
679,12,2.0
680,8,2.5
681,11,4.0
682,5,8.0
683,5,1.0
684,5,4.0
685,5,1.0
686,9,7.0
687,2,3.5
688,3,3.0
689,7,3.0
690,2,1.5
691,3,5.0
692,6,2.0
693,2,2.0
694,3,1.0
695,4,11.0
696,5,5.0
697,1,1.0
698,5,3.0
699,7,1.0
700,9,4.0
701,8,3.0
702,5,0.0
703,13,2.0
704,7,4.0
705,6,4.0
706,8,3.0
707,13,3.0
708,6,9.5
709,2,5.0
710,6,3.0
711,7,4.0
712,6,2.0
713,3,1.0
714,11,3.0
715,8,3.0
716,12,2.0
717,9,5.0
718,4,5.0
719,4,4.5
720,11,5.0
721,8,1.0
722,11,3.0
723,5,4.0
724,10,3.0
725,5,1.0
726,2,1.0
727,6,1.0
728,5,2.0
729,6,9.5
730,4,5.5
731,7,3.0
732,8,3.5
733,6,1.5
734,9,2.0
735,22,2.5
736,2,1.5
737,11,1.0
738,8,3.5
739,12,3.0
740,6,1.5
741,5,2.0
742,6,5.0
743,8,1.0
744,9,2.0
745,5,4.0
746,8,4.0
747,6,2.5
748,5,4.0
749,13,3.0
750,8,4.5
751,10,3.0
752,9,3.0
753,7,3.0
754,10,1.0
755,8,3.0
756,8,1.0
757,6,4.0
758,9,7.0
759,5,1.0
760,14,3.5
761,7,1.0
762,12,1.5
763,3,5.0
764,4,5.5
765,7,3.0
766,4,4.0
767,8,5.0
768,9,1.0
769,10,1.5
770,6,5.0
771,5,4.0
772,6,8.0
773,10,2.0
774,5,1.0
775,7,1.0
776,9,1.0
777,15,2.0
778,5,11.0
779,13,2.0
780,6,0.0
781,11,6.0
782,9,4.0
783,10,1.5
784,5,4.0
785,5,1.0
786,9,2.0
787,7,3.0
788,2,3.5
789,5,4.0
790,4,1.5
791,10,3.0
792,11,5.0
793,11,5.0
794,10,1.0
795,4,4.5
796,7,2.0
797,7,2.0
798,6,3.0
799,4,3.5
800,14,4.5
801,11,1.0
802,4,10.5
803,5,1.0
804,7,1.0
805,10,3.5
806,4,4.0
807,5,3.0
808,4,2.5
809,11,2.0
810,5,3.0
811,3,4.0
812,10,0.5
813,7,6.0
814,17,4.0
815,2,5.5
816,6,1.5
817,5,5.0
818,7,2.0
819,3,5.0
820,16,1.0
821,11,4.0
822,9,4.0
823,16,2.0
824,6,1.5
825,6,9.5
826,3,4.0
827,5,2.0
828,11,2.0
829,5,5.0
830,6,4.0
831,3,3.0
832,2,2.5
833,9,5.0
834,5,11.0
835,4,2.5
836,4,3.0
837,6,2.0
838,7,4.0
839,5,3.0
840,11,2.0
841,4,6.0
842,5,7.0
843,6,2.5
844,6,2.5
845,7,2.0
846,6,2.5
847,6,0.5
848,8,2.0
849,9,3.0
850,6,3.0
851,6,3.5
852,4,5.0
853,7,2.0
854,7,14.0
855,6,2.5
856,14,3.0
857,13,2.0
858,13,2.0
859,13,2.0
860,1,20.0
861,10,3.5
862,4,2.5
863,6,1.0
864,9,3.0
865,9,2.0
866,7,7.0
867,4,3.0
868,7,2.0
869,13,2.0
870,11,3.0
871,14,4.5
872,17,1.0
873,13,3.0
874,13,1.0
875,13,2.0
876,12,2.5
877,13,2.0
878,24,2.0
879,15,5.0
880,13,2.0
881,17,2.0
882,12,4.0
883,6,3.5
884,9,5.0
885,3,1.0
886,6,3.5
887,10,5.0
888,8,2.5
889,5,3.0
890,6,2.0
891,7,3.0
892,14,2.0
893,6,3.5
894,8,2.5
895,7,1.0
896,6,2.0
897,1,0.0
898,8,2.0
899,4,6.0
900,6,6.5
901,5,5.0
902,6,1.0
903,11,5.0
904,5,4.0
905,8,3.0
906,9,1.0
907,13,4.0
908,6,3.5
909,6,2.5
910,4,4.5
911,9,3.0
912,5,2.0
913,10,4.0
914,9,3.0
915,7,6.0
916,4,0.0
917,8,1.5
918,14,1.0
919,8,2.5
920,10,1.0
921,6,4.5
922,13,2.0
923,5,0.0
924,6,4.5
925,10,3.0
926,9,4.0
927,6,1.0
928,7,1.0
929,6,3.5
930,3,0.0
931,3,1.0
932,1,0.0
933,0,0.0
934,6,1.0
935,7,1.0
936,9,2.0
937,6,1.0
938,10,2.0
939,19,3.0
940,20,2.0
941,15,5.0
942,12,4.0
943,15,4.0
944,5,1.0
945,6,1.0
946,8,4.0
947,12,4.0
948,13,2.0
949,3,7.0
950,8,1.5
951,7,2.0
952,10,2.5
953,8,2.5
954,10,3.0
955,4,2.5
956,11,2.0
957,7,2.0
958,13,3.0
959,30,2.0
960,20,2.0
961,15,3.0
962,8,1.5
963,10,4.0
964,9,1.0
965,11,4.0
966,9,4.0
967,12,2.0
968,11,6.0
969,13,3.0
970,10,2.0
971,14,4.0
972,9,2.0
973,11,1.0
974,16,4.0
975,12,2.0
976,12,2.0
977,9,4.0
978,10,0.5
979,15,1.0
980,11,3.0
981,5,2.0
982,9,1.0
983,6,4.5
984,12,2.0
985,13,2.0
986,4,1.0
987,12,2.0
988,9,3.0
989,7,4.0
990,14,1.0
991,7,2.0
992,8,3.5
993,7,3.0
994,2,1.0
995,7,2.0
996,5,1.0
997,10,3.0
998,4,5.5
999,6,0.5
1000,9,1.0
1001,6,2.0
1002,9,5.0
1003,5,2.0
1004,6,2.0
1005,6,1.5
1006,1,0.0
1007,7,1.0
1008,5,1.0
1009,4,3.5
1010,6,5.5
1011,4,2.5
1012,7,4.0
1013,6,4.0
1014,11,1.0
1015,4,2.5
1016,4,1.5
1017,8,2.5
1018,7,3.0
1019,9,3.0
1020,4,1.5
1021,15,5.0
1022,8,5.5
1023,5,1.0
1024,10,4.5
1025,7,2.0
1026,6,2.0
1027,4,1.0
1028,8,2.0
1029,11,2.0
1030,3,0.0
1031,8,1.5
1032,7,1.0
1033,6,2.5
1034,4,0.0
1035,2,20.0
1036,7,3.0
1037,2,1.5
1038,7,3.0
1039,13,3.0
1040,12,1.0
1041,8,4.5
1042,10,1.5
1043,7,3.0
1044,9,2.0
1045,12,1.0
1046,4,3.5
1047,8,4.5
1048,5,2.0
1049,5,2.0
1050,9,2.0
1051,10,2.0
1052,7,5.0
1053,5,4.0
1054,10,4.0
1055,6,4.0
1056,11,1.0
1057,10,2.0
1058,11,2.0
1059,5,7.0
1060,8,2.5
1061,11,2.0
1062,13,2.0
1063,4,1.5
1064,11,3.0
1065,2,4.0
1066,13,2.0
1067,8,3.5
1068,7,3.0
1069,12,3.0
1070,4,1.5
1071,7,3.0
1072,5,6.0
1073,9,2.0
1074,9,4.0
1075,8,3.5
1076,5,2.0
1077,6,1.0
1078,4,2.5
1079,10,2.5
1080,16,6.0
1081,9,4.0
1082,13,3.0
1083,3,2.0
1084,6,2.0
1085,16,2.0
1086,7,2.0
1087,8,4.5
1088,12,3.5
1089,5,5.0
1090,4,1.5
1091,6,1.0
1092,10,3.5
1093,2,4.5
1094,12,7.0
1095,9,6.0
1096,15,3.0
1097,9,2.0
1098,10,4.0
1099,7,3.0
1100,16,6.0
1101,15,1.0
1102,15,4.0
1103,8,9.0
1104,5,5.0
1105,7,1.0
1106,11,6.0
1107,8,1.5
1108,17,2.0
1109,9,2.0
1110,9,5.0
1111,9,4.0
1112,7,1.0
1113,12,4.0
1114,7,2.0
1115,36,2.0
1116,4,0.5
1117,8,2.0
1118,9,2.0
1119,13,3.0
1120,6,2.5
1121,8,4.0
1122,10,1.5
1123,7,6.0
1124,9,3.0
1125,7,2.0
1126,9,3.0
1127,11,1.0
1128,8,3.5
1129,10,4.0
1130,18,2.0
1131,11,4.0
1132,8,3.0
1133,10,3.5
1134,9,3.0
1135,10,5.5
1136,11,2.0
1137,14,2.0
1138,12,2.0
1139,6,2.0
1140,8,2.5
1141,12,3.5
1142,15,5.0
1143,7,6.0
1144,15,2.0
1145,10,1.5
1146,11,2.0
1147,8,3.0
1148,9,5.0
1149,11,3.0
1150,7,9.0
1151,13,3.0
1152,9,2.0
1153,5,3.0
1154,7,7.0
