,Demand,Response_Time
0,7,1.0
1,6,4.0
2,3,3.0
3,6,4.5
4,3,2.0
5,7,1.0
6,3,1.0
7,5,0.0
8,11,4.0
9,11,2.0
10,3,4.0
11,8,3.5
12,5,1.0
13,6,2.0
14,7,3.0
15,12,2.5
16,6,4.5
17,10,1.5
18,5,3.0
19,1,0.0
20,3,1.0
21,4,2.0
22,14,1.0
23,7,1.0
24,6,1.0
25,5,3.0
26,6,3.0
27,5,2.0
28,0,2.0
29,5,2.0
30,9,1.0
31,7,1.0
32,4,6.0
33,5,0.0
34,2,0.5
35,9,0.0
36,9,1.0
37,8,3.5
38,5,8.0
39,9,2.0
40,3,1.0
41,9,3.0
42,12,2.5
43,18,4.0
44,7,4.0
45,9,3.0
46,11,4.0
47,4,0.0
48,8,1.5
49,8,3.5
50,7,1.0
51,9,1.0
52,10,2.5
53,2,1.0
54,8,3.5
55,6,0.5
56,6,4.0
57,7,3.0
58,6,3.5
59,6,2.0
60,5,2.0
61,7,1.0
62,7,1.0
63,9,2.0
64,9,6.0
65,9,4.0
66,7,6.0
67,4,5.5
68,4,3.0
69,5,1.0
70,4,6.5
71,5,1.0
72,6,4.0
73,5,1.0
74,14,2.0
75,6,1.5
76,3,7.0
77,6,2.0
78,8,1.5
79,3,1.0
80,7,4.0
81,6,1.5
82,10,3.0
83,2,8.5
84,6,4.0
85,8,2.0
86,6,2.0
87,4,3.5
88,3,1.0
89,3,3.0
90,4,1.0
91,8,4.0
92,4,4.0
93,5,3.0
94,4,3.0
95,8,2.0
96,2,7.0
97,5,3.0
98,7,3.0
99,11,4.0
100,7,2.0
101,7,3.0
102,5,2.0
103,1,1.0
104,5,3.0
105,10,3.0
106,8,1.5
107,3,4.0
108,3,4.0
109,2,3.0
110,2,2.0
111,5,0.0
112,7,6.0
113,8,2.5
114,8,5.0
115,9,4.0
116,5,1.0
117,3,2.0
118,8,1.5
119,7,1.0
120,5,3.0
121,1,4.0
122,4,7.5
123,6,5.5
124,2,8.5
125,2,2.0
126,5,6.0
127,4,3.0
128,5,2.0
129,10,2.5
130,3,3.0
131,0,3.0
132,3,0.0
133,11,2.0
134,3,3.0
135,2,1.5
136,2,2.5
137,1,0.0
138,1,19.0
139,3,1.0
140,7,4.0
141,5,3.0
142,7,2.0
143,5,4.0
144,0,4.0
145,1,3.0
146,0,3.0
147,4,3.5
148,4,2.0
149,6,4.5
150,5,2.0
151,8,2.5
152,0,2.5
153,2,1.0
154,3,2.0
155,6,3.5
156,3,2.0
157,6,3.5
158,8,1.0
159,3,3.0
160,4,1.0
161,5,0.0
162,8,2.5
163,9,4.0
164,6,7.5
165,6,3.0
166,4,2.5
167,6,1.0
168,15,2.0
169,13,5.0
170,4,5.0
171,9,2.0
172,2,3.5
173,5,2.0
174,4,3.5
175,5,5.0
176,13,5.0
177,5,3.0
178,7,4.0
179,8,2.0
180,3,2.0
181,2,6.5
182,2,3.0
183,4,2.0
184,5,2.0
185,4,6.5
186,8,2.5
187,0,2.5
188,4,2.5
189,1,0.0
190,2,1.5
191,7,3.0
192,3,3.0
193,2,1.5
194,6,4.5
195,1,1.0
196,3,3.0
197,3,8.0
198,4,2.5
199,8,3.0
200,4,1.5
201,4,1.0
202,4,2.5
203,6,2.5
204,5,2.0
205,9,1.0
206,8,1.5
207,4,13.0
208,3,1.0
209,3,2.0
210,5,2.0
211,5,2.0
212,5,5.0
213,4,2.5
214,4,2.0
215,3,1.0
216,5,5.0
217,2,5.0
218,5,1.0
219,4,0.5
220,5,4.0
221,3,3.0
222,3,3.0
223,6,2.0
224,4,2.0
225,3,1.0
226,6,0.0
227,9,1.0
228,6,4.5
229,4,2.5
230,4,1.5
231,5,4.0
232,7,1.0
233,6,1.5
234,6,1.0
235,7,3.0
236,5,2.0
237,1,0.0
238,5,1.0
239,7,1.0
240,5,3.0
241,7,4.0
242,5,4.0
243,4,1.5
244,5,2.0
245,6,6.0
246,4,3.0
247,12,1.5
248,5,1.0
249,12,3.0
250,1,0.0
251,3,4.0
252,8,3.0
253,9,3.0
254,9,4.0
255,10,1.0
256,11,1.0
257,2,3.0
258,6,1.0
259,8,3.0
260,8,3.0
261,10,5.0
262,3,4.0
263,3,3.0
264,8,2.5
265,3,1.0
266,5,1.0
267,5,2.0
268,11,3.0
269,8,3.0
270,7,2.0
271,5,2.0
272,3,2.0
273,5,5.0
274,9,1.0
275,4,1.5
276,1,14.0
277,0,14.0
278,4,5.0
279,12,2.0
280,5,5.0
281,5,3.0
282,8,3.5
283,7,4.0
284,12,2.5
285,2,0.5
286,9,1.0
287,10,4.5
288,6,1.0
289,10,2.0
290,13,4.0
291,5,7.0
292,4,4.0
293,4,1.0
294,4,1.5
295,11,2.0
296,8,1.0
297,6,4.0
298,10,3.0
299,4,4.0
300,1,11.0
301,8,2.0
302,8,3.0
303,11,2.0
304,7,3.0
305,7,1.0
306,7,3.0
307,6,1.5
308,10,1.5
309,12,2.0
310,16,2.0
311,16,2.5
312,10,4.5
313,11,1.0
314,8,1.5
315,9,4.0
316,12,4.0
317,10,3.0
318,19,4.0
319,17,2.0
320,11,1.0
321,9,4.0
322,9,4.0
323,10,2.0
324,9,5.0
325,8,2.5
326,20,2.0
327,5,5.0
328,5,3.0
329,4,1.5
330,11,2.0
331,7,1.0
332,8,2.5
333,6,3.5
334,5,4.0
335,6,2.0
336,6,4.5
337,7,4.0
338,8,1.5
339,7,2.0
340,5,1.0
341,5,3.0
342,5,4.0
343,7,3.0
344,9,2.0
345,5,0.0
346,4,8.0
347,5,2.0
348,3,1.0
349,5,3.0
350,4,1.0
351,8,2.5
352,7,4.0
353,7,1.0
354,3,0.0
355,5,2.0
356,3,0.0
357,6,2.0
358,7,2.0
359,12,1.5
360,7,2.0
361,10,2.5
362,3,2.0
363,5,1.0
364,4,12.0
365,7,4.0
366,7,3.0
367,8,8.0
368,5,3.0
369,5,2.0
370,4,4.0
371,5,1.0
372,10,2.0
373,7,5.0
374,11,3.0
375,5,1.0
376,6,0.5
377,2,0.0
378,14,1.5
379,3,6.0
380,5,3.0
381,4,13.5
382,7,2.0
383,3,2.0
384,8,1.0
385,7,0.0
386,12,3.0
387,10,1.0
388,9,0.0
389,5,2.0
390,2,3.0
391,5,1.0
392,6,4.0
393,12,1.0
394,8,2.0
395,9,4.0
396,11,1.0
397,11,2.0
398,6,1.0
399,12,2.5
400,10,2.0
401,11,3.0
402,8,3.0
403,9,2.0
404,7,2.0
405,4,2.5
406,4,3.0
407,7,4.0
408,11,1.0
409,6,4.5
410,10,6.5
411,1,3.0
412,12,2.0
413,10,3.0
414,9,1.0
415,15,3.0
416,13,3.0
417,6,2.5
418,4,0.5
419,3,3.0
420,13,4.0
421,7,1.0
422,8,5.0
423,12,3.0
424,11,5.0
425,4,1.0
426,5,0.0
427,2,3.5
428,6,1.0
429,2,1.5
430,8,1.0
431,0,1.0
432,4,4.5
433,8,9.0
434,7,3.0
435,8,7.0
436,11,3.0
437,8,2.0
438,5,9.0
439,1,0.0
440,5,2.0
441,8,1.5
442,4,3.5
443,6,8.5
444,6,2.0
445,7,1.0
446,12,2.0
447,4,8.0
448,6,3.0
449,6,5.5
450,9,2.0
451,7,7.0
452,6,1.5
453,3,3.0
454,3,12.0
455,13,3.0
456,4,3.0
457,5,3.0
458,3,1.0
459,3,3.0
460,3,1.0
461,2,3.0
462,6,3.5
463,4,1.0
464,4,4.5
465,7,1.0
466,4,2.5
467,3,3.0
468,3,1.0
469,4,3.0
470,7,7.0
471,10,3.0
472,0,3.0
473,2,2.5
474,5,3.0
475,5,0.0
476,6,5.0
477,8,2.0
478,6,3.0
479,8,4.0
480,9,2.0
481,3,2.0
482,1,6.0
483,4,17.5
484,4,1.5
485,10,4.0
486,2,14.0
487,3,5.0
488,2,6.0
489,3,0.0
490,5,2.0
491,1,6.0
492,8,2.0
493,6,3.5
494,6,0.5
495,3,3.0
496,1,0.0
497,4,3.5
498,5,5.0
499,9,3.0
500,3,1.0
501,3,1.0
502,2,1.5
503,1,0.0
504,2,6.0
505,3,2.0
506,4,3.0
507,3,2.0
508,4,5.5
509,3,1.0
510,3,3.0
511,2,1.0
512,7,3.0
513,3,2.0
514,7,3.0
515,5,2.0
516,2,5.0
517,3,1.0
518,3,3.0
519,1,6.0
520,5,4.0
521,4,6.5
522,4,2.5
523,5,1.0
524,2,16.5
525,4,2.5
526,5,6.0
527,2,2.0
528,1,11.0
529,0,11.0
530,3,2.0
531,5,5.0
532,4,1.5
533,4,4.0
534,5,2.0
535,6,2.0
536,3,0.0
537,5,2.0
538,0,2.0
539,5,1.0
540,5,3.0
541,7,1.0
542,5,1.0
543,3,4.0
544,1,5.0
545,0,5.0
546,4,5.0
547,10,2.5
548,7,2.0
549,2,2.5
550,1,7.0
551,2,0.0
552,4,1.0
553,6,0.5
554,11,2.0
555,7,3.0
556,3,1.0
557,5,3.0
558,2,7.0
559,1,1.0
560,6,1.5
561,6,1.0
562,6,3.0
563,2,1.5
564,4,3.5
565,3,1.0
566,6,4.5
567,2,1.5
568,5,2.0
569,5,1.0
570,4,3.0
571,6,3.5
572,6,3.0
573,1,0.0
574,7,3.0
575,3,0.0
576,3,0.0
577,6,3.5
578,1,0.0
579,2,1.5
580,4,6.5
581,6,1.5
582,3,2.0
583,7,6.0
584,3,2.0
585,7,4.0
586,4,2.5
587,3,1.0
588,4,5.5
589,7,3.0
590,0,3.0
591,3,18.0
592,5,6.0
593,2,5.5
594,5,0.0
595,4,1.0
596,5,0.0
597,5,4.0
598,8,2.5
599,2,3.5
600,4,2.5
601,5,1.0
602,8,2.5
603,8,1.0
604,11,1.0
605,7,1.0
606,4,1.0
607,3,13.0
608,2,2.5
609,10,2.0
610,5,2.0
611,3,10.0
612,6,3.0
613,0,3.0
614,3,3.0
615,5,1.0
616,7,1.0
617,6,2.0
618,1,2.0
619,6,0.5
620,11,3.0
621,4,1.5
622,5,1.0
623,9,3.0
624,8,1.5
625,3,2.0
626,5,1.0
627,7,4.0
628,6,3.0
629,4,3.0
630,9,4.0
631,6,3.0
632,10,5.5
633,10,3.0
634,6,1.0
635,4,1.5
636,5,2.0
637,6,2.5
638,13,0.0
639,6,2.5
640,15,2.0
641,14,4.5
642,4,3.5
643,4,3.0
644,9,10.0
645,11,3.0
646,11,4.0
647,7,2.0
648,9,3.0
649,5,1.0
650,7,2.0
651,5,3.0
652,17,5.0
653,7,2.0
654,6,5.0
655,7,3.0
656,10,1.0
657,15,3.0
658,4,3.0
659,6,2.0
660,7,1.0
661,6,4.0
662,7,3.0
663,6,6.5
664,8,0.5
665,1,5.0
666,10,2.0
667,4,2.0
668,10,4.0
669,11,4.0
670,5,0.0
671,5,2.0
672,10,2.0
673,7,3.0
674,9,2.0
675,7,3.0
676,11,3.0
677,5,3.0
678,5,1.0
679,3,0.0
680,7,0.0
681,11,1.0
682,12,2.5
683,7,1.0
684,4,0.5
685,3,2.0
686,3,1.0
687,11,1.0
688,7,3.0
689,10,2.5
690,7,4.0
691,2,1.0
692,4,2.0
693,7,1.0
694,6,2.0
695,3,2.0
696,9,4.0
697,3,7.0
698,3,0.0
699,9,2.0
700,11,5.0
701,9,3.0
702,7,1.0
703,10,1.0
704,7,3.0
705,3,0.0
706,3,1.0
707,8,3.5
708,8,8.5
709,7,2.0
710,10,2.5
711,7,3.0
712,5,0.0
713,6,1.0
714,5,3.0
715,10,3.0
716,4,3.5
717,3,2.0
718,5,1.0
719,5,0.0
720,7,1.0
721,9,2.0
722,8,2.5
723,9,4.0
724,8,3.5
725,3,1.0
726,10,1.0
727,2,11.0
728,2,3.5
729,10,2.5
730,13,6.0
731,11,1.0
732,8,0.0
733,3,4.0
734,6,2.0
735,14,4.0
736,4,2.5
737,5,4.0
738,5,5.0
739,1,10.0
740,5,1.0
741,3,8.0
742,4,2.0
743,6,4.0
744,11,3.0
745,6,2.0
746,4,4.5
747,7,1.0
748,6,1.5
749,5,2.0
750,3,0.0
751,7,2.0
752,2,6.5
753,8,3.0
754,2,7.0
755,4,0.5
756,6,1.5
757,7,1.0
758,5,1.0
759,7,2.0
760,3,3.0
761,6,3.5
762,7,2.0
763,9,2.0
764,8,2.0
765,4,3.5
766,11,1.0
767,7,4.0
768,11,2.0
769,3,0.0
770,10,2.0
771,11,3.0
772,7,5.0
773,8,0.5
774,16,3.5
775,5,1.0
776,7,1.0
777,7,3.0
778,12,7.0
779,11,3.0
780,10,2.0
781,12,3.5
782,6,3.0
783,10,0.5
784,12,2.5
785,15,3.0
786,9,1.0
787,9,6.0
788,16,1.5
789,7,1.0
790,8,2.0
791,6,0.0
792,13,3.0
793,9,3.0
794,5,3.0
795,11,2.0
796,3,1.0
797,11,4.0
798,6,2.0
799,8,3.0
800,10,1.5
801,7,1.0
802,8,1.0
803,5,4.0
804,6,2.5
805,5,1.0
806,18,1.0
807,8,0.0
808,4,6.0
809,7,6.0
810,4,3.5
811,4,1.5
812,12,4.0
813,5,2.0
814,5,3.0
815,7,3.0
816,7,1.0
817,4,1.5
818,4,0.5
819,4,1.5
820,7,3.0
821,8,7.0
822,9,5.0
823,11,5.0
824,2,4.5
825,4,2.0
826,6,1.5
827,9,1.0
828,5,3.0
829,4,6.5
830,8,1.0
831,4,4.0
832,2,3.5
833,7,3.0
834,3,7.0
835,5,1.0
836,0,1.0
837,7,2.0
838,2,2.5
839,8,0.0
840,7,4.0
841,9,1.0
842,17,2.0
843,5,1.0
844,5,1.0
845,2,1.0
846,3,1.0
847,6,2.5
848,10,2.5
849,9,3.0
850,4,3.5
851,2,1.5
852,3,5.0
853,5,5.0
854,6,1.5
855,9,3.0
856,1,1.0
857,11,2.0
858,3,3.0
859,5,1.0
860,7,4.0
861,9,2.0
862,7,1.0
863,6,4.5
864,7,2.0
865,6,1.5
866,1,6.0
867,1,3.0
868,2,2.0
869,3,4.0
870,3,2.0
871,3,0.0
872,2,5.5
873,2,7.0
874,3,2.0
875,2,3.0
876,6,1.0
877,5,3.0
878,4,5.0
879,10,2.0
880,6,0.5
881,4,3.5
882,9,2.0
883,7,2.0
884,5,5.0
885,11,2.0
886,4,6.5
887,4,0.5
888,3,0.0
889,3,2.0
890,6,3.0
891,3,2.0
892,7,1.0
893,5,3.0
894,6,1.5
895,9,2.0
896,6,4.0
897,11,2.0
898,4,2.0
899,6,3.5
900,4,4.5
901,3,3.0
902,2,1.0
903,4,1.0
904,8,5.5
905,7,3.0
906,1,0.0
907,5,1.0
908,5,2.0
909,4,2.5
910,4,1.0
911,6,1.0
912,5,2.0
913,2,3.5
914,3,1.0
915,5,4.0
916,4,5.5
917,8,0.5
918,7,2.0
919,3,1.0
920,3,1.0
921,4,2.0
922,1,8.0
923,3,2.0
924,3,16.0
925,2,6.5
926,5,1.0
927,7,3.0
928,10,3.5
929,5,1.0
930,1,2.0
931,2,0.0
932,0,0.0
933,0,0.0
934,2,0.5
935,2,3.0
936,4,0.5
937,1,9.0
938,2,5.0
939,4,0.5
940,5,0.0
941,2,2.5
942,4,2.5
943,2,5.5
944,3,1.0
945,5,1.0
946,8,2.5
947,1,6.0
948,0,6.0
949,4,8.5
950,0,8.5
951,3,2.0
952,1,1.0
953,5,0.0
954,7,3.0
955,7,5.0
956,2,3.0
957,1,3.0
958,5,0.0
959,2,5.5
960,1,2.0
961,2,6.0
962,3,1.0
963,4,1.5
964,1,1.0
965,3,0.0
966,4,1.0
967,0,1.0
968,3,2.0
969,5,7.0
970,5,3.0
971,3,1.0
972,4,8.0
973,5,2.0
974,2,2.5
975,6,3.5
976,6,1.0
977,3,2.0
978,0,2.0
979,0,2.0
980,3,1.0
981,2,1.0
982,4,1.5
983,2,2.0
984,3,4.0
985,2,3.5
986,4,3.0
987,8,3.5
988,6,1.5
989,6,5.0
990,3,8.0
991,2,6.5
992,4,2.5
993,2,2.5
994,3,3.0
995,3,2.0
996,5,2.0
997,2,5.5
998,4,1.0
999,3,0.0
1000,3,0.0
1001,7,1.0
1002,1,1.0
1003,8,2.0
1004,8,7.0
1005,7,1.0
1006,4,2.5
1007,2,3.0
1008,1,4.0
1009,6,2.5
1010,3,5.0
1011,5,1.0
1012,4,0.5
1013,5,2.0
1014,3,2.0
1015,3,5.0
1016,8,3.0
1017,6,3.5
1018,3,1.0
1019,1,5.0
1020,1,1.0
1021,2,3.5
1022,8,5.5
1023,2,7.0
1024,7,2.0
1025,1,6.0
1026,2,6.0
1027,2,1.0
1028,3,1.0
1029,3,3.0
1030,6,2.0
1031,3,1.0
1032,6,2.5
1033,2,0.0
1034,1,1.0
1035,2,9.0
1036,4,1.5
1037,6,1.0
1038,8,3.0
1039,9,2.0
1040,7,3.0
1041,3,1.0
1042,2,5.0
1043,7,0.0
1044,12,2.5
1045,4,1.5
1046,4,1.0
1047,2,8.0
1048,5,1.0
1049,4,0.5
1050,6,5.0
1051,9,3.0
1052,2,1.0
1053,4,3.5
1054,4,4.5
1055,2,6.5
1056,3,2.0
1057,10,3.5
1058,5,1.0
1059,9,4.0
1060,9,2.0
1061,5,5.0
1062,2,0.5
1063,1,2.0
1064,7,1.0
1065,15,3.0
1066,10,3.0
1067,8,2.5
1068,7,2.0
1069,4,5.5
1070,3,1.0
1071,4,2.0
1072,8,2.5
1073,5,5.0
1074,8,2.5
1075,6,1.0
1076,1,0.0
1077,1,6.0
1078,8,2.5
1079,13,3.0
1080,9,3.0
1081,13,4.0
1082,4,3.5
1083,2,2.0
1084,2,8.0
1085,4,3.5
1086,9,1.0
1087,10,1.0
1088,6,0.5
1089,7,2.0
1090,8,3.0
1091,3,2.0
1092,5,7.0
1093,11,2.0
1094,7,8.0
1095,6,4.0
1096,8,2.5
1097,5,3.0
1098,13,1.0
1099,5,2.0
1100,6,3.5
1101,8,4.5
1102,11,3.0
1103,11,2.0
1104,4,5.0
1105,2,1.0
1106,6,6.0
1107,4,2.0
1108,8,3.0
1109,4,5.5
1110,7,4.0
1111,5,4.0
1112,4,1.0
1113,8,3.5
1114,5,3.0
1115,6,4.0
1116,7,1.0
1117,3,7.0
1118,6,0.5
1119,2,1.0
1120,7,5.0
1121,8,2.5
1122,8,2.0
1123,12,3.5
1124,4,2.5
1125,5,2.0
1126,4,2.0
1127,9,1.0
1128,6,3.0
1129,7,2.0
1130,6,2.5
1131,10,2.5
1132,9,1.0
1133,14,3.5
1134,9,3.0
1135,5,3.0
1136,6,4.5
1137,8,6.5
1138,5,2.0
1139,7,2.0
1140,4,2.0
1141,4,0.5
1142,7,1.0
1143,1,8.0
1144,6,2.0
1145,9,0.0
1146,8,2.0
1147,3,9.0
1148,8,6.5
1149,5,1.0
1150,4,5.5
1151,5,1.0
1152,8,4.5
1153,6,3.5
1154,2,4.5
