,Demand,Response_Time
0,27,403.0
1,12,355.5
2,28,260.5
3,26,294.5
4,23,327.0
5,7,285.0
6,11,199.0
7,24,271.0
8,27,361.0
9,35,354.0
10,22,220.0
11,14,373.5
12,16,437.0
13,7,450.0
14,35,217.0
15,35,361.0
16,23,225.0
17,30,314.0
18,17,291.0
19,26,187.5
20,10,330.0
21,29,328.0
22,31,379.0
23,23,233.0
24,31,327.0
25,27,250.0
26,5,164.0
27,6,188.5
28,8,315.0
29,29,295.0
30,21,219.0
31,21,271.0
32,24,253.5
33,8,179.5
34,13,290.0
35,25,195.0
36,30,301.5
37,31,355.0
38,13,172.0
39,19,243.0
40,10,282.0
41,8,497.0
42,25,169.0
43,25,212.0
44,29,220.0
45,20,177.5
46,25,225.0
47,4,304.5
48,9,284.0
49,46,98.5
50,34,236.5
51,41,214.0
52,33,311.0
53,37,277.0
54,19,307.0
55,17,205.0
56,25,221.0
57,21,213.0
58,32,192.0
59,23,315.0
60,26,167.0
61,10,322.5
62,14,351.0
63,19,191.0
64,29,308.0
65,36,225.5
66,20,245.0
67,26,315.0
68,19,370.0
69,35,193.0
70,38,267.0
71,41,237.0
72,29,198.0
73,20,274.5
74,19,214.0
75,23,114.0
76,9,528.0
77,36,199.5
78,42,226.5
79,33,355.0
80,34,308.5
81,23,179.0
82,19,355.0
83,9,392.0
84,30,361.0
85,33,228.0
86,42,273.5
87,23,258.0
88,26,245.5
89,10,281.0
90,13,187.0
91,26,310.0
92,30,229.5
93,15,525.0
94,14,429.0
95,55,333.0
96,16,182.5
97,16,156.5
98,28,112.0
99,28,391.5
100,37,216.0
101,24,392.5
102,23,238.0
103,13,218.0
104,16,287.0
105,42,378.5
106,31,409.0
107,19,449.0
108,10,257.5
109,17,286.0
110,11,264.0
111,10,318.0
112,35,212.0
113,28,258.5
114,26,282.5
115,28,289.0
116,26,311.0
117,14,369.0
118,17,350.0
119,22,261.5
120,32,194.5
121,25,393.0
122,20,422.0
123,16,213.0
124,5,381.0
125,18,346.5
126,20,299.5
127,24,195.5
128,28,353.0
129,30,264.5
130,28,288.5
131,22,219.0
132,21,136.0
133,31,374.0
134,19,519.0
135,27,973.0
136,18,406.0
137,6,219.5
138,4,274.0
139,10,824.5
140,24,569.0
141,32,501.0
142,31,620.0
143,21,332.0
144,10,371.5
145,17,544.0
146,13,625.0
147,40,356.5
148,53,649.0
149,32,285.5
150,20,643.0
151,34,286.0
152,21,466.0
153,13,548.0
154,37,515.0
155,35,433.0
156,30,447.5
157,39,478.0
158,16,639.5
159,10,396.0
160,9,202.0
161,20,408.5
162,44,481.5
163,40,344.0
164,25,343.0
165,17,419.0
166,17,480.0
167,7,129.0
168,9,243.0
169,23,314.0
170,21,289.0
171,27,600.0
172,28,523.0
173,12,260.0
174,15,286.0
175,24,375.5
176,20,663.5
177,25,452.0
178,22,687.0
179,23,491.0
180,14,526.0
181,10,192.0
182,20,479.0
183,25,333.0
184,26,364.0
185,43,290.0
186,40,376.0
187,25,538.0
188,18,427.0
189,37,383.0
190,37,477.0
191,24,260.0
192,27,308.0
193,26,270.5
194,17,274.0
195,9,196.0
196,34,396.5
197,33,204.0
198,36,192.0
199,27,432.0
200,25,310.0
201,7,145.0
202,5,259.0
203,32,300.5
204,27,214.0
205,34,294.0
206,42,262.0
207,27,245.0
208,9,224.0
209,10,304.0
210,29,305.0
211,27,184.0
212,21,224.0
213,20,357.5
214,27,403.0
215,13,289.0
216,7,229.0
217,18,332.0
218,18,273.0
219,27,287.0
220,24,417.0
221,8,142.0
222,13,215.0
223,11,530.0
224,24,365.0
225,26,236.5
226,24,452.0
227,19,194.0
228,18,189.0
229,15,406.0
230,6,550.5
231,18,481.5
232,19,242.0
233,24,343.0
234,26,218.5
235,28,223.0
236,15,189.0
237,8,262.0
238,22,341.5
239,32,333.0
240,31,367.0
241,21,158.0
242,22,283.0
243,19,369.0
244,3,113.0
245,27,171.0
246,28,264.5
247,12,401.0
248,31,284.0
249,17,154.0
250,8,194.0
251,3,361.0
252,20,226.5
253,14,351.0
254,36,212.0
255,14,392.0
256,12,174.0
257,10,387.0
258,8,296.5
259,33,383.0
260,18,316.5
261,21,310.0
262,27,421.0
263,21,401.0
264,13,476.0
265,13,290.0
266,25,324.0
267,25,219.0
268,20,369.0
269,23,180.0
270,28,232.0
271,11,405.0
272,4,319.5
273,19,283.0
274,18,398.0
275,18,229.0
276,24,162.0
277,23,169.0
278,13,260.0
279,9,302.0
280,27,188.0
281,29,280.0
282,30,174.5
283,32,166.0
284,17,167.0
285,13,299.0
286,7,126.0
287,22,107.5
288,19,182.0
289,24,111.0
290,35,225.0
291,22,239.0
292,15,157.0
293,18,152.0
294,11,98.0
295,38,224.0
296,32,152.0
297,22,232.0
298,23,157.0
299,12,220.0
300,9,360.0
301,29,180.0
302,38,177.5
303,29,192.0
304,22,151.5
305,18,298.5
306,14,190.5
307,16,190.0
308,41,210.0
309,32,309.0
310,28,285.0
311,25,194.0
312,16,235.5
313,23,399.0
314,8,216.0
315,29,261.0
316,28,300.0
317,40,221.5
318,30,322.0
319,26,445.0
320,7,474.0
321,7,349.0
322,22,191.0
323,17,299.0
324,45,319.0
325,26,396.0
326,25,324.0
327,8,223.5
328,6,103.5
329,5,400.0
330,18,479.5
331,27,277.0
332,24,314.5
333,29,381.0
334,11,284.0
335,10,353.5
336,29,298.0
337,30,174.0
338,28,406.5
339,25,332.0
340,27,272.0
341,10,213.0
342,10,357.5
343,28,202.5
344,37,297.0
345,25,189.0
346,32,257.0
347,21,234.0
348,14,271.5
349,12,272.5
350,35,197.0
351,41,188.0
352,31,269.0
353,39,329.0
354,28,169.5
355,15,252.0
356,14,294.0
357,42,334.0
358,25,243.0
359,45,309.0
360,32,262.0
361,21,216.0
362,8,488.0
363,9,356.0
364,30,232.0
365,27,201.0
366,28,362.0
367,19,313.0
368,34,181.0
369,10,218.0
370,11,134.0
371,41,241.0
372,29,311.0
373,36,198.0
374,32,316.0
375,24,268.0
376,15,233.0
377,6,253.5
378,31,227.0
379,19,182.0
380,25,218.0
381,20,260.0
382,15,308.0
383,14,253.0
384,5,347.0
385,44,214.5
386,25,310.0
387,35,172.0
388,27,522.0
389,26,299.5
390,13,430.0
391,4,122.0
392,4,145.5
393,40,224.0
394,34,289.0
395,28,273.5
396,22,419.0
397,13,295.0
398,12,181.0
399,33,263.0
400,35,189.0
401,28,201.0
402,39,210.0
403,32,296.0
404,8,360.5
405,8,362.5
406,24,332.0
407,22,205.0
408,22,201.0
409,35,453.0
410,21,428.0
411,11,83.0
412,9,184.0
413,26,187.5
414,28,265.0
415,41,217.0
416,38,237.5
417,29,400.0
418,13,414.0
419,9,161.0
420,26,333.0
421,31,166.0
422,47,283.0
423,42,168.0
424,20,446.0
425,15,244.0
426,17,235.0
427,22,316.0
428,40,211.0
429,31,246.0
430,35,349.0
431,29,169.0
432,20,324.5
433,2,231.5
434,55,313.0
435,28,118.0
436,25,277.0
437,29,188.0
438,22,268.0
439,17,387.0
440,15,347.0
441,36,288.0
442,31,214.0
443,71,329.0
444,39,205.0
445,21,326.0
446,18,238.5
447,13,189.0
448,42,488.5
449,30,374.5
450,28,447.0
451,21,526.0
452,26,235.0
453,21,575.0
454,5,347.0
455,24,432.0
456,25,466.0
457,24,296.5
458,41,286.0
459,43,165.0
460,31,123.0
461,16,186.0
462,34,399.0
463,44,356.5
464,42,354.5
465,33,270.0
466,33,328.0
467,24,272.5
468,17,216.0
469,46,262.0
470,42,240.5
471,26,388.5
472,10,433.0
473,18,572.0
474,12,459.0
475,13,355.0
476,35,194.0
477,38,208.0
478,33,289.0
479,28,456.5
480,24,425.0
481,18,272.5
482,11,1426.0
483,38,338.0
484,33,809.0
485,40,299.5
486,39,577.0
487,36,483.5
488,14,493.5
489,12,643.0
490,29,917.0
491,31,571.0
492,22,323.5
493,33,337.0
494,43,553.0
495,23,432.0
496,11,217.0
497,36,373.0
498,29,576.0
499,43,451.0
500,27,314.0
501,18,140.0
502,18,299.0
503,6,522.0
504,14,68.5
505,19,502.0
506,32,425.0
507,35,620.0
508,23,604.0
509,7,404.0
510,8,328.0
511,13,546.0
512,37,335.0
513,26,569.0
514,35,334.0
515,28,461.5
516,20,537.0
517,18,222.0
518,52,450.5
519,56,345.0
520,24,524.5
521,37,332.0
522,21,481.0
523,20,619.0
524,14,421.5
525,25,332.0
526,28,213.5
527,27,650.0
528,31,425.0
529,22,598.0
530,17,301.0
531,14,321.5
532,38,460.5
533,43,308.0
534,36,709.0
535,33,506.0
536,21,334.0
537,17,880.0
538,9,388.0
539,25,264.0
540,31,389.0
541,31,553.0
542,26,233.5
543,29,496.0
544,18,352.5
545,8,315.0
546,28,359.0
547,43,504.0
548,24,463.0
549,13,429.0
550,28,468.0
551,12,288.0
552,14,193.5
553,24,344.5
554,15,310.0
555,28,388.5
556,25,360.0
557,20,502.0
558,12,150.0
559,18,269.0
560,22,324.0
561,29,384.0
562,42,169.0
563,32,191.5
564,22,303.5
565,17,541.0
566,9,527.0
567,24,354.0
568,28,286.0
569,23,453.0
570,24,263.0
571,23,194.0
572,10,134.0
573,16,266.5
574,23,334.0
575,26,220.5
576,26,418.5
577,21,467.0
578,17,380.0
579,13,448.0
580,9,423.0
581,26,294.0
582,17,209.0
583,30,303.5
584,25,340.0
585,21,286.0
586,21,213.0
587,9,360.0
588,28,262.5
589,19,241.0
590,18,330.5
591,17,270.0
592,26,237.0
593,9,157.0
594,12,246.5
595,21,328.0
596,29,200.0
597,25,300.0
598,28,282.0
599,24,285.5
600,13,192.0
601,10,158.5
602,29,210.0
603,27,173.0
604,21,213.0
605,24,134.0
606,26,312.0
607,20,293.5
608,9,110.0
609,23,259.0
610,29,200.0
611,36,324.0
612,24,297.5
613,16,169.0
614,5,310.0
615,8,190.5
616,18,208.5
617,27,169.0
618,23,149.0
619,27,177.0
620,25,302.0
621,14,279.0
622,5,222.0
623,23,333.0
624,30,233.5
625,34,247.0
626,20,258.0
627,21,164.0
628,12,309.5
629,9,103.0
630,29,182.0
631,22,304.5
632,35,357.0
633,22,286.5
634,18,434.5
635,12,572.5
636,10,379.5
637,33,194.0
638,14,172.5
639,20,172.0
640,24,260.5
641,17,429.0
642,7,286.0
643,10,197.0
644,31,352.0
645,26,275.5
646,31,188.0
647,22,264.0
648,29,261.0
649,6,262.0
650,5,285.0
651,30,191.5
652,24,268.5
653,22,453.0
654,27,327.0
655,8,221.5
656,9,433.0
657,8,148.5
658,9,208.0
659,32,359.5
660,32,312.5
661,22,313.0
662,29,294.0
663,12,420.5
664,15,231.0
665,16,132.0
666,26,154.5
667,29,200.0
668,33,307.0
669,21,287.0
670,13,245.0
671,8,254.0
672,32,236.5
673,22,267.5
674,35,213.0
675,20,285.0
676,13,233.0
677,5,310.0
678,9,188.0
679,32,263.5
680,23,204.0
681,17,444.0
682,31,314.0
683,15,295.0
684,11,487.0
685,8,554.5
686,23,264.0
687,33,207.0
688,23,169.0
689,20,333.0
690,19,306.0
691,13,657.0
692,5,270.0
693,19,219.0
694,8,147.0
695,36,232.5
696,23,288.0
697,34,302.5
698,5,288.0
699,15,280.0
700,25,173.0
701,22,245.0
702,39,288.0
703,24,336.0
704,19,312.0
705,14,344.0
706,6,352.0
707,42,392.0
708,45,376.0
709,24,356.5
710,30,279.0
711,26,313.5
712,11,234.0
713,12,230.0
714,35,229.0
715,35,215.0
716,32,347.5
717,23,173.0
718,19,298.0
719,16,375.5
720,7,269.0
721,37,216.0
722,22,244.5
723,23,194.0
724,27,294.0
725,25,310.0
726,15,268.0
727,7,211.0
728,26,349.0
729,29,301.0
730,28,323.5
731,38,288.5
732,20,140.0
733,8,265.0
734,6,276.0
735,34,214.5
736,25,211.0
737,22,155.5
738,31,355.0
739,28,302.5
740,14,268.5
741,7,329.0
742,39,245.0
743,29,185.0
744,32,182.0
745,22,182.5
746,24,230.0
747,6,138.0
748,6,377.0
749,37,182.0
750,32,260.5
751,28,220.0
752,25,279.0
753,21,242.0
754,6,333.0
755,11,188.0
756,3,146.0
757,30,162.5
758,24,209.5
759,29,194.0
760,30,271.0
761,12,248.5
762,7,88.0
763,34,265.0
764,18,162.0
765,27,194.0
766,27,150.0
767,31,243.0
768,19,137.0
769,11,263.0
770,29,166.0
771,37,195.0
772,25,283.0
773,24,319.0
774,35,245.0
775,11,216.0
776,7,231.0
777,36,350.0
778,37,185.0
779,26,173.5
780,44,200.5
781,17,197.0
782,14,206.5
783,15,221.0
784,22,169.5
785,34,319.0
786,40,311.5
787,31,284.0
788,18,241.0
789,22,239.0
790,10,221.0
791,16,155.5
792,31,238.0
793,25,166.0
794,23,186.0
795,26,203.5
796,7,213.0
797,10,398.0
798,27,146.0
799,28,158.0
800,26,183.0
801,37,169.0
802,22,144.0
803,10,125.5
804,9,111.0
805,26,159.5
806,24,203.5
807,36,290.0
808,27,179.0
809,41,238.0
810,18,522.5
811,15,254.0
812,38,166.5
813,40,337.5
814,24,541.0
815,27,349.0
816,26,454.5
817,9,614.0
818,18,369.0
819,30,502.0
820,38,385.5
821,33,472.0
822,29,357.0
823,29,483.0
824,28,325.5
825,10,165.0
826,31,330.0
827,34,351.0
828,28,353.5
829,34,288.0
830,28,260.5
831,15,389.0
832,10,257.0
833,39,366.0
834,34,216.0
835,37,283.0
836,9,96.0
837,11,306.0
838,14,179.5
839,19,114.0
840,44,215.0
841,31,168.0
842,31,163.0
843,20,204.5
844,27,313.0
845,23,145.0
846,24,248.5
847,36,206.5
848,35,308.0
849,33,285.0
850,24,449.0
851,30,243.0
852,20,338.5
853,8,457.0
854,47,350.0
855,26,290.5
856,35,315.0
857,24,452.0
858,29,426.0
859,12,430.0
860,13,1094.0
861,28,598.5
862,32,187.0
863,17,381.0
864,30,356.5
865,13,326.0
866,13,626.0
867,9,234.0
868,7,514.0
869,23,318.0
870,29,657.0
871,28,563.5
872,22,512.5
873,11,663.0
874,4,598.0
875,22,344.5
876,51,527.0
877,36,497.5
878,29,428.0
879,39,430.0
880,31,459.0
881,24,337.0
882,42,528.0
883,48,373.0
884,38,461.0
885,36,509.0
886,31,476.0
887,12,462.0
888,34,437.0
889,19,409.0
890,22,364.5
891,36,354.5
892,23,287.0
893,22,313.0
894,15,256.0
895,7,258.0
896,30,249.0
897,35,219.0
898,26,161.0
899,27,195.0
900,26,311.0
901,20,180.5
902,23,261.0
903,36,157.0
904,23,73.0
905,38,157.5
906,24,153.5
907,25,165.0
908,19,147.0
909,15,217.0
910,27,188.0
911,35,142.0
912,29,210.0
913,19,169.0
914,34,112.0
915,11,163.0
916,14,70.0
917,24,127.0
918,23,45.0
919,17,140.0
920,15,133.0
921,11,143.0
922,7,145.0
923,11,96.0
924,10,53.5
925,7,65.0
926,7,89.0
927,1,32.0
928,1,76.0
929,0,76.0
930,0,76.0
931,0,76.0
932,0,76.0
933,0,0.0
934,7,456.0
935,16,672.0
936,11,2160.0
937,12,900.0
938,35,528.0
939,30,600.0
940,28,612.0
941,29,432.0
942,26,456.0
943,13,720.0
944,13,528.0
945,26,504.0
946,20,276.0
947,37,192.0
948,20,264.0
949,25,168.0
950,27,216.0
951,10,300.0
952,24,216.0
953,36,192.0
954,24,276.0
955,28,276.0
956,27,600.0
957,13,408.0
958,15,360.0
959,31,192.0
960,17,360.0
961,22,348.0
962,13,504.0
963,14,360.0
964,22,420.0
965,17,288.0
966,29,528.0
967,31,360.0
968,29,456.0
969,23,432.0
970,11,576.0
971,6,516.0
972,11,240.0
973,28,288.0
974,20,1356.0
975,24,684.0
976,18,360.0
977,18,372.0
978,15,552.0
979,13,192.0
980,21,408.0
981,25,480.0
982,20,396.0
983,32,420.0
984,24,456.0
985,24,420.0
986,15,384.0
987,27,552.0
988,25,528.0
989,36,168.0
990,23,264.0
991,23,576.0
992,12,456.0
993,7,528.0
994,20,576.0
995,24,384.0
996,28,312.0
997,24,300.0
998,21,408.0
999,15,456.0
1000,10,288.0
1001,30,240.0
1002,13,312.0
1003,25,336.0
1004,24,408.0
1005,11,648.0
1006,11,576.0
1007,11,360.0
1008,17,288.0
1009,9,408.0
1010,32,420.0
1011,24,168.0
1012,29,384.0
1013,6,348.0
1014,6,420.0
1015,23,216.0
1016,21,360.0
1017,19,336.0
1018,21,336.0
1019,20,312.0
1020,8,384.0
1021,8,132.0
1022,21,168.0
1023,27,312.0
1024,17,288.0
1025,26,432.0
1026,12,348.0
1027,11,216.0
1028,5,216.0
1029,27,336.0
1030,33,240.0
1031,21,384.0
1032,22,336.0
1033,21,192.0
1034,11,504.0
1035,11,528.0
1036,34,240.0
1037,30,204.0
1038,20,252.0
1039,21,312.0
1040,15,336.0
1041,7,384.0
1042,13,192.0
1043,25,336.0
1044,21,456.0
1045,31,360.0
1046,16,264.0
1047,20,228.0
1048,9,216.0
1049,11,264.0
1050,21,264.0
1051,32,192.0
1052,24,192.0
1053,34,300.0
1054,13,216.0
1055,8,600.0
1056,12,384.0
1057,32,264.0
1058,27,216.0
1059,33,480.0
1060,22,360.0
1061,15,240.0
1062,8,408.0
1063,7,1105.0
1064,27,288.0
1065,29,168.0
1066,21,360.0
1067,27,144.0
1068,29,312.0
1069,9,264.0
1070,12,324.0
1071,25,264.0
1072,33,312.0
1073,23,264.0
1074,32,276.0
1075,23,408.0
1076,10,420.0
1077,5,360.0
1078,11,96.0
1079,21,216.0
1080,25,452.0
1081,24,228.0
1082,16,228.0
1083,7,288.0
1084,14,286.5
1085,35,403.0
1086,28,346.5
1087,32,222.0
1088,29,356.0
1089,14,473.0
1090,6,787.0
1091,13,348.0
1092,17,333.0
1093,28,317.0
1094,28,450.0
1095,19,360.0
1096,22,259.5
1097,12,250.0
1098,14,276.0
1099,16,258.0
1100,26,296.0
1101,27,454.0
1102,19,257.0
1103,22,486.5
1104,11,476.0
1105,16,276.5
1106,28,361.5
1107,27,321.0
1108,25,447.0
1109,31,357.0
1110,27,398.0
1111,14,556.5
1112,6,283.5
1113,21,494.0
1114,29,379.0
1115,35,356.0
1116,36,424.5
1117,17,333.0
1118,8,384.0
1119,11,158.0
1120,28,163.5
1121,28,438.0
1122,30,428.5
1123,22,411.5
1124,21,337.0
1125,11,558.0
1126,8,427.0
1127,32,414.5
1128,29,380.0
1129,28,378.5
1130,29,425.0
1131,18,179.0
1132,10,501.0
1133,6,94.5
1134,33,335.0
1135,29,383.0
1136,20,350.5
1137,17,231.0
1138,25,285.0
1139,12,373.0
1140,4,336.5
1141,30,314.5
1142,40,409.5
1143,31,320.0
1144,22,354.0
1145,38,311.5
1146,15,286.0
1147,17,267.0
1148,44,397.5
1149,36,389.0
1150,40,417.0
1151,20,469.0
1152,21,501.0
1153,18,372.0
1154,14,364.5
