,Demand,Response_Time
0,0,25.0
1,0,25.0
2,0,25.0
3,0,25.0
4,0,25.0
5,0,25.0
6,0,25.0
7,0,25.0
8,0,25.0
9,0,25.0
10,0,25.0
11,0,25.0
12,0,25.0
13,0,25.0
14,0,25.0
15,0,25.0
16,0,25.0
17,0,25.0
18,0,25.0
19,0,25.0
20,0,25.0
21,0,25.0
22,0,25.0
23,0,25.0
24,0,25.0
25,0,25.0
26,0,25.0
27,0,25.0
28,0,25.0
29,0,25.0
30,0,25.0
31,0,25.0
32,0,25.0
33,0,25.0
34,0,25.0
35,0,25.0
36,0,25.0
37,0,25.0
38,0,25.0
39,0,25.0
40,0,25.0
41,0,25.0
42,0,25.0
43,0,25.0
44,0,25.0
45,0,25.0
46,0,25.0
47,0,25.0
48,0,25.0
49,0,25.0
50,0,25.0
51,0,25.0
52,0,25.0
53,0,25.0
54,0,25.0
55,0,25.0
56,0,25.0
57,0,25.0
58,0,25.0
59,0,25.0
60,0,25.0
61,0,25.0
62,0,25.0
63,0,25.0
64,0,25.0
65,0,25.0
66,0,25.0
67,0,25.0
68,0,25.0
69,0,25.0
70,0,25.0
71,0,25.0
72,0,25.0
73,0,25.0
74,0,25.0
75,0,25.0
76,0,25.0
77,0,25.0
78,0,25.0
79,0,25.0
80,0,25.0
81,0,25.0
82,0,25.0
83,0,25.0
84,0,25.0
85,0,25.0
86,0,0.0
87,0,0.0
88,0,0.0
89,0,0.0
90,0,0.0
91,0,0.0
92,0,0.0
93,0,0.0
94,0,0.0
95,0,0.0
96,0,0.0
97,0,0.0
98,0,0.0
99,0,0.0
100,0,0.0
101,0,0.0
102,0,0.0
103,0,0.0
104,0,0.0
105,0,0.0
106,0,0.0
107,0,0.0
108,0,0.0
109,0,0.0
110,0,0.0
111,0,0.0
112,0,0.0
113,0,0.0
114,0,138.0
115,0,138.0
116,0,138.0
117,0,138.0
118,0,138.0
119,0,138.0
120,0,138.0
121,0,138.0
122,0,138.0
123,0,138.0
124,0,138.0
125,0,138.0
126,0,138.0
127,0,138.0
128,0,138.0
129,0,138.0
130,0,138.0
131,0,138.0
132,0,138.0
133,0,138.0
134,0,138.0
135,0,138.0
136,0,138.0
137,0,138.0
138,0,138.0
139,0,138.0
140,0,138.0
141,0,138.0
142,0,138.0
143,0,138.0
144,0,138.0
145,0,138.0
146,0,138.0
147,0,28.0
148,0,23.0
149,0,20.0
150,0,3.0
151,0,3.0
152,0,3.0
153,0,3.0
154,0,2.0
155,0,26.0
156,0,18.0
157,0,110.0
158,0,110.0
159,0,110.0
160,0,110.0
161,0,30.0
162,0,18.0
163,0,21.5
164,0,20.0
165,0,20.0
166,0,0.0
167,0,43.0
168,0,142.0
169,0,121.0
170,0,95.0
171,0,70.0
172,0,48.5
173,0,40.0
174,0,67.0
175,0,21.0
176,0,23.0
177,0,2.0
178,0,2.0
179,0,12.0
180,0,71.5
181,0,26.0
182,0,0.0
183,0,13.0
184,0,13.0
185,0,13.0
186,0,30.0
187,0,33.0
188,0,19.0
189,0,19.0
190,0,3.0
191,0,3.0
192,0,25.5
193,0,27.0
194,0,27.0
195,0,27.0
196,0,27.0
197,0,66.0
198,0,22.0
199,0,22.0
200,0,22.0
201,0,22.0
202,0,22.0
203,0,18.0
204,0,22.0
205,0,22.0
206,0,1.0
207,0,13.0
208,0,71.0
209,0,71.0
210,0,71.0
211,0,71.0
212,0,71.0
213,0,71.0
214,0,71.0
215,0,71.0
216,0,71.0
217,0,71.0
218,0,71.0
219,0,71.0
220,0,71.0
221,0,71.0
222,0,71.0
223,0,16.0
224,0,16.0
225,0,16.0
226,0,16.0
227,0,16.0
228,0,16.0
229,0,16.0
230,0,16.0
231,0,16.0
232,0,16.0
233,0,16.0
234,0,16.0
235,0,16.0
236,0,16.0
237,0,16.0
238,0,16.0
239,0,4.0
240,0,4.0
241,0,4.0
242,0,4.0
243,0,4.0
244,0,4.0
245,0,4.0
246,0,4.0
247,0,4.0
248,0,4.0
249,0,4.0
250,0,4.0
251,0,4.0
252,0,4.0
253,0,4.0
254,0,4.0
255,0,4.0
256,0,4.0
257,0,4.0
258,0,4.0
259,0,4.0
260,0,4.0
261,0,4.0
262,0,4.0
263,0,4.0
264,0,4.0
265,0,4.0
266,0,4.0
267,0,4.0
268,0,4.0
269,0,4.0
270,0,4.0
271,0,4.0
272,0,4.0
273,0,4.0
274,0,4.0
275,0,4.0
276,0,4.0
277,0,4.0
278,0,4.0
279,0,4.0
280,0,4.0
281,0,4.0
282,0,4.0
283,0,4.0
284,0,4.0
285,0,4.0
286,0,4.0
287,0,4.0
288,0,4.0
289,0,4.0
290,0,4.0
291,0,4.0
292,0,4.0
293,0,4.0
294,0,4.0
295,0,4.0
296,0,4.0
297,0,4.0
298,0,4.0
299,0,4.0
300,0,4.0
301,0,4.0
302,0,4.0
303,0,4.0
304,0,4.0
305,0,4.0
306,0,4.0
307,0,4.0
308,0,4.0
309,0,4.0
310,0,4.0
311,0,4.0
312,0,4.0
313,0,4.0
314,0,4.0
315,0,4.0
316,0,4.0
317,0,4.0
318,0,4.0
319,0,4.0
320,0,4.0
321,0,4.0
322,0,4.0
323,0,4.0
324,0,4.0
325,0,4.0
326,0,4.0
327,0,4.0
328,0,4.0
329,0,4.0
330,0,4.0
331,0,4.0
332,0,4.0
333,0,4.0
334,0,4.0
335,0,4.0
336,0,4.0
337,0,4.0
338,0,4.0
339,0,4.0
340,0,4.0
341,0,4.0
342,0,4.0
343,0,4.0
344,0,4.0
345,0,4.0
346,0,4.0
347,0,4.0
348,0,4.0
349,0,4.0
350,0,4.0
351,0,4.0
352,0,4.0
353,0,4.0
354,0,4.0
355,0,4.0
356,0,4.0
357,0,4.0
358,0,4.0
359,0,4.0
360,0,4.0
361,0,4.0
362,0,4.0
363,0,4.0
364,0,4.0
365,0,4.0
366,0,4.0
367,0,4.0
368,0,4.0
369,0,4.0
370,0,4.0
371,0,4.0
372,0,4.0
373,0,4.0
374,0,4.0
375,0,4.0
376,0,4.0
377,0,4.0
378,0,4.0
379,0,4.0
380,0,4.0
381,0,4.0
382,0,4.0
383,0,4.0
384,0,4.0
385,0,4.0
386,0,4.0
387,0,4.0
388,0,4.0
389,0,4.0
390,0,4.0
391,0,4.0
392,0,4.0
393,0,4.0
394,0,4.0
395,0,4.0
396,0,4.0
397,0,4.0
398,0,4.0
399,0,4.0
400,0,4.0
401,0,4.0
402,0,4.0
403,0,4.0
404,0,4.0
405,0,4.0
406,0,4.0
407,0,4.0
408,0,4.0
409,0,4.0
410,0,4.0
411,0,4.0
412,0,4.0
413,0,4.0
414,0,4.0
415,0,4.0
416,0,4.0
417,0,4.0
418,0,4.0
419,0,4.0
420,0,4.0
421,0,4.0
422,0,4.0
423,0,4.0
424,0,4.0
425,0,4.0
426,0,4.0
427,0,4.0
428,0,4.0
429,0,4.0
430,0,4.0
431,0,4.0
432,0,4.0
433,0,4.0
434,0,4.0
435,0,4.0
436,0,4.0
437,0,4.0
438,0,4.0
439,0,4.0
440,0,4.0
441,0,4.0
442,0,4.0
443,0,4.0
444,0,4.0
445,0,4.0
446,0,4.0
447,0,4.0
448,0,4.0
449,0,4.0
450,0,4.0
451,0,4.0
452,0,4.0
453,0,4.0
454,0,4.0
455,0,4.0
456,0,4.0
457,0,4.0
458,0,4.0
459,0,4.0
460,0,4.0
461,0,4.0
462,0,4.0
463,0,4.0
464,0,4.0
465,0,4.0
466,0,4.0
467,0,4.0
468,0,4.0
469,0,4.0
470,0,4.0
471,0,4.0
472,0,4.0
473,0,4.0
474,0,4.0
475,0,4.0
476,0,4.0
477,0,4.0
478,0,4.0
479,0,4.0
480,0,4.0
481,0,4.0
482,0,4.0
483,0,4.0
484,0,4.0
485,0,4.0
486,0,4.0
487,0,4.0
488,0,16.0
489,0,15.0
490,0,15.0
491,0,15.0
492,0,15.0
493,0,37.0
494,0,19.0
495,0,61.0
496,0,24.0
497,0,0.0
498,0,10.0
499,0,21.0
500,0,21.0
501,0,19.0
502,0,99.0
503,0,99.0
504,0,99.0
505,0,99.0
506,0,99.0
507,0,99.0
508,0,2.0
509,0,2.0
510,0,2.0
511,0,2.0
512,0,2.0
513,0,2.0
514,0,17.0
515,0,69.0
516,0,69.0
517,0,38.0
518,0,22.0
519,0,72.0
520,0,15.5
521,0,1.5
522,0,1.5
523,0,1.5
524,0,44.0
525,0,23.0
526,0,52.5
527,0,73.0
528,0,27.5
529,0,27.5
530,0,1.0
531,0,1.0
532,0,1.0
533,0,1.0
534,0,1.0
535,0,1.0
536,0,1.0
537,0,1.0
538,0,1.0
539,0,16.0
540,0,76.0
541,0,26.0
542,0,13.0
543,0,13.0
544,0,13.0
545,0,13.0
546,0,13.0
547,0,13.0
548,0,13.0
549,0,91.5
550,0,67.0
551,0,71.0
552,0,49.0
553,0,42.0
554,0,39.0
555,0,23.0
556,0,14.0
557,0,82.5
558,0,82.5
559,0,82.5
560,0,82.5
561,0,11.0
562,0,11.0
563,0,11.0
564,0,11.0
565,0,11.0
566,0,11.0
567,0,11.0
568,0,11.0
569,0,11.0
570,0,11.0
571,0,11.0
572,0,11.0
573,0,48.0
574,0,48.0
575,0,48.0
576,0,48.0
577,0,48.0
578,0,48.0
579,0,36.0
580,0,28.0
581,0,158.5
582,0,138.0
583,0,113.0
584,0,119.0
585,0,96.0
586,0,92.5
587,0,50.0
588,0,37.0
589,0,41.0
590,0,26.0
591,0,26.5
592,0,75.0
593,0,75.0
594,0,48.0
595,0,48.0
596,0,21.0
597,0,21.0
598,0,21.0
599,0,21.0
600,0,21.0
601,0,21.0
602,0,21.0
603,0,21.0
604,0,21.0
605,0,21.0
606,0,21.0
607,0,21.0
608,0,21.0
609,0,21.0
610,0,21.0
611,0,21.0
612,0,21.0
613,0,21.0
614,0,21.0
615,0,21.0
616,0,21.0
617,0,21.0
618,0,21.0
619,0,21.0
620,0,21.0
621,0,21.0
622,0,21.0
623,0,21.0
624,0,21.0
625,0,21.0
626,0,21.0
627,0,21.0
628,0,21.0
629,0,21.0
630,0,21.0
631,0,21.0
632,0,21.0
633,0,21.0
634,0,21.0
635,0,21.0
636,0,21.0
637,0,21.0
638,0,21.0
639,0,21.0
640,0,21.0
641,0,21.0
642,0,42.0
643,0,42.0
644,0,42.0
645,0,20.0
646,0,20.0
647,0,20.0
648,0,20.0
649,0,20.0
650,0,20.0
651,0,20.0
652,0,20.0
653,0,20.0
654,0,20.0
655,0,20.0
656,0,20.0
657,0,20.0
658,0,20.0
659,0,20.0
660,0,20.0
661,0,20.0
662,0,20.0
663,0,20.0
664,0,20.0
665,0,20.0
666,0,20.0
667,0,20.0
668,0,20.0
669,0,20.0
670,0,20.0
671,0,20.0
672,0,20.0
673,0,20.0
674,0,20.0
675,0,20.0
676,0,20.0
677,0,20.0
678,0,20.0
679,0,20.0
680,0,20.0
681,0,20.0
682,0,20.0
683,0,20.0
684,0,20.0
685,0,20.0
686,0,20.0
687,0,20.0
688,0,20.0
689,0,20.0
690,0,20.0
691,0,20.0
692,0,20.0
693,0,20.0
694,0,20.0
695,0,20.0
696,0,20.0
697,0,20.0
698,0,20.0
699,0,20.0
700,0,20.0
701,0,20.0
702,0,20.0
703,0,20.0
704,0,20.0
705,0,20.0
706,0,20.0
707,0,20.0
708,0,20.0
709,0,20.0
710,0,20.0
711,0,20.0
712,0,20.0
713,0,20.0
714,0,20.0
715,0,20.0
716,0,20.0
717,0,20.0
718,0,20.0
719,0,20.0
720,0,20.0
721,0,20.0
722,0,20.0
723,0,20.0
724,0,20.0
725,0,20.0
726,0,20.0
727,0,20.0
728,0,20.0
729,0,20.0
730,0,20.0
731,0,20.0
732,0,20.0
733,0,20.0
734,0,20.0
735,0,20.0
736,0,20.0
737,0,20.0
738,0,20.0
739,0,20.0
740,0,20.0
741,0,20.0
742,0,20.0
743,0,20.0
744,0,20.0
745,0,20.0
746,0,20.0
747,0,20.0
748,0,20.0
749,0,20.0
750,0,20.0
751,0,20.0
752,0,20.0
753,0,20.0
754,0,20.0
755,0,20.0
756,0,20.0
757,0,20.0
758,0,20.0
759,0,20.0
760,0,20.0
761,0,20.0
762,0,20.0
763,0,20.0
764,0,20.0
765,0,20.0
766,0,20.0
767,0,20.0
768,0,20.0
769,0,20.0
770,0,20.0
771,0,20.0
772,0,20.0
773,0,20.0
774,0,20.0
775,0,20.0
776,0,20.0
777,0,20.0
778,0,20.0
779,0,20.0
780,0,20.0
781,0,20.0
782,0,20.0
783,0,20.0
784,0,20.0
785,0,20.0
786,0,20.0
787,0,20.0
788,0,20.0
789,0,20.0
790,0,20.0
791,0,20.0
792,0,20.0
793,0,20.0
794,0,20.0
795,0,20.0
796,0,20.0
797,0,20.0
798,0,20.0
799,0,20.0
800,0,20.0
801,0,20.0
802,0,20.0
803,0,20.0
804,0,20.0
805,0,20.0
806,0,20.0
807,0,20.0
808,0,20.0
809,0,20.0
810,0,20.0
811,0,20.0
812,0,20.0
813,0,20.0
814,0,20.0
815,0,20.0
816,0,20.0
817,0,20.0
818,0,20.0
819,0,20.0
820,0,20.0
821,0,20.0
822,0,20.0
823,0,20.0
824,0,20.0
825,0,20.0
826,0,20.0
827,0,20.0
828,0,20.0
829,0,20.0
830,0,20.0
831,0,20.0
832,0,20.0
833,0,20.0
834,0,20.0
835,0,20.0
836,0,36.0
837,0,36.0
838,0,36.0
839,0,36.0
840,0,36.0
841,0,20.0
842,0,20.0
843,0,20.0
844,0,20.0
845,0,20.0
846,0,20.0
847,0,20.0
848,0,20.0
849,0,20.0
850,0,20.0
851,0,20.0
852,0,49.0
853,0,72.0
854,0,25.0
855,0,74.0
856,0,23.5
857,0,90.0
858,0,74.0
859,0,72.0
860,0,49.5
861,0,49.5
862,0,49.5
863,0,49.5
864,0,13.5
865,0,13.5
866,0,13.5
867,0,13.5
868,0,13.5
869,0,20.0
870,0,15.0
871,0,13.0
872,0,25.0
873,0,18.5
874,0,48.0
875,0,22.0
876,0,18.5
877,0,57.5
878,0,112.0
879,0,144.0
880,0,102.0
881,0,110.0
882,0,124.0
883,0,97.0
884,0,76.0
885,0,122.0
886,0,92.0
887,0,29.5
888,0,22.5
889,0,23.0
890,0,20.0
891,0,10.5
892,0,34.0
893,0,28.0
894,0,44.0
895,0,44.0
896,0,44.0
897,0,44.0
898,0,44.0
899,0,19.0
900,0,19.0
901,0,19.0
902,0,19.0
903,0,19.0
904,0,19.0
905,0,24.0
906,0,3.0
907,0,27.0
908,0,27.0
909,0,25.5
910,0,25.5
911,0,12.0
912,0,12.0
913,0,27.0
914,0,27.0
915,0,27.0
916,0,27.0
917,0,27.0
918,0,27.0
919,0,27.0
920,0,27.0
921,0,27.0
922,0,96.0
923,0,70.0
924,0,28.0
925,0,28.0
926,0,28.0
927,0,28.0
928,0,28.0
929,0,28.0
930,0,28.0
931,0,28.0
932,0,28.0
933,0,0.0
934,0,0.0
935,0,0.0
936,0,0.0
937,0,0.0
938,0,15.5
939,0,25.5
940,0,22.0
941,0,39.5
942,0,4.5
943,0,47.5
944,0,24.0
945,0,23.0
946,0,14.0
947,0,5.0
948,0,20.0
949,0,26.0
950,0,20.0
951,0,3.0
952,0,3.0
953,0,3.0
954,0,3.0
955,0,3.0
956,0,3.0
957,0,3.0
958,0,96.0
959,0,135.0
960,0,15.5
961,0,47.0
962,0,46.0
963,0,37.0
964,0,93.0
965,0,95.0
966,0,14.0
967,0,48.0
968,0,20.0
969,0,20.0
970,0,20.0
971,0,20.0
972,0,137.0
973,0,126.5
974,0,24.0
975,0,144.0
976,0,142.0
977,0,93.0
978,0,96.5
979,0,70.0
980,0,48.5
981,0,10.0
982,0,25.5
983,0,24.0
984,0,19.0
985,0,15.0
986,0,39.0
987,0,39.5
988,0,45.0
989,0,45.0
990,0,45.0
991,0,26.0
992,0,20.0
993,0,20.0
994,0,20.0
995,0,160.0
996,0,50.0
997,0,98.5
998,0,88.0
999,0,48.0
1000,0,45.0
1001,0,32.5
1002,0,51.5
1003,0,68.0
1004,0,44.0
1005,0,25.0
1006,0,131.0
1007,0,131.0
1008,0,131.0
1009,0,27.0
1010,0,14.0
1011,0,3.0
1012,0,3.0
1013,0,23.5
1014,0,23.5
1015,0,8.5
1016,0,8.5
1017,0,20.0
1018,0,20.0
1019,0,20.0
1020,0,20.0
1021,0,120.0
1022,0,120.0
1023,0,120.0
1024,0,120.0
1025,0,25.0
1026,0,25.0
1027,0,25.0
1028,0,25.0
1029,0,25.0
1030,0,25.0
1031,0,25.0
1032,0,25.0
1033,0,25.0
1034,0,25.0
1035,0,25.0
1036,0,25.0
1037,0,25.0
1038,0,25.0
1039,0,25.0
1040,0,25.0
1041,0,25.0
1042,0,25.0
1043,0,25.0
1044,0,25.0
1045,0,25.0
1046,0,25.0
1047,0,25.0
1048,0,25.0
1049,0,25.0
1050,0,25.0
1051,0,25.0
1052,0,25.0
1053,0,25.0
1054,0,25.0
1055,0,25.0
1056,0,25.0
1057,0,25.0
1058,0,25.0
1059,0,25.0
1060,0,25.0
1061,0,25.0
1062,0,25.0
1063,0,25.0
1064,0,25.0
1065,0,25.0
1066,0,25.0
1067,0,25.0
1068,0,25.0
1069,0,25.0
1070,0,25.0
1071,0,25.0
1072,0,25.0
1073,0,25.0
1074,0,25.0
1075,0,25.0
1076,0,25.0
1077,0,25.0
1078,0,25.0
1079,0,25.0
1080,0,25.0
1081,0,25.0
1082,0,25.0
1083,0,25.0
1084,0,25.0
1085,0,25.0
1086,0,25.0
1087,0,25.0
1088,0,25.0
1089,0,25.0
1090,0,25.0
1091,0,25.0
1092,0,25.0
1093,0,25.0
1094,0,25.0
1095,0,25.0
1096,0,25.0
1097,0,25.0
1098,0,25.0
1099,0,25.0
1100,0,25.0
1101,0,25.0
1102,0,25.0
1103,0,25.0
1104,0,25.0
1105,0,25.0
1106,0,25.0
1107,0,25.0
1108,0,25.0
1109,0,25.0
1110,0,25.0
1111,0,25.0
1112,0,25.0
1113,0,25.0
1114,0,25.0
1115,0,25.0
1116,0,25.0
1117,0,25.0
1118,0,25.0
1119,0,25.0
1120,0,25.0
1121,0,25.0
1122,0,25.0
1123,0,25.0
1124,0,25.0
1125,0,25.0
1126,0,25.0
1127,0,25.0
1128,0,25.0
1129,0,25.0
1130,0,25.0
1131,0,25.0
1132,0,25.0
1133,0,25.0
1134,0,25.0
1135,0,25.0
1136,0,25.0
1137,0,25.0
1138,0,25.0
1139,0,25.0
1140,0,25.0
1141,0,25.0
1142,0,25.0
1143,0,25.0
1144,0,25.0
1145,0,25.0
1146,0,25.0
1147,0,25.0
1148,0,25.0
1149,0,25.0
1150,0,25.0
1151,0,25.0
1152,0,25.0
1153,0,25.0
1154,0,25.0
