,Demand,Response_Time
0,14,46.0
1,8,26.5
2,7,63.0
3,7,22.0
4,5,19.0
5,5,47.0
6,3,46.0
7,18,67.0
8,13,27.0
9,10,41.5
10,6,32.5
11,7,72.0
12,7,48.0
13,5,20.0
14,14,22.0
15,9,50.0
16,6,48.5
17,8,26.0
18,5,99.0
19,8,43.0
20,4,42.5
21,9,44.0
22,18,44.0
23,15,44.0
24,10,33.0
25,3,98.0
26,3,88.0
27,5,50.0
28,6,41.5
29,13,65.0
30,9,52.0
31,10,37.5
32,7,25.0
33,4,114.0
34,7,23.0
35,3,19.0
36,12,21.0
37,10,25.0
38,11,23.0
39,8,24.0
40,6,49.5
41,3,24.0
42,7,94.0
43,10,49.0
44,2,31.5
45,7,25.0
46,6,48.0
47,1,36.0
48,9,47.0
49,8,40.5
50,11,22.0
51,14,46.5
52,9,21.0
53,6,42.0
54,4,73.5
55,4,70.5
56,7,50.0
57,6,19.5
58,13,18.0
59,7,48.0
60,9,99.0
61,4,67.0
62,2,93.0
63,6,113.0
64,11,24.0
65,1,20.0
66,8,47.5
67,9,29.0
68,2,48.5
69,2,70.5
70,7,86.0
71,3,20.0
72,2,69.0
73,14,24.5
74,6,70.0
75,2,124.0
76,6,40.0
77,9,24.0
78,5,49.0
79,5,24.0
80,8,36.0
81,2,17.5
82,3,43.0
83,5,31.0
84,10,52.0
85,10,37.5
86,14,48.5
87,12,45.0
88,9,158.0
89,7,59.0
90,5,22.0
91,11,24.0
92,6,81.5
93,3,22.0
94,6,71.5
95,5,23.0
96,4,58.5
97,9,25.0
98,6,33.5
99,4,33.5
100,13,20.0
101,8,47.5
102,6,48.0
103,5,49.0
104,3,25.0
105,5,26.0
106,8,58.0
107,6,56.0
108,2,37.0
109,8,46.5
110,0,46.5
111,6,20.0
112,7,21.0
113,1,5.0
114,7,47.0
115,7,26.0
116,7,24.0
117,3,68.0
118,4,19.5
119,4,26.5
120,3,23.0
121,5,24.0
122,7,23.0
123,4,87.0
124,1,38.0
125,0,38.0
126,9,72.0
127,6,24.5
128,4,58.5
129,3,5.0
130,5,75.0
131,1,42.0
132,3,25.0
133,5,24.0
134,3,0.0
135,2,140.0
136,3,49.0
137,2,73.0
138,0,73.0
139,4,167.5
140,16,26.5
141,5,22.0
142,4,94.0
143,2,50.5
144,1,70.0
145,4,51.0
146,3,25.0
147,6,64.5
148,3,73.0
149,7,118.0
150,11,94.0
151,2,55.5
152,2,83.5
153,0,83.5
154,6,32.5
155,4,119.0
156,5,27.0
157,3,22.0
158,4,98.0
159,0,98.0
160,0,98.0
161,2,53.0
162,1,77.0
163,1,49.0
164,2,259.5
165,6,262.5
166,0,262.5
167,1,239.0
168,1,283.0
169,7,237.0
170,2,142.5
171,2,18.5
172,3,147.0
173,1,164.0
174,1,16.0
175,5,24.0
176,3,52.0
177,6,25.0
178,4,23.5
179,4,131.5
180,3,46.0
181,3,120.0
182,9,22.0
183,5,19.0
184,6,24.0
185,3,46.0
186,1,98.0
187,1,73.0
188,4,45.5
189,4,34.5
190,4,43.5
191,1,24.0
192,5,51.0
193,5,24.0
194,3,219.0
195,2,121.0
196,7,61.0
197,8,73.5
198,8,57.5
199,8,115.0
200,8,72.0
201,2,62.5
202,1,18.0
203,9,19.0
204,10,35.5
205,7,24.0
206,7,45.0
207,1,23.0
208,5,73.0
209,3,49.0
210,6,22.5
211,7,24.0
212,7,40.0
213,7,47.0
214,6,72.0
215,2,128.5
216,4,23.0
217,8,33.5
218,9,49.0
219,7,44.0
220,9,24.0
221,5,29.0
222,2,93.5
223,6,23.0
224,9,23.0
225,12,63.5
226,12,115.0
227,8,47.5
228,8,53.5
229,4,79.5
230,2,68.5
231,8,17.5
232,7,22.0
233,10,19.0
234,4,24.5
235,7,24.0
236,1,4.0
237,3,25.0
238,8,21.5
239,8,49.0
240,6,46.0
241,10,31.0
242,10,26.0
243,0,26.0
244,3,45.0
245,13,99.0
246,8,83.5
247,9,27.0
248,11,39.0
249,5,25.0
250,2,58.5
251,5,23.0
252,12,93.5
253,9,24.0
254,14,25.5
255,8,36.0
256,7,104.0
257,3,70.0
258,1,18.0
259,4,17.0
260,6,187.0
261,11,25.0
262,3,120.0
263,7,100.0
264,2,143.0
265,5,26.0
266,4,140.5
267,8,48.0
268,7,135.0
269,8,49.0
270,7,72.0
271,4,60.0
272,6,24.5
273,10,25.5
274,15,43.0
275,10,27.0
276,9,37.0
277,6,93.5
278,2,56.5
279,2,24.0
280,13,47.0
281,12,72.5
282,8,59.5
283,12,87.5
284,8,71.5
285,4,92.5
286,0,92.5
287,12,37.0
288,9,24.0
289,7,44.0
290,7,24.0
291,11,96.0
292,3,73.0
293,6,71.0
294,8,62.0
295,20,47.5
296,8,43.0
297,18,98.0
298,9,69.0
299,10,69.0
300,4,44.5
301,12,47.5
302,11,51.0
303,7,159.0
304,3,49.0
305,6,63.0
306,4,215.0
307,5,21.0
308,6,49.0
309,22,27.0
310,11,45.0
311,13,96.0
312,5,140.0
313,7,86.0
314,3,25.0
315,12,73.5
316,12,71.5
317,11,45.0
318,20,50.0
319,15,68.0
320,5,48.0
321,4,30.5
322,16,34.5
323,13,20.0
324,18,60.5
325,11,25.0
326,13,122.0
327,3,71.0
328,5,96.0
329,6,49.0
330,11,21.0
331,9,49.0
332,10,45.5
333,11,27.0
334,4,59.0
335,6,45.5
336,12,47.0
337,24,41.5
338,11,22.0
339,15,98.0
340,18,97.0
341,4,78.5
342,12,61.0
343,12,49.0
344,6,46.5
345,15,117.0
346,15,36.0
347,7,70.0
348,2,69.5
349,5,71.0
350,11,74.0
351,10,25.0
352,12,44.5
353,18,22.5
354,5,23.0
355,3,49.0
356,3,42.0
357,14,26.0
358,19,43.0
359,5,25.0
360,13,95.0
361,11,72.0
362,2,131.0
363,5,27.0
364,14,45.5
365,17,48.0
366,8,42.5
367,14,49.5
368,8,67.0
369,4,60.0
370,5,167.0
371,12,26.0
372,19,46.0
373,8,23.0
374,12,45.5
375,8,70.0
376,8,47.0
377,4,37.5
378,22,47.0
379,20,25.0
380,9,27.0
381,11,25.0
382,4,69.0
383,0,69.0
384,4,34.5
385,14,25.0
386,14,69.0
387,7,141.0
388,12,84.5
389,14,25.0
390,7,91.0
391,2,63.5
392,7,124.0
393,11,45.0
394,7,22.0
395,5,98.0
396,7,75.0
397,2,80.5
398,7,21.0
399,14,28.0
400,3,26.0
401,8,175.5
402,10,49.5
403,11,25.0
404,5,48.0
405,9,46.0
406,11,23.0
407,12,47.0
408,14,25.5
409,14,38.5
410,8,65.5
411,3,62.0
412,5,26.0
413,8,63.0
414,15,41.0
415,2,21.5
416,7,25.0
417,10,91.5
418,3,137.0
419,2,25.5
420,7,44.0
421,7,120.0
422,6,22.0
423,6,23.5
424,7,27.0
425,6,104.5
426,1,65.0
427,5,164.0
428,8,41.0
429,7,47.0
430,9,27.0
431,13,90.0
432,4,46.0
433,6,71.5
434,9,77.0
435,4,14.5
436,7,116.0
437,14,23.5
438,8,48.0
439,3,70.0
440,0,70.0
441,13,26.0
442,0,26.0
443,9,121.0
444,6,33.5
445,5,74.0
446,3,74.0
447,5,42.0
448,9,74.0
449,9,43.0
450,6,23.5
451,15,25.0
452,9,26.0
453,2,143.0
454,1,67.0
455,5,67.0
456,9,36.0
457,4,46.5
458,8,128.5
459,23,69.0
460,4,133.5
461,0,133.5
462,14,71.0
463,7,51.0
464,6,26.5
465,11,47.0
466,4,48.5
467,3,94.0
468,1,63.0
469,8,47.5
470,9,43.0
471,6,113.0
472,1,121.0
473,7,72.0
474,3,45.0
475,1,23.0
476,13,48.0
477,8,24.5
478,6,43.0
479,11,46.0
480,10,84.5
481,5,67.0
482,4,91.0
483,9,25.0
484,18,61.0
485,5,46.0
486,7,97.0
487,7,88.0
488,2,145.5
489,6,69.0
490,14,35.5
491,10,47.0
492,9,43.0
493,3,124.0
494,7,71.0
495,2,118.0
496,5,21.0
497,23,49.0
498,14,60.5
499,6,25.5
500,8,10.5
501,7,94.0
502,4,142.0
503,1,47.0
504,4,37.0
505,9,169.0
506,5,67.0
507,8,83.5
508,12,94.0
509,4,118.5
510,1,44.0
511,5,24.0
512,7,43.0
513,6,19.5
514,8,34.5
515,4,80.5
516,0,80.5
517,0,80.5
518,1,25.0
519,4,59.0
520,8,54.0
521,14,35.0
522,9,97.0
523,4,102.5
524,5,49.0
525,8,25.5
526,4,37.0
527,4,34.5
528,16,37.0
529,3,189.0
530,3,46.0
531,4,44.0
532,10,26.5
533,6,25.5
534,6,19.5
535,7,99.0
536,7,72.0
537,6,44.0
538,5,18.0
539,6,36.5
540,6,180.5
541,11,21.0
542,9,47.0
543,2,21.0
544,3,43.0
545,3,48.0
546,7,162.0
547,10,136.5
548,13,118.0
549,4,104.0
550,2,98.5
551,1,120.0
552,2,54.0
553,3,66.0
554,4,39.5
555,8,49.0
556,24,45.5
557,9,23.0
558,8,67.0
559,2,47.5
560,6,60.0
561,7,68.0
562,8,38.5
563,15,24.0
564,12,35.5
565,3,122.0
566,1,42.0
567,14,45.0
568,19,44.0
569,4,49.5
570,9,28.0
571,4,118.0
572,3,213.0
573,1,62.0
574,10,26.0
575,5,24.0
576,7,27.0
577,10,181.5
578,3,71.0
579,0,71.0
580,0,71.0
581,2,108.5
582,0,108.5
583,5,139.0
584,5,68.0
585,5,115.0
586,0,115.0
587,2,45.5
588,9,44.0
589,12,60.0
590,9,42.0
591,7,45.0
592,5,19.0
593,6,42.0
594,5,74.0
595,14,36.0
596,13,29.0
597,9,60.0
598,9,40.0
599,5,66.0
600,1,92.0
601,4,92.5
602,12,61.5
603,9,23.0
604,11,65.0
605,9,92.0
606,7,115.0
607,2,177.5
608,1,41.0
609,11,30.0
610,7,21.0
611,6,24.0
612,5,27.0
613,3,265.0
614,2,313.5
615,5,259.0
616,4,36.0
617,8,26.0
618,7,21.0
619,14,44.5
620,4,42.0
621,2,120.0
622,0,120.0
623,16,72.5
624,16,48.0
625,9,10.0
626,8,38.0
627,9,20.0
628,3,42.0
629,4,34.5
630,12,24.5
631,12,49.0
632,12,47.5
633,15,45.0
634,4,45.0
635,1,48.0
636,3,26.0
637,8,22.5
638,12,23.0
639,11,25.0
640,18,37.5
641,4,25.0
642,4,59.5
643,3,24.0
644,14,32.0
645,15,26.0
646,16,47.5
647,9,25.0
648,8,49.5
649,4,166.5
650,6,23.0
651,17,28.0
652,11,48.0
653,11,133.0
654,9,48.0
655,4,128.5
656,10,84.0
657,2,74.5
658,10,47.0
659,7,70.0
660,5,24.0
661,8,33.0
662,14,123.5
663,2,60.0
664,2,258.0
665,9,66.0
666,12,67.0
667,7,27.0
668,8,34.0
669,4,177.0
670,4,158.5
671,3,67.0
672,16,58.5
673,22,65.0
674,8,28.0
675,17,24.0
676,10,72.5
677,1,48.0
678,7,75.0
679,9,182.0
680,11,72.0
681,9,72.0
682,13,51.0
683,7,22.0
684,2,56.0
685,3,263.0
686,12,67.0
687,11,26.0
688,16,47.0
689,13,93.0
690,8,119.0
691,5,240.0
692,3,61.0
693,14,111.5
694,5,91.0
695,13,47.0
696,20,50.0
697,16,95.5
698,2,44.0
699,7,79.0
700,18,25.5
701,26,71.0
702,17,42.0
703,19,48.0
704,9,66.0
705,4,121.0
706,7,43.0
707,15,27.0
708,26,47.5
709,12,31.5
710,16,41.0
711,13,67.0
712,7,97.0
713,1,21.0
714,17,44.0
715,18,42.0
716,12,36.0
717,16,36.0
718,12,73.5
719,2,60.5
720,6,124.5
721,17,44.0
722,17,69.0
723,9,121.0
724,12,46.0
725,13,73.0
726,7,126.0
727,9,47.0
728,13,25.0
729,12,49.5
730,9,48.0
731,12,102.5
732,9,74.0
733,6,138.0
734,3,24.0
735,20,41.0
736,12,36.0
737,18,47.0
738,18,27.0
739,6,12.0
740,4,40.5
741,8,39.5
742,17,23.0
743,13,21.0
744,13,25.0
745,12,25.5
746,7,68.0
747,5,51.0
748,2,74.0
749,16,42.5
750,11,22.0
751,11,41.0
752,10,20.5
753,6,26.5
754,8,240.5
755,6,68.0
756,4,70.0
757,21,28.0
758,6,54.0
759,14,46.5
760,10,99.0
761,3,49.0
762,4,58.5
763,13,27.0
764,18,349.0
765,5,51.0
766,10,67.5
767,20,69.5
768,4,90.5
769,6,75.0
770,16,55.0
771,18,28.0
772,6,48.0
773,5,120.0
774,5,89.0
775,9,94.0
776,5,48.0
777,16,40.5
778,25,50.0
779,18,23.0
780,13,29.0
781,9,48.0
782,6,54.0
783,8,47.0
784,18,43.0
785,20,62.0
786,15,28.0
787,8,82.0
788,8,93.0
789,0,93.0
790,4,195.5
791,9,36.0
792,16,32.0
793,5,35.0
794,6,36.0
795,2,59.5
796,3,70.0
797,4,45.5
798,20,45.5
799,19,67.0
800,7,22.0
801,13,121.0
802,7,27.0
803,0,27.0
804,2,44.5
805,13,25.0
806,21,51.0
807,11,46.0
808,11,26.0
809,8,47.5
810,4,47.0
811,2,45.5
812,5,22.0
813,13,49.0
814,8,71.5
815,24,25.0
816,12,109.5
817,6,92.0
818,1,86.0
819,13,71.0
820,8,25.0
821,6,141.0
822,13,96.0
823,4,115.0
824,2,155.5
825,1,16.0
826,11,24.0
827,7,70.0
828,9,26.0
829,7,95.0
830,7,23.0
831,3,147.0
832,1,21.0
833,17,28.0
834,9,96.0
835,9,69.0
836,1,178.0
837,6,98.0
838,3,94.0
839,1,80.0
840,14,19.0
841,8,70.5
842,7,40.0
843,16,21.0
844,7,233.0
845,4,50.0
846,4,210.0
847,15,27.0
848,13,44.0
849,6,95.0
850,5,20.0
851,12,118.0
852,0,118.0
853,1,215.0
854,11,27.0
855,8,51.5
856,5,26.0
857,7,115.0
858,2,81.5
859,3,88.0
860,1,61.0
861,8,25.5
862,8,37.5
863,10,22.0
864,8,24.0
865,5,96.0
866,4,92.0
867,5,76.0
868,2,49.5
869,4,18.5
870,4,32.0
871,7,26.0
872,10,201.0
873,0,201.0
874,1,46.0
875,3,23.0
876,8,190.5
877,3,72.0
878,1,123.0
879,4,86.5
880,3,58.0
881,0,58.0
882,8,238.0
883,2,71.5
884,8,60.5
885,4,48.0
886,7,170.0
887,0,170.0
888,7,147.0
889,6,70.5
890,13,67.0
891,3,25.0
892,11,166.0
893,7,69.0
894,9,50.0
895,8,142.5
896,13,48.0
897,14,45.0
898,10,72.0
899,7,46.0
900,4,174.5
901,8,54.5
902,4,130.0
903,4,6.5
904,10,69.0
905,3,43.0
906,8,145.0
907,7,71.0
908,5,245.0
909,5,65.0
910,9,22.0
911,9,25.0
912,2,37.0
913,10,27.0
914,6,117.5
915,6,83.0
916,1,36.0
917,4,38.5
918,7,28.0
919,13,26.0
920,3,164.0
921,6,89.5
922,2,95.0
923,4,124.5
924,7,73.0
925,10,71.0
926,9,43.0
927,8,20.5
928,5,26.0
929,1,49.0
930,1,27.0
931,0,27.0
932,0,27.0
933,0,0.0
934,0,0.0
935,5,73.0
936,6,60.0
937,4,59.0
938,7,43.0
939,2,56.0
940,3,22.0
941,5,23.0
942,2,74.0
943,2,81.0
944,1,24.0
945,3,68.0
946,2,33.5
947,1,23.0
948,0,23.0
949,5,27.0
950,3,72.0
951,2,65.0
952,2,48.0
953,3,266.0
954,3,28.0
955,6,189.5
956,6,233.0
957,1,163.0
958,2,117.0
959,1,143.0
960,0,143.0
961,2,34.0
962,3,48.0
963,5,22.0
964,0,22.0
965,0,22.0
966,1,282.0
967,2,38.5
968,7,20.0
969,2,300.0
970,8,15.0
971,3,143.0
972,1,119.0
973,1,40.0
974,5,94.0
975,5,50.0
976,5,118.0
977,2,107.5
978,3,145.0
979,0,145.0
980,0,145.0
981,3,60.0
982,2,19.0
983,4,26.0
984,0,26.0
985,1,72.0
986,3,51.0
987,8,50.0
988,4,39.0
989,2,60.5
990,9,43.0
991,4,262.0
992,0,262.0
993,4,142.0
994,3,73.0
995,4,168.0
996,7,147.0
997,2,93.5
998,3,119.0
999,1,113.0
1000,4,66.5
1001,6,46.0
1002,13,44.0
1003,8,33.0
1004,9,53.0
1005,7,73.0
1006,8,74.5
1007,6,285.5
1008,16,58.0
1009,9,97.0
1010,8,46.5
1011,6,93.0
1012,6,69.5
1013,4,47.0
1014,4,62.0
1015,15,27.0
1016,6,111.0
1017,7,44.0
1018,8,66.5
1019,12,78.5
1020,3,289.0
1021,3,314.0
1022,7,82.0
1023,9,86.0
1024,8,144.5
1025,4,35.0
1026,6,99.5
1027,3,65.0
1028,0,65.0
1029,8,32.5
1030,12,46.5
1031,7,25.0
1032,5,24.0
1033,6,83.0
1034,1,95.0
1035,5,45.0
1036,9,50.0
1037,6,55.5
1038,6,20.0
1039,2,11.0
1040,4,46.5
1041,0,46.5
1042,3,22.0
1043,6,21.0
1044,8,26.0
1045,9,21.0
1046,10,34.0
1047,3,28.0
1048,4,53.5
1049,4,32.0
1050,5,26.0
1051,4,47.5
1052,4,44.0
1053,5,26.0
1054,5,74.0
1055,6,78.5
1056,5,26.0
1057,7,39.0
1058,6,17.5
1059,8,46.5
1060,4,32.5
1061,7,67.0
1062,1,213.0
1063,4,18.5
1064,12,22.0
1065,7,66.0
1066,7,42.0
1067,11,47.0
1068,15,26.0
1069,1,41.0
1070,1,211.0
1071,6,23.5
1072,6,34.0
1073,9,39.0
1074,10,24.0
1075,5,20.0
1076,4,86.0
1077,3,71.0
1078,8,39.5
1079,12,46.0
1080,12,25.0
1081,5,96.0
1082,7,77.0
1083,2,47.5
1084,7,49.0
1085,9,26.0
1086,4,32.5
1087,9,25.0
1088,5,26.0
1089,11,24.0
1090,2,49.0
1091,7,23.0
1092,12,41.5
1093,6,36.0
1094,12,39.5
1095,10,42.0
1096,5,26.0
1097,6,58.5
1098,6,46.0
1099,6,46.5
1100,3,20.0
1101,9,30.0
1102,7,86.0
1103,9,75.0
1104,2,59.0
1105,4,48.0
1106,4,39.0
1107,6,22.0
1108,8,24.5
1109,15,25.0
1110,7,24.0
1111,6,61.5
1112,4,46.5
1113,9,36.0
1114,7,47.0
1115,5,22.0
1116,10,20.5
1117,4,72.5
1118,4,52.5
1119,6,46.0
1120,14,69.0
1121,15,25.0
1122,12,24.0
1123,22,21.0
1124,4,62.5
1125,9,49.0
1126,6,42.0
1127,17,27.0
1128,6,59.5
1129,8,35.0
1130,8,21.5
1131,8,23.0
1132,1,75.0
1133,2,49.0
1134,9,26.0
1135,9,23.0
1136,9,49.0
1137,4,15.5
1138,11,63.0
1139,2,59.0
1140,4,18.0
1141,6,27.0
1142,5,27.0
1143,4,24.5
1144,11,40.0
1145,12,64.5
1146,6,59.5
1147,8,65.0
1148,9,65.0
1149,10,57.0
1150,17,26.0
1151,9,48.0
1152,14,67.0
1153,4,45.5
1154,6,22.0
