,Demand,Response_Time
0,9,238.0
1,22,213.0
2,22,189.0
3,10,167.0
4,14,141.0
5,7,88.0
6,1,41.0
7,10,70.5
8,14,46.0
9,18,518.0
10,14,496.0
11,13,475.0
12,7,450.0
13,0,450.0
14,15,397.0
15,10,376.5
16,7,352.0
17,10,523.5
18,10,501.5
19,10,476.5
20,0,476.5
21,12,428.5
22,9,404.0
23,7,383.0
24,8,361.5
25,8,333.0
26,9,233.0
27,0,233.0
28,3,41.0
29,5,236.0
30,18,163.5
31,19,189.0
32,16,165.5
33,13,142.0
34,0,142.0
35,6,218.5
36,17,194.0
37,9,144.0
38,12,147.0
39,11,126.0
40,6,99.5
41,0,99.5
42,7,257.0
43,11,230.0
44,9,206.0
45,9,184.0
46,7,160.0
47,6,45.5
48,0,45.5
49,7,227.0
50,19,207.0
51,19,186.0
52,6,161.0
53,7,138.0
54,17,112.0
55,0,112.0
56,5,61.0
57,12,41.0
58,11,38.0
59,8,495.5
60,12,367.5
61,5,447.0
62,1,46.0
63,13,399.0
64,12,277.0
65,5,353.0
66,13,327.0
67,13,307.0
68,10,265.0
69,1,290.0
70,16,236.5
71,6,304.0
72,12,278.0
73,10,260.0
74,9,235.0
75,9,209.0
76,0,209.0
77,17,102.0
78,26,192.5
79,11,279.0
80,19,260.0
81,15,395.0
82,13,380.0
83,1,101.0
84,17,258.0
85,12,356.5
86,25,213.0
87,37,188.0
88,18,329.0
89,11,301.0
90,0,301.0
91,17,253.0
92,13,229.0
93,23,207.0
94,18,183.5
95,7,161.0
96,11,209.0
97,1,47.0
98,15,330.0
99,13,306.0
100,19,276.0
101,18,258.0
102,9,231.0
103,23,210.0
104,2,115.0
105,13,184.0
106,19,209.0
107,17,307.0
108,0,307.0
109,14,118.5
110,18,110.5
111,1,282.0
112,14,187.0
113,18,403.0
114,24,379.0
115,13,353.0
116,13,427.0
117,16,412.5
118,2,206.0
119,29,336.0
120,19,311.0
121,9,329.0
122,20,305.5
123,12,346.0
124,10,321.0
125,0,321.0
126,25,401.0
127,24,379.5
128,12,353.5
129,13,330.0
130,17,307.0
131,9,285.0
132,1,257.0
133,12,498.0
134,14,476.0
135,16,461.5
136,18,447.0
137,0,447.0
138,4,213.5
139,0,213.5
140,15,351.0
141,19,164.0
142,19,381.0
143,16,359.5
144,1,337.0
145,13,308.0
146,0,308.0
147,11,261.0
148,26,243.5
149,7,347.0
150,21,482.0
151,21,412.0
152,11,453.0
153,1,432.0
154,21,339.0
155,30,398.5
156,17,382.0
157,26,492.5
158,25,432.0
159,10,646.0
160,2,824.0
161,7,1053.0
162,26,904.5
163,22,958.5
164,23,978.0
165,27,929.0
166,0,929.0
167,1,863.0
168,8,839.5
169,15,836.0
170,17,809.0
171,22,791.0
172,8,776.0
173,15,764.0
174,1,719.0
175,19,1041.0
176,28,888.0
177,17,1008.0
178,18,1042.0
179,12,1089.0
180,27,668.0
181,0,668.0
182,26,738.0
183,29,888.0
184,32,877.0
185,23,860.0
186,25,914.0
187,14,884.0
188,1,786.0
189,23,532.0
190,37,745.0
191,37,642.0
192,22,847.0
193,44,794.0
194,17,810.0
195,1,573.0
196,26,633.0
197,22,739.5
198,26,719.0
199,35,497.0
200,24,597.5
201,16,565.0
202,0,565.0
203,25,523.0
204,30,574.5
205,21,401.0
206,29,386.0
207,12,405.0
208,19,406.0
209,0,406.0
210,20,455.0
211,34,490.5
212,30,489.0
213,23,428.0
214,23,362.0
215,25,428.0
216,1,427.0
217,27,340.0
218,51,475.0
219,42,379.5
220,38,370.5
221,37,402.0
222,23,382.0
223,0,382.0
224,31,261.0
225,28,262.5
226,26,285.5
227,32,359.5
228,36,497.5
229,29,411.0
230,5,24.0
231,36,432.0
232,30,336.0
233,31,471.0
234,30,404.5
235,37,504.0
236,22,637.0
237,2,623.0
238,16,545.5
239,18,525.5
240,38,544.5
241,33,478.0
242,27,428.0
243,16,402.0
244,0,402.0
245,23,286.0
246,27,262.0
247,50,228.0
248,53,167.0
249,24,147.0
250,16,144.5
251,0,144.5
252,24,71.5
253,18,236.0
254,25,290.0
255,16,298.0
256,12,276.5
257,18,274.0
258,1,41.0
259,12,265.5
260,13,329.0
261,7,302.0
262,6,280.5
263,6,256.5
264,12,232.0
265,0,232.0
266,20,188.5
267,28,164.5
268,28,140.0
269,48,112.0
270,66,354.0
271,10,212.0
272,0,212.0
273,10,123.0
274,31,298.0
275,18,308.5
276,23,329.0
277,18,328.5
278,11,305.0
279,2,289.0
280,12,264.5
281,22,332.0
282,27,315.0
283,15,314.0
284,15,430.0
285,7,434.0
286,1,404.0
287,30,381.5
288,26,354.0
289,26,402.0
290,24,379.5
291,17,355.0
292,12,337.0
293,1,311.0
294,0,311.0
295,9,303.0
296,10,278.0
297,12,256.5
298,18,306.0
299,17,263.0
300,0,263.0
301,17,211.0
302,20,224.0
303,12,214.0
304,24,329.5
305,20,310.0
306,14,309.0
307,1,48.0
308,12,329.0
309,23,308.0
310,26,322.0
311,18,308.0
312,18,289.0
313,7,163.0
314,1,292.0
315,12,266.0
316,15,332.0
317,8,328.0
318,9,356.0
319,9,335.0
320,11,308.0
321,0,308.0
322,9,219.0
323,24,315.5
324,23,237.0
325,10,308.5
326,18,288.5
327,9,279.0
328,1,68.0
329,0,68.0
330,11,211.0
331,17,184.0
332,18,165.5
333,15,159.0
334,6,142.0
335,0,142.0
336,9,170.0
337,17,169.0
338,11,166.0
339,16,167.0
340,10,171.0
341,13,311.0
342,1,568.0
343,6,284.5
344,8,262.5
345,12,282.0
346,9,278.0
347,14,257.5
348,8,236.0
349,0,236.0
350,8,193.0
351,10,215.0
352,8,191.5
353,10,182.0
354,17,164.0
355,7,209.0
356,1,184.0
357,15,188.0
358,15,188.0
359,16,186.0
360,9,192.0
361,18,255.5
362,5,232.0
363,1,216.0
364,8,189.0
365,23,192.0
366,16,206.5
367,17,187.0
368,12,170.5
369,9,211.0
370,0,211.0
371,12,163.5
372,12,184.0
373,9,169.0
374,8,165.5
375,15,144.0
376,10,142.0
377,0,142.0
378,10,116.0
379,13,165.0
380,10,142.0
381,23,145.0
382,18,171.0
383,11,329.0
384,2,179.5
385,8,380.0
386,10,358.0
387,22,375.0
388,37,359.0
389,12,401.0
390,17,334.0
391,0,334.0
392,2,247.0
393,12,305.5
394,26,282.5
395,24,283.5
396,15,121.0
397,19,72.0
398,0,72.0
399,12,188.5
400,20,171.0
401,14,162.5
402,30,145.5
403,24,162.0
404,14,160.0
405,2,130.0
406,17,116.0
407,21,147.0
408,19,118.0
409,14,119.5
410,20,139.0
411,13,120.0
412,0,120.0
413,20,210.0
414,18,187.0
415,8,187.5
416,21,189.0
417,23,167.0
418,19,148.0
419,3,138.0
420,17,115.0
421,21,96.0
422,18,139.0
423,15,118.0
424,18,119.0
425,21,214.0
426,3,191.0
427,31,213.0
428,14,235.0
429,20,141.0
430,20,157.0
431,26,144.5
432,16,226.0
433,1,131.0
434,21,120.0
435,12,234.0
436,13,214.0
437,10,212.5
438,15,233.0
439,16,260.0
440,0,260.0
441,22,380.0
442,12,499.5
443,12,476.0
444,14,471.5
445,22,449.0
446,14,426.0
447,2,211.5
448,14,382.0
449,19,363.0
450,8,46.0
451,6,24.0
452,14,308.5
453,18,48.5
454,0,48.5
455,8,43.5
456,12,285.0
457,9,286.0
458,11,266.0
459,8,256.5
460,11,237.0
461,1,66.0
462,10,207.0
463,7,187.0
464,15,166.0
465,9,258.0
466,10,234.0
467,8,214.0
468,0,214.0
469,15,182.0
470,9,161.0
471,14,184.5
472,1,22.0
473,14,158.5
474,10,141.0
475,1,118.0
476,12,160.5
477,12,143.0
478,11,182.0
479,11,163.0
480,8,156.5
481,7,136.0
482,0,136.0
483,7,185.0
484,13,165.0
485,8,142.5
486,11,183.0
487,10,166.0
488,6,112.0
489,1,88.0
490,10,190.0
491,4,212.0
492,7,190.0
493,7,186.0
494,12,167.0
495,7,229.0
496,0,229.0
497,14,185.5
498,12,166.5
499,17,157.0
500,13,139.0
501,7,124.0
502,9,116.0
503,0,116.0
504,1,72.0
505,26,495.5
506,7,477.0
507,6,473.5
508,8,475.0
509,5,464.0
510,2,247.0
511,0,247.0
512,8,409.0
513,5,386.0
514,6,425.0
515,7,402.0
516,2,383.0
517,1,386.0
518,8,347.0
519,8,333.0
520,10,313.0
521,13,306.0
522,6,287.5
523,4,262.5
524,0,262.5
525,7,234.0
526,2,215.0
527,9,213.0
528,11,260.0
529,4,240.0
530,8,233.5
531,0,233.5
532,4,188.5
533,6,165.5
534,4,142.5
535,6,163.0
536,6,138.5
537,4,140.5
538,2,113.0
539,5,186.0
540,6,166.5
541,13,146.0
542,10,162.5
543,10,141.5
544,9,120.0
545,1,19.0
546,11,211.0
547,14,191.0
548,15,187.0
549,2,160.5
550,4,142.0
551,4,128.5
552,0,128.5
553,8,185.0
554,5,165.0
555,64,165.0
556,8,152.5
557,10,140.5
558,14,119.0
559,0,119.0
560,10,113.0
561,8,88.0
562,11,71.0
563,9,114.0
564,8,112.5
565,11,117.0
566,1,43.0
567,12,72.0
568,12,138.0
569,12,136.0
570,11,118.0
571,7,120.0
572,7,135.0
573,1,20.0
574,12,91.5
575,9,68.0
576,14,111.0
577,14,118.5
578,6,197.5
579,5,235.0
580,0,235.0
581,9,166.0
582,2,147.0
583,14,124.0
584,5,113.0
585,9,91.0
586,4,82.0
587,1,43.0
588,10,55.0
589,15,135.0
590,7,113.0
591,16,133.5
592,9,120.0
593,3,138.0
594,1,62.0
595,13,93.0
596,8,104.0
597,15,115.0
598,13,95.0
599,6,114.5
600,12,93.5
601,0,93.5
602,25,68.0
603,27,68.0
604,7,52.0
605,10,117.5
606,6,93.0
607,5,112.0
608,0,112.0
609,12,69.5
610,9,50.0
611,7,111.0
612,6,94.5
613,8,92.0
614,7,85.0
615,0,85.0
616,6,43.0
617,4,65.5
618,12,40.5
619,8,91.0
620,14,74.5
621,10,116.0
622,0,116.0
623,9,97.0
624,13,309.0
625,17,289.0
626,13,283.0
627,17,282.0
628,11,262.0
629,1,351.0
630,18,213.0
631,6,190.5
632,8,184.5
633,13,162.0
634,4,136.5
635,13,134.0
636,1,346.0
637,9,89.0
638,11,70.0
639,16,138.0
640,10,117.0
641,7,94.0
642,6,90.0
643,2,62.0
644,12,45.5
645,14,29.0
646,10,112.0
647,16,87.5
648,10,111.5
649,5,92.0
650,0,92.0
651,4,64.0
652,10,43.0
653,8,42.5
654,10,111.0
655,11,88.0
656,16,72.0
657,0,72.0
658,1,84.0
659,7,68.0
660,10,49.0
661,11,40.0
662,8,64.5
663,8,66.0
664,0,66.0
665,5,42.0
666,12,37.5
667,5,39.0
668,6,89.5
669,11,69.0
670,6,48.5
671,1,73.0
672,9,48.0
673,3,43.0
674,7,37.0
675,9,91.0
676,5,71.0
677,6,65.0
678,0,65.0
679,11,157.0
680,7,140.0
681,2,120.0
682,6,92.0
683,11,93.0
684,7,71.0
685,1,94.0
686,4,34.5
687,9,25.0
688,11,23.0
689,5,433.0
690,10,463.5
691,7,169.0
692,0,169.0
693,6,354.0
694,0,354.0
695,6,187.0
696,13,282.0
697,7,345.0
698,3,475.0
699,0,475.0
700,4,428.5
701,8,479.0
702,3,499.0
703,8,480.5
704,9,477.0
705,8,455.5
706,1,459.0
707,4,498.5
708,12,475.0
709,5,451.0
710,7,472.0
711,12,456.0
712,5,471.0
713,0,471.0
714,5,497.0
715,10,478.0
716,5,476.0
717,7,448.0
718,7,459.0
719,2,432.0
720,1,454.0
721,4,502.5
722,6,485.0
723,5,468.0
724,8,454.5
725,8,498.5
726,5,477.0
727,0,477.0
728,6,450.5
729,11,470.0
730,7,451.0
731,7,471.0
732,5,408.0
733,5,471.0
734,0,471.0
735,10,474.0
736,6,508.0
737,6,505.0
738,2,517.5
739,8,503.5
740,3,543.0
741,1,32.0
742,7,451.0
743,2,487.5
744,5,474.0
745,8,483.5
746,7,449.0
747,7,431.0
748,2,416.5
749,8,447.5
750,4,446.5
751,11,445.0
752,3,428.0
753,8,426.0
754,4,404.0
755,0,404.0
756,0,404.0
757,6,351.5
758,5,376.0
759,6,460.0
760,11,297.0
761,6,341.0
762,0,341.0
763,7,329.0
764,10,310.5
765,6,367.0
766,8,352.5
767,4,331.0
768,6,377.0
769,1,20.0
770,8,355.5
771,7,358.0
772,4,356.0
773,4,353.5
774,5,447.0
775,8,471.5
776,0,471.5
777,7,450.0
778,9,164.0
779,7,446.0
780,7,443.0
781,8,429.0
782,4,430.0
783,0,430.0
784,3,423.0
785,6,448.0
786,5,484.0
787,4,454.0
788,9,473.0
789,4,474.5
790,0,474.5
791,13,496.0
792,5,403.0
793,35,499.0
794,7,478.0
795,2,495.5
796,10,447.0
797,0,447.0
798,6,494.0
799,7,477.0
800,5,452.0
801,8,501.5
802,7,478.0
803,10,560.0
804,0,560.0
805,8,524.0
806,8,516.5
807,11,517.0
808,4,489.0
809,2,501.5
810,6,496.5
811,0,496.5
812,4,426.5
813,2,366.5
814,0,366.5
815,1,359.0
816,0,359.0
817,0,359.0
818,0,359.0
819,0,359.0
820,0,359.0
821,0,359.0
822,0,359.0
823,0,359.0
824,0,359.0
825,0,359.0
826,0,359.0
827,0,359.0
828,0,359.0
829,0,359.0
830,0,359.0
831,0,359.0
832,0,359.0
833,0,359.0
834,0,359.0
835,0,359.0
836,0,359.0
837,0,359.0
838,0,359.0
839,0,359.0
840,0,359.0
841,0,359.0
842,0,359.0
843,0,359.0
844,0,359.0
845,0,359.0
846,0,359.0
847,0,359.0
848,0,359.0
849,0,359.0
850,0,359.0
851,0,359.0
852,0,359.0
853,0,359.0
854,0,359.0
855,0,359.0
856,0,359.0
857,0,359.0
858,0,359.0
859,0,359.0
860,0,359.0
861,0,359.0
862,0,359.0
863,0,359.0
864,0,359.0
865,0,359.0
866,0,359.0
867,0,359.0
868,0,359.0
869,0,359.0
870,0,359.0
871,0,359.0
872,0,359.0
873,0,359.0
874,0,359.0
875,0,359.0
876,0,359.0
877,0,359.0
878,0,359.0
879,0,359.0
880,0,359.0
881,0,359.0
882,0,359.0
883,0,359.0
884,0,359.0
885,0,359.0
886,0,359.0
887,0,359.0
888,0,359.0
889,0,359.0
890,0,359.0
891,0,359.0
892,0,359.0
893,0,359.0
894,0,359.0
895,0,359.0
896,0,359.0
897,0,359.0
898,0,359.0
899,0,359.0
900,0,359.0
901,0,359.0
902,0,359.0
903,0,359.0
904,0,359.0
905,0,359.0
906,0,359.0
907,0,359.0
908,0,359.0
909,0,359.0
910,0,359.0
911,0,359.0
912,0,359.0
913,0,359.0
914,0,359.0
915,0,359.0
916,0,359.0
917,0,359.0
918,0,359.0
919,0,359.0
920,0,359.0
921,0,359.0
922,0,359.0
923,0,359.0
924,0,359.0
925,0,359.0
926,0,359.0
927,0,359.0
928,0,359.0
929,0,359.0
930,0,359.0
931,0,359.0
932,0,359.0
933,0,0.0
934,0,0.0
935,9,88.0
936,10,70.0
937,1,38.0
938,15,240.0
939,24,229.0
940,21,207.0
941,20,182.5
942,12,157.0
943,13,135.0
944,0,135.0
945,12,87.0
946,17,212.0
947,8,192.0
948,8,169.0
949,8,141.0
950,7,116.0
951,0,116.0
952,11,71.0
953,14,336.0
954,20,308.5
955,21,289.0
956,16,397.0
957,11,373.0
958,1,347.0
959,4,327.0
960,3,38.0
961,10,279.0
962,16,254.5
963,12,232.0
964,12,205.0
965,0,205.0
966,39,206.0
967,25,182.0
968,22,187.5
969,20,185.0
970,16,168.0
971,13,280.0
972,0,280.0
973,9,226.0
974,9,207.0
975,10,182.0
976,15,161.0
977,9,136.0
978,19,113.0
979,0,113.0
980,8,62.5
981,20,67.0
982,13,139.0
983,24,132.5
984,14,110.0
985,13,89.0
986,0,89.0
987,15,46.0
988,15,159.0
989,19,140.0
990,16,114.0
991,13,91.0
992,19,67.0
993,1,54.0
994,6,89.0
995,45,69.0
996,17,183.0
997,17,164.0
998,15,153.0
999,13,135.0
1000,0,135.0
1001,26,85.0
1002,36,104.5
1003,22,114.0
1004,28,119.0
1005,30,118.5
1006,31,116.0
1007,3,105.0
1008,36,91.0
1009,12,71.0
1010,24,52.0
1011,20,259.5
1012,15,254.0
1013,17,229.0
1014,0,229.0
1015,27,179.0
1016,22,159.0
1017,16,210.5
1018,26,184.0
1019,12,163.5
1020,16,139.5
1021,1,117.0
1022,18,90.0
1023,20,239.0
1024,16,219.5
1025,17,196.0
1026,15,171.0
1027,15,149.0
1028,1,14.0
1029,10,98.0
1030,11,74.0
1031,20,162.0
1032,14,139.5
1033,20,115.5
1034,15,92.0
1035,1,12.0
1036,10,87.5
1037,14,189.0
1038,15,184.0
1039,37,276.0
1040,18,288.0
1041,9,263.0
1042,0,263.0
1043,18,216.0
1044,19,191.0
1045,21,169.0
1046,24,128.0
1047,12,148.5
1048,18,138.0
1049,2,76.0
1050,18,92.0
1051,20,106.0
1052,25,171.0
1053,14,147.5
1054,17,121.0
1055,12,97.0
1056,0,97.0
1057,16,49.5
1058,8,30.0
1059,13,182.0
1060,21,161.0
1061,12,137.5
1062,18,313.5
1063,1,98.0
1064,15,268.0
1065,20,238.0
1066,17,215.0
1067,19,190.0
1068,24,167.0
1069,15,302.0
1070,0,302.0
1071,18,255.0
1072,18,231.5
1073,15,208.0
1074,11,186.0
1075,14,285.5
1076,23,260.0
1077,2,441.0
1078,1,82.0
1079,19,327.0
1080,16,302.5
1081,51,30.0
1082,27,252.0
1083,26,230.5
1084,0,230.5
1085,26,181.0
1086,21,327.0
1087,23,304.0
1088,14,280.5
1089,12,258.0
1090,23,232.0
1091,0,232.0
1092,23,187.0
1093,37,161.0
1094,25,138.0
1095,40,325.5
1096,26,301.5
1097,24,230.0
1098,2,257.5
1099,34,233.0
1100,35,229.0
1101,41,22.0
1102,27,184.0
1103,32,158.5
1104,26,244.0
1105,2,291.5
1106,28,204.0
1107,23,327.0
1108,24,300.0
1109,20,279.5
1110,35,250.0
1111,16,228.5
1112,1,206.0
1113,27,184.0
1114,17,218.0
1115,29,279.0
1116,13,254.0
1117,3,135.0
1118,2,125.0
1119,0,125.0
1120,12,257.0
1121,26,330.0
1122,20,304.0
1123,18,278.0
1124,11,253.0
1125,11,230.0
1126,0,230.0
1127,8,186.0
1128,17,159.0
1129,12,135.0
1130,17,111.0
1131,11,277.0
1132,21,253.0
1133,0,253.0
1134,11,208.0
1135,22,183.0
1136,9,165.0
1137,16,144.5
1138,21,121.0
1139,19,159.0
1140,0,159.0
1141,17,209.0
1142,10,184.5
1143,16,284.0
1144,22,262.0
1145,14,241.0
1146,15,215.0
1147,1,5.0
1148,18,167.0
1149,11,145.0
1150,15,209.0
1151,8,172.0
1152,11,161.0
1153,19,240.0
1154,1,107.0
