,Demand,Response_Time
0,114,3.0
1,87,4.0
2,77,3.0
3,101,2.0
4,81,2.0
5,71,3.0
6,56,2.0
7,103,2.0
8,95,3.0
9,83,2.0
10,94,2.0
11,108,3.0
12,58,3.0
13,70,2.0
14,117,2.0
15,115,2.0
16,77,2.0
17,95,2.0
18,94,3.0
19,91,2.0
20,82,2.0
21,99,3.0
22,103,3.0
23,103,3.0
24,110,3.0
25,120,3.0
26,66,2.0
27,82,1.0
28,100,2.0
29,131,4.0
30,124,3.0
31,133,3.0
32,135,3.0
33,95,2.0
34,92,2.0
35,95,4.0
36,72,2.5
37,109,2.0
38,139,2.0
39,140,2.0
40,80,2.0
41,130,3.0
42,132,2.0
43,130,3.0
44,117,3.0
45,109,3.0
46,117,2.0
47,92,1.5
48,93,2.0
49,100,2.0
50,90,2.0
51,104,2.0
52,94,4.0
53,118,2.0
54,72,2.0
55,87,2.0
56,74,1.0
57,75,3.0
58,98,3.0
59,132,2.5
60,91,3.0
61,60,2.5
62,101,3.0
63,73,3.0
64,128,2.0
65,92,2.5
66,107,3.0
67,118,2.0
68,83,2.0
69,102,2.0
70,132,3.0
71,107,2.0
72,105,2.0
73,125,3.0
74,100,3.0
75,54,1.5
76,101,5.0
77,140,2.5
78,94,3.0
79,82,2.0
80,123,3.0
81,92,2.0
82,77,1.0
83,92,2.0
84,131,4.0
85,97,2.0
86,104,3.0
87,114,3.0
88,143,3.0
89,96,2.0
90,123,2.0
91,133,2.0
92,124,2.0
93,116,1.0
94,133,2.0
95,118,2.0
96,64,2.0
97,88,2.0
98,113,2.0
99,131,2.0
100,128,2.5
101,127,2.0
102,157,2.0
103,61,2.0
104,100,2.0
105,102,3.0
106,133,2.0
107,113,2.0
108,80,2.0
109,75,2.0
110,45,2.0
111,91,1.0
112,138,2.0
113,107,3.0
114,112,3.0
115,133,3.0
116,126,2.0
117,82,3.0
118,113,3.0
119,146,2.0
120,112,2.0
121,120,3.0
122,145,3.0
123,122,2.0
124,98,2.0
125,89,2.0
126,141,3.0
127,133,2.0
128,123,2.0
129,160,3.0
130,102,3.0
131,84,3.0
132,112,2.0
133,135,3.0
134,140,3.0
135,103,2.0
136,86,2.0
137,49,2.0
138,58,2.0
139,73,2.0
140,109,2.0
141,100,2.0
142,82,3.0
143,87,3.0
144,73,2.0
145,64,2.0
146,113,2.0
147,119,2.0
148,118,2.0
149,114,3.0
150,118,2.0
151,148,2.0
152,68,2.0
153,102,2.0
154,120,2.0
155,150,2.0
156,107,3.0
157,127,2.0
158,131,3.0
159,74,2.0
160,98,2.0
161,61,2.0
162,108,2.0
163,113,3.0
164,113,2.0
165,107,2.0
166,75,2.0
167,97,2.0
168,160,2.0
169,146,2.0
170,140,2.0
171,125,2.0
172,122,3.0
173,80,2.0
174,108,2.5
175,135,2.0
176,134,2.5
177,103,3.0
178,94,3.0
179,84,3.0
180,63,2.0
181,106,2.0
182,79,2.0
183,142,2.0
184,107,3.0
185,109,4.0
186,109,2.0
187,63,2.0
188,63,2.0
189,69,3.0
190,101,2.0
191,91,2.0
192,112,2.0
193,102,2.0
194,83,2.0
195,83,2.0
196,134,2.0
197,133,2.0
198,80,2.0
199,133,2.0
200,126,3.0
201,108,2.0
202,102,2.0
203,129,2.0
204,109,2.0
205,107,2.0
206,110,2.0
207,80,2.0
208,92,2.0
209,95,2.0
210,131,2.0
211,138,2.0
212,111,2.0
213,149,2.0
214,126,2.5
215,100,3.0
216,114,4.0
217,163,3.0
218,153,2.0
219,120,2.0
220,155,3.0
221,156,3.0
222,93,2.0
223,88,2.0
224,100,3.0
225,132,2.0
226,125,2.0
227,122,4.0
228,92,2.0
229,95,1.0
230,121,2.0
231,157,2.0
232,150,2.0
233,130,2.5
234,150,2.0
235,144,2.0
236,88,2.0
237,102,2.0
238,127,3.0
239,126,3.0
240,117,3.0
241,173,3.0
242,134,2.0
243,107,2.0
244,111,2.0
245,150,3.0
246,139,3.0
247,120,2.0
248,152,3.0
249,167,2.0
250,68,1.0
251,99,3.0
252,144,3.0
253,158,3.0
254,121,3.0
255,149,2.0
256,110,3.0
257,82,2.0
258,98,2.0
259,128,2.0
260,100,3.0
261,87,3.0
262,82,2.0
263,79,3.0
264,91,2.0
265,88,1.5
266,121,2.0
267,162,2.0
268,126,2.0
269,129,2.0
270,120,3.0
271,74,2.0
272,81,2.0
273,164,3.0
274,159,2.0
275,143,3.0
276,162,3.0
277,127,4.0
278,103,2.0
279,108,2.0
280,167,4.0
281,131,3.0
282,133,2.0
283,143,2.0
284,154,3.0
285,120,2.0
286,105,2.0
287,144,3.0
288,126,3.0
289,129,3.0
290,156,3.0
291,169,3.0
292,96,3.0
293,76,2.0
294,87,3.0
295,159,2.0
296,156,2.0
297,169,4.0
298,141,2.0
299,103,3.0
300,123,3.0
301,175,3.0
302,180,2.0
303,145,3.0
304,175,2.0
305,160,3.0
306,128,2.0
307,114,2.0
308,104,3.0
309,164,3.0
310,168,2.5
311,186,2.5
312,183,2.0
313,108,2.0
314,122,2.0
315,195,2.0
316,227,2.0
317,170,3.0
318,157,2.0
319,187,2.0
320,119,3.0
321,135,2.0
322,178,3.0
323,174,2.0
324,120,3.0
325,121,3.0
326,131,4.0
327,103,3.0
328,76,2.0
329,72,2.0
330,112,2.5
331,126,3.5
332,112,3.0
333,106,3.0
334,97,2.0
335,105,2.0
336,160,3.0
337,143,3.0
338,117,3.0
339,124,3.0
340,119,3.0
341,103,3.0
342,91,3.0
343,147,3.0
344,148,2.0
345,118,3.0
346,133,2.0
347,123,3.0
348,92,2.0
349,72,2.0
350,123,2.0
351,137,3.0
352,123,4.0
353,127,3.0
354,122,3.0
355,81,2.0
356,117,2.0
357,153,3.0
358,125,2.0
359,121,3.0
360,141,3.0
361,118,3.0
362,103,2.0
363,116,4.0
364,131,3.0
365,130,3.0
366,107,3.0
367,118,3.0
368,93,3.0
369,79,2.0
370,100,2.0
371,96,3.0
372,113,3.0
373,125,3.0
374,119,2.0
375,117,3.0
376,90,2.0
377,87,4.0
378,120,3.0
379,157,3.0
380,118,3.0
381,129,3.0
382,131,3.0
383,76,2.0
384,74,2.0
385,125,3.0
386,130,3.0
387,109,3.0
388,114,2.0
389,105,3.0
390,93,2.0
391,112,2.0
392,119,2.0
393,152,3.0
394,135,3.0
395,188,2.0
396,162,2.5
397,119,2.0
398,146,3.0
399,140,4.0
400,173,3.0
401,136,3.0
402,186,3.0
403,167,4.0
404,118,3.0
405,126,3.0
406,179,4.0
407,198,3.0
408,155,3.0
409,214,3.0
410,154,3.0
411,111,2.0
412,146,2.0
413,169,3.0
414,183,3.0
415,144,2.0
416,154,3.0
417,144,2.0
418,102,2.0
419,126,2.0
420,96,4.0
421,123,3.0
422,154,2.0
423,161,3.0
424,147,3.0
425,92,3.0
426,105,2.0
427,114,3.0
428,163,2.0
429,101,2.0
430,135,3.0
431,132,2.0
432,104,2.0
433,117,3.0
434,122,3.0
435,110,3.0
436,137,3.0
437,116,3.0
438,114,3.0
439,78,1.0
440,108,2.0
441,115,3.0
442,120,3.0
443,126,2.5
444,166,2.0
445,152,3.0
446,83,3.0
447,129,2.0
448,144,2.0
449,141,2.0
450,174,2.0
451,189,2.0
452,220,3.0
453,138,2.0
454,81,4.0
455,210,4.0
456,162,3.0
457,125,3.0
458,177,3.0
459,96,2.0
460,102,3.0
461,110,4.0
462,153,2.0
463,156,2.0
464,144,2.0
465,203,2.0
466,152,3.0
467,103,3.0
468,98,3.0
469,127,3.0
470,173,3.0
471,151,3.0
472,96,2.0
473,113,2.0
474,92,2.0
475,146,2.0
476,147,3.0
477,142,3.0
478,106,2.5
479,195,2.0
480,140,2.0
481,141,3.0
482,132,3.0
483,172,3.0
484,155,3.0
485,178,3.0
486,116,3.0
487,148,3.0
488,118,3.0
489,111,2.0
490,167,3.0
491,186,4.0
492,130,3.0
493,166,2.0
494,151,3.0
495,98,2.0
496,137,2.0
497,140,4.0
498,150,2.0
499,136,3.0
500,169,3.0
501,138,2.0
502,96,3.0
503,94,3.0
504,92,3.0
505,104,3.0
506,118,2.0
507,135,2.0
508,110,2.0
509,85,2.0
510,111,2.0
511,90,3.0
512,146,2.5
513,131,2.0
514,146,3.0
515,130,2.0
516,103,2.0
517,111,2.0
518,94,3.0
519,136,2.0
520,151,2.0
521,189,3.0
522,148,3.0
523,98,3.0
524,104,3.0
525,142,3.0
526,134,2.0
527,152,2.0
528,50,3.0
529,154,3.0
530,98,2.0
531,135,2.0
532,154,3.0
533,149,2.0
534,143,2.0
535,194,2.0
536,149,2.0
537,117,2.0
538,131,3.0
539,145,3.0
540,181,2.0
541,147,2.0
542,168,3.0
543,150,2.0
544,107,2.0
545,131,2.0
546,160,2.0
547,181,2.0
548,148,2.0
549,70,3.5
550,110,2.5
551,122,2.0
552,112,2.0
553,130,3.0
554,138,3.0
555,158,2.0
556,143,3.0
557,138,3.0
558,103,2.0
559,113,1.0
560,104,2.0
561,122,2.0
562,124,2.0
563,162,2.0
564,141,2.0
565,103,3.0
566,123,2.0
567,146,2.0
568,186,3.0
569,147,2.0
570,154,2.0
571,160,2.0
572,109,2.0
573,117,1.0
574,144,3.0
575,156,2.0
576,125,2.0
577,155,4.0
578,166,2.5
579,87,2.0
580,133,2.0
581,151,2.0
582,82,2.0
583,155,3.0
584,182,3.0
585,163,3.0
586,167,2.0
587,158,3.0
588,184,2.0
589,155,2.0
590,154,3.0
591,161,2.0
592,132,2.0
593,141,2.0
594,124,2.0
595,158,3.0
596,149,2.0
597,150,2.0
598,184,2.0
599,132,2.0
600,134,2.0
601,143,2.0
602,187,2.0
603,174,2.0
604,149,3.0
605,159,2.0
606,157,2.0
607,121,3.0
608,153,2.0
609,156,2.0
610,109,2.0
611,104,3.0
612,118,3.0
613,114,2.0
614,103,2.0
615,111,2.0
616,109,3.0
617,130,2.0
618,128,2.0
619,168,2.0
620,181,2.0
621,121,3.0
622,131,2.0
623,200,2.0
624,139,2.0
625,131,2.0
626,108,3.0
627,155,3.0
628,142,3.0
629,161,1.0
630,198,3.0
631,180,2.0
632,140,2.0
633,198,2.0
634,170,2.0
635,160,2.0
636,150,2.0
637,170,2.0
638,175,2.0
639,171,2.0
640,185,2.0
641,178,3.0
642,90,2.0
643,166,2.0
644,212,3.0
645,194,2.0
646,182,3.0
647,172,2.0
648,134,3.0
649,85,3.0
650,108,2.0
651,171,3.0
652,203,2.0
653,195,3.0
654,158,3.0
655,150,4.0
656,135,2.0
657,119,2.0
658,143,3.0
659,165,2.0
660,162,3.0
661,174,2.0
662,169,3.0
663,141,2.0
664,180,2.0
665,199,4.0
666,180,3.0
667,123,3.0
668,166,3.0
669,204,2.0
670,164,3.0
671,181,3.0
672,196,3.0
673,189,2.0
674,164,3.0
675,237,3.0
676,227,3.0
677,132,3.0
678,154,4.0
679,223,3.0
680,172,3.0
681,231,2.0
682,262,3.0
683,199,3.0
684,164,1.0
685,148,2.5
686,170,4.0
687,174,2.5
688,157,2.0
689,201,2.0
690,167,2.0
691,111,2.0
692,105,2.0
693,145,3.0
694,116,2.0
695,136,3.0
696,176,2.0
697,168,2.0
698,112,2.0
699,120,2.0
700,172,3.0
701,176,3.5
702,167,2.0
703,178,3.0
704,177,2.0
705,142,2.0
706,116,3.0
707,181,3.0
708,172,3.0
709,156,4.0
710,161,3.0
711,174,4.0
712,108,3.0
713,95,2.0
714,96,4.0
715,168,2.0
716,160,2.0
717,165,3.0
718,146,3.0
719,112,2.0
720,111,3.0
721,189,3.0
722,153,3.0
723,119,2.0
724,168,2.0
725,152,2.0
726,103,2.0
727,142,2.0
728,141,3.0
729,137,4.0
730,154,2.0
731,148,2.5
732,143,4.0
733,117,3.0
734,91,3.0
735,167,3.0
736,119,3.0
737,141,3.0
738,148,3.0
739,113,3.0
740,106,3.0
741,116,2.5
742,141,4.0
743,136,3.0
744,131,4.0
745,146,4.0
746,135,2.0
747,113,3.0
748,117,2.0
749,149,2.0
750,117,3.0
751,159,3.0
752,201,3.0
753,106,3.0
754,90,1.5
755,106,1.5
756,110,2.0
757,196,3.0
758,182,3.0
759,199,3.0
760,224,3.0
761,144,2.0
762,146,2.0
763,231,2.0
764,238,2.0
765,204,1.0
766,221,3.0
767,236,3.0
768,154,2.0
769,162,2.0
770,253,3.0
771,235,3.0
772,177,3.0
773,143,3.0
774,135,2.0
775,128,2.0
776,156,2.0
777,212,2.0
778,236,9.0
779,223,2.0
780,203,2.0
781,200,2.5
782,119,2.0
783,132,1.0
784,199,2.0
785,244,2.0
786,162,2.0
787,157,4.0
788,156,2.0
789,107,1.0
790,117,2.0
791,135,2.0
792,218,2.0
793,175,2.0
794,123,2.0
795,134,3.0
796,151,2.0
797,145,2.0
798,180,3.0
799,202,2.0
800,182,2.0
801,174,3.0
802,173,3.0
803,135,2.0
804,143,2.0
805,214,2.0
806,189,2.0
807,225,2.0
808,256,2.0
809,188,2.5
810,145,2.0
811,117,2.0
812,222,3.0
813,170,2.0
814,166,2.0
815,201,3.0
816,198,2.0
817,124,1.0
818,143,2.0
819,194,3.0
820,116,2.0
821,154,2.0
822,171,2.0
823,153,2.0
824,121,1.0
825,132,2.0
826,184,2.0
827,188,2.0
828,197,2.0
829,197,2.0
830,164,2.0
831,114,2.0
832,133,2.0
833,162,2.0
834,172,2.0
835,156,2.0
836,115,1.0
837,128,2.0
838,103,2.0
839,110,1.5
840,161,2.0
841,147,2.0
842,166,2.0
843,196,2.0
844,171,2.0
845,122,2.0
846,147,2.0
847,189,2.0
848,165,3.0
849,163,2.0
850,198,2.0
851,123,2.0
852,116,1.0
853,121,2.0
854,157,2.0
855,160,2.0
856,132,2.0
857,149,2.0
858,152,2.0
859,111,2.0
860,166,3.0
861,170,3.0
862,179,1.0
863,157,2.0
864,177,1.0
865,156,2.0
866,98,2.0
867,109,2.0
868,74,1.0
869,90,2.0
870,100,2.0
871,99,3.0
872,137,2.0
873,81,2.0
874,74,2.0
875,96,2.0
876,119,2.0
877,133,1.0
878,96,2.0
879,114,2.0
880,87,1.0
881,123,2.0
882,125,2.0
883,153,2.0
884,160,2.0
885,147,2.0
886,121,2.0
887,123,2.0
888,115,2.0
889,115,2.0
890,182,2.0
891,129,2.0
892,160,2.0
893,189,1.0
894,124,1.0
895,160,2.0
896,197,2.0
897,178,2.0
898,168,1.0
899,141,1.0
900,162,1.0
901,150,1.0
902,128,1.0
903,167,2.0
904,147,2.0
905,156,2.0
906,192,2.0
907,170,2.0
908,105,2.0
909,153,2.0
910,160,2.0
911,202,2.0
912,137,2.0
913,166,2.0
914,158,2.0
915,124,2.0
916,145,1.0
917,158,2.0
918,130,2.0
919,146,3.0
920,192,3.0
921,119,2.0
922,111,1.0
923,107,1.0
924,122,2.0
925,159,1.0
926,138,2.0
927,155,3.0
928,159,1.0
929,144,1.0
930,141,1.0
931,156,1.0
932,7,0.0
933,0,0.0
934,44,2.0
935,77,2.0
936,51,1.0
937,63,2.0
938,82,2.0
939,71,2.0
940,34,3.0
941,68,2.5
942,49,1.0
943,52,2.0
944,50,1.5
945,51,2.0
946,79,2.0
947,59,2.0
948,82,3.0
949,69,2.0
950,36,2.0
951,45,2.0
952,59,3.0
953,91,2.0
954,85,3.0
955,70,2.0
956,87,2.0
957,39,2.0
958,56,3.0
959,70,1.0
960,43,1.0
961,46,3.0
962,74,2.0
963,77,2.0
964,51,1.0
965,59,2.0
966,60,2.0
967,69,2.0
968,64,1.0
969,68,1.0
970,83,2.0
971,65,1.0
972,72,2.0
973,70,2.0
974,91,2.0
975,74,2.0
976,67,2.0
977,68,2.5
978,50,1.0
979,47,2.0
980,53,1.0
981,44,2.0
982,59,2.0
983,55,2.0
984,66,1.0
985,44,2.0
986,51,1.0
987,70,2.0
988,75,2.0
989,96,2.0
990,74,2.0
991,77,3.0
992,47,2.0
993,58,1.0
994,76,3.0
995,78,2.0
996,89,2.0
997,63,3.0
998,83,3.0
999,64,2.0
1000,81,1.0
1001,96,2.0
1002,87,2.0
1003,99,2.0
1004,103,3.0
1005,95,2.0
1006,54,2.0
1007,70,2.0
1008,108,2.0
1009,87,1.0
1010,89,2.0
1011,109,3.0
1012,65,2.0
1013,49,2.0
1014,73,2.0
1015,94,2.0
1016,103,2.0
1017,93,2.0
1018,113,1.0
1019,98,2.0
1020,64,2.0
1021,72,2.0
1022,115,2.0
1023,107,2.0
1024,75,2.0
1025,86,2.0
1026,65,2.0
1027,56,1.0
1028,35,1.0
1029,55,2.0
1030,64,2.0
1031,70,2.0
1032,74,2.0
1033,57,2.0
1034,65,2.0
1035,67,3.0
1036,90,3.0
1037,102,2.0
1038,102,2.0
1039,101,2.0
1040,88,2.0
1041,56,3.0
1042,84,2.0
1043,91,3.0
1044,104,2.5
1045,99,2.0
1046,92,2.0
1047,100,2.0
1048,63,1.0
1049,67,2.0
1050,87,3.0
1051,107,2.0
1052,74,2.0
1053,125,2.0
1054,91,3.0
1055,71,2.0
1056,97,2.0
1057,121,3.0
1058,121,2.0
1059,88,2.0
1060,94,2.0
1061,83,2.0
1062,56,1.0
1063,89,3.0
1064,132,2.0
1065,125,3.0
1066,91,2.0
1067,97,2.0
1068,94,2.0
1069,66,2.0
1070,84,2.0
1071,111,2.0
1072,128,2.0
1073,113,3.0
1074,97,2.0
1075,105,2.0
1076,57,3.0
1077,58,2.0
1078,71,2.0
1079,107,2.0
1080,111,3.0
1081,124,2.0
1082,111,2.0
1083,99,2.0
1084,93,3.0
1085,119,3.0
1086,151,3.0
1087,108,2.0
1088,116,2.0
1089,106,3.0
1090,65,2.0
1091,95,2.0
1092,123,3.0
1093,136,2.0
1094,115,2.0
1095,121,2.0
1096,120,2.0
1097,80,2.0
1098,77,2.0
1099,131,3.0
1100,132,3.0
1101,130,3.0
1102,135,2.0
1103,134,2.0
1104,78,2.0
1105,106,2.5
1106,122,2.0
1107,129,3.0
1108,125,3.0
1109,110,3.0
1110,108,3.0
1111,57,2.0
1112,83,2.0
1113,88,2.0
1114,96,3.0
1115,109,4.0
1116,92,2.0
1117,72,4.0
1118,60,2.0
1119,55,2.0
1120,85,3.0
1121,107,3.0
1122,88,3.0
1123,127,2.0
1124,86,3.0
1125,76,2.0
1126,68,3.0
1127,98,3.0
1128,106,3.0
1129,86,2.0
1130,105,2.0
1131,89,2.0
1132,63,3.0
1133,76,3.0
1134,116,3.0
1135,123,2.0
1136,70,2.0
1137,96,3.0
1138,101,2.0
1139,68,3.0
1140,74,2.0
1141,103,3.0
1142,116,3.0
1143,94,3.0
1144,108,3.0
1145,99,2.0
1146,65,2.0
1147,71,3.0
1148,95,3.0
1149,94,2.0
1150,106,2.0
1151,95,4.0
1152,102,3.0
1153,81,2.0
1154,62,3.0
