,Demand,Response_Time
0,34,317.0
1,19,137.0
2,34,354.0
3,40,351.0
4,41,333.0
5,25,207.0
6,19,361.0
7,67,213.0
8,43,386.0
9,47,354.0
10,38,332.0
11,31,300.0
12,33,227.0
13,19,378.0
14,39,203.0
15,44,330.0
16,24,332.5
17,32,355.0
18,27,139.0
19,18,174.5
20,12,330.0
21,50,335.0
22,50,308.0
23,46,195.5
24,47,229.0
25,28,392.5
26,11,285.0
27,7,79.0
28,13,404.0
29,29,187.0
30,45,199.0
31,25,284.0
32,22,152.5
33,17,218.0
34,19,218.0
35,38,190.0
36,44,185.0
37,35,215.0
38,35,202.0
39,23,411.0
40,19,384.0
41,13,420.0
42,46,336.0
43,30,186.5
44,33,166.0
45,30,327.0
46,28,154.0
47,9,421.0
48,22,208.0
49,48,99.0
50,47,215.0
51,41,194.0
52,27,203.0
53,42,146.0
54,40,256.5
55,27,127.0
56,40,262.0
57,37,211.0
58,25,180.0
59,26,219.0
60,25,166.0
61,20,335.0
62,16,354.5
63,10,365.0
64,41,305.0
65,37,185.0
66,19,330.0
67,46,305.0
68,25,270.0
69,22,348.5
70,54,270.5
71,51,325.0
72,32,322.0
73,24,425.0
74,19,315.0
75,30,375.0
76,17,267.0
77,43,269.0
78,47,340.0
79,45,253.0
80,31,194.0
81,38,398.0
82,11,211.0
83,10,347.0
84,38,144.0
85,35,170.0
86,35,229.0
87,25,287.0
88,35,249.0
89,17,477.0
90,21,223.0
91,41,170.0
92,33,258.0
93,14,423.5
94,28,240.5
95,84,332.0
96,16,401.0
97,25,349.0
98,38,338.0
99,34,312.0
100,28,284.0
101,25,288.0
102,27,244.0
103,25,449.0
104,29,218.0
105,46,462.0
106,35,382.0
107,41,364.0
108,6,484.0
109,22,284.0
110,20,263.5
111,18,360.0
112,57,216.0
113,45,207.0
114,39,201.0
115,27,290.0
116,47,303.0
117,12,304.0
118,13,131.0
119,28,244.0
120,37,313.0
121,29,354.0
122,21,123.0
123,28,192.0
124,8,211.0
125,17,347.0
126,33,334.0
127,22,385.0
128,30,281.0
129,32,378.5
130,27,405.0
131,22,213.5
132,28,204.0
133,24,216.0
134,10,168.0
135,26,377.5
136,14,285.0
137,10,227.5
138,8,159.0
139,6,446.0
140,37,189.0
141,38,501.5
142,49,344.0
143,23,189.0
144,8,235.5
145,36,1020.0
146,18,606.5
147,51,355.0
148,56,284.0
149,32,455.5
150,24,420.0
151,29,366.0
152,23,466.0
153,14,268.0
154,34,501.5
155,40,403.0
156,34,211.5
157,35,403.0
158,28,292.0
159,13,369.0
160,12,552.5
161,33,126.0
162,58,404.5
163,49,306.0
164,26,553.5
165,37,235.0
166,10,275.5
167,13,94.0
168,40,209.0
169,63,275.0
170,55,307.0
171,35,360.0
172,24,408.5
173,20,287.0
174,15,265.0
175,19,193.0
176,23,339.0
177,23,168.0
178,15,230.0
179,30,280.5
180,14,180.0
181,16,353.0
182,23,267.0
183,27,186.0
184,35,360.0
185,44,238.0
186,37,332.0
187,31,538.0
188,29,423.0
189,37,212.0
190,69,267.0
191,23,191.0
192,31,198.0
193,30,318.5
194,13,253.0
195,12,115.5
196,29,240.0
197,26,257.0
198,28,192.0
199,37,284.0
200,36,408.0
201,14,243.0
202,9,112.0
203,36,215.5
204,19,214.0
205,35,221.0
206,26,126.5
207,28,205.5
208,16,236.5
209,10,137.5
210,34,171.0
211,34,142.0
212,16,294.5
213,25,336.0
214,33,385.0
215,18,287.5
216,12,414.0
217,32,218.0
218,35,362.0
219,29,243.0
220,43,403.0
221,29,139.0
222,16,419.5
223,9,226.0
224,23,282.0
225,43,379.0
226,35,182.0
227,24,279.0
228,23,242.0
229,13,316.0
230,8,440.5
231,29,365.0
232,43,308.0
233,25,315.0
234,28,189.5
235,20,231.0
236,15,250.0
237,15,182.0
238,42,188.0
239,34,197.5
240,43,283.0
241,10,223.0
242,25,234.0
243,11,208.0
244,12,145.0
245,27,205.0
246,33,216.0
247,27,381.0
248,45,147.0
249,23,218.0
250,33,285.0
251,13,284.0
252,23,406.0
253,16,227.0
254,23,298.0
255,22,230.5
256,15,188.0
257,15,215.0
258,10,202.0
259,27,244.0
260,23,210.0
261,13,454.0
262,21,342.0
263,28,567.0
264,5,118.0
265,13,524.0
266,30,203.5
267,26,179.5
268,16,258.5
269,31,422.0
270,31,174.0
271,10,196.0
272,11,104.0
273,17,146.0
274,24,346.0
275,21,186.0
276,15,181.0
277,24,161.0
278,12,248.5
279,16,184.0
280,18,403.0
281,25,186.0
282,32,369.5
283,18,176.0
284,29,174.0
285,16,303.5
286,12,120.0
287,32,139.5
288,17,242.0
289,20,253.5
290,30,299.0
291,25,254.0
292,23,134.0
293,16,115.5
294,15,213.0
295,32,207.0
296,32,194.0
297,32,311.0
298,26,203.5
299,23,214.0
300,9,198.0
301,29,165.0
302,27,184.0
303,36,166.0
304,22,232.0
305,19,245.0
306,25,204.0
307,11,91.0
308,32,376.5
309,25,147.0
310,26,243.0
311,34,272.5
312,34,250.0
313,17,224.0
314,9,244.0
315,25,204.0
316,28,138.5
317,41,206.0
318,28,294.0
319,32,390.0
320,7,553.0
321,13,174.0
322,33,259.0
323,23,196.0
324,41,281.0
325,34,386.5
326,33,250.0
327,10,401.5
328,13,215.0
329,10,192.0
330,40,279.5
331,33,178.0
332,45,281.0
333,46,264.0
334,15,143.0
335,17,256.0
336,31,424.0
337,32,309.0
338,24,185.0
339,32,315.0
340,52,357.5
341,23,139.0
342,22,210.5
343,46,200.5
344,43,178.0
345,31,126.0
346,23,379.0
347,42,186.5
348,39,304.0
349,16,110.0
350,59,260.0
351,48,279.5
352,41,386.0
353,43,419.0
354,39,230.0
355,27,189.0
356,10,376.0
357,29,334.0
358,36,248.0
359,47,353.0
360,34,205.0
361,20,299.5
362,22,261.0
363,16,192.0
364,27,215.0
365,48,300.0
366,34,193.0
367,45,185.0
368,38,149.0
369,63,109.0
370,81,88.0
371,68,336.0
372,58,303.0
373,55,307.0
374,50,402.0
375,25,302.0
376,14,284.5
377,26,256.5
378,27,176.0
379,40,284.0
380,33,186.0
381,38,155.0
382,20,174.5
383,20,179.0
384,19,335.0
385,37,357.0
386,23,195.0
387,28,192.0
388,29,359.0
389,21,243.0
390,16,323.0
391,7,83.0
392,12,322.0
393,49,250.0
394,39,188.0
395,28,267.0
396,46,184.5
397,21,230.0
398,18,216.5
399,47,214.0
400,27,166.0
401,18,190.0
402,41,314.0
403,27,405.0
404,18,236.0
405,8,125.5
406,28,239.0
407,23,205.0
408,21,210.0
409,30,180.0
410,23,356.0
411,13,542.0
412,7,94.0
413,30,192.0
414,25,158.0
415,39,165.0
416,31,303.0
417,20,243.5
418,7,268.0
419,12,212.0
420,22,330.0
421,25,131.0
422,39,198.0
423,32,270.0
424,25,270.0
425,22,243.0
426,16,195.0
427,21,236.0
428,33,208.0
429,35,141.0
430,23,315.0
431,23,152.0
432,16,209.0
433,5,101.0
434,38,296.5
435,22,416.5
436,44,468.0
437,33,349.0
438,36,367.5
439,15,350.0
440,19,571.0
441,49,258.0
442,41,213.0
443,52,279.0
444,37,194.0
445,22,443.0
446,17,403.0
447,13,346.0
448,37,401.0
449,26,307.5
450,31,261.0
451,42,330.5
452,26,428.5
453,7,885.0
454,6,1110.5
455,44,345.5
456,13,293.0
457,15,334.0
458,31,286.0
459,36,303.0
460,9,432.0
461,7,612.0
462,41,169.0
463,37,144.0
464,32,188.0
465,27,324.0
466,28,525.5
467,31,453.0
468,24,215.5
469,40,326.0
470,41,271.0
471,28,223.0
472,6,307.0
473,15,213.0
474,13,169.0
475,13,182.0
476,58,210.5
477,52,308.5
478,54,260.0
479,53,332.0
480,35,665.0
481,26,232.5
482,28,200.5
483,34,331.0
484,33,155.0
485,47,302.0
486,33,464.0
487,41,327.0
488,26,112.0
489,30,388.0
490,28,447.5
491,29,380.0
492,38,377.0
493,35,318.0
494,50,297.5
495,35,296.0
496,27,203.0
497,35,165.0
498,34,480.5
499,28,264.5
500,39,354.0
501,17,303.0
502,22,128.0
503,8,158.0
504,27,204.0
505,31,217.0
506,34,223.0
507,34,330.0
508,34,427.0
509,14,168.0
510,16,536.0
511,18,866.5
512,48,340.0
513,26,495.5
514,39,410.0
515,39,292.0
516,24,148.5
517,32,216.0
518,40,203.0
519,50,193.5
520,38,223.5
521,32,243.0
522,25,322.0
523,30,168.0
524,22,367.5
525,32,343.0
526,36,303.0
527,26,214.0
528,37,277.0
529,30,457.0
530,21,122.0
531,13,167.0
532,32,207.0
533,33,307.0
534,31,360.0
535,33,506.0
536,26,332.0
537,19,362.0
538,10,338.0
539,23,217.0
540,19,302.0
541,36,371.5
542,26,330.0
543,19,597.0
544,13,164.0
545,21,622.0
546,40,350.0
547,37,384.0
548,21,167.0
549,31,146.0
550,60,403.5
551,28,143.5
552,35,218.0
553,41,262.0
554,27,331.0
555,32,190.0
556,36,260.5
557,29,277.0
558,25,306.0
559,41,350.0
560,51,323.0
561,59,210.0
562,73,166.0
563,37,154.0
564,23,144.0
565,26,543.5
566,24,527.0
567,36,114.0
568,29,265.0
569,36,358.0
570,41,318.0
571,33,216.0
572,19,110.0
573,26,352.0
574,31,285.0
575,24,385.0
576,29,311.0
577,19,459.0
578,34,276.5
579,31,184.0
580,27,345.0
581,24,294.0
582,20,498.0
583,36,238.0
584,35,161.0
585,27,317.0
586,18,144.0
587,25,119.0
588,41,299.0
589,22,303.0
590,30,286.0
591,27,232.0
592,33,206.0
593,15,181.0
594,20,226.5
595,28,183.5
596,39,216.0
597,23,288.0
598,29,288.0
599,25,288.0
600,20,143.0
601,21,210.0
602,35,182.0
603,23,187.0
604,13,164.0
605,41,144.0
606,21,145.0
607,16,306.0
608,16,101.0
609,33,189.0
610,33,206.0
611,30,216.0
612,31,140.0
613,20,139.0
614,11,258.0
615,15,276.0
616,29,107.0
617,27,87.0
618,35,212.0
619,29,145.0
620,27,148.0
621,19,118.0
622,7,308.0
623,20,162.0
624,24,224.0
625,36,188.0
626,32,355.0
627,16,144.5
628,13,223.0
629,21,190.0
630,15,401.0
631,29,212.0
632,45,318.0
633,24,192.0
634,23,389.0
635,18,216.0
636,11,94.0
637,40,118.0
638,25,159.0
639,35,316.0
640,28,212.5
641,14,306.5
642,27,260.0
643,10,421.0
644,29,170.0
645,22,289.0
646,22,292.5
647,12,347.5
648,41,297.0
649,7,378.0
650,19,277.0
651,34,219.5
652,31,304.0
653,31,299.0
654,18,462.0
655,5,180.0
656,12,238.5
657,6,190.5
658,11,322.0
659,23,141.0
660,40,215.5
661,40,395.5
662,31,171.0
663,11,165.0
664,13,127.0
665,30,215.0
666,29,147.0
667,24,205.0
668,34,177.5
669,14,284.0
670,15,185.0
671,10,201.0
672,45,154.0
673,68,158.0
674,33,195.0
675,31,145.0
676,14,157.5
677,20,417.0
678,7,46.0
679,37,172.0
680,20,310.0
681,34,270.5
682,19,425.0
683,27,246.0
684,26,216.0
685,12,195.0
686,14,312.5
687,43,140.0
688,34,207.0
689,23,232.0
690,22,224.5
691,9,317.0
692,19,270.0
693,27,215.0
694,11,207.0
695,34,211.5
696,17,242.0
697,31,397.0
698,18,245.5
699,21,282.0
700,41,209.0
701,15,214.0
702,36,290.5
703,40,189.0
704,20,241.0
705,10,141.0
706,7,283.0
707,46,217.0
708,40,238.0
709,38,199.5
710,47,195.0
711,48,331.0
712,33,215.0
713,17,199.0
714,31,328.0
715,34,211.0
716,50,186.5
717,23,264.0
718,22,335.0
719,18,203.0
720,15,197.0
721,39,326.0
722,31,154.0
723,41,217.0
724,23,503.0
725,29,243.0
726,8,150.0
727,10,423.0
728,39,171.0
729,23,240.0
730,29,332.0
731,25,267.0
732,18,237.0
733,15,161.0
734,6,217.0
735,32,277.5
736,32,258.0
737,37,169.0
738,30,162.0
739,20,144.0
740,27,132.0
741,20,473.0
742,31,167.0
743,43,190.0
744,24,212.0
745,24,185.0
746,23,166.0
747,13,229.0
748,9,151.0
749,21,185.0
750,46,242.5
751,31,331.0
752,35,268.0
753,15,244.0
754,8,182.0
755,8,115.0
756,10,456.5
757,28,120.5
758,35,148.0
759,21,167.0
760,38,239.0
761,11,369.0
762,18,94.5
763,27,166.0
764,28,145.0
765,20,320.5
766,25,261.0
767,37,258.0
768,8,375.0
769,17,359.0
770,28,182.5
771,20,206.0
772,22,319.0
773,17,304.0
774,27,276.0
775,13,212.0
776,12,412.5
777,29,169.0
778,30,173.0
779,44,166.0
780,24,188.5
781,20,332.0
782,17,381.0
783,20,304.5
784,32,154.0
785,18,378.0
786,50,415.5
787,14,281.5
788,25,194.0
789,27,243.0
790,8,229.0
791,20,149.5
792,28,192.0
793,46,192.5
794,20,341.5
795,26,164.0
796,14,204.0
797,7,113.0
798,25,183.0
799,36,158.5
800,27,204.0
801,28,140.0
802,31,240.0
803,13,123.0
804,11,118.0
805,22,322.0
806,16,308.0
807,22,285.0
808,40,413.5
809,28,236.5
810,25,214.0
811,21,244.0
812,41,497.0
813,33,308.0
814,25,278.0
815,29,329.0
816,17,422.0
817,19,603.0
818,28,310.5
819,29,230.0
820,50,405.5
821,32,381.0
822,40,324.0
823,26,480.5
824,23,450.0
825,22,421.5
826,39,311.0
827,40,359.0
828,24,323.5
829,28,171.0
830,32,227.0
831,18,302.0
832,16,336.0
833,38,372.0
834,23,342.0
835,24,337.0
836,15,182.0
837,24,198.0
838,14,203.5
839,21,355.0
840,45,220.0
841,29,161.0
842,20,246.0
843,24,302.5
844,18,133.5
845,15,124.0
846,21,355.0
847,32,332.0
848,17,375.0
849,33,343.0
850,21,265.0
851,35,140.0
852,14,326.0
853,20,378.5
854,39,86.0
855,26,336.5
856,22,315.0
857,32,294.0
858,21,578.0
859,26,412.5
860,23,215.0
861,36,541.0
862,24,439.0
863,15,214.0
864,28,487.5
865,21,180.0
866,8,703.5
867,8,480.5
868,8,65.0
869,30,299.5
870,26,651.0
871,40,628.5
872,37,619.0
873,24,594.0
874,15,455.0
875,40,587.5
876,50,428.5
877,42,566.5
878,43,418.0
879,58,399.0
880,43,383.0
881,34,316.0
882,52,267.0
883,39,214.0
884,53,307.0
885,30,437.5
886,35,360.0
887,30,281.0
888,25,256.0
889,20,348.5
890,40,379.5
891,28,245.0
892,35,244.0
893,23,258.0
894,12,435.5
895,18,363.5
896,43,235.0
897,22,164.0
898,30,122.0
899,31,198.0
900,27,308.0
901,31,268.0
902,12,155.0
903,25,267.0
904,22,167.0
905,37,218.0
906,19,101.0
907,23,260.0
908,24,234.5
909,10,200.5
910,33,188.0
911,46,175.5
912,30,344.5
913,20,138.0
914,20,124.0
915,5,93.0
916,27,163.0
917,26,187.0
918,18,54.0
919,24,85.0
920,14,151.0
921,15,143.0
922,6,104.0
923,8,101.5
924,5,77.0
925,15,38.0
926,8,49.0
927,5,95.0
928,8,50.0
929,0,50.0
930,0,50.0
931,0,50.0
932,0,50.0
933,0,0.0
934,15,168.0
935,24,432.0
936,19,864.0
937,21,192.0
938,39,216.0
939,36,336.0
940,41,336.0
941,48,324.0
942,57,360.0
943,20,216.0
944,39,336.0
945,42,456.0
946,33,480.0
947,34,468.0
948,13,504.0
949,22,408.0
950,23,336.0
951,24,192.0
952,20,216.0
953,46,312.0
954,41,360.0
955,37,312.0
956,35,336.0
957,20,252.0
958,23,336.0
959,32,252.0
960,34,336.0
961,45,192.0
962,31,360.0
963,29,1224.0
964,42,336.0
965,25,384.0
966,50,408.0
967,54,288.0
968,48,312.0
969,43,264.0
970,33,336.0
971,10,144.0
972,23,240.0
973,34,216.0
974,29,312.0
975,49,384.0
976,26,432.0
977,31,408.0
978,21,456.0
979,24,444.0
980,28,408.0
981,38,324.0
982,42,348.0
983,32,324.0
984,57,504.0
985,22,456.0
986,28,120.0
987,67,192.0
988,50,240.0
989,49,144.0
990,27,216.0
991,23,336.0
992,22,312.0
993,23,240.0
994,43,408.0
995,35,240.0
996,72,252.0
997,47,216.0
998,32,276.0
999,17,216.0
1000,9,432.0
1001,42,228.0
1002,27,384.0
1003,42,336.0
1004,46,336.0
1005,33,216.0
1006,19,384.0
1007,16,312.0
1008,36,348.0
1009,32,156.0
1010,27,192.0
1011,37,168.0
1012,27,216.0
1013,10,324.0
1014,5,120.0
1015,26,192.0
1016,44,384.0
1017,37,360.0
1018,47,168.0
1019,42,228.0
1020,14,252.0
1021,16,288.0
1022,42,240.0
1023,37,288.0
1024,29,240.0
1025,28,324.0
1026,28,408.0
1027,10,144.0
1028,6,168.0
1029,37,336.0
1030,28,156.0
1031,35,216.0
1032,21,216.0
1033,32,264.0
1034,16,444.0
1035,13,120.0
1036,31,216.0
1037,44,384.0
1038,16,288.0
1039,33,336.0
1040,19,168.0
1041,14,372.0
1042,10,192.0
1043,42,204.0
1044,33,168.0
1045,41,360.0
1046,36,264.0
1047,28,264.0
1048,14,168.0
1049,12,180.0
1050,38,120.0
1051,35,360.0
1052,38,384.0
1053,29,192.0
1054,24,264.0
1055,10,312.0
1056,15,240.0
1057,48,336.0
1058,36,300.0
1059,32,336.0
1060,36,168.0
1061,14,240.0
1062,20,180.0
1063,13,120.0
1064,45,192.0
1065,43,144.0
1066,34,192.0
1067,46,144.0
1068,31,408.0
1069,16,252.0
1070,15,168.0
1071,43,216.0
1072,52,240.0
1073,46,569.5
1074,31,264.0
1075,22,396.0
1076,10,144.0
1077,7,72.0
1078,9,96.0
1079,41,192.0
1080,34,300.0
1081,38,288.0
1082,17,144.0
1083,11,120.0
1084,32,228.0
1085,42,192.0
1086,49,168.0
1087,23,220.0
1088,30,355.5
1089,31,397.0
1090,11,262.0
1091,12,152.0
1092,43,413.0
1093,32,352.5
1094,28,383.0
1095,19,174.0
1096,38,191.5
1097,20,301.0
1098,23,151.0
1099,32,239.0
1100,43,190.0
1101,32,346.5
1102,25,309.0
1103,25,411.0
1104,6,269.0
1105,32,190.0
1106,59,405.0
1107,46,147.5
1108,41,350.0
1109,53,284.0
1110,34,311.0
1111,15,242.0
1112,15,218.0
1113,32,198.5
1114,37,209.0
1115,38,256.5
1116,30,213.5
1117,16,309.5
1118,18,192.5
1119,7,178.0
1120,47,413.0
1121,45,435.0
1122,45,221.0
1123,44,223.5
1124,28,402.0
1125,40,292.0
1126,11,265.0
1127,51,239.0
1128,46,231.0
1129,51,237.0
1130,22,517.5
1131,34,403.0
1132,16,235.0
1133,30,216.0
1134,77,191.0
1135,54,233.0
1136,37,222.0
1137,55,164.0
1138,25,148.0
1139,18,416.5
1140,21,352.0
1141,33,190.0
1142,50,196.5
1143,62,175.5
1144,49,169.0
1145,42,169.0
1146,20,186.5
1147,25,223.0
1148,47,269.0
1149,24,150.0
1150,43,296.0
1151,33,427.0
1152,34,409.5
1153,14,149.0
1154,18,431.5
