,Demand,Response_Time
0,21,224.0
1,7,221.0
2,11,210.0
3,10,391.0
4,10,422.0
5,8,232.0
6,6,311.5
7,17,334.0
8,15,324.0
9,9,432.0
10,15,590.0
11,3,462.0
12,5,190.0
13,5,452.0
14,12,305.5
15,20,302.0
16,14,255.5
17,13,428.0
18,10,212.0
19,3,164.0
20,7,350.0
21,11,360.0
22,12,364.0
23,11,203.0
24,12,217.5
25,12,601.5
26,4,296.5
27,1,353.0
28,1,220.0
29,12,216.5
30,19,198.0
31,9,156.0
32,11,178.0
33,5,521.0
34,7,524.0
35,11,170.0
36,14,278.0
37,11,353.0
38,11,211.0
39,9,168.0
40,6,342.5
41,6,443.5
42,14,204.0
43,11,195.0
44,12,357.0
45,5,323.0
46,9,142.0
47,6,332.5
48,5,262.0
49,10,172.0
50,9,378.0
51,15,307.0
52,9,140.0
53,8,308.5
54,5,307.0
55,14,269.5
56,19,333.0
57,9,195.0
58,10,452.5
59,10,258.0
60,10,259.0
61,5,157.0
62,6,336.0
63,12,169.5
64,21,193.0
65,25,286.0
66,18,274.0
67,13,166.0
68,1,295.0
69,9,145.0
70,16,184.0
71,19,358.0
72,11,287.0
73,12,425.0
74,13,309.0
75,6,68.0
76,9,167.0
77,20,329.5
78,11,327.0
79,22,400.5
80,18,458.0
81,6,500.0
82,6,401.5
83,8,291.0
84,12,173.5
85,9,380.0
86,11,343.0
87,8,284.5
88,9,497.0
89,6,410.5
90,5,366.0
91,14,433.5
92,7,171.0
93,5,520.0
94,5,312.0
95,23,401.0
96,11,384.0
97,8,345.0
98,9,82.0
99,14,239.0
100,11,289.0
101,17,534.0
102,13,282.0
103,6,465.5
104,4,367.0
105,21,303.0
106,16,395.0
107,8,349.5
108,2,536.0
109,5,408.0
110,5,292.0
111,6,470.5
112,23,386.0
113,13,333.0
114,11,294.0
115,7,422.0
116,10,370.0
117,4,416.5
118,5,142.0
119,7,231.0
120,11,250.0
121,13,152.0
122,6,430.0
123,12,382.5
124,3,91.0
125,2,136.5
126,18,245.5
127,10,169.5
128,10,318.0
129,14,334.0
130,9,314.0
131,7,427.0
132,5,208.0
133,18,273.5
134,7,1062.0
135,15,361.0
136,16,313.5
137,3,425.0
138,2,944.0
139,3,350.0
140,22,524.5
141,12,427.5
142,11,308.0
143,2,1056.0
144,4,366.5
145,4,200.5
146,6,425.5
147,8,721.0
148,29,1058.0
149,21,983.0
150,4,381.0
151,21,280.0
152,8,687.5
153,4,550.0
154,13,144.0
155,15,404.0
156,20,522.5
157,19,486.0
158,16,267.5
159,5,1386.0
160,3,1263.0
161,8,545.0
162,28,431.0
163,19,390.0
164,13,360.0
165,4,319.0
166,6,321.0
167,2,75.5
168,8,454.5
169,10,260.0
170,15,307.0
171,13,411.0
172,4,334.5
173,10,598.0
174,5,294.0
175,11,169.0
176,8,294.5
177,7,215.0
178,7,173.0
179,13,188.0
180,3,102.0
181,2,426.0
182,5,444.0
183,6,194.0
184,9,842.0
185,12,309.0
186,11,282.0
187,12,177.0
188,8,430.0
189,15,238.0
190,11,254.0
191,11,260.0
192,18,502.5
193,5,162.0
194,5,138.0
195,4,277.0
196,14,332.0
197,9,475.0
198,20,285.0
199,5,428.0
200,12,368.5
201,6,184.5
202,3,693.0
203,9,314.0
204,14,202.0
205,9,185.0
206,7,372.0
207,7,132.0
208,3,316.0
209,3,623.0
210,8,417.5
211,12,118.0
212,5,148.0
213,6,185.0
214,12,220.0
215,4,385.0
216,0,385.0
217,14,347.5
218,7,168.0
219,21,351.0
220,15,441.0
221,11,403.0
222,2,189.0
223,12,217.0
224,9,236.0
225,19,354.0
226,13,396.0
227,10,354.5
228,7,222.0
229,5,265.0
230,4,307.0
231,4,375.5
232,13,200.0
233,10,397.0
234,10,291.0
235,5,243.0
236,7,222.0
237,2,1094.5
238,12,410.0
239,22,403.0
240,8,211.5
241,10,294.5
242,9,405.0
243,8,226.5
244,5,208.0
245,15,254.0
246,15,190.0
247,12,304.5
248,13,260.0
249,13,304.0
250,4,148.5
251,4,157.5
252,5,242.0
253,13,197.0
254,10,359.0
255,7,286.0
256,4,140.0
257,5,120.0
258,4,388.0
259,17,216.0
260,12,297.0
261,8,309.0
262,5,594.0
263,19,238.0
264,5,548.0
265,6,277.0
266,11,251.0
267,10,346.0
268,6,275.0
269,8,477.0
270,9,315.0
271,3,568.0
272,8,351.0
273,7,400.0
274,8,477.5
275,15,382.0
276,11,148.0
277,6,570.5
278,2,490.5
279,3,184.0
280,14,267.0
281,16,381.0
282,10,346.0
283,6,179.0
284,9,384.0
285,7,378.0
286,1,1061.0
287,10,96.5
288,9,167.0
289,22,264.5
290,14,377.5
291,11,245.0
292,11,218.0
293,3,115.0
294,3,500.0
295,10,240.5
296,14,168.0
297,6,440.0
298,17,503.0
299,2,415.0
300,3,451.0
301,23,215.0
302,13,148.0
303,15,329.0
304,11,363.0
305,8,371.0
306,4,322.5
307,10,399.0
308,13,399.0
309,12,207.5
310,8,354.0
311,7,335.0
312,11,312.0
313,9,211.0
314,2,478.5
315,14,249.0
316,20,236.0
317,13,513.0
318,10,387.5
319,7,401.0
320,2,188.5
321,6,364.5
322,15,258.0
323,13,305.0
324,22,336.5
325,19,422.0
326,15,250.0
327,7,426.0
328,2,239.0
329,4,361.0
330,14,399.0
331,9,207.0
332,15,319.0
333,17,381.0
334,1,377.0
335,9,350.0
336,18,382.0
337,12,188.5
338,18,403.5
339,9,284.0
340,19,420.0
341,6,413.0
342,6,258.5
343,18,370.0
344,21,208.0
345,12,445.0
346,16,305.5
347,11,388.0
348,3,267.0
349,6,309.5
350,15,327.0
351,12,204.0
352,12,490.5
353,23,432.0
354,3,415.0
355,5,408.0
356,6,263.0
357,21,333.0
358,28,312.0
359,11,442.0
360,18,319.0
361,14,399.0
362,5,450.0
363,2,541.0
364,18,177.5
365,18,300.5
366,14,645.0
367,11,451.0
368,5,211.0
369,4,850.5
370,8,525.0
371,31,273.0
372,27,553.0
373,19,478.0
374,18,371.5
375,11,307.0
376,2,275.5
377,10,363.5
378,24,251.5
379,12,405.5
380,15,416.0
381,11,301.0
382,13,399.0
383,6,379.5
384,7,236.0
385,26,333.0
386,16,218.5
387,14,238.0
388,13,258.0
389,13,333.0
390,3,318.0
391,2,153.5
392,3,141.0
393,17,194.0
394,12,286.0
395,13,403.0
396,12,437.5
397,10,334.5
398,6,427.0
399,18,262.5
400,18,165.0
401,13,212.0
402,12,458.5
403,9,350.0
404,5,435.0
405,3,267.0
406,12,320.5
407,9,212.0
408,11,315.0
409,22,328.0
410,10,166.0
411,4,216.5
412,6,328.5
413,19,162.0
414,16,235.0
415,15,404.0
416,17,242.0
417,3,515.0
418,3,543.0
419,1,356.0
420,11,335.0
421,3,405.0
422,17,297.0
423,13,271.0
424,11,308.0
425,1,453.0
426,3,260.0
427,11,242.0
428,18,165.0
429,14,201.5
430,10,419.5
431,17,182.0
432,5,375.0
433,1,107.0
434,21,426.0
435,8,328.0
436,17,358.0
437,16,595.0
438,14,1033.5
439,6,387.0
440,8,300.5
441,14,536.0
442,20,165.0
443,24,333.5
444,18,181.0
445,10,241.0
446,12,233.5
447,5,90.0
448,24,335.0
449,14,211.0
450,18,405.0
451,14,325.5
452,11,404.0
453,6,216.0
454,4,274.5
455,28,329.0
456,9,306.0
457,11,191.0
458,8,497.5
459,12,179.5
460,7,723.0
461,6,120.0
462,12,370.0
463,17,890.0
464,14,354.0
465,10,322.5
466,13,622.0
467,3,383.0
468,9,207.0
469,11,1063.0
470,17,381.0
471,14,469.5
472,2,477.0
473,10,415.0
474,5,430.0
475,6,1221.0
476,12,107.0
477,22,435.5
478,18,251.5
479,13,511.0
480,20,1422.0
481,9,1169.0
482,7,1122.0
483,10,259.0
484,13,567.0
485,17,335.0
486,17,306.0
487,14,534.0
488,10,336.0
489,4,612.5
490,18,493.0
491,19,571.0
492,14,1375.0
493,15,686.0
494,30,608.0
495,3,883.0
496,1,1794.0
497,14,404.0
498,8,919.0
499,13,382.0
500,12,467.0
501,6,611.0
502,4,374.5
503,1,148.0
504,4,480.5
505,9,164.0
506,16,426.5
507,8,732.5
508,18,520.5
509,1,98.0
510,6,386.5
511,11,1067.0
512,15,718.0
513,14,440.5
514,4,389.5
515,6,149.0
516,12,272.0
517,5,134.0
518,19,237.0
519,25,718.0
520,8,201.0
521,10,593.5
522,3,122.0
523,2,736.5
524,0,736.5
525,8,906.5
526,15,205.0
527,12,423.0
528,9,144.0
529,6,265.5
530,5,456.0
531,3,358.0
532,9,397.0
533,9,375.0
534,17,471.0
535,4,332.5
536,10,321.0
537,9,265.0
538,6,322.0
539,24,620.5
540,15,389.0
541,15,385.0
542,14,165.5
543,13,539.0
544,3,177.0
545,0,177.0
546,17,741.0
547,12,514.0
548,13,303.0
549,9,291.0
550,16,210.0
551,8,431.0
552,9,373.0
553,16,461.0
554,13,533.0
555,15,484.0
556,21,266.0
557,5,284.0
558,7,269.0
559,5,350.0
560,11,324.0
561,17,319.0
562,7,296.0
563,16,156.5
564,15,500.0
565,5,541.0
566,2,190.5
567,18,407.0
568,12,327.0
569,18,453.0
570,13,427.0
571,6,251.5
572,5,443.0
573,6,494.5
574,16,228.0
575,9,557.0
576,11,554.0
577,10,239.0
578,8,303.5
579,4,545.0
580,5,862.0
581,19,216.0
582,12,347.0
583,13,250.0
584,9,284.0
585,6,198.5
586,5,110.0
587,3,387.0
588,21,419.0
589,12,167.0
590,11,199.0
591,9,360.0
592,13,284.0
593,2,107.0
594,2,126.0
595,5,499.0
596,14,200.5
597,16,235.5
598,4,357.0
599,5,354.0
600,4,337.0
601,3,160.0
602,21,405.0
603,10,126.0
604,12,274.5
605,9,165.0
606,22,309.0
607,3,246.0
608,5,191.0
609,19,178.0
610,14,252.5
611,8,196.5
612,7,175.0
613,8,161.0
614,4,257.5
615,6,114.0
616,13,414.0
617,13,217.0
618,16,160.5
619,11,237.0
620,14,342.5
621,5,367.0
622,4,285.5
623,9,333.0
624,9,186.0
625,13,191.0
626,9,355.0
627,9,164.0
628,5,344.0
629,3,147.0
630,16,285.0
631,16,165.5
632,14,197.5
633,17,216.0
634,8,453.0
635,6,520.0
636,1,479.0
637,16,315.0
638,9,197.0
639,12,327.5
640,14,297.0
641,10,302.5
642,7,406.0
643,1,457.0
644,13,218.0
645,9,525.0
646,12,355.0
647,11,284.0
648,12,343.5
649,5,180.0
650,0,180.0
651,17,244.0
652,10,318.5
653,6,309.0
654,7,228.0
655,3,317.0
656,5,267.0
657,5,351.0
658,1,304.0
659,8,345.5
660,14,325.0
661,8,538.0
662,6,175.5
663,8,235.0
664,2,342.0
665,16,356.5
666,8,169.5
667,14,286.0
668,15,153.0
669,14,218.0
670,4,428.5
671,4,175.5
672,12,217.0
673,13,194.0
674,14,164.0
675,16,426.5
676,11,240.0
677,8,471.0
678,6,340.5
679,14,362.0
680,12,417.0
681,16,369.5
682,10,341.0
683,7,328.0
684,5,124.0
685,1,101.0
686,22,247.0
687,17,384.0
688,21,189.0
689,11,429.0
690,13,261.0
691,2,280.0
692,2,373.0
693,7,398.0
694,3,479.0
695,24,289.5
696,13,319.0
697,21,438.0
698,3,680.0
699,11,235.0
700,19,381.0
701,5,306.0
702,23,339.0
703,20,330.5
704,13,359.0
705,8,270.5
706,6,218.0
707,22,376.5
708,15,305.0
709,26,345.0
710,13,335.0
711,15,211.0
712,3,301.0
713,3,681.0
714,21,191.0
715,12,216.0
716,13,286.0
717,12,369.0
718,8,320.5
719,1,376.0
720,0,376.0
721,14,210.0
722,12,214.0
723,12,357.0
724,10,286.5
725,13,467.0
726,6,715.0
727,7,283.0
728,18,241.0
729,15,244.0
730,10,362.0
731,11,260.0
732,8,290.5
733,5,380.0
734,0,380.0
735,33,146.0
736,21,307.0
737,18,279.0
738,20,361.5
739,9,429.0
740,8,311.0
741,3,88.0
742,17,305.0
743,16,213.0
744,18,208.0
745,8,341.0
746,12,375.5
747,1,138.0
748,4,321.0
749,17,220.0
750,10,310.0
751,6,379.0
752,15,430.0
753,8,382.5
754,4,305.5
755,4,264.5
756,0,264.5
757,12,273.0
758,20,137.5
759,14,209.5
760,11,243.0
761,3,137.0
762,9,185.0
763,17,189.0
764,17,320.0
765,9,353.0
766,10,216.0
767,11,181.0
768,4,427.5
769,9,380.0
770,17,243.0
771,17,279.0
772,19,307.0
773,2,447.0
774,7,284.0
775,2,282.5
776,3,208.0
777,20,183.0
778,16,216.0
779,19,184.0
780,8,347.5
781,9,325.0
782,5,254.0
783,7,156.0
784,18,181.5
785,17,211.0
786,15,295.0
787,10,310.0
788,17,211.0
789,7,415.0
790,2,435.5
791,10,242.5
792,7,193.0
793,14,277.0
794,17,193.0
795,16,273.0
796,5,383.0
797,3,291.0
798,13,237.0
799,15,204.0
800,10,130.5
801,12,261.5
802,17,144.0
803,2,419.0
804,6,126.5
805,16,227.5
806,8,390.0
807,7,337.0
808,14,261.0
809,11,311.0
810,5,696.0
811,6,522.0
812,13,500.0
813,14,437.5
814,12,367.0
815,21,356.0
816,11,637.0
817,6,377.0
818,7,614.0
819,18,578.0
820,17,406.0
821,21,326.0
822,21,425.0
823,16,245.0
824,6,334.0
825,8,159.5
826,16,471.0
827,19,137.0
828,22,495.5
829,12,479.0
830,15,422.0
831,8,361.0
832,8,380.0
833,16,460.5
834,16,338.0
835,21,454.0
836,12,472.0
837,8,410.0
838,5,268.0
839,3,429.0
840,13,220.0
841,18,192.0
842,16,161.0
843,15,333.0
844,8,352.0
845,16,393.0
846,9,144.0
847,11,335.0
848,17,498.0
849,14,449.5
850,13,621.0
851,10,421.0
852,4,390.5
853,4,1326.5
854,18,348.0
855,19,332.0
856,10,400.0
857,15,160.0
858,15,588.0
859,2,73.5
860,4,868.0
861,11,912.0
862,11,515.0
863,14,752.5
864,6,346.5
865,9,179.0
866,9,622.0
867,3,236.0
868,5,131.0
869,12,499.5
870,9,537.0
871,5,469.0
872,17,887.0
873,6,443.5
874,7,382.0
875,7,236.0
876,19,570.0
877,14,211.0
878,17,661.0
879,22,387.0
880,10,550.0
881,7,607.0
882,12,214.5
883,18,393.0
884,17,445.0
885,22,667.0
886,12,480.0
887,10,429.0
888,6,209.5
889,6,536.5
890,16,384.0
891,17,354.0
892,16,225.5
893,9,164.0
894,2,647.5
895,7,593.0
896,17,265.0
897,9,121.0
898,15,221.0
899,8,182.5
900,7,408.0
901,7,457.0
902,12,150.0
903,14,381.5
904,5,166.0
905,18,237.5
906,7,307.0
907,13,429.0
908,4,227.5
909,8,190.5
910,24,356.0
911,11,390.0
912,11,155.0
913,20,330.5
914,8,114.5
915,6,291.5
916,5,187.0
917,20,139.0
918,7,160.0
919,6,175.5
920,7,145.0
921,6,144.5
922,5,122.0
923,3,183.0
924,6,108.0
925,6,57.5
926,4,124.5
927,1,96.0
928,1,50.0
929,0,50.0
930,0,50.0
931,0,50.0
932,0,50.0
933,0,0.0
934,3,120.0
935,7,432.0
936,5,888.0
937,4,2460.0
938,14,408.0
939,16,696.0
940,12,744.0
941,13,360.0
942,17,336.0
943,0,336.0
944,5,288.0
945,17,264.0
946,11,312.0
947,11,528.0
948,6,1968.0
949,8,276.0
950,13,552.0
951,6,996.0
952,2,504.0
953,8,1020.0
954,10,132.0
955,9,336.0
956,11,408.0
957,11,384.0
958,2,288.0
959,12,816.0
960,6,1272.0
961,9,480.0
962,6,432.0
963,5,1680.0
964,3,288.0
965,2,333.0
966,5,408.0
967,19,408.0
968,17,240.0
969,11,288.0
970,7,192.0
971,2,648.0
972,9,336.0
973,8,420.0
974,11,408.0
975,13,456.0
976,12,324.0
977,10,612.0
978,6,444.0
979,6,864.0
980,13,408.0
981,16,456.0
982,17,528.0
983,18,324.0
984,16,552.0
985,1,432.0
986,7,552.0
987,7,936.0
988,7,360.0
989,14,816.0
990,8,204.0
991,14,648.0
992,4,480.0
993,3,384.0
994,11,408.0
995,11,504.0
996,11,168.0
997,11,504.0
998,10,480.0
999,5,240.0
1000,3,333.0
1001,8,324.0
1002,6,168.0
1003,3,552.0
1004,9,600.0
1005,11,264.0
1006,4,252.0
1007,0,252.0
1008,14,432.0
1009,13,192.0
1010,11,456.0
1011,7,168.0
1012,13,408.0
1013,5,312.0
1014,1,408.0
1015,5,504.0
1016,13,312.0
1017,7,264.0
1018,11,168.0
1019,12,588.0
1020,1,504.0
1021,5,144.0
1022,8,288.0
1023,10,144.0
1024,9,192.0
1025,12,264.0
1026,7,408.0
1027,6,300.0
1028,2,480.0
1029,7,216.0
1030,8,372.0
1031,20,456.0
1032,10,204.0
1033,5,168.0
1034,3,408.0
1035,2,120.0
1036,17,336.0
1037,7,432.0
1038,9,456.0
1039,11,312.0
1040,9,240.0
1041,2,228.0
1042,3,576.0
1043,19,408.0
1044,8,516.0
1045,10,324.0
1046,3,432.0
1047,8,288.0
1048,3,96.0
1049,9,240.0
1050,10,600.0
1051,17,312.0
1052,10,360.0
1053,17,312.0
1054,13,480.0
1055,4,168.0
1056,5,360.0
1057,14,264.0
1058,13,312.0
1059,18,408.0
1060,13,264.0
1061,11,600.0
1062,5,576.0
1063,1,456.0
1064,12,132.0
1065,14,180.0
1066,14,420.0
1067,4,384.0
1068,10,693.5
1069,8,264.0
1070,6,516.0
1071,24,396.0
1072,11,240.0
1073,12,539.5
1074,4,396.0
1075,11,480.0
1076,5,968.0
1077,2,360.0
1078,5,336.0
1079,5,472.0
1080,12,258.0
1081,16,288.0
1082,8,427.5
1083,6,156.0
1084,5,297.0
1085,15,406.0
1086,19,382.0
1087,10,246.5
1088,10,446.0
1089,6,168.0
1090,3,790.0
1091,4,235.0
1092,13,501.0
1093,13,234.0
1094,10,446.0
1095,5,261.0
1096,8,165.0
1097,2,153.5
1098,4,1183.5
1099,14,279.5
1100,19,647.0
1101,9,459.0
1102,10,433.0
1103,9,457.0
1104,3,766.0
1105,7,195.0
1106,19,338.0
1107,9,379.0
1108,15,456.0
1109,12,384.0
1110,7,813.0
1111,6,788.5
1112,7,236.0
1113,11,406.0
1114,10,327.5
1115,9,455.0
1116,12,371.0
1117,1,417.0
1118,4,182.0
1119,4,519.5
1120,18,380.0
1121,13,487.0
1122,18,528.5
1123,15,594.0
1124,15,230.0
1125,3,187.0
1126,8,452.0
1127,22,406.0
1128,12,538.0
1129,13,522.0
1130,16,424.5
1131,12,505.0
1132,6,172.5
1133,5,219.0
1134,21,579.0
1135,12,389.0
1136,12,362.0
1137,15,287.0
1138,18,430.0
1139,6,373.5
1140,4,272.5
1141,15,501.0
1142,11,308.0
1143,19,215.0
1144,13,278.0
1145,16,296.5
1146,4,478.0
1147,3,517.0
1148,9,398.0
1149,16,515.0
1150,19,423.0
1151,20,392.0
1152,15,336.0
1153,3,421.0
1154,3,428.0
