,Demand,Response_Time
0,7,1455.0
1,9,1454.0
2,4,1452.0
3,13,1456.0
4,13,1455.0
5,5,1448.0
6,10,1456.0
7,12,1452.5
8,8,1452.0
9,12,1454.0
10,7,1456.0
11,15,1452.0
12,11,1455.0
13,5,1448.0
14,13,1454.0
15,10,1454.0
16,15,1451.0
17,10,1458.0
18,5,1456.0
19,7,1453.0
20,6,1457.0
21,8,1452.0
22,10,1455.0
23,10,1454.0
24,4,1454.5
25,9,1457.0
26,7,1452.0
27,8,1455.0
28,7,1458.0
29,8,1453.5
30,9,1454.0
31,6,1457.5
32,4,1455.0
33,7,1453.0
34,3,1456.0
35,9,1455.0
36,7,1455.0
37,10,1451.5
38,4,1453.0
39,9,1453.0
40,3,1458.0
41,12,1455.0
42,10,1456.0
43,9,1456.0
44,7,1454.0
45,7,1458.0
46,4,1457.0
47,10,1452.5
48,7,1448.0
49,4,1458.5
50,9,1457.0
51,6,1455.5
52,11,1457.0
53,5,1449.0
54,7,1453.0
55,6,1456.5
56,10,1452.0
57,6,1452.0
58,10,1455.0
59,11,1453.0
60,9,1457.0
61,6,1460.5
62,6,1455.0
63,9,1456.0
64,12,1453.5
65,11,1456.0
66,4,1457.0
67,4,1455.0
68,5,1457.0
69,1,1453.0
70,9,1456.0
71,9,1453.0
72,9,1457.0
73,8,1453.0
74,7,1456.0
75,4,1455.5
76,4,1457.0
77,7,1450.0
78,7,1455.0
79,8,1456.5
80,4,1458.0
81,8,1456.0
82,3,1460.0
83,3,1456.0
84,10,1455.5
85,11,1457.0
86,9,1457.0
87,9,1456.0
88,15,1453.0
89,7,1458.0
90,4,1454.5
91,18,1453.5
92,8,1456.0
93,6,1452.0
94,7,1455.0
95,6,1451.5
96,2,1458.5
97,7,1453.0
98,7,1451.0
99,2,1457.0
100,7,1456.0
101,11,1459.0
102,4,1453.0
103,4,1457.0
104,4,1454.0
105,12,1458.0
106,6,1452.0
107,8,1455.0
108,0,1455.0
109,3,1460.0
110,4,1453.5
111,3,1449.0
112,4,1455.0
113,6,1452.5
114,7,1452.0
115,9,1452.0
116,9,1455.0
117,6,1455.0
118,8,1450.5
119,9,1451.0
120,10,1456.0
121,11,1453.0
122,10,1456.0
123,6,1456.0
124,6,1451.0
125,6,1458.5
126,8,1454.5
127,11,1454.0
128,7,1457.0
129,2,1464.0
130,10,1457.5
131,2,1452.5
132,4,1457.5
133,14,1456.0
134,9,1456.0
135,6,1457.5
136,5,1457.0
137,2,1453.0
138,5,1450.0
139,13,1453.0
140,16,1453.5
141,15,1456.0
142,5,1450.0
143,4,1454.0
144,13,1456.0
145,13,1455.0
146,11,1454.0
147,7,1452.0
148,11,1453.0
149,9,1451.0
150,12,1453.5
151,10,1454.0
152,10,1452.0
153,17,1451.0
154,10,1455.5
155,4,1456.0
156,9,1455.0
157,6,1456.5
158,8,1451.5
159,8,1454.0
160,8,1455.0
161,4,1457.5
162,12,1454.5
163,6,1455.5
164,9,1458.0
165,7,1455.0
166,4,1449.0
167,5,1452.0
168,11,1460.0
169,4,1454.0
170,12,1455.5
171,7,1458.0
172,12,1454.5
173,7,1457.0
174,15,1453.0
175,9,1453.0
176,10,1452.0
177,2,1454.0
178,8,1455.0
179,11,1454.0
180,6,1453.5
181,7,1456.0
182,6,1457.5
183,8,1454.0
184,6,1453.5
185,6,1455.5
186,6,1454.0
187,6,1459.0
188,2,1454.5
189,9,1455.0
190,6,1459.0
191,4,1455.5
192,6,1452.0
193,5,1445.0
194,12,1459.0
195,12,1455.0
196,10,1457.0
197,4,1457.5
198,9,1457.0
199,8,1455.0
200,3,1452.0
201,11,1453.0
202,12,1457.0
203,9,1454.0
204,9,1458.0
205,13,1452.0
206,12,1456.0
207,7,1454.0
208,11,1455.0
209,13,1457.0
210,10,1454.5
211,11,1455.0
212,6,1457.5
213,9,1454.0
214,14,1460.0
215,11,1453.0
216,11,1454.0
217,10,1453.5
218,14,1453.5
219,10,1454.0
220,17,1455.0
221,7,1454.0
222,8,1452.0
223,4,1454.0
224,8,1451.5
225,2,1459.0
226,9,1457.0
227,5,1460.0
228,9,1456.0
229,2,1456.5
230,10,1459.0
231,10,1452.0
232,10,1451.5
233,8,1452.0
234,13,1453.0
235,5,1455.0
236,6,1454.0
237,10,1451.5
238,14,1451.5
239,8,1457.0
240,8,1456.5
241,16,1451.0
242,12,1456.0
243,14,1459.0
244,6,1456.5
245,6,1455.5
246,8,1456.5
247,11,1457.0
248,8,1456.5
249,7,1452.0
250,5,1459.0
251,4,1450.5
252,7,1455.0
253,14,1456.5
254,16,1456.5
255,5,1455.0
256,9,1458.0
257,6,1453.5
258,5,1456.0
259,8,1459.0
260,10,1455.5
261,8,1457.0
262,8,1452.5
263,19,1456.0
264,11,1454.0
265,4,1458.0
266,13,1455.0
267,7,1457.0
268,12,1456.0
269,16,1458.0
270,6,1459.5
271,2,1448.0
272,2,1452.0
273,6,1457.5
274,8,1455.5
275,6,1457.5
276,7,1458.0
277,8,1462.5
278,9,1453.0
279,6,1455.0
280,6,1457.5
281,8,1460.5
282,14,1459.0
283,6,1456.5
284,16,1452.5
285,11,1455.0
286,12,1453.0
287,10,1457.5
288,9,1455.0
289,10,1456.5
290,10,1454.0
291,8,1458.0
292,5,1460.0
293,5,1457.0
294,9,1454.0
295,20,1454.0
296,9,1456.0
297,13,1456.0
298,13,1456.0
299,5,1459.0
300,13,1461.0
301,8,1454.5
302,12,1456.5
303,11,1457.0
304,4,1450.5
305,10,1456.0
306,6,1448.0
307,8,1457.5
308,8,1456.0
309,10,1455.0
310,9,1453.0
311,12,1455.0
312,12,1458.0
313,14,1456.0
314,10,1451.0
315,12,1453.5
316,6,1455.5
317,17,1458.0
318,12,1453.0
319,8,1452.5
320,9,1453.0
321,14,1462.0
322,11,1455.0
323,15,1456.0
324,6,1450.5
325,11,1460.0
326,7,1455.0
327,7,1458.0
328,7,1450.0
329,4,1447.5
330,12,1458.5
331,9,1454.0
332,15,1460.0
333,10,1447.0
334,7,1456.0
335,15,1458.0
336,15,1454.0
337,15,1457.0
338,8,1455.0
339,7,1457.0
340,6,1454.5
341,5,1454.0
342,5,1462.0
343,16,1456.0
344,7,1457.0
345,8,1456.5
346,6,1458.5
347,22,1457.0
348,9,1452.0
349,4,1462.0
350,17,1456.0
351,8,1454.0
352,6,1459.5
353,13,1451.0
354,17,1455.0
355,5,1457.0
356,8,1453.5
357,11,1451.0
358,4,1458.0
359,8,1456.5
360,5,1454.0
361,12,1456.5
362,4,1458.5
363,10,1457.0
364,6,1452.0
365,11,1459.0
366,14,1457.0
367,12,1458.5
368,11,1461.0
369,11,1458.0
370,5,1454.0
371,16,1455.0
372,11,1453.0
373,12,1453.5
374,8,1455.5
375,9,1459.0
376,6,1459.0
377,4,1453.5
378,10,1456.0
379,9,1456.0
380,7,1453.0
381,9,1457.0
382,15,1456.0
383,5,1455.0
384,9,1453.0
385,10,1457.0
386,6,1456.0
387,14,1456.5
388,7,1460.0
389,11,1452.0
390,4,1457.0
391,6,1460.0
392,5,1454.0
393,13,1453.0
394,11,1452.0
395,12,1454.0
396,13,1455.0
397,8,1450.5
398,6,1455.0
399,10,1457.0
400,12,1458.5
401,8,1453.0
402,12,1452.5
403,6,1453.5
404,10,1452.5
405,7,1453.0
406,13,1455.0
407,8,1456.5
408,11,1455.0
409,8,1459.0
410,7,1455.0
411,9,1455.0
412,5,1455.0
413,8,1454.5
414,12,1454.5
415,14,1457.5
416,11,1456.0
417,11,1458.0
418,6,1452.5
419,5,1458.0
420,9,1453.0
421,10,1455.0
422,9,1452.0
423,7,1458.0
424,15,1453.0
425,5,1454.0
426,7,1453.0
427,19,1453.0
428,5,1455.0
429,10,1455.5
430,9,1456.0
431,10,1458.5
432,3,1460.0
433,7,1454.0
434,7,1460.0
435,10,1451.5
436,14,1457.5
437,15,1455.0
438,14,1457.0
439,7,1458.0
440,7,1458.0
441,11,1455.0
442,9,1459.0
443,6,1462.5
444,7,1457.0
445,8,1454.5
446,3,1453.0
447,10,1456.0
448,10,1456.5
449,11,1455.0
450,10,1456.5
451,7,1455.0
452,10,1456.5
453,11,1452.0
454,3,1459.0
455,13,1456.0
456,4,1457.5
457,11,1458.0
458,3,1458.0
459,9,1457.0
460,9,1463.0
461,11,1458.0
462,2,1459.5
463,5,1451.0
464,9,1454.0
465,10,1459.0
466,11,1455.0
467,6,1456.5
468,12,1458.5
469,8,1458.0
470,9,1454.0
471,1,1461.0
472,4,1469.5
473,8,1461.0
474,6,1452.0
475,6,1453.0
476,16,1458.0
477,8,1455.5
478,5,1458.0
479,11,1457.0
480,6,1461.0
481,3,1456.0
482,5,1456.0
483,5,1457.0
484,6,1459.0
485,3,1455.0
486,8,1458.5
487,6,1452.0
488,6,1457.5
489,5,1469.0
490,8,1456.0
491,13,1457.0
492,6,1453.5
493,7,1457.0
494,8,1457.5
495,6,1453.0
496,3,1452.0
497,9,1457.0
498,6,1459.0
499,11,1456.0
500,16,1458.0
501,11,1459.0
502,2,1451.5
503,0,1451.5
504,2,1451.0
505,11,1456.0
506,2,1454.0
507,10,1455.5
508,8,1453.0
509,5,1458.0
510,6,1455.0
511,3,1453.0
512,4,1455.5
513,6,1456.0
514,11,1455.0
515,6,1453.5
516,2,1453.5
517,5,1456.0
518,6,1453.0
519,9,1454.0
520,8,1454.5
521,10,1454.0
522,3,1461.0
523,7,1448.0
524,11,1455.0
525,6,1452.0
526,7,1460.0
527,6,1459.5
528,8,1456.5
529,8,1456.5
530,7,1452.0
531,4,1455.5
532,9,1453.0
533,11,1450.0
534,8,1452.5
535,7,1455.0
536,11,1455.0
537,7,1455.0
538,6,1457.0
539,7,1452.0
540,12,1456.5
541,8,1455.0
542,10,1451.5
543,4,1456.0
544,6,1450.0
545,8,1456.0
546,8,1459.5
547,11,1455.0
548,5,1453.0
549,5,1449.0
550,8,1454.5
551,5,1451.0
552,4,1457.5
553,5,1455.0
554,10,1454.5
555,8,1456.0
556,10,1454.0
557,6,1456.5
558,11,1450.0
559,5,1451.0
560,4,1452.5
561,8,1456.5
562,11,1452.0
563,15,1456.0
564,6,1455.5
565,6,1454.0
566,5,1453.0
567,7,1451.0
568,5,1454.0
569,8,1454.5
570,10,1454.5
571,4,1455.0
572,6,1454.0
573,4,1451.5
574,3,1451.0
575,10,1453.5
576,7,1455.0
577,5,1454.0
578,10,1457.0
579,4,1459.0
580,3,1450.0
581,1,1452.0
582,2,1452.0
583,6,1455.0
584,8,1454.5
585,10,1454.0
586,4,1457.0
587,6,1451.5
588,6,1457.0
589,8,1456.0
590,3,1453.0
591,7,1459.0
592,6,1450.5
593,4,1454.5
594,0,1454.5
595,3,1453.0
596,11,1450.0
597,7,1454.0
598,11,1453.0
599,5,1457.0
600,8,1455.0
601,6,1453.5
602,17,1454.0
603,10,1456.5
604,9,1454.0
605,8,1453.0
606,6,1457.0
607,2,1456.0
608,4,1453.0
609,14,1450.0
610,12,1453.0
611,9,1455.0
612,6,1454.5
613,9,1454.0
614,12,1451.5
615,4,1453.5
616,18,1453.0
617,5,1458.0
618,12,1454.5
619,8,1455.5
620,11,1457.0
621,4,1450.0
622,4,1450.5
623,9,1454.0
624,14,1450.0
625,8,1455.5
626,7,1453.0
627,13,1451.0
628,4,1458.0
629,4,1451.0
630,9,1455.0
631,14,1457.0
632,15,1454.0
633,17,1455.0
634,7,1451.0
635,6,1455.5
636,3,1456.0
637,9,1454.0
638,12,1455.0
639,8,1453.5
640,11,1455.0
641,10,1455.5
642,5,1449.0
643,7,1452.0
644,12,1451.0
645,15,1455.0
646,14,1455.0
647,10,1451.0
648,14,1456.5
649,0,1456.5
650,7,1454.0
651,15,1457.0
652,10,1455.5
653,1,1445.0
654,6,1458.5
655,2,1460.5
656,8,1453.0
657,2,1459.0
658,9,1453.0
659,19,1457.0
660,13,1457.0
661,10,1454.5
662,15,1455.0
663,5,1456.0
664,8,1453.0
665,11,1457.0
666,7,1455.0
667,8,1454.0
668,2,1450.0
669,6,1452.0
670,4,1450.0
671,9,1453.0
672,8,1456.0
673,10,1452.5
674,14,1453.5
675,12,1453.5
676,5,1459.0
677,5,1461.0
678,7,1452.0
679,17,1456.0
680,15,1455.0
681,19,1458.0
682,17,1455.0
683,10,1455.0
684,9,1450.0
685,4,1450.5
686,11,1457.0
687,10,1456.0
688,10,1450.5
689,8,1460.0
690,6,1454.0
691,5,1452.0
692,9,1452.0
693,14,1454.0
694,5,1457.0
695,9,1453.0
696,10,1454.5
697,3,1451.0
698,4,1451.5
699,5,1451.0
700,11,1455.0
701,14,1452.5
702,19,1455.0
703,4,1448.0
704,10,1456.0
705,8,1451.0
706,3,1450.0
707,12,1455.0
708,6,1454.5
709,12,1459.0
710,10,1455.0
711,7,1455.0
712,12,1454.5
713,16,1455.0
714,11,1451.0
715,10,1452.0
716,5,1457.0
717,10,1454.5
718,17,1456.0
719,7,1452.0
720,8,1454.0
721,10,1454.0
722,8,1457.0
723,11,1453.0
724,11,1457.0
725,20,1453.0
726,6,1454.5
727,2,1453.0
728,11,1454.0
729,16,1455.5
730,14,1451.5
731,12,1455.0
732,11,1456.0
733,3,1451.0
734,4,1455.0
735,9,1457.0
736,14,1456.5
737,11,1455.0
738,12,1452.0
739,9,1453.0
740,7,1456.0
741,9,1454.0
742,6,1458.5
743,15,1453.0
744,8,1452.5
745,8,1456.5
746,6,1454.0
747,5,1450.0
748,8,1453.5
749,10,1451.5
750,16,1457.0
751,8,1450.0
752,8,1455.5
753,9,1456.0
754,7,1450.0
755,3,1453.0
756,2,1456.0
757,8,1453.0
758,13,1455.0
759,12,1454.0
760,15,1455.0
761,3,1454.0
762,11,1455.0
763,11,1455.0
764,9,1454.0
765,8,1457.0
766,11,1456.0
767,15,1456.0
768,8,1452.0
769,7,1454.0
770,6,1449.5
771,11,1455.0
772,9,1452.0
773,13,1455.0
774,12,1454.5
775,7,1455.0
776,5,1450.0
777,11,1454.0
778,11,1457.0
779,9,1454.0
780,14,1456.0
781,12,1455.5
782,4,1452.5
783,4,1451.0
784,7,1453.0
785,21,1453.0
786,6,1455.0
787,14,1449.0
788,6,1455.5
789,9,1451.0
790,4,1451.5
791,5,1454.0
792,11,1452.0
793,11,1455.0
794,8,1450.5
795,13,1455.0
796,7,1456.0
797,5,1456.0
798,7,1455.0
799,9,1457.0
800,10,1455.0
801,8,1451.5
802,6,1456.0
803,7,1455.0
804,9,1454.0
805,9,1455.0
806,7,1455.0
807,10,1454.0
808,8,1455.0
809,8,1455.0
810,8,1453.0
811,1,1459.0
812,18,1456.0
813,15,1456.0
814,13,1456.0
815,8,1454.0
816,9,1457.0
817,15,1454.0
818,7,1459.0
819,9,1454.0
820,10,1455.5
821,7,1454.0
822,8,1453.0
823,7,1454.0
824,8,1452.5
825,14,1452.0
826,6,1454.5
827,8,1451.5
828,8,1455.5
829,4,1459.5
830,13,1454.0
831,4,1458.0
832,6,1450.0
833,8,1455.5
834,12,1457.5
835,2,1465.0
836,2,1458.5
837,2,1455.0
838,3,1450.0
839,7,1455.0
840,5,1454.0
841,7,1457.0
842,9,1455.0
843,7,1456.0
844,13,1455.0
845,6,1454.5
846,10,1451.5
847,6,1455.5
848,4,1457.5
849,5,1453.0
850,6,1456.0
851,9,1454.0
852,16,1453.0
853,4,1452.0
854,7,1454.0
855,5,1447.0
856,4,1453.0
857,4,1458.0
858,5,1456.0
859,5,1454.0
860,3,1458.0
861,10,1455.0
862,10,1459.0
863,10,1455.5
864,10,1455.0
865,5,1460.0
866,3,1451.0
867,2,1454.5
868,1,1457.0
869,10,1452.0
870,4,1456.0
871,0,1456.0
872,0,1456.0
873,0,1456.0
874,0,1456.0
875,0,1456.0
876,0,1456.0
877,0,1456.0
878,1,688.0
879,0,688.0
880,0,688.0
881,0,688.0
882,0,688.0
883,3,366.0
884,0,366.0
885,2,375.5
886,1,363.0
887,1,923.0
888,0,923.0
889,0,923.0
890,0,923.0
891,0,923.0
892,0,923.0
893,0,923.0
894,0,923.0
895,0,923.0
896,2,38.5
897,2,21.5
898,2,26.5
899,2,91.0
900,1,62.0
901,1,43.0
902,1,44.0
903,0,44.0
904,0,44.0
905,0,44.0
906,0,44.0
907,0,44.0
908,0,44.0
909,0,44.0
910,0,44.0
911,0,44.0
912,0,44.0
913,0,44.0
914,0,44.0
915,0,44.0
916,1,38.0
917,0,38.0
918,0,38.0
919,0,38.0
920,0,38.0
921,0,38.0
922,0,38.0
923,0,38.0
924,0,38.0
925,0,38.0
926,0,38.0
927,0,38.0
928,0,38.0
929,0,38.0
930,0,38.0
931,0,38.0
932,0,38.0
933,0,0.0
934,7,1447.0
935,8,1456.0
936,4,1451.5
937,5,1458.0
938,7,1456.0
939,9,1452.0
940,6,1456.5
941,8,1458.0
942,4,1453.0
943,3,1448.0
944,3,1452.0
945,7,1452.0
946,6,1452.5
947,4,1457.5
948,3,1447.0
949,4,1456.5
950,0,1456.5
951,3,1454.0
952,2,1453.0
953,10,1455.0
954,10,1455.0
955,0,1455.0
956,7,1457.0
957,5,1456.0
958,3,1451.0
959,3,1454.0
960,6,1453.5
961,4,1448.0
962,6,1456.0
963,4,1454.5
964,5,1450.0
965,2,1454.0
966,8,1451.0
967,5,1456.0
968,7,1455.0
969,8,1452.0
970,8,1455.5
971,8,1454.5
972,2,1459.5
973,7,1458.0
974,7,1453.0
975,4,1456.5
976,1,1453.0
977,3,1452.0
978,7,1452.0
979,9,1448.0
980,2,1453.0
981,5,1456.0
982,10,1454.5
983,7,1450.0
984,10,1456.5
985,1,1447.0
986,2,1456.0
987,4,1456.5
988,5,1457.0
989,8,1457.5
990,11,1454.0
991,7,1454.0
992,2,1457.0
993,4,1455.5
994,2,1459.0
995,11,1455.0
996,5,1455.0
997,3,1460.0
998,4,1455.0
999,5,1453.0
1000,9,1452.0
1001,7,1454.0
1002,6,1450.5
1003,9,1455.0
1004,3,1448.0
1005,5,1450.0
1006,0,1450.0
1007,2,1446.5
1008,5,1458.0
1009,7,1455.0
1010,9,1455.0
1011,6,1456.0
1012,10,1455.5
1013,3,1455.0
1014,3,1447.0
1015,10,1455.5
1016,8,1455.0
1017,4,1451.5
1018,6,1450.0
1019,8,1453.5
1020,4,1452.5
1021,7,1456.0
1022,14,1456.5
1023,5,1458.0
1024,6,1457.0
1025,4,1459.0
1026,9,1459.0
1027,3,1457.0
1028,3,1448.0
1029,5,1459.0
1030,9,1454.0
1031,3,1453.0
1032,8,1455.5
1033,5,1458.0
1034,6,1452.0
1035,5,1455.0
1036,7,1457.0
1037,14,1454.5
1038,8,1453.0
1039,10,1455.0
1040,9,1456.0
1041,6,1452.5
1042,8,1451.0
1043,6,1458.0
1044,8,1454.0
1045,11,1455.0
1046,7,1456.0
1047,12,1458.0
1048,6,1454.5
1049,2,1454.0
1050,10,1452.5
1051,5,1456.0
1052,8,1456.5
1053,6,1457.5
1054,4,1457.0
1055,14,1458.5
1056,5,1453.0
1057,8,1452.5
1058,10,1456.5
1059,9,1455.0
1060,13,1459.0
1061,6,1458.0
1062,4,1452.0
1063,4,1447.5
1064,10,1454.0
1065,5,1456.0
1066,5,1458.0
1067,11,1455.0
1068,21,1453.0
1069,2,1451.0
1070,3,1461.0
1071,6,1456.5
1072,8,1456.0
1073,17,1452.0
1074,6,1453.5
1075,12,1455.0
1076,2,1454.0
1077,6,1452.5
1078,6,1447.5
1079,11,1456.0
1080,10,1457.5
1081,8,1454.0
1082,7,1456.0
1083,6,1451.0
1084,7,1456.0
1085,6,1450.0
1086,6,1456.5
1087,20,1454.0
1088,11,1454.0
1089,5,1454.0
1090,8,1453.0
1091,6,1460.5
1092,16,1451.5
1093,8,1454.5
1094,11,1457.0
1095,12,1454.0
1096,11,1450.0
1097,8,1454.0
1098,5,1454.0
1099,12,1454.5
1100,15,1460.0
1101,10,1457.0
1102,10,1456.5
1103,10,1458.0
1104,6,1456.0
1105,7,1453.0
1106,12,1456.0
1107,8,1455.5
1108,12,1456.0
1109,6,1453.0
1110,11,1454.0
1111,3,1456.0
1112,5,1455.0
1113,6,1457.0
1114,5,1456.0
1115,9,1453.0
1116,9,1455.0
1117,3,1460.0
1118,4,1456.5
1119,4,1454.0
1120,17,1456.0
1121,11,1454.0
1122,6,1451.5
1123,6,1456.0
1124,11,1453.0
1125,5,1453.0
1126,5,1457.0
1127,15,1457.0
1128,10,1454.5
1129,13,1456.0
1130,6,1450.0
1131,8,1451.5
1132,4,1456.0
1133,3,1457.0
1134,9,1454.0
1135,15,1454.0
1136,10,1458.0
1137,10,1458.5
1138,10,1455.0
1139,6,1458.0
1140,1,1448.0
1141,14,1454.0
1142,13,1454.0
1143,9,1457.0
1144,14,1454.0
1145,9,1454.0
1146,5,1448.0
1147,18,1450.0
1148,10,1453.5
1149,11,1455.0
1150,15,1450.0
1151,13,1456.0
1152,5,1457.0
1153,16,1455.0
1154,10,1457.0
