,Demand,Response_Time
0,25,1.0
1,52,1.0
2,23,1.0
3,35,1.0
4,12,0.0
5,20,1.0
6,9,0.0
7,26,1.0
8,29,0.0
9,15,2.0
10,20,1.5
11,7,1.0
12,12,1.0
13,8,0.0
14,22,0.0
15,23,0.0
16,11,0.0
17,25,2.0
18,13,1.0
19,8,0.0
20,14,0.5
21,18,0.0
22,18,0.0
23,23,1.0
24,24,0.0
25,24,4.0
26,12,0.0
27,7,0.0
28,12,1.0
29,47,2.0
30,38,1.0
31,33,1.0
32,27,1.0
33,23,1.0
34,10,0.5
35,17,1.0
36,14,3.0
37,42,1.0
38,27,1.0
39,16,6.0
40,12,3.0
41,11,0.0
42,14,1.0
43,25,1.0
44,26,0.0
45,20,0.0
46,15,0.0
47,7,1.0
48,4,0.0
49,20,1.0
50,18,1.0
51,32,1.5
52,25,0.0
53,37,1.0
54,36,1.0
55,16,1.0
56,15,1.0
57,22,1.0
58,21,1.0
59,16,2.5
60,49,1.0
61,13,1.0
62,13,0.0
63,9,0.0
64,18,0.0
65,17,0.0
66,17,0.0
67,17,1.0
68,9,2.0
69,13,1.0
70,15,1.0
71,14,1.0
72,23,1.0
73,12,1.0
74,13,0.0
75,14,5.5
76,9,1.0
77,20,2.0
78,19,3.0
79,39,2.0
80,37,2.0
81,15,1.0
82,17,1.0
83,10,0.5
84,13,1.0
85,16,2.0
86,18,1.0
87,16,2.0
88,26,2.0
89,13,1.0
90,14,1.0
91,28,5.0
92,15,1.0
93,22,0.5
94,31,3.0
95,14,1.0
96,30,1.0
97,9,0.0
98,31,3.0
99,19,1.0
100,23,2.0
101,27,3.0
102,37,1.0
103,22,1.0
104,14,0.0
105,20,1.0
106,23,1.0
107,32,4.0
108,10,0.0
109,10,0.0
110,10,1.5
111,10,0.0
112,24,1.0
113,17,1.0
114,40,1.0
115,14,1.0
116,21,1.0
117,14,2.0
118,11,1.0
119,24,4.5
120,19,1.0
121,16,1.5
122,23,1.0
123,15,1.0
124,10,1.0
125,16,0.0
126,22,1.0
127,18,1.0
128,29,1.0
129,17,1.0
130,24,4.0
131,5,1.0
132,14,0.0
133,16,1.0
134,25,2.0
135,22,1.0
136,7,6.0
137,6,0.0
138,11,0.0
139,10,0.5
140,10,1.0
141,21,2.0
142,27,7.0
143,10,1.0
144,5,1.0
145,11,0.0
146,13,0.0
147,17,0.0
148,42,1.0
149,22,0.0
150,24,1.0
151,27,1.0
152,19,1.0
153,14,0.0
154,27,1.0
155,22,1.0
156,24,0.0
157,15,1.0
158,18,1.0
159,17,1.0
160,13,0.0
161,8,0.0
162,24,1.0
163,19,8.0
164,9,5.0
165,19,2.0
166,13,1.0
167,63,8.0
168,47,1.0
169,22,2.5
170,18,1.5
171,12,1.5
172,12,1.0
173,16,0.5
174,8,1.0
175,41,1.0
176,24,3.5
177,31,1.0
178,12,0.5
179,31,2.0
180,11,1.0
181,9,1.0
182,25,2.0
183,24,2.0
184,15,2.0
185,19,0.0
186,18,1.0
187,22,1.0
188,20,1.0
189,16,1.0
190,55,2.0
191,25,2.0
192,19,1.0
193,18,5.0
194,10,0.0
195,13,0.0
196,23,1.0
197,25,2.0
198,66,3.0
199,42,3.0
200,22,1.5
201,16,1.0
202,13,1.0
203,19,1.0
204,19,3.0
205,26,1.0
206,27,1.0
207,21,1.0
208,9,1.0
209,14,0.0
210,13,1.0
211,33,2.0
212,20,1.0
213,21,1.0
214,28,1.0
215,6,1.5
216,14,0.5
217,28,1.5
218,20,1.0
219,19,0.0
220,25,1.0
221,17,8.0
222,12,0.0
223,5,0.0
224,17,1.0
225,16,1.0
226,19,0.0
227,33,1.0
228,25,2.0
229,14,3.0
230,10,0.0
231,20,3.0
232,28,4.5
233,22,1.0
234,20,1.0
235,24,3.0
236,13,0.0
237,16,1.0
238,29,5.0
239,18,1.0
240,28,1.0
241,27,0.0
242,15,0.0
243,9,1.0
244,16,0.0
245,14,0.5
246,26,2.0
247,13,1.0
248,12,1.0
249,14,1.0
250,8,1.0
251,5,2.0
252,22,1.0
253,23,1.0
254,22,2.0
255,15,2.0
256,20,4.0
257,15,1.0
258,7,0.0
259,33,2.0
260,27,1.0
261,40,1.0
262,22,1.0
263,13,1.0
264,8,1.5
265,7,0.0
266,14,1.0
267,25,1.0
268,18,1.0
269,15,0.0
270,23,1.0
271,15,1.0
272,8,0.0
273,20,1.0
274,22,1.5
275,27,1.0
276,22,1.0
277,24,1.0
278,11,0.0
279,10,1.0
280,16,1.0
281,12,1.0
282,22,1.0
283,21,1.0
284,24,1.0
285,14,1.0
286,17,1.0
287,24,2.0
288,26,1.0
289,21,0.0
290,18,1.0
291,30,1.0
292,9,0.0
293,7,0.0
294,47,2.0
295,18,1.0
296,18,1.0
297,19,1.0
298,12,0.5
299,15,0.0
300,16,0.0
301,23,2.0
302,17,1.0
303,33,1.0
304,14,1.0
305,27,1.0
306,19,1.0
307,10,2.0
308,14,1.0
309,24,3.0
310,17,0.0
311,14,0.0
312,14,1.0
313,16,1.0
314,13,0.0
315,10,0.0
316,16,3.0
317,17,2.0
318,35,1.0
319,28,1.0
320,12,1.0
321,8,0.5
322,16,1.0
323,25,7.0
324,9,3.0
325,15,0.0
326,29,1.0
327,8,1.0
328,10,1.0
329,8,1.0
330,17,1.0
331,21,2.0
332,24,1.0
333,16,1.0
334,18,1.0
335,11,0.0
336,20,1.0
337,33,3.0
338,11,0.0
339,46,1.0
340,14,1.0
341,12,0.5
342,15,0.0
343,29,2.0
344,23,1.0
345,19,1.0
346,10,2.0
347,14,1.0
348,23,2.0
349,10,0.5
350,49,3.0
351,19,2.0
352,12,2.0
353,12,1.0
354,20,2.0
355,12,1.5
356,14,0.0
357,10,0.0
358,17,1.0
359,18,0.0
360,19,8.0
361,20,1.0
362,14,0.0
363,11,1.0
364,17,1.0
365,26,1.0
366,29,1.0
367,27,2.0
368,31,2.0
369,20,1.5
370,10,1.5
371,12,1.0
372,28,1.0
373,16,1.0
374,21,1.0
375,22,1.0
376,21,1.0
377,11,1.0
378,22,2.0
379,16,2.0
380,15,1.0
381,10,2.0
382,16,1.0
383,10,0.0
384,10,1.0
385,11,1.0
386,20,2.0
387,8,1.5
388,11,1.0
389,14,1.0
390,6,0.0
391,4,1.0
392,9,0.0
393,23,0.0
394,13,1.0
395,14,0.5
396,21,1.0
397,12,1.0
398,12,2.5
399,16,1.0
400,14,2.0
401,18,1.0
402,18,1.0
403,21,1.0
404,11,1.0
405,11,0.0
406,23,1.0
407,16,2.0
408,7,1.0
409,13,1.0
410,24,1.0
411,15,1.0
412,7,1.0
413,29,1.0
414,17,1.0
415,12,1.0
416,28,1.0
417,21,1.0
418,13,1.0
419,9,0.0
420,27,1.0
421,31,0.0
422,31,1.0
423,29,2.0
424,28,1.5
425,4,0.0
426,13,1.0
427,12,0.5
428,27,2.0
429,25,5.0
430,21,2.0
431,15,7.0
432,10,1.0
433,13,0.0
434,13,8.0
435,15,1.0
436,23,2.0
437,31,4.0
438,18,1.0
439,15,1.0
440,17,1.0
441,12,1.0
442,21,1.0
443,12,1.0
444,36,2.0
445,33,5.0
446,17,1.0
447,9,2.0
448,33,8.0
449,16,1.0
450,28,1.0
451,15,2.0
452,17,2.0
453,22,3.0
454,10,1.0
455,12,1.0
456,21,1.0
457,38,0.5
458,20,1.0
459,7,0.0
460,7,1.0
461,10,0.0
462,18,0.5
463,28,3.0
464,17,1.0
465,16,0.0
466,22,1.0
467,15,1.0
468,20,2.0
469,32,2.0
470,19,2.0
471,15,0.0
472,13,1.0
473,13,0.0
474,11,0.0
475,13,0.0
476,18,1.0
477,34,1.5
478,19,2.0
479,14,1.5
480,13,2.0
481,9,1.0
482,15,1.0
483,21,1.0
484,35,2.0
485,20,1.0
486,29,2.0
487,32,2.0
488,21,1.0
489,13,1.0
490,35,2.0
491,17,2.0
492,10,1.0
493,33,2.0
494,27,4.0
495,25,1.0
496,25,2.0
497,22,1.0
498,18,4.0
499,10,1.5
500,18,0.5
501,12,1.0
502,10,0.0
503,5,1.0
504,4,0.0
505,26,1.0
506,13,0.0
507,21,1.0
508,13,1.0
509,10,1.0
510,8,0.5
511,10,0.0
512,17,0.0
513,22,2.0
514,28,1.5
515,38,1.0
516,11,1.0
517,24,2.0
518,30,3.0
519,27,3.0
520,35,3.0
521,16,3.0
522,25,2.0
523,12,1.0
524,10,0.0
525,14,0.0
526,30,2.0
527,36,1.5
528,25,1.0
529,21,2.0
530,21,0.0
531,13,0.0
532,34,2.0
533,37,2.0
534,24,2.0
535,26,1.0
536,28,1.0
537,16,0.5
538,23,0.0
539,22,1.5
540,18,1.0
541,19,2.0
542,15,0.0
543,32,1.5
544,18,1.0
545,11,0.0
546,18,1.0
547,28,1.0
548,26,0.5
549,15,1.0
550,35,2.0
551,28,1.0
552,30,2.0
553,39,2.0
554,23,1.0
555,23,2.0
556,23,1.0
557,24,1.0
558,22,0.0
559,6,0.0
560,18,0.0
561,19,1.0
562,26,0.5
563,28,1.0
564,31,1.0
565,20,1.0
566,5,1.0
567,32,1.0
568,10,1.0
569,21,2.0
570,28,1.5
571,17,1.0
572,12,1.0
573,11,0.0
574,15,1.0
575,26,1.0
576,15,1.0
577,22,2.5
578,17,2.0
579,18,1.0
580,14,1.0
581,9,0.0
582,27,1.0
583,22,2.0
584,22,1.0
585,16,2.0
586,22,2.0
587,15,0.0
588,22,1.0
589,35,2.0
590,29,1.0
591,35,0.0
592,27,1.0
593,14,1.0
594,9,1.0
595,20,2.5
596,33,1.0
597,30,1.0
598,35,0.0
599,43,7.0
600,17,2.0
601,7,0.0
602,12,0.5
603,35,1.0
604,23,1.0
605,25,2.0
606,23,1.0
607,22,1.0
608,18,0.0
609,27,1.0
610,20,2.0
611,15,0.0
612,9,2.0
613,10,1.0
614,5,0.0
615,14,1.0
616,15,1.0
617,22,2.0
618,27,2.0
619,11,3.0
620,20,1.0
621,10,1.5
622,8,0.5
623,21,2.0
624,25,1.0
625,22,1.0
626,23,1.0
627,34,1.0
628,22,1.0
629,7,1.0
630,16,1.0
631,10,0.0
632,15,1.0
633,8,0.0
634,43,1.0
635,5,1.0
636,13,1.0
637,21,1.0
638,7,1.0
639,18,1.0
640,15,1.0
641,18,1.0
642,29,1.0
643,22,2.0
644,22,2.0
645,20,1.0
646,35,1.0
647,24,2.0
648,9,1.0
649,16,1.0
650,14,1.0
651,14,2.0
652,11,1.0
653,10,0.5
654,23,2.0
655,22,1.0
656,9,1.0
657,7,1.0
658,9,0.0
659,17,1.0
660,24,1.5
661,21,1.0
662,13,1.0
663,12,1.0
664,14,0.0
665,17,2.0
666,18,1.0
667,20,2.0
668,11,1.0
669,23,1.0
670,22,1.0
671,15,1.0
672,20,2.0
673,44,1.5
674,9,1.0
675,31,2.0
676,23,2.0
677,27,3.0
678,23,2.0
679,45,3.0
680,33,2.0
681,26,2.0
682,19,2.0
683,23,2.0
684,23,1.0
685,13,2.0
686,26,1.0
687,11,1.0
688,11,1.0
689,14,1.0
690,15,0.0
691,11,2.0
692,13,0.0
693,19,1.0
694,7,1.0
695,14,1.0
696,25,1.0
697,26,1.0
698,15,1.0
699,17,2.0
700,17,1.0
701,10,1.0
702,27,1.0
703,29,1.0
704,12,1.5
705,12,2.5
706,9,1.0
707,26,1.0
708,20,1.0
709,27,1.0
710,16,1.0
711,16,2.0
712,15,1.0
713,16,1.0
714,26,2.0
715,24,1.0
716,14,1.0
717,18,1.0
718,21,1.0
719,13,1.0
720,8,1.0
721,22,1.0
722,15,0.0
723,22,1.0
724,11,1.0
725,50,1.0
726,10,1.0
727,18,0.0
728,25,2.0
729,16,1.5
730,29,1.0
731,24,1.0
732,24,1.0
733,10,2.0
734,5,1.0
735,17,1.0
736,25,1.0
737,17,2.0
738,22,1.0
739,27,1.0
740,11,1.0
741,6,1.5
742,13,1.0
743,26,1.0
744,16,1.0
745,18,3.0
746,12,0.5
747,14,0.0
748,9,1.0
749,25,1.0
750,26,1.0
751,18,1.0
752,16,1.0
753,16,0.0
754,5,1.0
755,11,1.0
756,14,1.0
757,26,2.0
758,28,0.0
759,17,1.0
760,24,1.0
761,9,0.0
762,9,0.0
763,26,1.0
764,21,1.0
765,26,1.0
766,24,1.0
767,17,1.0
768,14,1.0
769,11,1.0
770,14,1.0
771,18,1.0
772,25,4.0
773,24,0.5
774,23,0.0
775,17,1.0
776,13,1.0
777,15,1.0
778,27,1.0
779,14,1.0
780,23,1.0
781,30,1.5
782,24,0.0
783,8,0.0
784,11,0.0
785,29,3.0
786,18,2.0
787,42,1.0
788,8,1.0
789,4,2.5
790,17,1.0
791,14,1.0
792,28,1.0
793,29,8.0
794,28,1.0
795,21,1.0
796,3,1.0
797,12,1.0
798,26,2.0
799,36,1.0
800,19,1.0
801,37,1.0
802,33,1.0
803,12,1.0
804,10,0.0
805,24,2.0
806,28,1.0
807,23,3.0
808,18,1.0
809,23,1.0
810,16,1.0
811,29,2.0
812,26,2.0
813,28,1.0
814,23,1.0
815,21,1.0
816,26,1.0
817,14,1.0
818,11,0.0
819,25,1.0
820,19,0.0
821,31,1.0
822,19,1.0
823,13,0.0
824,7,1.0
825,13,0.0
826,22,1.0
827,23,1.0
828,19,2.0
829,16,7.0
830,12,1.0
831,12,1.0
832,13,1.0
833,22,2.0
834,13,1.0
835,24,1.0
836,6,0.5
837,10,6.0
838,8,1.5
839,16,0.0
840,18,1.0
841,19,4.0
842,9,0.0
843,28,1.5
844,36,1.5
845,11,1.0
846,3,0.0
847,15,1.0
848,26,1.0
849,37,2.0
850,19,1.0
851,22,1.5
852,18,0.0
853,10,0.0
854,15,0.0
855,23,1.0
856,31,1.0
857,15,1.0
858,17,6.0
859,6,1.0
860,6,0.5
861,15,1.0
862,17,2.0
863,9,2.0
864,11,1.0
865,9,0.0
866,38,2.0
867,8,0.5
868,25,1.0
869,8,3.0
870,28,1.0
871,17,2.0
872,16,1.0
873,13,0.0
874,8,0.0
875,10,1.0
876,32,1.0
877,27,1.0
878,21,1.0
879,47,1.0
880,13,1.0
881,10,2.0
882,15,5.0
883,30,2.0
884,14,1.0
885,25,1.0
886,122,1.0
887,83,4.0
888,9,2.0
889,15,1.0
890,28,1.0
891,27,2.0
892,28,1.0
893,33,1.0
894,15,0.0
895,9,1.0
896,21,1.0
897,21,1.0
898,27,1.0
899,22,1.5
900,24,1.0
901,12,1.0
902,18,0.5
903,11,2.0
904,14,0.0
905,23,1.0
906,16,1.0
907,18,1.0
908,11,1.0
909,31,1.0
910,29,1.0
911,21,0.0
912,25,1.0
913,24,1.0
914,4,1.0
915,18,2.0
916,51,1.0
917,33,2.0
918,17,1.0
919,21,0.0
920,19,1.0
921,17,0.0
922,24,2.0
923,12,0.5
924,7,1.0
925,14,0.0
926,16,1.0
927,9,0.0
928,20,0.0
929,11,1.0
930,24,1.0
931,8,1.5
932,0,1.5
933,0,0.0
934,11,0.0
935,19,0.0
936,20,0.0
937,12,0.0
938,28,1.0
939,21,4.0
940,26,2.0
941,31,2.0
942,28,4.0
943,12,1.0
944,23,0.0
945,17,0.0
946,23,0.0
947,25,1.0
948,32,0.0
949,21,1.0
950,12,0.0
951,18,1.0
952,27,1.0
953,23,0.0
954,20,1.0
955,18,0.5
956,17,0.0
957,14,1.0
958,7,0.0
959,16,1.0
960,38,1.0
961,29,1.0
962,31,1.0
963,21,3.0
964,12,1.0
965,10,0.0
966,35,2.0
967,20,0.0
968,24,1.0
969,40,1.0
970,22,3.5
971,16,1.0
972,9,0.0
973,18,1.0
974,15,1.0
975,22,1.0
976,18,2.0
977,18,1.0
978,12,2.0
979,24,1.0
980,11,2.0
981,20,1.0
982,24,0.0
983,18,1.0
984,33,3.0
985,16,1.0
986,67,2.0
987,22,1.0
988,15,1.0
989,27,1.0
990,19,1.0
991,21,1.0
992,10,1.0
993,16,0.0
994,34,1.0
995,34,2.0
996,52,1.0
997,29,1.0
998,24,1.0
999,21,1.0
1000,15,1.0
1001,18,1.0
1002,25,1.0
1003,21,2.0
1004,27,1.0
1005,20,1.0
1006,28,2.0
1007,20,1.0
1008,12,2.5
1009,28,0.5
1010,26,1.0
1011,34,1.5
1012,32,2.5
1013,24,2.0
1014,16,1.0
1015,17,1.0
1016,18,1.0
1017,13,1.0
1018,13,1.0
1019,26,3.0
1020,13,1.0
1021,15,1.0
1022,15,0.0
1023,19,2.0
1024,23,1.0
1025,31,1.0
1026,8,7.0
1027,13,1.0
1028,11,0.0
1029,13,0.0
1030,27,1.0
1031,24,1.0
1032,15,6.0
1033,11,1.0
1034,5,4.0
1035,10,0.5
1036,22,0.5
1037,12,0.5
1038,16,1.0
1039,16,1.0
1040,12,1.0
1041,9,1.0
1042,9,0.0
1043,33,2.0
1044,40,1.0
1045,17,1.0
1046,22,1.5
1047,17,2.0
1048,16,1.0
1049,11,1.0
1050,18,0.0
1051,19,1.0
1052,13,1.0
1053,12,4.0
1054,26,3.0
1055,9,1.0
1056,16,0.0
1057,30,1.0
1058,18,2.0
1059,21,1.0
1060,16,1.0
1061,25,1.0
1062,8,1.0
1063,15,1.0
1064,14,0.0
1065,20,1.0
1066,30,1.0
1067,21,0.0
1068,11,1.0
1069,10,1.5
1070,10,0.5
1071,27,1.0
1072,18,1.0
1073,18,1.0
1074,15,0.0
1075,23,1.0
1076,8,1.0
1077,7,0.0
1078,11,1.0
1079,21,1.0
1080,19,0.0
1081,19,1.0
1082,14,0.0
1083,13,1.0
1084,71,3.0
1085,38,2.0
1086,21,1.0
1087,29,1.0
1088,19,0.0
1089,24,1.5
1090,4,1.0
1091,7,1.0
1092,25,1.0
1093,24,0.5
1094,29,1.0
1095,20,1.0
1096,16,1.5
1097,20,1.0
1098,16,1.0
1099,30,1.0
1100,28,1.0
1101,31,1.0
1102,23,1.0
1103,11,0.0
1104,10,0.5
1105,18,1.0
1106,19,4.0
1107,41,1.0
1108,40,2.0
1109,28,1.0
1110,26,1.0
1111,14,2.0
1112,7,1.0
1113,14,1.0
1114,22,1.0
1115,23,0.0
1116,28,0.5
1117,26,2.0
1118,8,1.0
1119,10,1.0
1120,23,6.0
1121,19,1.0
1122,29,1.0
1123,26,1.0
1124,18,1.0
1125,10,0.0
1126,9,0.0
1127,18,1.0
1128,17,1.0
1129,20,0.0
1130,21,1.0
1131,21,1.0
1132,19,1.0
1133,18,1.0
1134,18,1.0
1135,22,0.0
1136,44,1.0
1137,14,0.5
1138,21,1.0
1139,7,0.0
1140,7,0.0
1141,19,1.0
1142,22,1.0
1143,23,2.0
1144,28,1.0
1145,8,0.0
1146,15,0.0
1147,15,0.0
1148,24,1.0
1149,21,1.0
1150,13,1.0
1151,20,1.0
1152,16,1.0
1153,13,1.0
1154,12,0.0
