,Demand,Response_Time
0,29,71.0
1,27,47.0
2,20,165.0
3,23,97.0
4,27,95.0
5,33,162.0
6,18,165.5
7,10,46.5
8,20,116.5
9,26,130.5
10,19,143.0
11,20,99.0
12,40,166.5
13,22,136.0
14,15,26.0
15,23,70.0
16,25,122.0
17,25,24.0
18,24,73.5
19,25,164.0
20,16,160.0
21,13,72.0
22,19,70.0
23,22,46.0
24,14,28.5
25,17,94.0
26,19,169.0
27,16,168.5
28,27,44.0
29,17,32.0
30,17,226.0
31,30,102.0
32,20,73.5
33,32,162.0
34,14,138.5
35,31,46.0
36,31,48.0
37,34,49.0
38,31,95.0
39,32,76.0
40,39,167.0
41,26,166.0
42,35,57.0
43,40,67.0
44,45,58.0
45,36,89.0
46,22,73.0
47,57,167.0
48,29,136.0
49,38,39.5
50,37,30.0
51,19,48.0
52,27,24.0
53,21,163.0
54,20,162.5
55,10,23.0
56,16,23.0
57,39,34.0
58,24,62.5
59,35,22.0
60,20,48.0
61,36,170.5
62,31,78.0
63,41,43.0
64,48,21.0
65,42,43.0
66,32,26.5
67,27,64.0
68,43,165.0
69,31,167.0
70,28,42.5
71,35,37.0
72,51,48.0
73,45,70.0
74,48,105.5
75,56,166.0
76,26,140.5
77,36,28.0
78,43,81.0
79,49,20.0
80,36,65.0
81,39,68.0
82,39,165.0
83,37,69.0
84,33,65.0
85,46,32.5
86,47,70.0
87,49,124.0
88,41,139.0
89,50,167.5
90,26,163.0
91,34,93.0
92,33,45.0
93,33,141.0
94,40,147.5
95,35,124.0
96,39,163.0
97,23,162.0
98,39,73.0
99,50,23.0
100,32,21.5
101,33,14.0
102,32,77.0
103,44,164.0
104,27,164.0
105,33,46.0
106,29,37.0
107,33,112.0
108,24,26.0
109,21,68.0
110,37,163.0
111,23,97.0
112,19,29.0
113,26,22.0
114,47,28.0
115,27,14.0
116,32,95.5
117,51,170.0
118,27,168.0
119,25,75.0
120,39,46.0
121,36,40.0
122,34,22.5
123,49,13.0
124,61,92.0
125,43,88.0
126,39,34.0
127,35,67.0
128,35,40.0
129,51,18.0
130,20,67.5
131,36,164.0
132,31,163.0
133,18,19.5
134,24,24.5
135,39,27.0
136,29,2.0
137,15,0.0
138,30,162.0
139,27,49.0
140,21,24.0
141,20,18.5
142,16,114.5
143,16,119.5
144,6,78.5
145,33,167.0
146,18,164.0
147,23,44.0
148,18,28.0
149,24,24.5
150,19,23.0
151,17,125.0
152,27,169.0
153,18,75.0
154,19,44.0
155,22,24.5
156,9,41.0
157,22,20.5
158,25,91.0
159,22,154.5
160,14,334.5
161,30,50.0
162,23,36.0
163,28,40.5
164,19,23.0
165,16,71.0
166,4,115.0
167,10,98.0
168,12,23.0
169,16,25.5
170,13,50.0
171,17,26.0
172,24,68.5
173,29,52.0
174,25,158.0
175,27,22.0
176,14,38.5
177,24,29.0
178,22,93.0
179,8,68.0
180,22,142.5
181,18,109.0
182,16,48.0
183,23,25.0
184,22,35.0
185,24,40.0
186,22,95.5
187,21,168.0
188,20,169.0
189,18,27.5
190,22,29.0
191,31,15.0
192,34,24.0
193,28,123.0
194,44,167.0
195,14,141.0
196,18,30.5
197,22,39.5
198,27,21.0
199,21,24.0
200,14,144.5
201,32,167.5
202,31,75.0
203,27,46.0
204,24,25.5
205,30,26.5
206,17,97.0
207,8,62.0
208,54,169.5
209,15,105.0
210,36,41.5
211,24,37.0
212,30,27.5
213,38,27.5
214,31,70.0
215,36,169.0
216,38,161.5
217,35,74.0
218,12,50.0
219,30,49.0
220,26,30.5
221,24,95.5
222,44,169.0
223,28,148.5
224,9,33.0
225,30,26.0
226,22,23.0
227,20,26.0
228,21,74.0
229,32,158.5
230,16,60.5
231,21,48.0
232,17,38.0
233,18,26.5
234,19,17.0
235,18,65.0
236,31,167.0
237,26,44.5
238,22,21.0
239,19,27.0
240,28,23.0
241,27,19.0
242,20,70.0
243,19,168.0
244,29,167.0
245,24,26.0
246,21,43.0
247,42,30.0
248,30,46.0
249,39,96.0
250,52,167.5
251,21,79.0
252,33,36.0
253,29,23.0
254,19,124.0
255,38,99.0
256,39,121.0
257,34,167.0
258,9,59.0
259,27,54.0
260,30,55.5
261,31,48.0
262,30,118.5
263,31,96.0
264,39,162.0
265,17,26.0
266,30,38.5
267,25,47.0
268,22,46.0
269,20,46.0
270,23,67.0
271,49,168.0
272,26,44.5
273,40,48.0
274,28,53.0
275,47,26.0
276,45,23.0
277,20,68.5
278,45,168.0
279,11,155.0
280,27,52.0
281,30,46.5
282,39,28.0
283,35,96.0
284,25,97.0
285,51,162.0
286,32,46.0
287,42,50.0
288,30,25.5
289,50,141.5
290,41,31.0
291,35,97.0
292,45,164.0
293,28,98.0
294,29,53.0
295,24,37.5
296,35,26.0
297,53,37.0
298,24,84.0
299,38,163.0
300,16,87.0
301,28,45.0
302,31,25.0
303,18,119.0
304,21,22.0
305,27,93.0
306,38,166.0
307,19,31.0
308,26,46.5
309,30,48.0
310,27,42.0
311,23,86.0
312,25,114.0
313,42,166.5
314,31,85.0
315,27,26.0
316,27,52.0
317,31,45.0
318,28,78.0
319,30,86.5
320,47,161.0
321,46,159.5
322,40,35.0
323,44,24.0
324,41,131.0
325,47,115.0
326,21,119.0
327,42,163.0
328,31,97.0
329,21,48.0
330,18,52.5
331,18,19.5
332,26,57.5
333,26,74.5
334,62,164.0
335,25,33.0
336,34,50.0
337,54,35.5
338,40,22.5
339,36,64.0
340,19,75.0
341,21,124.0
342,26,63.0
343,20,38.5
344,23,27.0
345,24,44.5
346,46,92.5
347,25,71.0
348,29,118.0
349,28,35.0
350,18,24.0
351,24,23.0
352,19,26.0
353,27,21.0
354,17,77.0
355,19,72.0
356,16,160.0
357,15,27.0
358,24,27.5
359,39,24.0
360,31,23.0
361,41,131.0
362,27,141.0
363,15,161.0
364,28,55.0
365,41,39.0
366,17,43.0
367,17,105.0
368,17,87.0
369,23,120.0
370,11,41.0
371,15,23.0
372,14,41.5
373,20,26.0
374,22,24.5
375,20,75.0
376,21,165.0
377,19,86.0
378,20,13.5
379,47,39.0
380,38,21.5
381,39,25.0
382,35,63.0
383,34,132.0
384,23,43.0
385,28,35.5
386,25,27.0
387,20,25.5
388,13,23.0
389,25,122.0
390,25,168.0
391,17,146.0
392,25,45.0
393,22,29.0
394,28,40.0
395,20,104.0
396,15,94.0
397,44,165.0
398,30,163.5
399,35,24.0
400,26,42.5
401,28,34.5
402,30,28.0
403,43,89.0
404,58,129.5
405,27,50.0
406,22,29.5
407,21,24.0
408,42,34.0
409,37,24.0
410,41,106.0
411,45,168.0
412,25,146.0
413,35,69.0
414,28,63.0
415,30,141.5
416,25,121.0
417,19,119.0
418,39,156.0
419,42,98.5
420,35,50.0
421,40,67.5
422,37,47.0
423,49,25.0
424,40,118.5
425,32,164.5
426,14,46.0
427,34,53.0
428,29,67.0
429,32,26.0
430,31,28.0
431,21,89.0
432,31,162.0
433,18,66.0
434,43,25.0
435,28,34.5
436,28,45.0
437,34,41.5
438,20,95.5
439,19,94.0
440,20,50.5
441,34,50.0
442,17,44.0
443,28,42.5
444,20,26.0
445,23,91.0
446,24,164.0
447,22,124.5
448,16,26.0
449,17,29.0
450,25,41.0
451,25,94.0
452,34,80.0
453,44,168.0
454,12,116.0
455,20,72.0
456,31,49.0
457,24,22.0
458,44,117.0
459,27,106.0
460,33,163.0
461,23,97.0
462,36,46.0
463,10,25.0
464,31,26.0
465,32,30.5
466,30,72.0
467,42,165.0
468,30,159.5
469,28,43.0
470,25,28.0
471,11,117.0
472,17,23.0
473,21,75.0
474,22,168.5
475,20,112.0
476,30,44.0
477,25,26.0
478,27,29.0
479,35,23.0
480,31,73.0
481,50,152.0
482,29,45.0
483,51,41.0
484,25,47.0
485,18,25.5
486,14,98.0
487,20,75.5
488,32,171.5
489,34,63.0
490,16,29.5
491,18,25.5
492,19,26.0
493,20,26.0
494,14,67.0
495,20,165.0
496,9,31.0
497,16,26.0
498,13,26.0
499,20,28.0
500,21,27.0
501,17,97.0
502,14,78.5
503,14,45.5
504,21,25.0
505,20,0.5
506,22,25.0
507,24,38.0
508,16,101.5
509,30,94.0
510,17,44.0
511,15,32.0
512,14,1.5
513,20,23.5
514,26,26.5
515,13,76.0
516,19,164.0
517,13,66.0
518,12,29.5
519,15,26.0
520,29,24.0
521,25,28.0
522,17,88.0
523,24,165.0
524,8,45.0
525,25,44.0
526,20,23.0
527,29,37.0
528,21,22.0
529,19,76.0
530,37,166.0
531,21,168.0
532,28,25.0
533,18,22.5
534,23,44.0
535,43,101.0
536,25,95.0
537,38,91.0
538,27,152.0
539,13,29.0
540,39,48.0
541,25,45.0
542,20,25.5
543,22,71.0
544,27,95.0
545,7,30.0
546,15,30.0
547,12,28.5
548,26,49.0
549,5,25.0
550,12,72.0
551,25,167.0
552,15,62.0
553,19,21.0
554,18,28.5
555,21,27.0
556,13,22.0
557,18,93.5
558,32,137.5
559,15,167.0
560,27,35.0
561,19,29.0
562,27,50.0
563,31,97.0
564,33,97.0
565,35,166.0
566,19,69.0
567,21,27.0
568,22,35.5
569,19,46.0
570,34,12.0
571,24,64.0
572,29,166.0
573,17,29.0
574,10,49.5
575,26,27.5
576,35,27.0
577,19,24.0
578,16,67.5
579,17,55.0
580,15,41.0
581,11,63.0
582,9,25.0
583,16,8.5
584,26,25.5
585,19,94.0
586,30,158.5
587,20,154.5
588,31,50.0
589,35,30.0
590,30,46.0
591,10,26.0
592,18,65.0
593,29,165.0
594,23,93.0
595,22,23.0
596,29,21.0
597,24,26.0
598,34,44.0
599,23,67.0
600,33,159.0
601,22,158.0
602,39,1.0
603,26,14.5
604,47,27.0
605,35,1.0
606,20,94.5
607,44,159.0
608,35,162.0
609,58,24.0
610,62,23.0
611,29,49.0
612,44,62.5
613,44,95.0
614,39,114.0
615,32,39.0
616,47,55.0
617,49,23.0
618,64,0.5
619,56,102.5
620,35,104.0
621,37,157.0
622,25,68.0
623,38,26.5
624,33,25.0
625,48,22.0
626,50,39.5
627,47,75.0
628,46,93.5
629,46,108.5
630,44,24.0
631,60,40.0
632,38,42.5
633,42,19.0
634,33,67.0
635,35,76.0
636,36,49.5
637,38,26.0
638,42,25.0
639,43,28.0
640,33,19.0
641,48,93.5
642,34,70.5
643,28,76.0
644,27,39.0
645,24,36.0
646,36,45.0
647,36,22.5
648,22,100.0
649,59,96.0
650,50,22.0
651,43,15.0
652,42,43.5
653,54,30.5
654,44,25.5
655,33,0.0
656,58,98.0
657,40,5.5
658,30,24.5
659,49,22.0
660,50,48.0
661,34,29.5
662,30,74.0
663,60,162.0
664,36,48.0
665,44,36.0
666,34,18.5
667,49,21.0
668,40,23.0
669,47,71.0
670,65,147.0
671,24,62.5
672,26,42.5
673,22,20.5
674,32,23.0
675,44,58.0
676,24,71.5
677,63,91.0
678,32,64.0
679,16,56.5
680,36,24.0
681,41,25.0
682,40,24.5
683,25,95.0
684,16,127.5
685,30,33.5
686,40,19.5
687,20,36.0
688,21,48.0
689,27,24.0
690,35,75.0
691,36,165.0
692,19,119.0
693,14,53.5
694,9,75.0
695,32,23.5
696,31,25.0
697,27,72.0
698,41,162.0
699,33,46.0
700,40,36.0
701,24,22.5
702,32,23.5
703,11,44.0
704,38,72.5
705,31,165.0
706,22,164.5
707,30,26.0
708,24,32.5
709,25,32.0
710,16,75.0
711,11,94.0
712,16,161.0
713,17,163.0
714,29,27.0
715,29,29.0
716,37,45.0
717,31,46.0
718,20,95.0
719,34,160.5
720,25,46.0
721,33,47.0
722,20,25.0
723,22,38.0
724,36,94.5
725,21,142.0
726,29,137.0
727,30,146.5
728,26,56.0
729,25,48.0
730,26,130.0
731,16,95.5
732,27,72.0
733,34,164.0
734,28,48.0
735,22,51.0
736,20,50.0
737,16,108.0
738,16,90.0
739,25,72.0
740,26,163.0
741,20,168.0
742,17,67.0
743,19,44.0
744,32,22.0
745,25,30.0
746,32,72.0
747,44,164.5
748,27,52.0
749,40,25.5
750,46,48.5
751,37,39.0
752,33,120.0
753,30,108.0
754,44,163.0
755,23,95.0
756,19,71.0
757,20,45.5
758,23,22.0
759,40,30.0
760,26,66.5
761,59,166.0
762,26,109.0
763,53,69.0
764,38,50.0
765,38,136.5
766,34,117.0
767,24,99.5
768,40,168.0
769,26,95.5
770,24,95.5
771,31,69.0
772,35,70.0
773,30,79.0
774,18,116.0
775,44,166.0
776,28,165.5
777,24,71.0
778,41,51.0
779,31,31.0
780,28,97.0
781,32,99.0
782,44,166.5
783,30,93.5
784,28,65.5
785,25,33.0
786,28,24.5
787,38,144.0
788,36,111.0
789,41,166.0
790,27,143.0
791,29,46.0
792,36,93.0
793,26,47.0
794,38,82.0
795,30,74.0
796,52,167.5
797,20,163.5
798,29,42.0
799,31,23.0
800,26,43.5
801,35,87.0
802,32,108.5
803,49,173.0
804,31,108.0
805,35,25.0
806,45,39.0
807,35,93.0
808,19,44.0
809,22,119.0
810,67,166.0
811,22,77.5
812,20,48.5
813,22,28.0
814,30,61.0
815,31,141.0
816,33,93.0
817,51,166.0
818,24,166.5
819,47,49.0
820,50,110.0
821,26,26.0
822,33,125.0
823,17,83.0
824,45,164.0
825,24,96.0
826,35,44.0
827,41,46.0
828,41,37.0
829,28,61.0
830,23,98.0
831,33,167.0
832,16,143.0
833,17,66.0
834,19,79.0
835,33,71.0
836,18,108.0
837,9,87.0
838,19,159.0
839,14,107.5
840,17,72.0
841,18,143.5
842,26,34.0
843,23,28.0
844,21,100.0
845,32,166.0
846,34,145.0
847,42,47.0
848,30,50.5
849,16,90.0
850,27,108.0
851,20,85.5
852,20,161.0
853,21,45.0
854,26,21.5
855,17,42.0
856,11,25.0
857,17,24.0
858,13,72.0
859,17,136.0
860,15,71.0
861,17,61.0
862,23,25.0
863,18,52.0
864,15,118.0
865,19,118.0
866,16,151.0
867,10,70.5
868,7,60.0
869,15,25.0
870,19,23.0
871,10,110.5
872,13,127.0
873,7,86.0
874,5,142.0
875,5,55.0
876,11,21.0
877,19,42.0
878,8,32.0
879,7,6.0
880,11,138.0
881,8,44.0
882,11,25.0
883,15,69.0
884,10,45.5
885,21,46.0
886,16,96.5
887,15,141.0
888,18,69.0
889,27,50.0
890,14,40.0
891,18,25.5
892,27,100.0
893,11,64.0
894,26,70.0
895,15,113.0
896,12,45.5
897,21,40.0
898,25,30.0
899,35,26.0
900,19,99.0
901,22,42.5
902,14,128.0
903,20,39.0
904,13,38.0
905,28,24.0
906,15,100.0
907,24,72.0
908,18,150.0
909,18,40.0
910,25,62.0
911,20,22.0
912,18,44.5
913,14,93.0
914,17,71.0
915,31,51.0
916,18,32.5
917,20,46.5
918,26,27.0
919,18,23.5
920,24,25.5
921,14,92.5
922,17,91.0
923,8,61.5
924,12,41.5
925,25,28.0
926,17,44.0
927,21,20.0
928,5,5.0
929,6,47.5
930,10,18.5
931,0,18.5
932,0,18.5
933,0,0.0
934,5,126.0
935,17,72.0
936,31,166.0
937,9,75.0
938,8,28.5
939,10,66.5
940,9,24.0
941,19,109.0
942,11,58.0
943,29,163.0
944,21,24.0
945,14,70.5
946,19,169.0
947,20,26.0
948,26,118.0
949,17,95.0
950,20,142.5
951,7,167.0
952,20,45.5
953,17,49.0
954,14,21.5
955,22,26.0
956,17,111.0
957,26,165.0
958,22,138.5
959,12,45.0
960,5,27.0
961,8,16.0
962,12,38.5
963,23,67.0
964,10,55.0
965,13,31.0
966,18,12.0
967,9,25.0
968,12,21.5
969,15,24.0
970,17,84.0
971,15,162.0
972,8,162.0
973,22,23.5
974,15,29.0
975,16,23.5
976,12,12.5
977,20,123.5
978,18,167.0
979,8,47.5
980,7,44.0
981,13,39.0
982,12,24.5
983,18,54.5
984,14,62.0
985,25,96.0
986,20,68.5
987,14,47.0
988,15,22.0
989,17,44.0
990,18,19.5
991,11,73.0
992,12,158.5
993,12,104.0
994,22,29.0
995,13,20.0
996,18,28.5
997,16,22.5
998,12,73.5
999,26,164.0
1000,10,114.5
1001,23,19.0
1002,18,46.0
1003,36,16.0
1004,21,24.0
1005,25,121.0
1006,27,112.0
1007,22,214.0
1008,16,23.0
1009,27,48.0
1010,29,38.0
1011,16,9.0
1012,14,72.5
1013,18,120.5
1014,20,75.0
1015,17,25.0
1016,18,72.5
1017,20,53.0
1018,28,97.0
1019,21,75.0
1020,29,170.0
1021,27,164.0
1022,27,42.0
1023,17,39.0
1024,22,29.5
1025,20,94.0
1026,34,68.0
1027,53,163.0
1028,26,85.5
1029,35,11.0
1030,29,21.0
1031,41,11.0
1032,30,90.5
1033,38,60.0
1034,43,159.0
1035,38,19.0
1036,45,22.0
1037,42,142.5
1038,28,144.5
1039,39,29.0
1040,23,89.0
1041,47,154.0
1042,42,165.0
1043,38,22.0
1044,25,31.0
1045,38,19.0
1046,28,9.5
1047,24,68.5
1048,58,167.0
1049,26,53.0
1050,53,24.0
1051,29,41.0
1052,28,42.5
1053,25,89.0
1054,21,95.0
1055,34,167.5
1056,21,150.0
1057,38,44.0
1058,28,49.5
1059,26,21.5
1060,43,25.0
1061,49,96.0
1062,42,169.0
1063,26,165.0
1064,45,50.0
1065,28,78.5
1066,27,47.0
1067,24,99.0
1068,21,93.0
1069,41,163.0
1070,33,104.0
1071,25,68.0
1072,25,74.0
1073,28,34.5
1074,26,129.5
1075,27,165.0
1076,42,165.5
1077,28,167.0
1078,34,86.0
1079,44,71.0
1080,31,142.0
1081,39,117.0
1082,25,117.0
1083,41,170.0
1084,28,163.0
1085,34,71.5
1086,28,51.0
1087,44,47.0
1088,36,93.5
1089,32,94.5
1090,33,130.0
1091,33,167.0
1092,32,43.5
1093,33,69.0
1094,30,45.0
1095,21,95.0
1096,27,72.0
1097,25,169.0
1098,35,161.0
1099,32,62.5
1100,29,67.0
1101,35,122.0
1102,39,119.0
1103,35,80.0
1104,40,165.5
1105,21,118.0
1106,26,170.5
1107,27,74.0
1108,29,121.0
1109,34,117.5
1110,23,73.0
1111,28,329.0
1112,27,164.0
1113,39,95.0
1114,34,95.5
1115,35,169.0
1116,25,146.0
1117,28,142.5
1118,18,174.5
1119,7,96.0
1120,20,45.5
1121,28,143.5
1122,33,151.0
1123,29,118.0
1124,24,120.0
1125,56,169.0
1126,22,103.5
1127,20,123.0
1128,14,49.5
1129,23,117.0
1130,26,117.5
1131,33,113.0
1132,33,168.0
1133,17,98.0
1134,15,76.0
1135,17,41.0
1136,24,32.5
1137,20,27.0
1138,24,87.5
1139,25,167.0
1140,21,164.0
1141,30,47.5
1142,14,47.5
1143,23,42.0
1144,11,99.0
1145,23,94.0
1146,27,167.0
1147,14,118.5
1148,20,27.5
1149,23,46.0
1150,17,44.0
1151,26,114.0
1152,17,98.0
1153,41,169.0
1154,22,166.5
