,Demand,Response_Time
0,13,170.0
1,29,285.0
2,21,165.0
3,11,156.0
4,18,429.0
5,6,89.0
6,4,334.5
7,16,178.5
8,22,225.0
9,26,258.0
10,8,224.0
11,19,167.0
12,5,396.0
13,3,109.0
14,9,104.0
15,16,65.0
16,17,145.0
17,12,330.5
18,25,279.0
19,10,100.5
20,3,239.0
21,39,205.0
22,17,232.0
23,14,426.0
24,16,284.0
25,12,313.0
26,2,365.0
27,5,208.0
28,5,93.0
29,20,175.0
30,19,172.0
31,17,121.0
32,19,257.0
33,14,310.5
34,6,267.5
35,13,333.0
36,10,241.0
37,12,248.0
38,8,114.5
39,6,337.5
40,4,314.5
41,3,452.0
42,7,279.0
43,11,139.0
44,17,259.0
45,15,273.0
46,16,371.5
47,2,351.0
48,4,104.5
49,14,152.0
50,19,151.0
51,17,137.0
52,16,427.0
53,7,169.0
54,19,365.0
55,11,219.0
56,15,336.0
57,23,259.0
58,13,311.0
59,11,138.0
60,19,325.0
61,5,251.0
62,9,354.0
63,8,833.0
64,7,383.0
65,16,368.0
66,13,955.0
67,13,149.0
68,12,450.5
69,13,109.0
70,16,189.5
71,21,194.0
72,15,176.0
73,12,194.5
74,29,404.0
75,11,281.0
76,8,127.5
77,24,264.0
78,6,281.0
79,9,196.0
80,11,70.0
81,14,276.0
82,10,135.0
83,11,517.0
84,13,100.0
85,11,478.0
86,19,211.0
87,13,256.0
88,24,100.0
89,10,256.0
90,5,50.0
91,16,276.5
92,17,191.0
93,12,152.0
94,1,125.0
95,11,334.0
96,7,116.0
97,13,423.0
98,18,611.0
99,22,468.0
100,12,361.0
101,9,328.0
102,9,403.0
103,11,553.0
104,21,269.0
105,14,486.0
106,15,335.0
107,6,178.0
108,6,169.0
109,6,516.5
110,8,451.0
111,10,317.5
112,17,189.0
113,15,185.0
114,18,356.0
115,14,163.0
116,10,142.0
117,17,450.0
118,3,1055.0
119,16,141.5
120,9,337.0
121,14,183.0
122,21,336.0
123,9,245.0
124,8,149.0
125,5,88.0
126,17,231.0
127,11,83.0
128,9,304.0
129,11,426.0
130,11,259.0
131,10,234.0
132,8,123.0
133,13,187.0
134,19,468.0
135,17,145.0
136,13,211.0
137,9,277.0
138,11,610.0
139,11,59.0
140,22,81.0
141,16,1003.0
142,12,186.0
143,3,694.0
144,0,694.0
145,6,631.5
146,6,127.0
147,17,253.0
148,16,334.0
149,7,360.0
150,26,188.0
151,12,549.0
152,15,145.0
153,7,405.0
154,25,526.0
155,12,1015.5
156,8,139.5
157,7,428.0
158,2,951.0
159,4,787.0
160,4,145.5
161,10,211.0
162,16,667.5
163,8,183.0
164,22,311.0
165,6,261.5
166,9,376.0
167,13,111.0
168,8,135.0
169,12,394.5
170,14,231.5
171,20,146.0
172,13,251.0
173,7,333.0
174,6,204.0
175,9,197.0
176,18,580.5
177,21,163.0
178,3,647.0
179,16,522.5
180,8,327.0
181,9,455.0
182,10,151.5
183,18,411.0
184,8,70.0
185,13,359.0
186,13,284.0
187,10,245.5
188,14,390.5
189,18,343.0
190,15,162.0
191,17,317.0
192,14,120.0
193,8,272.0
194,6,136.0
195,3,207.0
196,9,521.0
197,21,62.0
198,10,148.5
199,8,343.0
200,18,382.0
201,14,445.0
202,7,134.0
203,20,248.0
204,8,158.5
205,10,349.0
206,16,288.0
207,17,333.0
208,11,323.0
209,6,49.5
210,4,173.5
211,8,161.0
212,7,248.0
213,2,354.5
214,6,260.0
215,4,381.0
216,13,357.0
217,16,161.0
218,9,372.0
219,7,345.0
220,7,596.0
221,4,153.5
222,11,367.0
223,7,345.0
224,20,327.0
225,4,63.0
226,6,220.5
227,6,161.0
228,10,400.5
229,6,193.0
230,6,61.0
231,4,333.0
232,6,211.5
233,11,170.0
234,8,390.5
235,15,567.0
236,5,143.0
237,8,111.0
238,6,164.0
239,16,305.0
240,10,152.0
241,16,128.0
242,8,366.5
243,1,376.0
244,7,73.0
245,5,326.0
246,13,176.0
247,4,226.0
248,6,251.5
249,7,118.0
250,5,217.0
251,3,98.0
252,6,185.5
253,16,138.0
254,12,141.0
255,5,422.0
256,14,193.5
257,3,102.0
258,2,137.5
259,7,64.0
260,10,255.5
261,6,450.5
262,8,342.0
263,6,317.5
264,7,114.0
265,4,446.5
266,5,71.0
267,6,167.5
268,8,255.5
269,8,128.0
270,20,157.0
271,9,235.0
272,2,54.0
273,8,66.5
274,18,214.5
275,5,143.0
276,5,320.0
277,7,70.0
278,1,112.0
279,2,436.5
280,8,295.0
281,9,326.0
282,14,142.0
283,13,133.0
284,14,448.5
285,3,476.0
286,2,222.5
287,8,190.0
288,22,210.0
289,9,192.0
290,15,353.0
291,13,397.0
292,6,203.0
293,6,269.0
294,10,155.0
295,13,299.0
296,20,125.0
297,14,326.5
298,6,251.5
299,6,205.0
300,22,128.5
301,15,327.0
302,16,274.0
303,4,145.0
304,14,192.0
305,11,338.0
306,6,264.0
307,9,432.0
308,12,131.5
309,11,147.0
310,4,87.0
311,2,194.0
312,13,132.0
313,5,105.0
314,3,385.0
315,14,97.0
316,12,384.0
317,10,359.0
318,13,328.0
319,3,113.0
320,3,369.0
321,1,200.0
322,7,259.0
323,7,353.0
324,6,283.5
325,8,155.5
326,4,119.0
327,3,116.0
328,3,74.0
329,2,239.5
330,12,346.0
331,11,134.0
332,13,343.0
333,19,163.0
334,4,255.5
335,2,66.0
336,17,327.0
337,14,182.0
338,8,319.5
339,4,190.0
340,22,307.0
341,7,212.0
342,12,68.0
343,11,89.0
344,8,372.0
345,8,115.5
346,9,422.0
347,19,278.0
348,20,237.5
349,7,87.0
350,19,165.0
351,13,308.0
352,19,353.0
353,18,422.0
354,16,127.5
355,12,310.0
356,7,288.0
357,9,259.0
358,15,312.0
359,18,215.0
360,7,190.0
361,9,294.0
362,6,211.0
363,7,207.0
364,16,444.5
365,15,146.0
366,17,139.0
367,31,248.0
368,27,134.0
369,16,199.0
370,24,182.0
371,14,281.5
372,14,187.0
373,25,203.0
374,5,254.0
375,19,151.0
376,11,205.0
377,10,186.5
378,16,286.5
379,6,233.0
380,6,191.0
381,5,367.0
382,12,363.5
383,19,285.0
384,6,280.0
385,10,386.0
386,9,103.0
387,14,433.0
388,9,283.0
389,7,243.0
390,12,235.5
391,1,241.0
392,6,329.5
393,11,164.0
394,9,358.0
395,9,265.0
396,6,87.5
397,14,332.0
398,7,182.0
399,4,82.0
400,21,117.0
401,7,446.0
402,7,283.0
403,4,308.5
404,4,717.0
405,1,85.0
406,7,401.0
407,10,313.5
408,15,216.0
409,13,355.0
410,9,341.0
411,4,428.0
412,3,414.0
413,9,211.0
414,8,162.5
415,16,142.0
416,8,557.5
417,8,382.0
418,3,390.0
419,9,82.0
420,13,335.0
421,11,127.0
422,13,282.0
423,13,362.0
424,9,284.0
425,11,307.0
426,0,307.0
427,12,335.0
428,4,251.0
429,9,169.0
430,15,195.0
431,3,121.0
432,2,260.0
433,5,89.0
434,17,394.0
435,5,79.0
436,15,380.0
437,5,115.0
438,6,309.0
439,9,382.0
440,2,204.5
441,16,410.5
442,21,545.0
443,12,219.0
444,15,304.0
445,6,239.0
446,5,283.0
447,9,424.0
448,16,848.5
449,9,393.0
450,12,449.0
451,2,92.0
452,4,273.0
453,3,708.0
454,4,1802.0
455,13,340.0
456,6,199.0
457,15,384.0
458,15,351.0
459,11,600.0
460,4,984.0
461,0,984.0
462,9,862.0
463,15,993.0
464,5,164.0
465,17,117.0
466,6,451.5
467,5,94.0
468,13,453.0
469,20,235.0
470,10,261.5
471,12,392.5
472,5,322.0
473,9,563.0
474,5,151.0
475,4,1721.0
476,6,256.5
477,13,500.0
478,6,150.5
479,13,51.0
480,12,474.0
481,2,174.5
482,6,83.0
483,17,332.0
484,12,1191.0
485,14,1457.0
486,16,417.0
487,2,573.5
488,9,447.0
489,16,417.5
490,4,67.5
491,16,176.0
492,8,293.0
493,17,308.0
494,27,287.0
495,12,109.0
496,6,379.0
497,17,380.0
498,16,180.0
499,10,624.5
500,7,169.0
501,9,116.0
502,8,385.0
503,6,349.5
504,7,1297.0
505,11,240.0
506,12,325.0
507,6,1849.0
508,9,502.0
509,9,728.0
510,3,38.0
511,3,424.0
512,14,798.5
513,9,447.0
514,17,217.0
515,17,517.0
516,5,235.0
517,10,97.5
518,29,421.0
519,14,482.0
520,14,230.0
521,13,148.0
522,8,124.0
523,6,199.0
524,1,1107.0
525,10,327.0
526,17,237.0
527,14,162.5
528,14,591.0
529,7,166.0
530,20,88.5
531,5,234.0
532,11,334.0
533,14,154.0
534,5,280.0
535,10,966.0
536,30,406.0
537,5,65.0
538,5,350.0
539,19,284.0
540,12,172.0
541,5,878.0
542,11,453.0
543,10,202.5
544,6,266.5
545,5,128.0
546,8,505.0
547,14,470.0
548,3,144.0
549,7,486.0
550,17,116.0
551,20,116.0
552,7,203.0
553,17,186.0
554,14,177.0
555,19,139.0
556,14,192.0
557,6,279.5
558,5,380.0
559,0,380.0
560,6,237.0
561,11,72.0
562,6,372.0
563,9,117.0
564,7,169.0
565,7,141.0
566,6,352.5
567,13,143.0
568,9,374.0
569,3,181.0
570,8,270.0
571,16,267.0
572,4,227.0
573,3,607.0
574,12,103.0
575,11,303.0
576,9,119.0
577,6,304.5
578,17,403.0
579,9,380.0
580,4,123.0
581,8,233.0
582,8,72.5
583,19,321.0
584,8,127.5
585,8,812.0
586,3,600.0
587,5,569.0
588,10,112.0
589,7,60.0
590,15,142.0
591,9,360.0
592,6,127.5
593,7,140.0
594,4,260.0
595,6,348.5
596,13,225.0
597,6,690.0
598,9,329.0
599,10,154.5
600,5,120.0
601,4,144.0
602,13,434.0
603,12,169.0
604,21,285.0
605,12,191.0
606,10,415.5
607,11,139.0
608,7,87.0
609,3,222.0
610,10,234.0
611,13,170.0
612,12,291.0
613,4,152.5
614,1,269.0
615,6,741.5
616,18,332.5
617,9,189.0
618,8,159.0
619,11,333.0
620,5,83.0
621,3,129.0
622,2,125.0
623,13,138.0
624,13,219.0
625,24,186.0
626,3,68.0
627,10,308.0
628,3,118.0
629,4,368.5
630,24,264.5
631,8,407.0
632,15,228.0
633,9,267.0
634,12,535.5
635,4,267.0
636,7,111.0
637,12,691.0
638,9,314.0
639,5,93.0
640,1,188.0
641,8,653.0
642,12,448.0
643,5,95.0
644,7,100.0
645,16,314.0
646,13,615.0
647,10,286.5
648,14,398.5
649,4,286.0
650,7,347.0
651,8,194.0
652,10,390.0
653,6,246.5
654,4,353.0
655,8,234.0
656,4,522.0
657,3,375.0
658,6,457.5
659,9,309.0
660,15,156.0
661,15,291.0
662,9,404.0
663,3,466.0
664,1,193.0
665,10,220.5
666,8,203.0
667,17,357.0
668,18,111.0
669,7,256.0
670,4,256.0
671,8,696.0
672,10,172.5
673,37,139.0
674,20,224.0
675,9,106.0
676,5,262.0
677,4,339.5
678,2,45.5
679,11,94.0
680,10,207.0
681,12,378.0
682,11,318.0
683,14,325.5
684,2,272.5
685,5,120.0
686,20,135.0
687,10,309.0
688,12,281.0
689,16,256.0
690,18,271.0
691,12,543.0
692,1,423.0
693,12,313.0
694,9,160.0
695,13,210.0
696,10,430.0
697,12,403.5
698,5,252.0
699,8,148.5
700,15,192.0
701,16,164.5
702,25,151.0
703,9,128.0
704,12,136.5
705,2,406.5
706,4,250.0
707,10,234.0
708,10,89.0
709,20,351.0
710,17,109.0
711,16,333.0
712,11,371.0
713,5,96.0
714,17,334.0
715,11,409.0
716,11,284.0
717,12,144.5
718,18,195.0
719,9,218.0
720,7,353.0
721,10,278.5
722,9,131.0
723,17,179.0
724,14,321.0
725,4,131.0
726,7,258.0
727,3,107.0
728,6,217.5
729,14,230.5
730,12,165.0
731,4,428.5
732,6,247.5
733,1,564.0
734,0,564.0
735,9,431.0
736,14,258.5
737,11,93.0
738,18,178.5
739,8,690.5
740,0,690.5
741,1,16.0
742,15,346.0
743,14,174.5
744,11,383.0
745,7,287.0
746,8,287.0
747,3,140.0
748,1,942.0
749,6,746.0
750,9,302.0
751,6,225.5
752,10,187.5
753,4,375.0
754,6,138.0
755,4,214.0
756,0,214.0
757,13,66.0
758,5,119.0
759,13,427.0
760,3,72.0
761,6,473.0
762,2,178.0
763,7,260.0
764,8,246.0
765,9,126.0
766,5,276.0
767,2,197.0
768,8,213.0
769,1,542.0
770,9,186.0
771,11,149.0
772,3,160.0
773,9,144.0
774,10,350.0
775,7,549.0
776,8,128.0
777,13,210.0
778,6,344.0
779,10,156.0
780,10,144.0
781,5,501.0
782,10,246.5
783,1,74.0
784,17,98.0
785,13,194.0
786,10,446.0
787,8,255.0
788,8,372.0
789,6,98.0
790,4,438.0
791,12,327.0
792,17,122.0
793,8,234.0
794,17,145.0
795,13,132.0
796,7,371.0
797,6,222.0
798,9,192.0
799,9,167.0
800,21,461.0
801,14,261.0
802,7,409.0
803,4,1223.0
804,3,211.0
805,6,444.5
806,13,365.0
807,3,1386.0
808,11,262.0
809,14,780.0
810,10,137.5
811,9,347.0
812,10,218.0
813,6,341.5
814,12,121.0
815,10,343.5
816,11,499.0
817,11,283.0
818,3,1385.0
819,19,570.0
820,11,475.0
821,11,516.0
822,17,431.0
823,10,406.0
824,10,265.0
825,2,366.0
826,10,225.5
827,14,814.0
828,13,168.0
829,17,147.0
830,5,315.0
831,10,394.5
832,1,67.0
833,5,336.0
834,15,482.0
835,14,446.0
836,5,428.0
837,1,417.0
838,5,381.0
839,8,395.5
840,17,399.0
841,13,378.0
842,15,385.0
843,11,186.0
844,16,418.0
845,3,381.0
846,1,96.0
847,8,742.0
848,12,225.0
849,16,117.0
850,4,471.0
851,11,381.0
852,2,394.5
853,10,121.5
854,18,359.0
855,4,44.0
856,8,470.0
857,18,333.0
858,4,320.0
859,11,256.0
860,5,416.0
861,9,194.0
862,6,560.5
863,4,258.5
864,6,264.0
865,11,170.0
866,3,189.0
867,2,223.0
868,1,69.0
869,16,445.0
870,6,246.5
871,15,240.0
872,16,648.0
873,15,300.0
874,9,381.0
875,6,101.0
876,6,189.5
877,17,163.0
878,22,201.0
879,16,379.5
880,9,121.0
881,13,360.0
882,8,357.0
883,23,185.0
884,13,234.0
885,16,153.0
886,13,373.0
887,11,331.0
888,2,195.5
889,7,330.0
890,5,208.0
891,12,362.0
892,10,164.5
893,8,145.5
894,1,195.0
895,9,361.0
896,3,338.0
897,5,312.0
898,11,294.0
899,12,158.5
900,9,237.0
901,6,158.5
902,4,231.0
903,12,174.0
904,14,309.5
905,12,150.5
906,10,138.0
907,8,90.0
908,4,105.0
909,6,282.5
910,13,101.0
911,10,164.5
912,9,116.0
913,8,146.5
914,2,102.0
915,2,211.0
916,4,203.5
917,13,64.0
918,6,137.0
919,4,89.0
920,2,83.5
921,6,128.0
922,1,98.0
923,2,87.5
924,1,49.0
925,1,74.0
926,1,57.0
927,1,68.0
928,1,68.0
929,1,51.0
930,1,23.0
931,0,23.0
932,0,23.0
933,0,0.0
934,2,1560.0
935,18,480.0
936,4,300.0
937,4,372.0
938,24,408.0
939,22,384.0
940,28,360.0
941,20,144.0
942,15,260.0
943,6,504.0
944,10,312.0
945,12,696.0
946,28,408.0
947,6,384.0
948,12,1236.0
949,5,72.0
950,11,312.0
951,5,552.0
952,18,972.0
953,10,564.0
954,14,948.0
955,13,456.0
956,13,312.0
957,17,384.0
958,7,384.0
959,17,96.0
960,15,504.0
961,8,312.0
962,9,336.0
963,22,372.0
964,9,648.0
965,4,768.0
966,26,384.0
967,24,144.0
968,18,300.0
969,21,336.0
970,4,828.0
971,9,72.0
972,5,528.0
973,12,1212.0
974,12,336.0
975,15,312.0
976,18,360.0
977,11,336.0
978,3,192.0
979,7,960.0
980,18,768.0
981,21,672.0
982,4,480.0
983,10,120.0
984,4,864.0
985,4,624.0
986,14,384.0
987,24,372.0
988,13,528.0
989,16,888.0
990,13,336.0
991,12,408.0
992,9,456.0
993,12,396.0
994,15,1752.0
995,11,456.0
996,29,360.0
997,15,168.0
998,12,324.0
999,11,816.0
1000,10,240.0
1001,14,540.0
1002,10,312.0
1003,6,156.0
1004,11,168.0
1005,6,300.0
1006,7,120.0
1007,8,72.0
1008,11,504.0
1009,16,48.0
1010,5,288.0
1011,7,360.0
1012,7,144.0
1013,15,144.0
1014,15,240.0
1015,11,336.0
1016,14,384.0
1017,12,480.0
1018,13,576.0
1019,11,456.0
1020,6,336.0
1021,15,1176.0
1022,18,168.0
1023,23,312.0
1024,15,192.0
1025,6,372.0
1026,4,732.0
1027,8,96.0
1028,3,72.0
1029,11,168.0
1030,16,144.0
1031,3,48.0
1032,6,420.0
1033,6,336.0
1034,5,264.0
1035,5,288.0
1036,20,396.0
1037,14,144.0
1038,13,192.0
1039,13,432.0
1040,8,408.0
1041,7,384.0
1042,8,240.0
1043,13,72.0
1044,13,192.0
1045,5,360.0
1046,16,204.0
1047,15,168.0
1048,4,264.0
1049,1,192.0
1050,9,72.0
1051,11,672.0
1052,12,132.0
1053,5,144.0
1054,6,336.0
1055,5,216.0
1056,3,360.0
1057,22,252.0
1058,11,504.0
1059,14,108.0
1060,11,120.0
1061,6,336.0
1062,9,216.0
1063,5,168.0
1064,7,96.0
1065,10,576.0
1066,11,360.0
1067,15,408.0
1068,8,504.0
1069,3,240.0
1070,16,360.0
1071,12,312.0
1072,13,288.0
1073,21,144.0
1074,14,204.0
1075,6,372.0
1076,9,96.0
1077,4,168.0
1078,3,756.0
1079,11,120.0
1080,15,192.0
1081,8,312.0
1082,8,399.5
1083,11,376.0
1084,6,156.0
1085,30,326.5
1086,6,523.5
1087,15,48.0
1088,3,334.0
1089,13,232.0
1090,3,120.0
1091,6,60.0
1092,13,402.0
1093,10,303.0
1094,10,254.5
1095,9,197.0
1096,12,138.5
1097,7,256.0
1098,6,444.0
1099,15,330.0
1100,13,80.0
1101,12,163.0
1102,8,156.0
1103,7,113.0
1104,10,448.0
1105,3,357.0
1106,8,133.5
1107,14,188.5
1108,22,168.0
1109,34,164.0
1110,6,550.0
1111,9,621.0
1112,7,211.0
1113,19,192.0
1114,11,175.0
1115,30,168.5
1116,10,356.0
1117,9,223.0
1118,10,286.0
1119,5,158.0
1120,13,233.0
1121,14,226.0
1122,12,322.0
1123,17,187.0
1124,13,114.0
1125,7,120.0
1126,11,354.0
1127,13,174.0
1128,17,312.0
1129,23,199.0
1130,18,132.5
1131,8,404.0
1132,8,410.0
1133,16,161.0
1134,33,184.0
1135,19,312.0
1136,10,404.5
1137,6,132.5
1138,12,405.0
1139,4,387.0
1140,8,114.0
1141,12,405.0
1142,9,209.0
1143,17,152.0
1144,29,329.0
1145,20,333.0
1146,14,384.5
1147,14,336.0
1148,10,405.0
1149,21,310.0
1150,35,296.0
1151,21,212.0
1152,8,576.0
1153,10,245.5
1154,3,356.0
