,Demand,Response_Time
0,10,5.0
1,5,4.0
2,12,3.0
3,10,7.0
4,12,2.5
5,10,4.0
6,5,3.0
7,6,3.0
8,4,3.0
9,8,2.5
10,3,6.0
11,6,3.0
12,3,9.0
13,3,5.0
14,6,3.0
15,2,13.0
16,6,3.0
17,7,2.0
18,13,3.0
19,5,6.0
20,11,4.0
21,10,4.5
22,4,5.0
23,4,4.0
24,3,2.0
25,7,4.0
26,8,4.5
27,6,4.5
28,10,3.0
29,9,1.0
30,2,0.0
31,8,3.5
32,8,4.0
33,11,2.0
34,5,3.0
35,5,8.0
36,4,2.5
37,11,7.0
38,6,3.0
39,7,5.0
40,11,3.0
41,4,2.0
42,6,12.0
43,5,1.0
44,7,5.0
45,6,1.0
46,6,5.0
47,8,2.0
48,7,2.0
49,8,5.0
50,6,1.0
51,6,4.5
52,10,1.0
53,10,3.5
54,5,3.0
55,8,1.0
56,6,3.0
57,10,3.5
58,3,1.0
59,11,1.0
60,5,5.0
61,10,2.5
62,5,3.0
63,12,2.0
64,8,5.0
65,7,3.0
66,6,5.0
67,4,5.5
68,7,6.0
69,12,1.0
70,3,4.0
71,4,1.5
72,6,7.0
73,12,6.0
74,5,3.0
75,5,2.0
76,6,1.5
77,6,0.5
78,5,2.0
79,6,2.0
80,2,4.0
81,3,4.0
82,5,3.0
83,2,3.0
84,5,5.0
85,3,2.0
86,5,3.0
87,3,2.0
88,7,5.0
89,4,1.5
90,4,1.0
91,11,6.0
92,8,5.0
93,1,3.0
94,5,4.0
95,7,4.0
96,10,2.0
97,8,3.5
98,6,2.5
99,8,3.0
100,2,3.5
101,7,5.0
102,3,6.0
103,1,1.0
104,4,3.5
105,12,3.5
106,9,4.0
107,8,3.0
108,3,1.0
109,5,3.0
110,6,1.5
111,2,3.0
112,9,4.0
113,5,3.0
114,8,5.0
115,6,3.0
116,5,1.0
117,4,2.0
118,2,0.5
119,7,4.0
120,9,2.0
121,4,2.5
122,6,5.0
123,8,11.0
124,4,3.5
125,5,2.0
126,1,13.0
127,5,4.0
128,9,2.0
129,3,3.0
130,6,1.0
131,6,4.5
132,6,1.5
133,7,3.0
134,10,2.5
135,3,6.0
136,6,5.5
137,8,0.5
138,7,3.0
139,4,0.5
140,13,1.0
141,7,4.0
142,8,3.0
143,4,2.5
144,4,2.0
145,3,2.0
146,7,0.0
147,19,3.0
148,20,4.0
149,18,1.5
150,7,3.0
151,6,2.0
152,6,1.5
153,7,3.0
154,12,5.0
155,10,3.0
156,12,4.0
157,8,3.0
158,7,2.0
159,2,20.5
160,6,3.5
161,18,4.0
162,22,4.0
163,4,1.5
164,4,2.0
165,14,4.5
166,17,1.0
167,11,3.0
168,6,4.0
169,9,3.0
170,2,9.0
171,6,4.5
172,7,5.0
173,7,4.0
174,2,1.5
175,5,5.0
176,7,3.0
177,3,3.0
178,8,2.5
179,9,3.0
180,7,5.0
181,3,2.0
182,7,3.0
183,16,4.0
184,13,5.0
185,19,4.0
186,20,3.0
187,23,1.0
188,31,2.0
189,10,1.0
190,4,4.5
191,9,8.0
192,4,6.0
193,5,4.0
194,8,3.0
195,4,2.5
196,7,2.0
197,6,2.0
198,4,6.5
199,4,3.5
200,7,2.0
201,6,1.0
202,2,0.5
203,5,1.0
204,5,5.0
205,6,2.5
206,6,2.5
207,7,2.0
208,4,1.0
209,5,3.0
210,7,1.0
211,5,9.0
212,6,1.5
213,6,4.0
214,7,5.0
215,3,2.0
216,5,2.0
217,4,3.0
218,3,2.0
219,8,12.0
220,3,0.0
221,4,5.0
222,14,3.5
223,5,3.0
224,6,1.5
225,3,1.0
226,5,3.0
227,7,1.0
228,7,4.0
229,7,1.0
230,3,2.0
231,5,3.0
232,3,2.0
233,6,2.0
234,10,3.0
235,3,1.0
236,3,3.0
237,3,1.0
238,6,2.0
239,5,2.0
240,3,7.0
241,4,4.0
242,4,3.5
243,3,6.0
244,8,2.0
245,5,1.0
246,8,5.0
247,9,4.0
248,8,2.5
249,5,2.0
250,7,4.0
251,10,4.0
252,15,11.0
253,6,4.0
254,8,2.5
255,7,2.0
256,3,2.0
257,2,5.5
258,2,3.5
259,7,1.0
260,12,1.5
261,2,3.5
262,9,2.0
263,9,2.0
264,8,4.5
265,3,6.0
266,3,1.0
267,4,4.0
268,5,1.0
269,11,4.0
270,9,1.0
271,4,0.5
272,5,5.0
273,4,13.0
274,4,5.5
275,10,5.0
276,5,2.0
277,11,3.0
278,8,3.5
279,6,2.5
280,5,3.0
281,2,2.0
282,4,9.5
283,6,4.0
284,7,3.0
285,11,10.0
286,2,4.5
287,8,4.0
288,5,4.0
289,5,9.0
290,1,5.0
291,3,6.0
292,8,2.0
293,6,7.5
294,4,7.0
295,7,4.0
296,7,3.0
297,2,2.0
298,5,5.0
299,10,4.0
300,7,2.0
301,7,2.0
302,11,4.0
303,5,5.0
304,6,5.0
305,3,7.0
306,4,2.0
307,5,2.0
308,5,4.0
309,8,3.5
310,5,0.0
311,11,3.0
312,7,6.0
313,3,2.0
314,6,0.0
315,13,4.0
316,6,2.0
317,8,5.5
318,11,1.0
319,8,2.0
320,4,2.0
321,8,3.5
322,6,7.0
323,9,2.0
324,7,1.0
325,6,0.5
326,11,4.0
327,5,7.0
328,10,2.5
329,6,2.0
330,8,5.0
331,6,1.0
332,7,4.0
333,13,3.0
334,6,3.0
335,17,2.0
336,13,3.0
337,2,5.0
338,6,6.0
339,4,5.0
340,1,18.0
341,10,5.5
342,1,0.0
343,9,12.0
344,5,5.0
345,8,4.0
346,6,3.5
347,14,4.5
348,8,2.5
349,5,4.0
350,11,2.0
351,6,3.5
352,6,1.0
353,7,7.0
354,8,3.0
355,6,4.0
356,2,5.5
357,4,19.0
358,6,6.0
359,10,2.5
360,10,2.5
361,7,12.0
362,7,4.0
363,6,3.0
364,7,4.0
365,12,2.0
366,4,2.0
367,6,2.5
368,13,3.0
369,17,3.0
370,17,2.0
371,10,4.0
372,2,1.5
373,5,3.0
374,7,3.0
375,6,4.0
376,4,3.0
377,10,3.0
378,5,9.0
379,9,3.0
380,6,8.5
381,9,3.0
382,12,5.0
383,3,1.0
384,5,2.0
385,10,3.0
386,9,3.0
387,11,3.0
388,8,2.5
389,1,10.0
390,13,4.0
391,5,1.0
392,6,3.5
393,4,3.5
394,8,4.0
395,6,3.0
396,10,3.5
397,10,2.0
398,7,6.0
399,9,5.0
400,7,7.0
401,14,2.5
402,6,2.0
403,5,2.0
404,7,1.0
405,6,2.0
406,15,4.0
407,9,1.0
408,8,2.0
409,4,14.5
410,12,5.0
411,5,3.0
412,9,0.0
413,8,4.0
414,8,3.5
415,6,2.0
416,5,2.0
417,5,4.0
418,4,3.0
419,6,0.5
420,11,2.0
421,6,2.0
422,14,2.5
423,9,1.0
424,7,2.0
425,4,1.0
426,6,2.5
427,2,5.5
428,11,7.0
429,6,3.0
430,3,2.0
431,7,3.0
432,7,1.0
433,4,2.0
434,5,5.0
435,6,1.0
436,7,4.0
437,2,6.0
438,13,3.0
439,6,6.0
440,5,3.0
441,5,1.0
442,8,4.0
443,7,2.0
444,5,6.0
445,9,6.0
446,3,1.0
447,9,4.0
448,9,4.0
449,7,2.0
450,8,1.0
451,9,2.0
452,11,4.0
453,12,2.0
454,3,4.0
455,12,5.0
456,7,5.0
457,6,3.5
458,14,2.0
459,6,3.0
460,2,4.0
461,4,5.5
462,9,4.0
463,6,2.0
464,4,3.5
465,6,2.0
466,5,9.0
467,6,4.0
468,7,2.0
469,8,4.0
470,10,3.0
471,11,4.0
472,5,2.0
473,3,4.0
474,9,3.0
475,9,3.0
476,5,13.0
477,7,1.0
478,9,5.0
479,7,2.0
480,7,6.0
481,8,6.5
482,8,4.5
483,5,11.0
484,8,2.5
485,7,2.0
486,9,5.0
487,23,3.0
488,13,7.0
489,9,4.0
490,3,2.0
491,5,5.0
492,9,1.0
493,28,3.0
494,28,3.0
495,13,3.0
496,3,9.0
497,12,6.0
498,13,3.0
499,5,4.0
500,8,8.0
501,4,4.0
502,1,1.0
503,1,1.0
504,2,3.0
505,2,3.0
506,5,3.0
507,3,3.0
508,12,2.5
509,4,5.0
510,5,2.0
511,5,1.0
512,7,1.0
513,12,5.0
514,24,4.0
515,6,5.5
516,16,1.0
517,4,2.0
518,16,4.0
519,12,6.5
520,5,2.0
521,6,3.0
522,6,3.0
523,14,2.0
524,10,1.0
525,2,4.5
526,8,2.5
527,5,2.0
528,3,8.0
529,7,4.0
530,4,8.0
531,2,3.5
532,5,4.0
533,6,5.5
534,7,5.0
535,7,2.0
536,8,1.5
537,5,1.0
538,7,4.0
539,12,4.0
540,9,3.0
541,6,5.5
542,4,4.0
543,9,4.0
544,7,1.0
545,8,4.0
546,4,2.5
547,5,2.0
548,6,5.0
549,16,2.0
550,11,3.0
551,6,2.0
552,6,0.5
553,9,4.0
554,7,3.0
555,4,5.5
556,10,5.5
557,7,5.0
558,4,2.5
559,2,4.0
560,5,3.0
561,1,6.0
562,8,1.0
563,6,2.0
564,5,1.0
565,4,2.5
566,3,3.0
567,4,2.5
568,5,3.0
569,4,6.5
570,9,3.0
571,7,3.0
572,13,4.0
573,6,4.0
574,9,4.0
575,4,2.5
576,6,4.0
577,6,3.5
578,7,9.0
579,8,1.0
580,6,2.0
581,11,3.0
582,7,2.0
583,10,3.5
584,12,5.0
585,5,2.0
586,6,2.0
587,5,5.0
588,3,2.0
589,8,4.0
590,10,0.5
591,5,15.0
592,9,4.0
593,5,2.0
594,6,2.0
595,9,1.0
596,9,4.0
597,5,2.0
598,6,3.0
599,5,2.0
600,5,2.0
601,1,1.0
602,3,1.0
603,3,4.0
604,3,3.0
605,6,5.0
606,4,3.5
607,1,5.0
608,5,1.0
609,12,3.0
610,8,3.0
611,7,2.0
612,9,1.0
613,6,4.0
614,5,2.0
615,3,0.0
616,7,2.0
617,4,3.5
618,8,3.5
619,10,5.0
620,4,1.5
621,4,1.5
622,9,4.0
623,3,8.0
624,2,21.5
625,9,4.0
626,4,1.0
627,7,6.0
628,4,3.0
629,2,4.0
630,8,4.0
631,13,2.0
632,3,2.0
633,11,5.0
634,7,1.0
635,1,11.0
636,5,4.0
637,9,3.0
638,7,4.0
639,7,3.0
640,5,0.0
641,8,3.0
642,2,1.0
643,0,1.0
644,7,4.0
645,6,5.0
646,12,2.5
647,5,1.0
648,7,2.0
649,3,4.0
650,5,2.0
651,5,5.0
652,7,2.0
653,5,1.0
654,3,6.0
655,4,4.0
656,6,1.5
657,8,4.0
658,0,4.0
659,8,3.0
660,7,9.0
661,2,15.0
662,7,3.0
663,7,2.0
664,3,4.0
665,7,4.0
666,8,2.5
667,6,11.0
668,6,3.5
669,9,2.0
670,1,5.0
671,4,4.0
672,15,2.0
673,14,5.0
674,6,2.5
675,5,6.0
676,4,3.0
677,9,2.0
678,4,4.5
679,8,4.0
680,9,2.0
681,9,5.0
682,12,1.0
683,7,3.0
684,3,1.0
685,6,3.5
686,3,1.0
687,3,2.0
688,4,3.5
689,8,3.5
690,8,4.0
691,6,0.5
692,8,3.5
693,2,4.5
694,5,1.0
695,6,4.0
696,8,3.0
697,5,4.0
698,7,2.0
699,0,2.0
700,6,5.5
701,8,1.0
702,10,3.0
703,10,5.0
704,6,3.0
705,8,1.0
706,6,3.5
707,6,6.5
708,7,15.0
709,7,1.0
710,8,1.0
711,7,3.0
712,9,2.0
713,8,4.5
714,5,2.0
715,11,2.0
716,9,1.0
717,11,2.0
718,14,2.5
719,13,0.0
720,11,1.0
721,10,3.5
722,8,5.0
723,9,2.0
724,16,2.5
725,4,2.5
726,3,6.0
727,3,5.0
728,5,2.0
729,6,4.5
730,9,1.0
731,10,4.0
732,5,2.0
733,7,4.0
734,5,3.0
735,8,2.0
736,11,4.0
737,10,5.0
738,12,3.5
739,40,3.0
740,6,10.0
741,5,2.0
742,4,2.5
743,4,3.5
744,7,5.0
745,4,2.0
746,7,5.0
747,6,5.0
748,11,4.0
749,8,4.5
750,3,2.0
751,3,2.0
752,4,1.0
753,5,1.0
754,5,2.0
755,2,2.0
756,8,3.0
757,3,7.0
758,5,7.0
759,6,2.0
760,4,5.5
761,4,3.5
762,4,3.5
763,4,7.5
764,12,2.0
765,4,4.5
766,4,1.5
767,6,3.5
768,5,7.0
769,10,5.5
770,4,18.0
771,7,6.0
772,5,6.0
773,4,1.5
774,1,12.0
775,4,5.0
776,7,7.0
777,10,1.0
778,12,11.0
779,2,11.0
780,4,3.0
781,7,6.0
782,6,4.0
783,6,2.5
784,4,2.0
785,6,5.5
786,4,3.5
787,5,4.0
788,6,4.0
789,4,4.5
790,4,1.0
791,3,1.0
792,10,4.0
793,6,11.0
794,8,3.0
795,8,2.0
796,8,1.5
797,0,1.5
798,5,3.0
799,5,5.0
800,6,4.0
801,8,6.5
802,6,4.0
803,8,6.5
804,11,1.0
805,8,3.5
806,3,3.0
807,5,3.0
808,10,4.5
809,5,4.0
810,5,2.0
811,7,4.0
812,12,2.0
813,9,2.0
814,3,2.0
815,7,3.0
816,5,3.0
817,12,3.0
818,4,1.0
819,2,5.5
820,9,4.0
821,6,6.0
822,4,1.5
823,10,7.5
824,20,3.0
825,3,1.0
826,14,7.0
827,8,2.0
828,9,4.0
829,8,1.0
830,11,1.0
831,10,0.5
832,7,1.0
833,8,5.0
834,1,5.0
835,2,0.5
836,9,0.0
837,5,0.0
838,1,0.0
839,4,1.5
840,5,4.0
841,4,3.0
842,5,3.0
843,8,4.5
844,5,2.0
845,5,3.0
846,7,2.0
847,4,6.5
848,7,1.0
849,9,3.0
850,10,3.5
851,9,4.0
852,4,3.0
853,9,4.0
854,14,2.0
855,12,2.0
856,18,2.5
857,13,2.0
858,21,3.0
859,6,1.5
860,5,0.0
861,11,4.0
862,5,2.0
863,5,6.0
864,8,2.0
865,5,1.0
866,6,1.5
867,9,1.0
868,5,1.0
869,15,2.0
870,26,2.0
871,28,4.5
872,25,2.0
873,23,2.0
874,5,2.0
875,18,3.5
876,20,3.0
877,13,1.0
878,21,1.0
879,14,2.0
880,17,2.0
881,8,2.0
882,8,6.5
883,4,0.0
884,3,2.0
885,5,3.0
886,4,4.0
887,7,2.0
888,10,2.0
889,9,1.0
890,5,1.0
891,12,1.0
892,7,5.0
893,9,3.0
894,8,2.0
895,7,4.0
896,3,4.0
897,2,3.5
898,4,1.5
899,10,1.0
900,4,2.0
901,8,3.5
902,2,2.5
903,3,3.0
904,4,1.0
905,6,2.5
906,2,2.5
907,17,2.0
908,7,2.0
909,7,2.0
910,8,3.0
911,5,5.0
912,6,1.5
913,10,3.5
914,10,4.5
915,4,1.0
916,4,0.0
917,0,0.0
918,4,6.5
919,12,1.5
920,6,3.0
921,4,2.0
922,14,2.5
923,5,0.0
924,4,0.5
925,7,1.0
926,14,3.0
927,8,1.0
928,5,2.0
929,10,1.0
930,9,1.0
931,4,3.5
932,0,3.5
933,0,0.0
934,5,3.0
935,10,2.5
936,4,2.0
937,2,3.5
938,8,1.5
939,10,3.0
940,17,2.0
941,23,4.0
942,17,3.0
943,12,2.0
944,9,3.0
945,7,7.0
946,7,3.0
947,6,8.5
948,3,7.0
949,5,2.0
950,7,6.0
951,8,4.0
952,10,1.5
953,3,1.0
954,14,3.0
955,8,2.5
956,7,4.0
957,6,1.0
958,7,1.0
959,21,2.0
960,15,3.0
961,11,2.0
962,5,2.0
963,5,2.0
964,15,2.0
965,4,1.0
966,16,2.0
967,4,1.5
968,6,4.0
969,12,2.0
970,14,6.5
971,6,3.0
972,3,4.0
973,10,1.5
974,5,3.0
975,8,3.0
976,9,5.0
977,20,3.0
978,14,2.0
979,18,2.0
980,16,3.5
981,12,1.5
982,12,3.0
983,17,3.0
984,20,2.0
985,15,2.0
986,3,2.0
987,14,2.5
988,9,4.0
989,8,5.0
990,6,5.0
991,4,1.5
992,3,1.0
993,10,3.0
994,11,2.0
995,10,1.5
996,5,1.0
997,14,2.5
998,10,2.5
999,3,1.0
1000,3,1.0
1001,3,1.0
1002,7,3.0
1003,5,2.0
1004,3,0.0
1005,4,2.5
1006,4,2.0
1007,3,3.0
1008,7,1.0
1009,8,5.0
1010,12,0.5
1011,6,3.0
1012,13,2.0
1013,3,2.0
1014,4,0.5
1015,3,2.0
1016,7,2.0
1017,9,4.0
1018,6,1.0
1019,10,2.5
1020,6,2.0
1021,2,2.0
1022,4,2.5
1023,5,1.0
1024,13,3.0
1025,4,2.0
1026,8,2.5
1027,5,4.0
1028,8,1.0
1029,4,3.5
1030,6,4.0
1031,6,5.0
1032,6,2.5
1033,10,3.0
1034,5,2.0
1035,4,0.5
1036,2,3.5
1037,9,4.0
1038,9,2.0
1039,9,2.0
1040,4,3.5
1041,5,4.0
1042,6,1.0
1043,5,3.0
1044,1,6.0
1045,8,8.5
1046,6,2.0
1047,5,3.0
1048,3,4.0
1049,3,3.0
1050,6,4.0
1051,4,4.0
1052,5,2.0
1053,6,4.0
1054,11,5.0
1055,3,4.0
1056,0,4.0
1057,4,3.5
1058,3,2.0
1059,6,4.5
1060,4,6.0
1061,7,2.0
1062,3,5.0
1063,4,3.5
1064,8,3.5
1065,9,5.0
1066,5,3.0
1067,5,4.0
1068,8,3.5
1069,4,3.5
1070,4,2.5
1071,10,3.0
1072,3,2.0
1073,7,2.0
1074,7,5.0
1075,7,3.0
1076,5,1.0
1077,8,2.5
1078,5,0.0
1079,10,3.0
1080,7,2.0
1081,9,1.0
1082,10,6.0
1083,12,6.0
1084,7,4.0
1085,7,2.0
1086,9,3.0
1087,10,3.0
1088,4,1.0
1089,9,3.0
1090,6,3.0
1091,10,3.0
1092,7,4.0
1093,9,5.0
1094,10,3.0
1095,13,4.0
1096,4,1.0
1097,12,3.0
1098,10,1.0
1099,9,3.0
1100,1,7.0
1101,14,4.0
1102,10,3.5
1103,5,4.0
1104,2,1.5
1105,4,2.5
1106,8,2.0
1107,9,6.0
1108,15,4.0
1109,7,2.0
1110,7,3.0
1111,10,3.0
1112,11,1.0
1113,5,3.0
1114,10,2.5
1115,9,9.0
1116,10,2.5
1117,6,4.0
1118,8,1.5
1119,4,1.0
1120,5,6.0
1121,11,1.0
1122,9,7.0
1123,8,2.5
1124,4,6.5
1125,13,4.0
1126,7,2.0
1127,5,2.0
1128,10,1.5
1129,10,2.0
1130,9,2.0
1131,9,5.0
1132,10,2.5
1133,7,2.0
1134,13,3.0
1135,12,1.5
1136,9,3.0
1137,8,2.5
1138,9,3.0
1139,9,3.0
1140,10,1.5
1141,9,3.0
1142,9,1.0
1143,14,2.0
1144,8,6.5
1145,11,4.0
1146,10,1.0
1147,8,1.0
1148,2,7.0
1149,7,7.0
1150,8,4.0
1151,5,7.0
1152,8,4.0
1153,5,2.0
1154,4,2.0
