,Demand,Response_Time
0,7,5.0
1,18,1.5
2,8,5.0
3,12,2.0
4,7,3.0
5,10,3.0
6,7,4.0
7,5,5.0
8,9,3.0
9,9,3.0
10,4,3.0
11,7,5.0
12,8,8.5
13,1,2.0
14,9,4.0
15,6,3.0
16,8,3.0
17,6,3.0
18,5,2.0
19,8,2.0
20,4,1.5
21,8,2.0
22,12,2.0
23,9,1.0
24,5,6.0
25,8,2.5
26,6,3.0
27,3,5.0
28,6,0.5
29,8,1.0
30,9,2.0
31,12,3.0
32,10,2.5
33,4,3.5
34,4,3.5
35,7,2.0
36,10,6.0
37,5,2.0
38,8,2.5
39,12,3.0
40,9,3.0
41,5,3.0
42,4,3.0
43,5,4.0
44,12,3.5
45,19,2.0
46,12,1.0
47,3,4.0
48,5,2.0
49,5,3.0
50,10,2.0
51,3,3.0
52,10,1.5
53,9,2.0
54,4,2.0
55,2,4.0
56,8,4.0
57,9,4.0
58,8,1.0
59,3,3.0
60,6,2.5
61,3,1.0
62,3,1.0
63,14,1.5
64,8,5.0
65,7,3.0
66,4,7.5
67,5,10.0
68,6,1.0
69,4,2.5
70,17,2.0
71,4,3.5
72,5,8.0
73,6,5.5
74,5,6.0
75,6,2.0
76,4,6.5
77,7,1.0
78,12,2.0
79,3,8.0
80,4,6.0
81,11,5.0
82,0,5.0
83,3,4.0
84,10,0.0
85,6,2.0
86,10,2.0
87,8,3.5
88,3,5.0
89,6,2.0
90,5,3.0
91,5,2.0
92,10,2.0
93,1,1.0
94,6,1.5
95,3,3.0
96,7,2.0
97,4,6.0
98,7,2.0
99,14,1.5
100,4,3.0
101,12,2.0
102,3,2.0
103,3,7.0
104,7,9.0
105,8,4.0
106,7,2.0
107,9,2.0
108,5,2.0
109,6,2.0
110,2,6.5
111,5,2.0
112,7,4.0
113,6,2.5
114,3,5.0
115,6,1.0
116,8,5.5
117,8,1.5
118,3,4.0
119,5,2.0
120,8,8.5
121,10,3.5
122,4,2.5
123,10,1.5
124,6,2.0
125,3,3.0
126,4,1.0
127,10,2.0
128,4,2.0
129,3,7.0
130,3,3.0
131,1,5.0
132,7,3.0
133,10,1.0
134,8,3.0
135,5,4.0
136,5,1.0
137,4,2.0
138,3,2.0
139,3,6.0
140,3,2.0
141,4,3.5
142,4,2.0
143,6,12.0
144,1,2.0
145,2,10.5
146,3,2.0
147,3,4.0
148,4,5.5
149,6,3.5
150,8,4.0
151,6,3.5
152,2,0.0
153,5,2.0
154,14,2.0
155,7,4.0
156,7,2.0
157,6,6.5
158,6,2.0
159,3,1.0
160,4,4.0
161,3,3.0
162,11,6.0
163,8,2.5
164,4,4.5
165,4,5.5
166,4,2.0
167,16,2.0
168,17,1.0
169,11,4.0
170,14,1.0
171,12,4.0
172,9,6.0
173,12,3.0
174,8,2.0
175,9,1.0
176,4,1.5
177,9,3.0
178,5,1.0
179,6,1.5
180,6,1.0
181,6,1.0
182,5,1.0
183,16,2.0
184,4,1.5
185,5,1.0
186,14,2.5
187,3,1.0
188,5,1.0
189,6,1.5
190,8,3.0
191,5,3.0
192,7,1.0
193,7,2.0
194,4,3.5
195,3,1.0
196,9,3.0
197,17,3.0
198,10,3.0
199,8,3.5
200,5,2.0
201,3,1.0
202,8,3.5
203,11,1.0
204,6,4.5
205,7,1.0
206,12,3.5
207,5,3.0
208,4,1.0
209,4,1.0
210,15,2.0
211,7,2.0
212,8,1.5
213,10,1.5
214,14,4.0
215,5,6.0
216,5,0.0
217,7,6.0
218,6,5.0
219,9,6.0
220,12,2.0
221,10,2.5
222,6,1.0
223,1,1.0
224,6,1.5
225,10,3.0
226,10,6.5
227,12,3.0
228,10,9.5
229,7,3.0
230,7,0.0
231,7,4.0
232,6,4.0
233,12,4.5
234,8,3.0
235,6,1.5
236,9,1.0
237,4,1.0
238,7,5.0
239,13,2.0
240,7,0.0
241,13,3.0
242,10,2.0
243,7,2.0
244,6,4.5
245,11,4.0
246,10,1.5
247,13,3.0
248,12,2.5
249,9,5.0
250,11,1.0
251,7,3.0
252,15,2.0
253,10,3.5
254,26,1.0
255,21,2.0
256,9,3.0
257,8,2.5
258,8,1.0
259,5,2.0
260,5,2.0
261,8,2.5
262,5,5.0
263,8,3.5
264,5,1.0
265,1,1.0
266,9,2.0
267,12,8.5
268,6,5.0
269,12,5.0
270,7,3.0
271,4,1.0
272,2,1.0
273,7,8.0
274,12,1.0
275,8,5.5
276,16,5.0
277,9,2.0
278,8,5.0
279,4,2.5
280,6,2.0
281,5,4.0
282,13,6.0
283,15,2.0
284,7,3.0
285,9,1.0
286,2,3.0
287,11,10.0
288,11,4.0
289,15,5.0
290,11,4.0
291,14,2.0
292,9,2.0
293,2,1.0
294,14,1.0
295,11,6.0
296,6,4.5
297,20,3.0
298,10,2.0
299,8,2.0
300,11,2.0
301,13,2.0
302,17,2.0
303,10,1.0
304,14,0.5
305,15,2.0
306,23,1.0
307,17,0.0
308,12,3.0
309,15,0.0
310,19,1.0
311,16,0.5
312,18,0.5
313,11,1.0
314,11,1.0
315,17,3.0
316,13,0.0
317,12,0.5
318,17,2.0
319,17,3.0
320,10,3.5
321,6,1.5
322,11,2.0
323,9,2.0
324,11,3.0
325,14,1.0
326,13,2.0
327,12,4.0
328,7,1.0
329,7,2.0
330,20,3.0
331,11,2.0
332,5,4.0
333,10,2.5
334,14,1.0
335,10,1.5
336,13,3.0
337,5,4.0
338,5,4.0
339,5,3.0
340,9,2.0
341,8,3.0
342,13,4.0
343,6,4.5
344,8,7.0
345,12,3.5
346,7,3.0
347,10,3.5
348,14,0.0
349,7,2.0
350,10,2.0
351,5,2.0
352,15,0.0
353,6,1.5
354,7,6.0
355,6,3.5
356,3,0.0
357,11,4.0
358,7,4.0
359,14,2.0
360,6,4.5
361,6,1.5
362,7,3.0
363,8,1.5
364,4,7.0
365,11,6.0
366,7,4.0
367,7,7.0
368,11,4.0
369,7,1.0
370,4,1.0
371,14,2.5
372,9,4.0
373,14,1.5
374,6,1.5
375,13,4.0
376,7,2.0
377,14,1.0
378,12,3.0
379,11,3.0
380,9,0.0
381,5,4.0
382,5,5.0
383,4,0.5
384,6,3.5
385,9,2.0
386,19,2.0
387,6,3.0
388,13,2.0
389,9,4.0
390,9,2.0
391,3,8.0
392,5,5.0
393,3,5.0
394,14,3.0
395,9,2.0
396,11,5.0
397,7,3.0
398,12,1.5
399,16,2.5
400,14,4.0
401,18,5.0
402,20,4.5
403,12,3.0
404,20,1.0
405,9,2.0
406,15,1.0
407,13,2.0
408,15,2.0
409,20,2.0
410,12,1.0
411,9,1.0
412,17,4.0
413,11,5.0
414,12,3.0
415,14,2.5
416,12,3.0
417,14,3.5
418,15,2.0
419,7,4.0
420,14,3.0
421,10,2.0
422,13,4.0
423,15,3.0
424,5,2.0
425,5,4.0
426,4,2.5
427,8,4.5
428,11,3.0
429,8,5.5
430,12,1.5
431,16,1.5
432,2,2.5
433,7,2.0
434,11,3.0
435,11,4.0
436,13,2.0
437,15,4.0
438,10,1.5
439,3,3.0
440,7,2.0
441,9,4.0
442,8,11.0
443,14,1.0
444,6,3.0
445,5,4.0
446,8,0.5
447,2,6.0
448,3,1.0
449,4,4.0
450,6,4.5
451,13,3.0
452,5,3.0
453,6,1.0
454,2,13.5
455,8,3.5
456,2,5.5
457,10,7.0
458,7,2.0
459,9,3.0
460,5,6.0
461,5,1.0
462,6,1.5
463,9,6.0
464,10,5.0
465,11,2.0
466,9,1.0
467,6,2.0
468,4,4.5
469,8,7.5
470,9,4.0
471,6,3.0
472,4,1.0
473,6,6.0
474,14,0.0
475,4,0.5
476,5,5.0
477,3,7.0
478,1,2.0
479,18,0.5
480,17,1.0
481,11,4.0
482,13,0.0
483,14,0.5
484,9,2.0
485,11,3.0
486,6,4.0
487,2,3.0
488,11,3.0
489,16,1.0
490,5,3.0
491,2,3.5
492,8,2.5
493,13,2.0
494,8,2.0
495,5,2.0
496,8,2.0
497,7,4.0
498,10,2.5
499,11,4.0
500,4,5.5
501,10,3.0
502,2,10.0
503,2,2.5
504,9,1.0
505,16,0.5
506,3,0.0
507,12,0.0
508,5,2.0
509,5,0.0
510,7,1.0
511,3,2.0
512,6,5.5
513,8,1.0
514,5,1.0
515,10,2.0
516,2,2.0
517,2,1.0
518,6,4.0
519,10,2.0
520,6,3.5
521,5,2.0
522,5,12.0
523,3,1.0
524,5,4.0
525,6,1.0
526,10,2.0
527,6,1.0
528,0,1.0
529,8,2.0
530,5,0.0
531,2,2.0
532,6,2.5
533,8,2.5
534,7,2.0
535,5,1.0
536,10,1.5
537,6,1.0
538,4,4.5
539,8,3.5
540,9,4.0
541,7,2.0
542,11,1.0
543,8,1.5
544,3,3.0
545,9,4.0
546,9,7.0
547,4,2.0
548,9,5.0
549,3,1.0
550,7,0.0
551,6,1.5
552,1,0.0
553,8,3.5
554,2,3.5
555,12,3.0
556,12,0.0
557,7,8.0
558,4,2.0
559,10,0.5
560,15,2.0
561,11,2.0
562,11,1.0
563,10,3.5
564,7,4.0
565,7,0.0
566,11,0.0
567,4,4.5
568,11,2.0
569,9,4.0
570,13,2.0
571,4,2.0
572,4,1.0
573,3,0.0
574,10,2.0
575,8,2.0
576,9,2.0
577,7,0.0
578,8,1.0
579,6,2.0
580,9,1.0
581,9,3.0
582,5,3.0
583,5,0.0
584,12,3.0
585,7,2.0
586,10,4.0
587,5,1.0
588,7,3.0
589,9,0.0
590,10,1.0
591,5,0.0
592,9,2.0
593,7,2.0
594,5,2.0
595,13,1.0
596,5,1.0
597,7,0.0
598,13,1.0
599,10,0.0
600,9,1.0
601,4,1.5
602,20,1.0
603,13,1.0
604,12,0.0
605,9,2.0
606,13,1.0
607,14,1.5
608,8,0.5
609,13,1.0
610,7,2.0
611,9,2.0
612,13,1.0
613,4,5.0
614,14,1.5
615,21,1.0
616,15,1.0
617,16,1.0
618,13,1.0
619,6,2.0
620,24,0.0
621,11,1.0
622,6,0.5
623,11,2.0
624,9,2.0
625,6,2.5
626,16,2.0
627,13,1.0
628,6,1.5
629,7,4.0
630,10,2.0
631,9,0.0
632,9,2.0
633,9,0.0
634,11,2.0
635,6,1.5
636,14,1.0
637,19,1.0
638,10,0.5
639,17,1.0
640,12,1.5
641,8,0.0
642,10,1.5
643,9,6.0
644,12,4.0
645,10,1.0
646,20,1.0
647,17,1.0
648,19,1.0
649,15,0.0
650,23,1.0
651,24,1.5
652,22,0.0
653,27,0.0
654,23,1.0
655,19,0.0
656,15,0.0
657,35,0.0
658,18,1.0
659,42,0.0
660,21,3.0
661,19,1.0
662,20,0.0
663,18,1.5
664,13,1.0
665,16,0.5
666,21,0.0
667,37,1.0
668,23,1.0
669,33,0.0
670,12,1.0
671,16,2.5
672,16,1.0
673,20,0.5
674,27,1.0
675,28,0.0
676,19,0.0
677,20,0.5
678,25,0.0
679,17,0.0
680,21,0.0
681,13,1.0
682,7,5.0
683,8,3.0
684,4,4.0
685,4,1.5
686,9,2.0
687,10,1.5
688,10,3.0
689,10,1.0
690,9,4.0
691,6,2.0
692,6,1.0
693,9,3.0
694,7,0.0
695,10,1.5
696,15,2.0
697,10,1.5
698,3,1.0
699,13,1.0
700,13,2.0
701,9,0.0
702,11,2.0
703,7,3.0
704,17,0.0
705,14,1.5
706,11,2.0
707,12,3.0
708,15,1.0
709,13,1.0
710,6,2.0
711,16,0.0
712,7,1.0
713,6,3.5
714,13,5.0
715,13,1.0
716,22,1.0
717,19,2.0
718,14,1.5
719,26,0.0
720,10,0.0
721,12,0.0
722,17,1.0
723,7,0.0
724,20,4.0
725,8,2.0
726,12,1.5
727,5,3.0
728,7,1.0
729,12,1.0
730,8,8.0
731,10,2.0
732,5,4.0
733,8,0.5
734,3,7.0
735,9,2.0
736,7,3.0
737,9,3.0
738,16,3.0
739,6,3.0
740,7,3.0
741,4,3.5
742,4,0.5
743,14,2.5
744,12,0.0
745,9,1.0
746,16,0.0
747,19,0.0
748,10,2.0
749,15,1.0
750,8,1.0
751,16,0.5
752,9,0.0
753,13,1.0
754,8,1.0
755,2,0.5
756,7,1.0
757,14,4.0
758,5,0.0
759,30,0.0
760,30,0.0
761,12,1.0
762,18,1.0
763,8,3.5
764,8,1.0
765,13,3.0
766,7,3.0
767,20,5.0
768,7,6.0
769,17,2.0
770,10,5.0
771,11,2.0
772,10,0.5
773,20,1.0
774,11,1.0
775,7,2.0
776,7,5.0
777,10,3.5
778,14,10.0
779,11,2.0
780,11,0.0
781,20,1.0
782,11,0.0
783,12,0.5
784,13,1.0
785,11,2.0
786,11,3.0
787,16,3.0
788,12,4.0
789,18,8.0
790,10,0.0
791,13,2.0
792,11,3.0
793,12,2.5
794,19,1.0
795,17,2.0
796,13,3.0
797,10,1.5
798,15,0.0
799,12,3.0
800,19,1.0
801,13,1.0
802,7,1.0
803,15,2.0
804,12,2.0
805,19,5.0
806,32,1.0
807,12,0.5
808,10,0.0
809,12,1.0
810,13,0.0
811,15,2.0
812,8,1.5
813,14,0.0
814,16,2.0
815,20,3.0
816,10,0.5
817,14,0.0
818,15,0.0
819,12,1.0
820,9,5.0
821,3,1.0
822,9,1.0
823,11,5.0
824,10,3.5
825,3,0.0
826,13,2.0
827,11,0.0
828,5,2.0
829,17,1.0
830,9,2.0
831,4,0.0
832,9,1.0
833,9,1.0
834,7,3.0
835,17,0.0
836,2,0.0
837,6,3.0
838,18,0.0
839,13,1.0
840,7,2.0
841,8,4.0
842,7,2.0
843,8,2.5
844,6,4.0
845,2,0.0
846,8,0.5
847,8,3.0
848,12,2.0
849,8,1.5
850,7,2.0
851,3,0.0
852,2,8.0
853,5,3.0
854,3,4.0
855,10,6.5
856,9,2.0
857,9,2.0
858,7,3.0
859,6,1.5
860,5,1.0
861,6,0.5
862,7,3.0
863,13,2.0
864,8,2.0
865,9,6.0
866,14,5.0
867,4,3.5
868,0,3.5
869,8,3.0
870,5,4.0
871,3,4.0
872,5,1.0
873,3,2.0
874,1,0.0
875,2,3.5
876,9,6.0
877,13,3.0
878,2,2.5
879,7,2.0
880,8,0.5
881,1,0.0
882,8,1.0
883,2,1.5
884,6,2.0
885,10,4.5
886,12,0.5
887,10,2.0
888,8,2.5
889,9,1.0
890,4,2.5
891,9,1.0
892,4,3.5
893,10,2.5
894,5,1.0
895,8,2.5
896,17,4.0
897,5,2.0
898,13,4.0
899,14,3.0
900,7,3.0
901,5,2.0
902,10,1.0
903,17,2.0
904,10,2.0
905,11,4.0
906,9,1.0
907,7,2.0
908,3,5.0
909,9,2.0
910,2,2.0
911,12,1.0
912,9,0.0
913,7,3.0
914,7,1.0
915,9,2.0
916,1,1.0
917,7,4.0
918,10,2.5
919,7,4.0
920,7,1.0
921,7,2.0
922,6,2.5
923,9,3.0
924,1,0.0
925,11,3.0
926,6,0.0
927,9,1.0
928,3,4.0
929,8,2.0
930,6,1.5
931,10,2.5
932,0,2.5
933,0,0.0
934,0,0.0
935,4,1.0
936,1,0.0
937,2,3.0
938,2,3.5
939,5,2.0
940,2,2.0
941,4,1.5
942,1,6.0
943,2,7.0
944,3,0.0
945,4,1.5
946,5,5.0
947,3,2.0
948,4,5.0
949,3,1.0
950,2,3.0
951,1,1.0
952,5,1.0
953,2,2.5
954,3,4.0
955,2,4.5
956,0,4.5
957,4,1.5
958,1,8.0
959,4,6.0
960,3,1.0
961,11,1.0
962,10,2.5
963,8,2.5
964,5,1.0
965,9,2.0
966,2,0.5
967,6,4.0
968,16,2.0
969,9,2.0
970,6,2.5
971,5,3.0
972,2,2.5
973,5,1.0
974,8,2.5
975,0,2.5
976,5,6.0
977,2,1.5
978,2,4.5
979,3,3.0
980,4,3.0
981,5,6.0
982,4,3.0
983,3,4.0
984,5,4.0
985,4,4.0
986,4,0.5
987,7,1.0
988,8,1.5
989,7,2.0
990,6,2.0
991,2,2.5
992,5,2.0
993,6,1.5
994,5,3.0
995,5,2.0
996,7,2.0
997,5,2.0
998,14,1.0
999,12,2.0
1000,2,4.5
1001,9,2.0
1002,9,4.0
1003,8,5.0
1004,10,2.0
1005,10,4.0
1006,5,3.0
1007,6,5.0
1008,12,2.0
1009,6,2.5
1010,7,2.0
1011,8,3.0
1012,8,2.0
1013,7,2.0
1014,12,2.0
1015,10,1.0
1016,2,3.0
1017,6,0.5
1018,4,3.0
1019,3,1.0
1020,4,1.5
1021,3,2.0
1022,11,4.0
1023,6,1.5
1024,8,1.0
1025,7,2.0
1026,4,2.5
1027,6,1.0
1028,3,1.0
1029,10,1.5
1030,4,1.5
1031,2,1.0
1032,2,1.0
1033,6,3.0
1034,4,0.5
1035,4,3.0
1036,13,4.0
1037,16,2.0
1038,8,2.5
1039,3,3.0
1040,5,3.0
1041,6,2.0
1042,3,2.0
1043,10,2.0
1044,8,3.0
1045,7,1.0
1046,7,1.0
1047,7,2.0
1048,4,5.0
1049,6,3.5
1050,13,2.0
1051,10,2.0
1052,8,5.5
1053,2,2.5
1054,3,1.0
1055,7,1.0
1056,3,2.0
1057,3,5.0
1058,7,1.0
1059,8,3.5
1060,4,0.5
1061,6,1.5
1062,3,7.0
1063,1,0.0
1064,9,7.0
1065,7,7.0
1066,11,4.0
1067,4,3.0
1068,11,0.0
1069,2,3.0
1070,5,3.0
1071,8,4.0
1072,9,1.0
1073,11,5.0
1074,12,2.5
1075,5,4.0
1076,11,1.0
1077,5,3.0
1078,5,2.0
1079,11,4.0
1080,5,3.0
1081,10,1.0
1082,5,2.0
1083,7,4.0
1084,6,2.5
1085,9,2.0
1086,13,3.0
1087,14,3.0
1088,7,3.0
1089,10,3.5
1090,6,1.0
1091,2,2.0
1092,13,3.0
1093,6,2.5
1094,15,5.0
1095,15,2.0
1096,15,1.0
1097,14,1.5
1098,6,1.5
1099,10,2.0
1100,10,6.0
1101,7,2.0
1102,10,1.5
1103,7,1.0
1104,9,1.0
1105,7,2.0
1106,9,4.0
1107,8,1.5
1108,17,2.0
1109,8,2.0
1110,13,2.0
1111,5,1.0
1112,8,1.0
1113,3,3.0
1114,4,2.5
1115,8,3.5
1116,4,2.5
1117,9,2.0
1118,7,2.0
1119,3,5.0
1120,8,1.5
1121,8,2.0
1122,9,7.0
1123,10,2.5
1124,17,5.0
1125,4,2.0
1126,5,2.0
1127,12,2.5
1128,13,2.0
1129,8,1.0
1130,10,2.0
1131,10,5.0
1132,9,2.0
1133,5,9.0
1134,8,3.5
1135,15,2.0
1136,9,6.0
1137,15,3.0
1138,8,2.0
1139,6,6.5
1140,3,2.0
1141,12,1.5
1142,8,2.0
1143,11,1.0
1144,8,3.5
1145,7,5.0
1146,8,1.5
1147,5,1.0
1148,8,4.5
1149,13,3.0
1150,12,2.5
1151,11,2.0
1152,10,3.0
1153,3,1.0
1154,6,1.5
