,Demand,Response_Time
0,10,21.5
1,10,24.5
2,10,20.0
3,10,61.0
4,3,67.0
5,0,67.0
6,0,67.0
7,11,22.0
8,12,23.0
9,7,22.0
10,6,18.0
11,9,70.0
12,0,70.0
13,0,70.0
14,13,22.0
15,11,17.0
16,10,20.0
17,14,25.0
18,30,69.5
19,0,69.5
20,0,69.5
21,33,24.0
22,27,24.0
23,19,22.0
24,17,21.0
25,15,95.0
26,0,95.0
27,1,49.0
28,0,49.0
29,17,42.0
30,16,35.0
31,13,27.0
32,13,70.0
33,1,50.0
34,0,50.0
35,15,21.0
36,11,24.0
37,11,22.0
38,8,23.5
39,15,71.0
40,1,71.0
41,0,71.0
42,15,29.0
43,8,20.0
44,10,22.0
45,11,94.0
46,8,70.0
47,0,70.0
48,0,70.0
49,16,24.5
50,15,21.0
51,11,25.0
52,16,22.5
53,10,74.0
54,0,74.0
55,0,74.0
56,16,23.5
57,15,22.0
58,12,22.5
59,5,28.0
60,4,92.5
61,1,65.0
62,0,65.0
63,4,21.0
64,13,20.0
65,13,25.0
66,5,21.0
67,10,70.0
68,0,70.0
69,1,61.0
70,8,26.0
71,7,23.0
72,3,23.0
73,6,21.5
74,8,71.5
75,0,71.5
76,0,71.5
77,12,23.5
78,11,24.0
79,11,25.0
80,13,24.0
81,8,70.5
82,0,70.5
83,0,70.5
84,18,46.5
85,15,44.0
86,10,27.0
87,10,23.5
88,8,92.0
89,0,92.0
90,0,92.0
91,9,22.0
92,7,46.0
93,6,23.0
94,13,22.0
95,6,71.0
96,0,71.0
97,0,71.0
98,10,22.0
99,10,23.0
100,8,23.0
101,8,23.5
102,5,67.0
103,0,67.0
104,1,18.0
105,11,23.0
106,5,1.0
107,6,46.5
108,1,21.0
109,6,69.0
110,1,36.0
111,1,20.0
112,22,24.0
113,19,24.0
114,21,24.0
115,12,20.0
116,13,71.0
117,1,265.0
118,1,97.0
119,13,24.0
120,13,22.0
121,9,20.0
122,36,94.0
123,14,71.5
124,3,117.0
125,0,117.0
126,14,22.5
127,19,25.0
128,6,21.0
129,8,18.5
130,8,69.0
131,0,69.0
132,0,69.0
133,8,21.5
134,10,21.0
135,12,113.5
136,3,98.0
137,0,98.0
138,2,49.0
139,0,49.0
140,18,19.5
141,16,22.0
142,12,23.5
143,11,96.0
144,0,96.0
145,0,96.0
146,0,96.0
147,20,22.0
148,14,21.0
149,7,20.0
150,9,21.0
151,9,71.0
152,0,71.0
153,0,71.0
154,13,23.0
155,13,24.0
156,11,21.0
157,7,23.0
158,11,94.0
159,0,94.0
160,0,94.0
161,3,21.0
162,8,21.5
163,12,21.5
164,7,26.0
165,7,73.0
166,0,73.0
167,3,14.0
168,11,23.0
169,16,24.0
170,14,25.0
171,13,23.0
172,13,70.0
173,0,70.0
174,0,70.0
175,23,27.0
176,28,29.5
177,10,35.5
178,16,58.0
179,13,71.0
180,0,71.0
181,0,71.0
182,13,22.0
183,16,21.5
184,13,21.0
185,12,21.5
186,12,98.0
187,1,74.0
188,0,74.0
189,2,28.0
190,23,21.0
191,12,23.0
192,14,22.5
193,13,142.0
194,2,38.5
195,0,38.5
196,17,68.0
197,14,58.0
198,7,115.0
199,12,27.5
200,17,91.0
201,0,91.0
202,0,91.0
203,24,45.5
204,23,48.0
205,12,45.5
206,18,92.0
207,15,73.0
208,0,73.0
209,1,37.0
210,20,24.0
211,22,24.0
212,11,22.0
213,18,21.0
214,16,92.0
215,0,92.0
216,0,92.0
217,23,24.0
218,15,49.0
219,11,45.0
220,10,25.5
221,14,77.5
222,0,77.5
223,0,77.5
224,12,31.5
225,7,30.0
226,15,122.0
227,10,97.5
228,11,93.0
229,0,93.0
230,0,93.0
231,11,24.0
232,10,24.5
233,15,27.0
234,9,25.0
235,10,68.0
236,0,68.0
237,0,68.0
238,23,23.0
239,6,20.5
240,3,21.0
241,12,29.5
242,14,93.5
243,0,93.5
244,0,93.5
245,14,21.0
246,10,23.5
247,15,126.0
248,11,115.0
249,10,109.0
250,0,109.0
251,0,109.0
252,10,51.0
253,8,29.5
254,8,53.0
255,10,120.5
256,6,170.0
257,1,67.0
258,1,38.0
259,18,235.5
260,11,216.0
261,8,190.5
262,9,172.0
263,5,150.0
264,0,150.0
265,0,150.0
266,14,96.5
267,10,75.0
268,9,119.0
269,13,117.0
270,11,93.0
271,0,93.0
272,0,93.0
273,14,27.5
274,8,21.5
275,7,19.0
276,11,20.0
277,6,69.5
278,0,69.5
279,0,69.5
280,5,24.0
281,3,21.0
282,11,21.0
283,6,21.5
284,9,71.0
285,1,43.0
286,0,43.0
287,10,36.0
288,11,46.0
289,8,43.0
290,16,25.0
291,22,123.0
292,0,123.0
293,0,123.0
294,2,300.5
295,38,549.0
296,23,722.0
297,19,93.0
298,20,93.0
299,0,93.0
300,0,93.0
301,25,95.0
302,28,150.5
303,13,55.0
304,19,172.0
305,12,306.0
306,0,306.0
307,0,306.0
308,62,557.5
309,44,93.0
310,23,93.0
311,18,93.0
312,24,93.0
313,0,93.0
314,0,93.0
315,26,93.0
316,15,93.0
317,24,147.5
318,17,93.0
319,18,487.0
320,0,487.0
321,0,487.0
322,29,93.0
323,16,93.0
324,32,93.0
325,15,93.0
326,15,93.0
327,0,93.0
328,0,93.0
329,1,694.0
330,15,702.0
331,26,652.0
332,12,671.0
333,15,670.0
334,0,670.0
335,0,670.0
336,15,667.0
337,17,647.0
338,10,627.0
339,14,604.5
340,9,286.0
341,0,286.0
342,0,286.0
343,13,524.0
344,10,500.0
345,9,387.0
346,3,460.0
347,7,453.0
348,0,453.0
349,0,453.0
350,10,371.5
351,5,360.0
352,13,329.0
353,5,314.0
354,11,287.0
355,0,287.0
356,0,287.0
357,9,223.0
358,12,210.5
359,7,186.0
360,11,167.0
361,6,145.0
362,0,145.0
363,0,145.0
364,17,177.0
365,8,126.0
366,5,117.0
367,11,116.0
368,8,294.0
369,0,294.0
370,0,294.0
371,2,237.5
372,6,121.0
373,4,41.5
374,6,131.0
375,3,69.0
376,0,69.0
377,0,69.0
378,8,21.0
379,9,21.0
380,10,46.0
381,6,111.5
382,4,407.5
383,0,407.5
384,0,407.5
385,13,44.0
386,2,420.0
387,7,340.0
388,12,433.5
389,19,431.0
390,0,431.0
391,0,431.0
392,0,431.0
393,22,347.0
394,12,334.5
395,13,330.0
396,8,310.0
397,0,310.0
398,0,310.0
399,13,238.0
400,16,238.5
401,7,213.0
402,3,194.0
403,5,171.0
404,0,171.0
405,0,171.0
406,9,247.0
407,6,311.5
408,8,314.0
409,4,394.5
410,6,434.0
411,0,434.0
412,0,434.0
413,6,406.5
414,7,382.0
415,14,363.5
416,7,306.0
417,8,334.5
418,0,334.5
419,0,334.5
420,10,268.0
421,7,309.0
422,9,166.0
423,15,261.0
424,9,258.0
425,0,258.0
426,1,212.0
427,7,192.0
428,12,170.0
429,11,147.0
430,6,140.5
431,13,120.0
432,0,120.0
433,0,120.0
434,13,73.0
435,12,75.5
436,9,125.0
437,5,22.0
438,3,70.0
439,0,70.0
440,0,70.0
441,10,43.5
442,9,66.0
443,7,48.0
444,5,95.0
445,4,96.0
446,0,96.0
447,0,96.0
448,7,51.0
449,12,48.5
450,15,50.0
451,45,96.0
452,28,123.0
453,1,263.0
454,0,263.0
455,15,71.0
456,4,111.5
457,11,29.0
458,13,127.0
459,6,120.0
460,0,120.0
461,0,120.0
462,23,95.0
463,36,167.5
464,18,100.5
465,14,57.5
466,14,69.0
467,0,69.0
468,0,69.0
469,25,6.0
470,12,3.5
471,11,46.0
472,0,46.0
473,2,130.5
474,0,130.5
475,0,130.5
476,26,16.5
477,30,19.0
478,23,23.0
479,12,19.5
480,20,36.5
481,0,36.5
482,0,36.5
483,24,17.0
484,17,25.0
485,20,5.5
486,15,1.0
487,15,66.0
488,0,66.0
489,0,66.0
490,18,1.5
491,19,1.0
492,17,2.0
493,13,6.0
494,7,1.0
495,0,1.0
496,0,1.0
497,19,1.0
498,14,5.0
499,80,1.0
500,53,24.0
501,22,91.5
502,0,91.5
503,0,91.5
504,4,23.0
505,20,2.0
506,27,2.0
507,17,2.0
508,19,1.0
509,0,1.0
510,0,1.0
511,1,97.0
512,34,1.0
513,28,24.0
514,31,6.0
515,16,66.0
516,0,66.0
517,0,66.0
518,42,2.0
519,37,2.0
520,18,2.0
521,21,1.0
522,22,1.0
523,0,1.0
524,0,1.0
525,2,20.5
526,35,5.0
527,17,18.0
528,9,91.0
529,10,4.0
530,0,4.0
531,0,4.0
532,39,24.0
533,24,25.0
534,20,20.5
535,28,22.0
536,18,70.5
537,0,70.5
538,0,70.5
539,31,26.0
540,24,44.5
541,22,28.5
542,27,27.0
543,12,72.0
544,0,72.0
545,0,72.0
546,35,22.0
547,19,19.0
548,20,3.0
549,6,9.0
550,15,1.0
551,0,1.0
552,0,1.0
553,28,1.0
554,20,1.0
555,17,18.0
556,32,21.5
557,30,98.0
558,0,98.0
559,0,98.0
560,6,52.0
561,30,45.0
562,35,43.0
563,59,88.0
564,82,93.0
565,0,93.0
566,0,93.0
567,68,47.0
568,50,47.0
569,58,45.0
570,44,27.0
571,39,97.0
572,0,97.0
573,0,97.0
574,37,50.0
575,42,48.0
576,33,45.0
577,30,26.0
578,44,71.0
579,0,71.0
580,0,71.0
581,41,45.0
582,13,26.0
583,24,19.0
584,28,4.0
585,19,1.0
586,0,1.0
587,0,1.0
588,24,1.0
589,9,23.0
590,26,18.0
591,27,3.0
592,14,66.5
593,0,66.5
594,0,66.5
595,37,19.0
596,16,2.5
597,16,23.0
598,21,3.0
599,16,74.5
600,0,74.5
601,0,74.5
602,18,165.0
603,21,161.0
604,14,143.0
605,19,122.0
606,7,119.0
607,0,119.0
608,0,119.0
609,11,167.0
610,64,218.0
611,55,242.0
612,43,285.0
613,18,267.5
614,0,267.5
615,0,267.5
616,36,216.0
617,26,216.0
618,36,215.0
619,32,262.5
620,30,245.0
621,0,245.0
622,0,245.0
623,24,194.0
624,21,190.0
625,21,171.0
626,15,169.0
627,34,163.0
628,0,163.0
629,0,163.0
630,42,132.0
631,30,190.5
632,30,190.0
633,13,187.0
634,18,168.0
635,0,168.0
636,0,168.0
637,34,189.0
638,22,188.5
639,13,170.0
640,16,169.0
641,13,163.0
642,0,163.0
643,0,163.0
644,18,95.5
645,23,139.0
646,7,121.0
647,19,102.0
648,16,93.0
649,0,93.0
650,0,93.0
651,54,49.0
652,64,166.0
653,37,189.0
654,42,189.0
655,21,286.0
656,5,289.0
657,1,264.0
658,2,246.0
659,43,311.0
660,44,384.5
661,31,436.0
662,42,475.0
663,0,475.0
664,0,475.0
665,54,509.5
666,43,568.0
667,29,552.0
668,29,602.0
669,23,93.0
670,0,93.0
671,0,93.0
672,11,93.0
673,11,93.0
674,73,93.0
675,62,93.0
676,41,93.0
677,0,93.0
678,0,93.0
679,53,93.0
680,42,93.0
681,37,93.0
682,43,93.0
683,49,93.0
684,0,93.0
685,0,93.0
686,40,93.0
687,43,93.0
688,20,93.0
689,32,93.0
690,27,93.0
691,0,93.0
692,0,93.0
693,32,93.0
694,1,93.0
695,32,93.0
696,37,93.0
697,19,93.0
698,0,93.0
699,1,93.0
700,24,93.0
701,23,93.0
702,20,93.0
703,22,625.5
704,5,93.0
705,0,93.0
706,0,93.0
707,20,538.5
708,14,25.0
709,18,302.0
710,14,265.5
711,21,631.0
712,0,631.0
713,0,631.0
714,10,576.5
715,16,553.0
716,15,547.0
717,14,523.0
718,8,72.5
719,0,72.5
720,0,72.5
721,28,435.0
722,11,530.0
723,20,386.0
724,8,506.0
725,14,625.0
726,0,625.0
727,0,625.0
728,17,571.0
729,13,554.0
730,16,550.0
731,14,527.5
732,5,595.0
733,1,570.0
734,0,570.0
735,20,540.0
736,12,528.5
737,17,526.0
738,9,510.0
739,6,499.5
740,0,499.5
741,0,499.5
742,11,499.0
743,7,476.0
744,12,457.0
745,11,452.0
746,6,432.0
747,0,432.0
748,0,432.0
749,13,382.0
750,22,372.5
751,13,26.0
752,45,498.0
753,62,632.5
754,0,632.5
755,0,632.5
756,2,93.0
757,37,93.0
758,27,93.0
759,23,93.0
760,16,339.0
761,0,339.0
762,0,339.0
763,33,725.0
764,25,93.0
765,25,93.0
766,20,93.0
767,22,93.0
768,0,93.0
769,0,93.0
770,22,93.0
771,19,93.0
772,28,93.0
773,15,93.0
774,23,93.0
775,0,93.0
776,1,116.0
777,27,93.0
778,15,93.0
779,18,93.0
780,20,118.5
781,10,117.0
782,0,117.0
783,0,117.0
784,30,93.0
785,23,93.0
786,12,93.0
787,13,117.0
788,17,93.0
789,0,93.0
790,0,93.0
791,1,22.0
792,13,51.0
793,12,118.5
794,17,93.0
795,8,118.0
796,0,118.0
797,0,118.0
798,16,93.0
799,15,93.0
800,11,93.0
801,7,93.0
802,10,93.0
803,0,93.0
804,0,93.0
805,15,93.0
806,12,93.0
807,12,123.0
808,16,97.5
809,14,227.0
810,0,227.0
811,0,227.0
812,25,96.0
813,24,216.0
814,9,480.0
815,9,93.0
816,16,93.0
817,0,93.0
818,0,93.0
819,12,179.0
820,11,145.0
821,13,93.0
822,19,93.0
823,5,117.0
824,0,117.0
825,0,117.0
826,17,212.0
827,21,311.0
828,13,93.0
829,16,93.0
830,14,93.0
831,0,93.0
832,0,93.0
833,25,93.0
834,13,93.0
835,8,718.0
836,0,718.0
837,22,670.0
838,0,670.0
839,0,670.0
840,74,358.0
841,31,336.0
842,44,358.0
843,24,356.0
844,16,452.5
845,0,452.5
846,0,452.5
847,27,75.0
848,31,24.0
849,26,528.0
850,23,652.0
851,16,93.0
852,0,93.0
853,0,93.0
854,22,577.0
855,15,679.0
856,25,664.0
857,16,646.5
858,14,623.0
859,0,623.0
860,0,623.0
861,23,570.0
862,26,532.0
863,17,455.0
864,14,502.5
865,7,481.0
866,0,481.0
867,0,481.0
868,0,481.0
869,26,388.0
870,18,363.0
871,12,476.5
872,16,334.0
873,0,334.0
874,0,334.0
875,0,334.0
876,26,189.5
877,18,217.0
878,8,177.0
879,25,260.0
880,0,260.0
881,0,260.0
882,23,192.0
883,26,172.0
884,29,195.0
885,21,29.0
886,24,285.0
887,0,285.0
888,0,285.0
889,3,90.0
890,22,239.0
891,18,182.5
892,27,264.0
893,25,247.0
894,2,144.5
895,0,144.5
896,29,190.0
897,39,174.0
898,37,151.0
899,38,166.5
900,32,137.5
901,1,127.0
902,0,127.0
903,27,76.0
904,16,95.5
905,28,143.0
906,26,146.0
907,17,119.0
908,0,119.0
909,0,119.0
910,26,76.0
911,26,53.0
912,18,72.0
913,12,93.5
914,22,73.0
915,0,73.0
916,0,73.0
917,22,24.0
918,21,28.0
919,20,43.0
920,23,7.0
921,30,98.5
922,0,98.5
923,0,98.5
924,4,38.0
925,34,49.0
926,22,26.5
927,14,93.5
928,1,72.0
929,0,72.0
930,0,72.0
931,2,2.5
932,0,2.5
933,0,0.0
934,0,0.0
935,13,70.0
936,0,70.0
937,0,70.0
938,14,26.5
939,12,34.5
940,10,23.0
941,6,20.0
942,10,70.5
943,0,70.5
944,0,70.5
945,13,23.0
946,14,23.0
947,11,23.0
948,11,23.0
949,19,94.0
950,0,94.0
951,0,94.0
952,3,25.0
953,15,21.0
954,12,22.0
955,8,23.5
956,15,71.0
957,0,71.0
958,0,71.0
959,7,48.0
960,4,21.0
961,19,22.0
962,16,23.0
963,18,71.0
964,0,71.0
965,0,71.0
966,18,24.5
967,17,23.0
968,22,25.0
969,21,23.0
970,15,70.0
971,0,70.0
972,0,70.0
973,14,23.0
974,11,23.0
975,11,22.0
976,18,23.0
977,6,98.0
978,0,98.0
979,0,98.0
980,3,25.0
981,17,23.0
982,15,22.0
983,13,21.0
984,15,70.0
985,0,70.0
986,0,70.0
987,18,22.0
988,14,23.0
989,13,23.0
990,17,23.0
991,18,70.0
992,0,70.0
993,0,70.0
994,36,24.0
995,27,23.0
996,19,24.0
997,21,23.0
998,31,73.0
999,0,73.0
1000,0,73.0
1001,26,23.0
1002,20,46.0
1003,16,28.0
1004,10,23.0
1005,22,70.5
1006,0,70.5
1007,0,70.5
1008,13,21.0
1009,12,21.0
1010,16,22.5
1011,15,21.0
1012,20,70.0
1013,0,70.0
1014,0,70.0
1015,14,22.0
1016,22,24.0
1017,15,21.0
1018,19,22.0
1019,12,91.0
1020,0,91.0
1021,0,91.0
1022,22,22.5
1023,14,23.0
1024,19,24.0
1025,10,24.0
1026,12,71.0
1027,0,71.0
1028,0,71.0
1029,12,20.5
1030,11,24.0
1031,13,21.0
1032,11,22.0
1033,14,70.5
1034,0,70.5
1035,0,70.5
1036,18,23.0
1037,12,22.0
1038,17,24.0
1039,15,93.0
1040,9,73.0
1041,0,73.0
1042,0,73.0
1043,15,23.0
1044,12,22.0
1045,13,24.0
1046,13,24.0
1047,12,71.5
1048,0,71.5
1049,0,71.5
1050,20,38.0
1051,14,25.0
1052,22,24.0
1053,16,21.5
1054,16,71.0
1055,0,71.0
1056,0,71.0
1057,20,22.5
1058,27,26.0
1059,12,48.0
1060,17,94.0
1061,15,75.0
1062,0,75.0
1063,0,75.0
1064,17,23.0
1065,15,44.0
1066,10,22.5
1067,10,23.0
1068,10,70.0
1069,0,70.0
1070,0,70.0
1071,19,23.0
1072,15,24.0
1073,7,25.0
1074,10,23.0
1075,8,118.0
1076,0,118.0
1077,0,118.0
1078,0,118.0
1079,15,26.0
1080,26,47.5
1081,16,94.0
1082,16,83.5
1083,0,83.5
1084,0,83.5
1085,26,24.0
1086,16,45.0
1087,21,28.0
1088,14,25.5
1089,17,72.0
1090,0,72.0
1091,0,72.0
1092,34,25.0
1093,19,26.0
1094,16,26.0
1095,13,96.0
1096,11,140.0
1097,0,140.0
1098,0,140.0
1099,11,121.0
1100,74,188.0
1101,52,193.0
1102,37,197.0
1103,31,262.0
1104,1,149.0
1105,0,149.0
1106,30,554.0
1107,36,551.5
1108,28,533.5
1109,32,524.0
1110,31,506.0
1111,0,506.0
1112,0,506.0
1113,38,409.5
1114,24,245.5
1115,18,291.0
1116,17,436.0
1117,2,501.5
1118,0,501.5
1119,1,390.0
1120,16,196.5
1121,15,238.0
1122,19,284.0
1123,17,260.0
1124,14,240.0
1125,0,240.0
1126,0,240.0
1127,18,331.0
1128,16,156.0
1129,20,311.0
1130,15,294.0
1131,18,195.5
1132,2,190.5
1133,0,190.5
1134,13,163.0
1135,17,234.0
1136,20,243.0
1137,9,263.0
1138,17,260.0
1139,0,260.0
1140,0,260.0
1141,24,195.0
1142,22,107.0
1143,14,145.5
1144,18,170.0
1145,4,34.0
1146,1,126.0
1147,0,126.0
1148,23,67.0
1149,16,36.5
1150,13,52.0
1151,10,25.0
1152,16,70.5
1153,0,70.5
1154,0,70.5
