,Demand,Response_Time
0,11,7.0
1,6,17.5
2,15,10.0
3,19,28.0
4,9,140.0
5,15,18.0
6,4,71.5
7,18,18.0
8,15,16.0
9,14,11.5
10,12,18.0
11,11,89.0
12,7,19.0
13,3,18.0
14,13,27.0
15,14,25.5
16,11,56.0
17,5,9.0
18,6,3.5
19,6,99.5
20,8,12.5
21,12,11.5
22,12,45.0
23,8,28.0
24,15,26.0
25,7,7.0
26,12,50.5
27,3,66.0
28,2,18.0
29,8,12.5
30,23,17.0
31,4,23.5
32,10,15.5
33,4,21.5
34,5,77.0
35,10,116.0
36,41,18.0
37,34,30.0
38,24,122.0
39,21,3.0
40,8,108.0
41,1,18.0
42,10,65.5
43,8,18.5
44,20,32.5
45,16,10.5
46,10,23.5
47,3,51.0
48,6,60.0
49,18,38.0
50,21,15.0
51,35,10.0
52,10,4.5
53,8,11.5
54,1,0.0
55,4,18.0
56,18,32.5
57,19,13.0
58,17,11.0
59,15,6.0
60,17,8.0
61,8,11.5
62,2,15.0
63,9,14.0
64,17,18.0
65,21,8.0
66,41,17.0
67,34,0.0
68,32,43.0
69,10,16.5
70,22,10.5
71,17,29.0
72,16,28.0
73,13,9.0
74,19,6.0
75,8,28.5
76,6,18.0
77,18,12.5
78,24,6.0
79,6,8.0
80,16,11.0
81,10,13.5
82,10,36.5
83,0,36.5
84,13,10.0
85,21,86.0
86,13,23.0
87,9,27.0
88,10,29.0
89,3,25.0
90,8,21.5
91,8,6.0
92,5,84.0
93,8,24.0
94,7,13.0
95,11,70.0
96,8,84.0
97,5,14.0
98,16,25.5
99,22,10.0
100,11,20.0
101,11,6.0
102,29,8.0
103,13,22.0
104,6,15.0
105,13,4.0
106,12,24.5
107,9,43.0
108,4,20.0
109,13,11.0
110,5,20.0
111,0,20.0
112,13,16.0
113,16,12.0
114,11,9.0
115,5,11.0
116,13,7.0
117,2,18.0
118,4,41.0
119,29,23.0
120,23,2.0
121,26,13.0
122,16,75.5
123,18,74.5
124,9,92.0
125,8,49.0
126,15,57.0
127,38,1.5
128,24,22.5
129,7,29.0
130,19,40.0
131,6,73.0
132,7,4.0
133,6,63.5
134,11,61.0
135,5,3.0
136,6,10.0
137,1,105.0
138,3,21.0
139,3,33.0
140,8,12.5
141,5,18.0
142,12,19.0
143,2,71.0
144,3,26.0
145,8,19.0
146,4,26.0
147,9,13.0
148,27,32.0
149,14,16.5
150,13,27.0
151,15,13.0
152,4,38.5
153,6,27.0
154,9,37.0
155,13,8.0
156,17,12.0
157,13,32.0
158,14,40.0
159,18,92.5
160,6,37.0
161,11,29.0
162,9,25.0
163,18,51.0
164,11,14.0
165,12,90.0
166,2,18.0
167,5,18.0
168,16,11.0
169,14,4.0
170,16,16.0
171,17,14.0
172,16,75.5
173,10,19.5
174,5,22.0
175,22,22.5
176,16,9.0
177,8,19.5
178,27,14.0
179,8,2.0
180,31,19.0
181,9,30.0
182,14,18.5
183,2,10.5
184,22,6.5
185,11,3.0
186,16,12.0
187,14,0.0
188,46,5.0
189,18,2.0
190,37,25.0
191,47,19.0
192,22,4.5
193,20,5.0
194,12,54.5
195,31,48.0
196,17,24.0
197,22,42.0
198,9,21.0
199,31,18.0
200,22,7.5
201,12,29.0
202,3,0.0
203,20,8.5
204,17,142.0
205,12,12.5
206,23,17.0
207,12,31.5
208,20,26.5
209,6,21.5
210,27,3.0
211,22,12.0
212,46,10.5
213,61,26.0
214,45,17.0
215,6,84.5
216,8,17.0
217,17,10.0
218,27,21.0
219,22,69.5
220,29,18.0
221,40,5.0
222,9,26.0
223,3,107.0
224,17,20.0
225,21,50.0
226,26,17.0
227,22,17.0
228,18,10.0
229,6,20.0
230,11,76.0
231,17,21.0
232,21,43.0
233,27,17.0
234,20,20.5
235,18,20.0
236,23,37.0
237,10,18.5
238,14,6.5
239,26,14.0
240,13,7.0
241,25,5.0
242,10,10.5
243,26,5.0
244,7,37.0
245,17,5.0
246,7,19.0
247,12,9.0
248,22,22.5
249,17,14.0
250,21,43.0
251,22,22.5
252,24,14.0
253,18,28.0
254,14,25.0
255,48,3.0
256,21,11.0
257,11,22.0
258,9,77.0
259,43,17.0
260,30,18.0
261,17,7.0
262,12,24.0
263,10,43.5
264,9,21.0
265,2,64.0
266,14,1.5
267,6,8.0
268,6,14.0
269,11,14.0
270,5,12.0
271,10,20.0
272,0,20.0
273,18,12.5
274,11,8.0
275,13,17.0
276,20,12.5
277,26,49.5
278,10,21.0
279,4,17.0
280,14,7.5
281,31,4.0
282,21,13.0
283,16,33.0
284,46,1.5
285,9,23.0
286,6,5.5
287,10,21.0
288,18,4.0
289,19,4.0
290,40,5.0
291,17,8.0
292,5,11.0
293,10,22.5
294,14,15.0
295,17,3.0
296,13,37.0
297,9,15.0
298,15,89.0
299,4,18.0
300,4,56.5
301,13,22.5
302,13,21.0
303,14,7.5
304,12,11.5
305,14,26.0
306,9,25.0
307,6,98.0
308,11,16.0
309,12,85.5
310,6,12.5
311,37,3.0
312,21,7.0
313,3,22.0
314,4,11.5
315,15,29.0
316,16,18.0
317,26,4.5
318,13,13.0
319,8,17.0
320,15,14.0
321,9,18.0
322,11,8.0
323,11,15.0
324,10,16.0
325,14,4.5
326,4,11.5
327,7,24.0
328,2,18.0
329,9,16.0
330,9,10.0
331,15,17.0
332,10,19.5
333,6,18.5
334,2,92.0
335,2,18.0
336,12,13.5
337,62,5.0
338,18,8.5
339,24,2.0
340,38,6.5
341,12,21.0
342,7,47.0
343,12,13.0
344,23,2.0
345,32,22.0
346,43,1.0
347,25,7.0
348,15,25.0
349,8,0.5
350,18,4.0
351,28,16.5
352,16,1.5
353,14,6.5
354,14,9.5
355,10,37.0
356,9,13.0
357,17,3.0
358,39,8.0
359,15,10.0
360,14,15.0
361,25,4.0
362,10,50.0
363,5,103.0
364,9,23.0
365,23,11.0
366,19,10.0
367,16,6.5
368,16,5.0
369,14,0.0
370,15,0.0
371,54,4.5
372,20,0.0
373,34,0.5
374,11,14.0
375,10,16.5
376,9,51.0
377,4,18.0
378,12,9.5
379,15,11.0
380,26,16.5
381,84,3.0
382,18,13.5
383,12,14.5
384,15,5.0
385,15,11.0
386,22,15.0
387,26,3.5
388,13,23.0
389,15,9.0
390,15,21.0
391,7,3.0
392,6,18.0
393,8,6.5
394,12,24.5
395,16,21.0
396,7,11.0
397,27,4.0
398,4,16.0
399,10,5.5
400,11,25.0
401,13,22.0
402,10,69.0
403,32,42.5
404,13,36.0
405,6,35.0
406,11,25.0
407,7,36.0
408,18,18.0
409,11,16.0
410,22,17.5
411,12,48.5
412,5,22.0
413,19,18.0
414,13,4.0
415,18,5.0
416,18,18.0
417,4,65.5
418,6,9.0
419,11,19.0
420,11,14.0
421,15,16.0
422,17,13.0
423,11,7.0
424,18,5.0
425,1,18.0
426,1,23.0
427,12,18.0
428,8,19.0
429,8,18.0
430,10,18.0
431,3,120.0
432,6,18.0
433,6,51.0
434,18,11.0
435,28,12.0
436,11,6.0
437,16,3.0
438,6,19.5
439,4,27.0
440,1,20.0
441,13,4.0
442,23,7.0
443,8,14.5
444,11,16.0
445,6,8.5
446,8,17.0
447,8,21.0
448,10,6.0
449,63,5.0
450,11,29.0
451,12,7.5
452,24,1.0
453,7,95.0
454,5,18.0
455,17,15.0
456,7,20.0
457,11,8.0
458,6,15.0
459,9,88.0
460,7,73.0
461,2,1.0
462,37,4.0
463,12,45.0
464,17,29.0
465,11,7.0
466,27,14.0
467,22,3.5
468,4,36.5
469,10,7.0
470,7,78.0
471,7,7.0
472,16,26.5
473,22,25.5
474,7,12.0
475,14,35.0
476,21,18.0
477,10,5.5
478,9,22.0
479,13,12.0
480,17,3.0
481,7,20.0
482,5,3.0
483,7,7.0
484,27,6.0
485,17,4.0
486,12,24.0
487,25,93.0
488,20,73.5
489,12,47.5
490,6,24.5
491,17,2.0
492,43,9.0
493,17,3.0
494,24,12.5
495,7,41.0
496,13,44.0
497,27,23.0
498,31,21.0
499,11,1.0
500,9,27.0
501,14,23.5
502,2,33.0
503,3,3.0
504,10,25.5
505,11,43.0
506,24,17.0
507,4,37.0
508,9,128.0
509,4,2.0
510,6,35.5
511,12,20.5
512,13,10.0
513,13,19.0
514,42,1.0
515,24,44.5
516,9,46.0
517,2,24.5
518,3,0.0
519,21,2.0
520,14,26.5
521,17,19.0
522,29,42.0
523,8,28.5
524,7,12.0
525,4,96.0
526,16,5.0
527,12,9.0
528,13,20.0
529,7,9.0
530,5,19.0
531,7,26.0
532,8,4.5
533,8,7.5
534,9,2.0
535,30,2.0
536,12,3.0
537,15,0.0
538,15,1.0
539,14,2.0
540,9,28.0
541,7,18.0
542,23,5.0
543,12,12.0
544,10,11.0
545,11,23.0
546,18,22.0
547,8,30.5
548,31,1.0
549,6,3.5
550,17,14.0
551,4,18.5
552,2,24.0
553,7,18.0
554,11,7.0
555,11,3.0
556,16,15.0
557,53,0.0
558,22,37.5
559,8,34.5
560,5,70.0
561,5,21.0
562,17,5.0
563,7,93.0
564,39,6.0
565,40,4.0
566,38,4.5
567,17,20.0
568,13,12.0
569,4,20.5
570,8,18.0
571,10,7.0
572,4,3.5
573,13,19.0
574,8,3.0
575,7,13.0
576,13,15.0
577,25,5.0
578,3,2.0
579,3,22.0
580,4,45.0
581,5,6.0
582,16,4.0
583,6,11.0
584,7,19.0
585,4,68.0
586,1,18.0
587,7,19.0
588,8,11.0
589,6,12.5
590,6,53.5
591,31,2.0
592,4,14.5
593,7,18.0
594,5,16.0
595,10,16.0
596,10,8.5
597,11,7.0
598,17,3.0
599,19,6.0
600,15,1.0
601,8,25.0
602,24,16.5
603,18,4.0
604,30,6.5
605,6,2.0
606,21,20.0
607,5,57.0
608,12,127.5
609,17,20.0
610,27,23.0
611,10,11.0
612,18,13.0
613,33,14.0
614,10,51.5
615,5,20.0
616,20,58.5
617,13,29.0
618,18,15.0
619,81,0.0
620,17,15.0
621,21,20.0
622,6,125.0
623,18,8.0
624,5,13.0
625,23,40.0
626,22,52.5
627,26,15.0
628,21,58.0
629,8,23.0
630,43,23.0
631,31,47.0
632,35,1.0
633,23,2.0
634,48,4.0
635,16,21.5
636,10,20.5
637,31,55.0
638,24,18.0
639,21,15.0
640,19,24.0
641,13,51.0
642,3,3.0
643,9,22.0
644,16,20.5
645,22,42.0
646,19,81.0
647,24,69.0
648,22,73.0
649,3,59.0
650,6,122.0
651,11,58.0
652,12,27.0
653,11,20.0
654,9,17.0
655,9,102.0
656,8,13.5
657,3,14.0
658,2,18.0
659,18,20.5
660,10,14.0
661,19,17.0
662,18,90.0
663,9,46.0
664,7,95.0
665,9,4.0
666,7,12.0
667,15,22.0
668,14,45.5
669,11,18.0
670,11,15.0
671,9,21.0
672,24,4.5
673,16,0.0
674,13,9.0
675,7,11.0
676,11,64.0
677,11,1.0
678,10,5.5
679,16,10.5
680,15,1.0
681,12,10.5
682,13,23.0
683,18,3.5
684,27,17.0
685,21,22.0
686,14,21.0
687,14,10.0
688,18,6.0
689,7,2.0
690,7,3.0
691,7,36.0
692,3,24.0
693,8,10.0
694,9,31.0
695,6,10.5
696,9,19.0
697,8,68.5
698,10,18.0
699,1,17.0
700,7,7.0
701,13,20.0
702,13,5.0
703,3,16.0
704,6,3.5
705,6,57.0
706,4,21.0
707,14,18.5
708,18,32.5
709,27,15.0
710,12,0.5
711,8,2.5
712,9,0.0
713,10,4.0
714,17,19.0
715,13,21.0
716,10,1.0
717,4,18.0
718,19,4.0
719,35,19.0
720,6,21.0
721,9,18.0
722,18,3.5
723,8,8.5
724,13,8.0
725,25,64.0
726,12,42.5
727,10,24.0
728,8,2.0
729,9,26.0
730,13,18.0
731,14,14.0
732,11,16.0
733,6,19.0
734,2,30.5
735,16,11.5
736,8,9.5
737,26,4.0
738,36,0.0
739,14,0.5
740,12,37.5
741,13,22.0
742,12,5.0
743,11,17.0
744,5,21.0
745,10,108.5
746,8,9.5
747,2,22.0
748,6,3.5
749,17,13.0
750,4,7.0
751,3,7.0
752,11,2.0
753,9,21.0
754,8,27.5
755,5,3.0
756,5,20.0
757,12,8.5
758,9,44.0
759,24,37.5
760,15,38.0
761,17,2.0
762,12,5.0
763,12,1.0
764,18,5.5
765,17,14.0
766,9,3.0
767,9,41.0
768,9,49.0
769,4,17.0
770,17,27.0
771,22,8.0
772,16,16.0
773,46,6.0
774,16,8.0
775,8,20.5
776,4,12.5
777,17,2.0
778,15,7.0
779,8,10.5
780,24,6.5
781,33,8.0
782,4,37.0
783,3,39.0
784,16,7.0
785,6,13.0
786,29,9.0
787,22,6.5
788,8,13.5
789,3,13.0
790,5,22.0
791,4,22.5
792,16,13.0
793,11,13.0
794,14,13.0
795,13,16.0
796,2,11.5
797,14,14.0
798,19,20.0
799,15,8.0
800,38,11.5
801,40,11.0
802,31,41.0
803,10,18.0
804,11,23.0
805,26,23.0
806,20,22.5
807,21,7.0
808,13,17.0
809,16,70.0
810,13,48.0
811,11,16.0
812,10,16.0
813,13,12.0
814,15,21.0
815,13,7.0
816,21,5.0
817,13,3.0
818,7,26.0
819,11,17.0
820,19,28.0
821,23,21.0
822,21,110.0
823,5,12.0
824,10,1.5
825,6,4.5
826,6,30.5
827,14,23.0
828,28,5.0
829,21,2.0
830,32,40.5
831,14,16.5
832,16,17.0
833,30,3.0
834,17,16.0
835,6,0.0
836,9,32.0
837,14,33.5
838,11,42.0
839,8,17.5
840,30,0.0
841,30,35.5
842,34,34.5
843,27,39.0
844,17,25.0
845,21,41.0
846,5,22.0
847,18,20.0
848,14,22.0
849,33,43.0
850,24,25.5
851,21,9.0
852,12,14.0
853,22,39.0
854,9,8.0
855,37,0.0
856,31,10.0
857,38,10.0
858,13,12.0
859,13,67.0
860,8,21.5
861,10,1.5
862,20,1.5
863,17,7.0
864,13,15.0
865,6,48.0
866,4,40.0
867,5,20.0
868,2,2.0
869,23,6.0
870,22,37.5
871,53,3.0
872,44,7.0
873,18,99.5
874,16,45.5
875,71,21.0
876,78,24.5
877,40,16.0
878,19,10.0
879,21,14.0
880,45,41.0
881,77,15.0
882,65,12.0
883,84,21.0
884,34,3.0
885,61,109.0
886,45,92.0
887,49,7.0
888,42,34.5
889,36,13.5
890,43,26.0
891,18,11.5
892,29,5.0
893,33,29.0
894,21,27.0
895,14,36.0
896,26,12.5
897,16,1.0
898,12,0.5
899,23,13.0
900,31,14.0
901,17,41.0
902,7,42.0
903,10,24.0
904,2,3.5
905,15,5.0
906,35,27.0
907,35,21.0
908,9,20.0
909,9,0.0
910,26,5.5
911,18,5.5
912,16,4.5
913,19,5.0
914,17,5.0
915,10,26.0
916,12,13.0
917,20,16.0
918,15,4.0
919,7,4.0
920,13,5.0
921,7,3.0
922,8,18.5
923,5,27.0
924,2,26.5
925,10,9.5
926,14,1.0
927,5,0.0
928,4,0.0
929,0,0.0
930,3,4.0
931,9,0.0
932,0,0.0
933,0,0.0
934,10,26.0
935,12,7.5
936,5,11.0
937,8,18.0
938,22,49.0
939,11,17.0
940,13,13.0
941,38,8.5
942,21,39.0
943,22,10.5
944,11,1.0
945,18,59.5
946,40,21.0
947,50,12.5
948,22,22.5
949,24,7.5
950,16,22.0
951,9,3.0
952,33,0.0
953,15,33.0
954,40,3.5
955,30,29.5
956,31,120.0
957,6,59.0
958,9,68.0
959,3,64.0
960,5,24.0
961,3,18.0
962,3,18.0
963,7,113.0
964,11,32.0
965,20,60.5
966,13,5.0
967,5,3.0
968,36,19.0
969,12,16.0
970,12,4.5
971,11,26.0
972,5,5.0
973,5,9.0
974,17,25.0
975,13,18.0
976,9,30.0
977,37,25.0
978,25,3.0
979,4,14.0
980,13,4.0
981,36,4.5
982,28,15.5
983,37,10.0
984,58,4.5
985,39,23.0
986,27,21.0
987,32,8.0
988,30,42.0
989,22,24.5
990,21,7.0
991,13,6.0
992,12,45.5
993,9,24.0
994,10,47.5
995,10,7.0
996,23,25.0
997,16,8.0
998,14,118.0
999,3,40.0
1000,5,24.0
1001,28,5.0
1002,27,25.0
1003,33,26.0
1004,23,6.0
1005,14,118.5
1006,5,11.0
1007,11,21.0
1008,7,30.0
1009,17,34.0
1010,31,31.0
1011,22,8.5
1012,6,60.5
1013,1,18.0
1014,13,1.0
1015,7,4.0
1016,11,17.0
1017,11,9.0
1018,13,39.0
1019,16,31.0
1020,6,24.5
1021,8,53.0
1022,20,71.0
1023,15,44.0
1024,16,125.5
1025,18,13.5
1026,14,101.0
1027,9,118.0
1028,2,18.0
1029,61,24.0
1030,8,26.5
1031,21,19.0
1032,19,10.0
1033,24,23.5
1034,15,23.0
1035,6,51.5
1036,24,49.0
1037,22,18.0
1038,31,27.0
1039,20,95.0
1040,15,16.0
1041,22,15.0
1042,13,2.0
1043,25,63.0
1044,22,58.0
1045,55,13.0
1046,90,16.5
1047,23,139.0
1048,11,51.0
1049,24,89.5
1050,56,16.0
1051,20,47.5
1052,11,24.0
1053,12,66.5
1054,36,18.0
1055,6,97.5
1056,21,1.0
1057,17,15.0
1058,19,23.0
1059,20,25.5
1060,14,18.0
1061,17,67.0
1062,7,18.0
1063,31,4.0
1064,14,54.0
1065,12,48.5
1066,13,55.0
1067,7,20.0
1068,17,2.0
1069,9,68.0
1070,17,71.0
1071,36,22.5
1072,10,18.0
1073,10,18.0
1074,23,90.0
1075,14,128.0
1076,2,18.0
1077,4,18.0
1078,7,110.0
1079,17,34.0
1080,20,18.0
1081,29,119.0
1082,12,51.0
1083,10,46.5
1084,6,47.5
1085,13,44.0
1086,6,10.0
1087,12,2.5
1088,11,8.0
1089,9,18.0
1090,4,10.0
1091,6,138.0
1092,15,13.0
1093,21,4.0
1094,17,13.0
1095,31,15.0
1096,25,6.0
1097,30,43.5
1098,10,34.5
1099,14,3.0
1100,20,19.5
1101,15,18.0
1102,5,23.0
1103,10,18.0
1104,16,23.0
1105,9,23.0
1106,20,17.5
1107,27,10.0
1108,14,4.0
1109,12,18.0
1110,19,11.0
1111,7,53.0
1112,10,104.0
1113,9,31.0
1114,20,18.0
1115,7,12.0
1116,7,8.0
1117,8,16.5
1118,6,24.0
1119,25,31.0
1120,15,105.0
1121,26,21.5
1122,24,45.0
1123,11,121.0
1124,11,60.0
1125,16,23.0
1126,6,18.5
1127,17,16.0
1128,20,84.0
1129,12,28.5
1130,12,12.0
1131,5,21.0
1132,7,10.0
1133,6,19.0
1134,13,4.0
1135,18,5.0
1136,26,109.0
1137,5,55.0
1138,13,17.0
1139,5,27.0
1140,8,16.5
1141,7,18.0
1142,14,13.0
1143,27,2.0
1144,11,0.0
1145,14,11.0
1146,8,0.5
1147,5,28.0
1148,11,36.0
1149,41,4.0
1150,26,14.5
1151,16,12.0
1152,17,18.0
1153,8,38.5
1154,6,25.5
