,Demand,Response_Time
0,1,44.0
1,2,22.0
2,0,22.0
3,2,63.5
4,0,63.5
5,0,63.5
6,0,63.5
7,1,67.0
8,3,60.0
9,2,47.0
10,0,47.0
11,0,47.0
12,0,47.0
13,1,55.0
14,1,47.0
15,7,88.0
16,1,43.0
17,2,153.5
18,0,153.5
19,0,153.5
20,0,153.5
21,0,153.5
22,0,153.5
23,0,153.5
24,0,153.5
25,1,130.0
26,1,84.0
27,1,82.0
28,1,71.0
29,0,71.0
30,0,71.0
31,2,101.0
32,0,101.0
33,2,101.0
34,0,101.0
35,2,62.0
36,0,62.0
37,3,44.0
38,1,94.0
39,1,119.0
40,0,119.0
41,0,119.0
42,2,43.0
43,3,154.0
44,1,141.0
45,1,131.0
46,1,82.0
47,3,62.0
48,1,32.0
49,2,29.5
50,1,75.0
51,1,59.0
52,6,69.5
53,14,110.5
54,15,85.0
55,11,71.0
56,8,44.5
57,4,45.0
58,2,321.5
59,4,131.0
60,4,177.0
61,8,83.5
62,5,61.0
63,0,61.0
64,2,71.5
65,10,114.5
66,6,88.5
67,4,72.0
68,14,68.5
69,4,70.5
70,4,61.0
71,18,47.5
72,5,64.0
73,1,100.0
74,8,86.5
75,2,120.0
76,3,92.0
77,10,66.5
78,10,107.5
79,5,122.0
80,3,108.0
81,6,78.0
82,5,90.0
83,2,70.5
84,3,37.0
85,4,66.5
86,3,62.0
87,1,116.0
88,2,83.5
89,2,91.0
90,3,93.0
91,18,69.0
92,7,63.0
93,3,50.0
94,5,107.0
95,12,88.0
96,7,62.0
97,7,85.0
98,8,52.0
99,14,62.0
100,11,59.0
101,9,37.0
102,7,91.0
103,6,58.0
104,9,35.0
105,21,91.0
106,4,79.0
107,13,106.0
108,7,146.0
109,5,116.0
110,2,86.0
111,9,72.0
112,13,69.0
113,19,30.0
114,17,43.0
115,8,80.5
116,12,78.5
117,11,64.0
118,8,57.0
119,11,42.0
120,12,42.5
121,5,39.0
122,5,93.0
123,5,89.0
124,4,69.5
125,1,79.0
126,6,44.0
127,3,33.0
128,7,34.0
129,6,93.0
130,6,105.5
131,22,63.5
132,10,82.5
133,10,50.0
134,4,50.0
135,1,7.0
136,6,125.5
137,0,125.5
138,6,69.5
139,4,68.5
140,7,43.0
141,4,24.0
142,6,138.0
143,4,149.0
144,5,158.0
145,26,76.0
146,19,103.0
147,27,69.0
148,4,70.0
149,26,124.0
150,11,137.0
151,8,133.0
152,7,78.0
153,6,63.5
154,9,59.0
155,22,30.0
156,19,47.0
157,15,129.0
158,11,111.0
159,3,96.0
160,8,89.5
161,19,70.0
162,4,71.0
163,15,25.0
164,13,112.0
165,15,94.0
166,13,77.0
167,6,58.5
168,7,166.0
169,12,48.5
170,15,128.0
171,13,104.0
172,9,115.0
173,17,119.0
174,4,162.5
175,7,52.0
176,7,72.0
177,4,135.5
178,8,65.0
179,8,90.5
180,8,65.5
181,3,50.0
182,10,63.0
183,18,51.5
184,9,65.0
185,11,44.0
186,15,134.0
187,25,114.0
188,4,93.5
189,26,70.0
190,12,69.5
191,11,59.0
192,12,106.0
193,8,97.0
194,8,69.0
195,3,42.0
196,9,74.0
197,7,70.0
198,11,130.0
199,5,112.0
200,9,92.0
201,2,65.0
202,5,38.0
203,6,47.5
204,5,17.0
205,3,61.0
206,4,110.0
207,6,89.0
208,2,65.5
209,6,64.0
210,4,22.5
211,4,67.0
212,3,127.0
213,4,106.5
214,2,88.0
215,5,68.0
216,3,31.0
217,4,129.0
218,7,55.0
219,4,133.5
220,2,104.5
221,6,88.5
222,2,71.0
223,2,73.0
224,6,45.0
225,6,70.0
226,13,117.0
227,5,116.0
228,2,109.5
229,2,128.0
230,2,81.0
231,3,66.0
232,9,57.0
233,1,32.0
234,6,156.0
235,1,28.0
236,5,91.0
237,7,77.0
238,4,74.5
239,10,38.5
240,6,54.0
241,8,40.5
242,4,103.5
243,8,119.5
244,3,56.0
245,1,71.0
246,5,36.0
247,1,44.0
248,2,91.5
249,5,93.0
250,3,60.0
251,0,60.0
252,3,39.0
253,4,42.5
254,2,27.5
255,2,165.5
256,4,87.5
257,0,87.5
258,4,66.0
259,0,66.0
260,0,66.0
261,5,48.0
262,3,64.0
263,8,95.0
264,2,70.5
265,2,81.5
266,3,21.0
267,6,64.5
268,3,50.0
269,3,38.0
270,7,95.0
271,2,59.0
272,0,59.0
273,5,277.0
274,0,277.0
275,1,282.0
276,0,282.0
277,3,142.0
278,1,90.0
279,1,65.0
280,5,45.0
281,4,39.0
282,7,59.0
283,4,113.0
284,2,15.0
285,3,65.0
286,3,42.0
287,2,38.0
288,2,114.0
289,1,175.0
290,1,129.0
291,2,118.0
292,0,118.0
293,3,112.0
294,1,27.0
295,2,278.5
296,1,142.0
297,3,126.0
298,0,126.0
299,5,108.0
300,1,44.0
301,1,199.0
302,1,62.0
303,3,45.0
304,5,21.0
305,1,88.0
306,1,69.0
307,0,69.0
308,0,69.0
309,0,69.0
310,0,69.0
311,1,125.0
312,1,104.0
313,0,104.0
314,0,104.0
315,1,64.0
316,1,141.0
317,1,113.0
318,1,114.0
319,1,83.0
320,2,360.0
321,2,72.0
322,0,72.0
323,3,64.0
324,2,40.5
325,0,40.5
326,0,40.5
327,0,40.5
328,1,258.0
329,0,258.0
330,0,258.0
331,1,132.0
332,3,142.0
333,2,209.0
334,6,88.0
335,8,95.0
336,3,71.0
337,2,77.0
338,0,77.0
339,4,93.5
340,1,89.0
341,4,60.0
342,7,44.0
343,2,34.5
344,1,86.5
345,1,179.0
346,1,104.0
347,2,107.5
348,0,107.5
349,3,97.0
350,1,72.0
351,4,72.0
352,0,72.0
353,0,72.0
354,1,161.0
355,1,105.0
356,0,105.0
357,1,196.0
358,0,196.0
359,1,152.0
360,1,32.0
361,0,32.0
362,0,32.0
363,0,32.0
364,2,86.0
365,1,179.0
366,1,167.0
367,2,144.0
368,0,144.0
369,0,144.0
370,0,144.0
371,1,69.0
372,0,69.0
373,2,398.5
374,3,163.0
375,0,163.0
376,0,163.0
377,0,163.0
378,3,78.0
379,2,154.0
380,0,154.0
381,1,333.0
382,3,112.0
383,0,112.0
384,1,59.0
385,2,52.0
386,1,25.0
387,1,139.0
388,0,139.0
389,1,111.0
390,3,116.0
391,3,38.0
392,0,38.0
393,1,53.0
394,3,110.0
395,2,91.5
396,3,132.0
397,2,48.5
398,1,20.0
399,4,66.0
400,6,48.0
401,0,48.0
402,3,138.0
403,0,138.0
404,1,250.0
405,1,75.0
406,3,94.0
407,1,170.0
408,0,170.0
409,4,120.0
410,1,100.0
411,1,88.0
412,2,51.5
413,4,95.0
414,3,24.0
415,1,42.0
416,5,91.0
417,6,102.0
418,3,73.0
419,1,76.0
420,3,44.0
421,2,38.0
422,6,90.0
423,1,110.0
424,3,113.0
425,1,91.0
426,3,66.0
427,15,71.0
428,13,67.0
429,4,52.0
430,9,31.0
431,11,98.0
432,6,73.5
433,2,53.5
434,3,28.0
435,2,64.0
436,0,64.0
437,2,60.0
438,1,111.0
439,23,69.0
440,11,69.0
441,12,54.5
442,15,37.0
443,19,51.0
444,20,93.0
445,8,81.5
446,8,72.5
447,1,109.0
448,8,46.0
449,9,34.0
450,6,128.0
451,1,132.0
452,4,126.0
453,9,96.0
454,1,34.0
455,16,65.0
456,9,57.0
457,12,37.0
458,12,125.5
459,12,96.0
460,11,94.0
461,6,73.0
462,6,76.5
463,3,89.0
464,6,88.0
465,3,83.0
466,3,120.0
467,3,88.0
468,15,66.0
469,20,127.5
470,18,114.5
471,10,200.0
472,2,177.5
473,9,128.0
474,3,115.0
475,3,88.0
476,14,103.0
477,19,79.0
478,5,59.0
479,14,99.0
480,9,105.0
481,7,81.0
482,12,70.5
483,10,69.0
484,14,43.0
485,10,51.5
486,15,41.0
487,18,91.0
488,16,69.5
489,12,67.5
490,11,36.0
491,10,62.0
492,15,58.0
493,22,94.5
494,27,94.0
495,18,104.0
496,9,87.0
497,30,65.0
498,30,52.5
499,16,25.0
500,16,68.0
501,12,94.5
502,4,90.0
503,4,73.5
504,8,62.5
505,7,46.0
506,7,63.0
507,6,84.0
508,17,119.0
509,5,88.0
510,1,58.0
511,4,61.5
512,10,61.5
513,2,42.0
514,24,90.0
515,5,93.0
516,21,67.0
517,19,66.0
518,4,43.0
519,25,63.0
520,8,66.0
521,4,36.0
522,5,106.0
523,9,97.0
524,6,83.5
525,6,72.0
526,9,32.0
527,4,35.0
528,5,115.0
529,2,97.0
530,2,83.5
531,5,50.0
532,17,64.0
533,7,40.0
534,7,49.0
535,5,94.0
536,7,84.0
537,9,67.0
538,9,40.0
539,5,24.0
540,12,67.5
541,8,47.5
542,10,86.0
543,7,110.0
544,15,72.0
545,4,54.5
546,9,48.0
547,4,95.0
548,6,48.5
549,15,100.0
550,12,126.5
551,4,86.0
552,8,95.5
553,15,93.0
554,4,37.5
555,9,47.0
556,5,257.0
557,7,234.0
558,4,100.0
559,3,186.0
560,7,181.0
561,9,162.0
562,3,109.0
563,3,118.0
564,4,118.0
565,3,25.0
566,8,66.0
567,14,42.5
568,2,63.5
569,4,144.5
570,4,115.0
571,18,109.0
572,15,107.0
573,22,89.0
574,9,70.0
575,8,46.5
576,6,63.0
577,7,110.0
578,11,115.0
579,13,124.0
580,11,101.0
581,19,110.0
582,10,162.0
583,21,148.0
584,8,144.0
585,16,127.5
586,9,111.0
587,4,105.0
588,5,78.0
589,4,159.5
590,8,123.5
591,8,110.0
592,2,111.5
593,3,78.0
594,4,62.0
595,3,68.0
596,5,71.0
597,8,80.5
598,5,89.0
599,10,97.5
600,3,100.0
601,2,40.0
602,3,72.0
603,4,114.0
604,5,130.0
605,6,126.0
606,7,69.0
607,2,89.5
608,4,77.0
609,3,33.0
610,0,33.0
611,3,49.0
612,1,135.0
613,2,106.0
614,0,106.0
615,1,307.0
616,3,47.0
617,7,86.0
618,8,117.0
619,2,156.0
620,5,114.0
621,1,62.0
622,2,68.5
623,1,160.0
624,6,104.5
625,7,108.0
626,3,110.0
627,2,109.0
628,0,109.0
629,2,57.0
630,2,45.0
631,8,36.0
632,5,117.0
633,4,62.5
634,7,110.0
635,4,95.0
636,2,63.5
637,8,48.5
638,5,68.0
639,9,121.0
640,6,132.0
641,4,68.5
642,9,85.0
643,3,63.0
644,2,50.5
645,0,50.5
646,2,28.0
647,2,89.0
648,1,108.0
649,4,88.0
650,10,70.5
651,4,46.5
652,3,164.0
653,3,141.0
654,0,141.0
655,3,96.0
656,2,70.5
657,0,70.5
658,4,18.5
659,4,140.5
660,2,83.0
661,2,122.0
662,2,163.5
663,2,47.5
664,0,47.5
665,1,50.0
666,4,44.0
667,3,163.0
668,3,133.0
669,0,133.0
670,2,165.0
671,1,173.0
672,5,74.0
673,2,78.0
674,1,47.0
675,1,95.0
676,2,84.0
677,1,140.0
678,1,66.0
679,3,68.0
680,1,139.0
681,2,301.0
682,1,155.0
683,1,431.0
684,2,401.0
685,1,351.0
686,3,324.0
687,2,140.0
688,0,140.0
689,2,170.5
690,1,62.0
691,1,222.0
692,0,222.0
693,0,222.0
694,1,154.0
695,3,170.0
696,2,104.5
697,3,90.0
698,0,90.0
699,0,90.0
700,0,90.0
701,1,70.0
702,2,56.5
703,0,56.5
704,2,152.0
705,1,140.0
706,0,140.0
707,4,96.0
708,2,49.0
709,1,5.0
710,1,161.0
711,0,161.0
712,0,161.0
713,0,161.0
714,3,62.0
715,6,64.5
716,3,120.0
717,1,96.0
718,0,96.0
719,0,96.0
720,0,96.0
721,0,96.0
722,1,39.0
723,3,304.0
724,4,321.0
725,0,321.0
726,1,154.0
727,0,154.0
728,0,154.0
729,4,224.0
730,0,224.0
731,1,188.0
732,0,188.0
733,3,136.0
734,0,136.0
735,0,136.0
736,2,70.0
737,0,70.0
738,2,233.0
739,3,334.0
740,6,218.0
741,1,40.0
742,2,116.5
743,0,116.5
744,1,108.0
745,4,128.0
746,0,128.0
747,0,128.0
748,1,102.0
749,2,88.5
750,6,67.0
751,10,49.0
752,2,147.0
753,0,147.0
754,2,129.5
755,0,129.5
756,0,129.5
757,2,53.0
758,2,235.5
759,1,119.0
760,2,95.5
761,2,288.0
762,0,288.0
763,1,210.0
764,1,165.0
765,3,118.0
766,4,111.0
767,0,111.0
768,0,111.0
769,1,107.0
770,1,171.0
771,0,171.0
772,1,115.0
773,3,309.0
774,1,176.0
775,1,274.0
776,1,43.0
777,1,211.0
778,1,76.0
779,5,120.0
780,1,87.0
781,2,88.0
782,1,92.0
783,0,92.0
784,5,72.0
785,4,162.0
786,3,169.0
787,6,260.0
788,0,260.0
789,1,89.0
790,0,89.0
791,0,89.0
792,2,106.5
793,2,94.5
794,3,112.0
795,5,90.0
796,1,72.0
797,1,96.0
798,7,72.0
799,14,49.0
800,7,118.0
801,4,114.5
802,1,80.0
803,2,79.0
804,3,75.0
805,1,68.0
806,0,68.0
807,4,98.0
808,10,118.0
809,13,118.0
810,4,111.0
811,4,76.0
812,7,22.0
813,13,43.0
814,4,50.0
815,3,134.0
816,4,125.0
817,5,116.0
818,3,102.0
819,5,71.0
820,12,137.5
821,21,112.0
822,10,164.5
823,15,107.0
824,4,90.0
825,11,37.0
826,13,68.0
827,6,42.5
828,11,114.0
829,8,117.0
830,14,94.0
831,7,81.0
832,4,67.5
833,13,46.0
834,6,75.0
835,7,142.0
836,10,103.5
837,14,112.5
838,6,62.0
839,5,62.0
840,5,51.0
841,10,40.5
842,9,29.0
843,6,82.0
844,4,89.0
845,7,61.0
846,7,67.0
847,17,37.0
848,3,43.0
849,8,77.0
850,5,105.0
851,14,106.5
852,13,94.0
853,11,70.0
854,20,67.0
855,16,48.0
856,22,47.0
857,15,120.0
858,19,88.0
859,20,92.5
860,10,71.5
861,8,48.5
862,11,53.0
863,7,129.0
864,11,132.0
865,8,121.0
866,11,98.0
867,6,112.5
868,3,40.0
869,23,63.0
870,24,42.0
871,4,103.0
872,29,162.0
873,27,224.0
874,31,180.0
875,4,168.5
876,4,157.0
877,22,160.0
878,4,139.0
879,4,141.0
880,4,115.5
881,4,111.5
882,32,79.5
883,25,65.0
884,11,58.0
885,10,72.0
886,8,110.0
887,8,91.0
888,16,72.5
889,16,63.5
890,8,27.5
891,14,88.0
892,20,93.0
893,10,89.0
894,8,66.0
895,5,44.0
896,11,23.0
897,8,44.0
898,4,111.0
899,10,134.5
900,8,92.5
901,6,55.0
902,6,32.5
903,4,53.5
904,6,43.0
905,12,73.0
906,8,41.0
907,15,84.0
908,11,66.0
909,4,65.0
910,6,42.0
911,5,72.0
912,9,62.0
913,12,66.5
914,14,89.5
915,4,67.0
916,2,68.0
917,6,54.0
918,14,44.5
919,3,25.0
920,6,71.0
921,6,94.5
922,10,98.5
923,6,92.5
924,1,160.0
925,4,97.5
926,8,111.0
927,2,61.5
928,1,61.0
929,2,39.0
930,0,39.0
931,0,39.0
932,0,39.0
933,0,0.0
934,5,144.0
935,5,120.0
936,10,84.0
937,2,84.0
938,11,72.0
939,25,48.0
940,31,72.0
941,4,120.0
942,4,96.0
943,20,96.0
944,20,96.0
945,8,84.0
946,16,72.0
947,19,48.0
948,9,120.0
949,6,120.0
950,6,84.0
951,1,96.0
952,4,96.0
953,4,84.0
954,11,72.0
955,5,96.0
956,11,120.0
957,2,120.0
958,6,96.0
959,16,96.0
960,6,72.0
961,11,48.0
962,7,120.0
963,13,120.0
964,24,96.0
965,6,96.0
966,10,84.0
967,16,72.0
968,8,60.0
969,14,96.0
970,21,120.0
971,9,96.0
972,4,84.0
973,17,72.0
974,10,60.0
975,10,48.0
976,9,24.0
977,29,144.0
978,15,120.0
979,29,96.0
980,4,96.0
981,26,72.0
982,25,48.0
983,27,168.0
984,4,144.0
985,4,120.0
986,13,96.0
987,15,72.0
988,18,120.0
989,11,144.0
990,11,144.0
991,16,96.0
992,9,96.0
993,6,96.0
994,9,72.0
995,12,72.0
996,7,144.0
997,15,120.0
998,17,96.0
999,2,60.0
1000,3,96.0
1001,9,72.0
1002,8,48.0
1003,1,24.0
1004,6,96.0
1005,1,96.0
1006,2,84.0
1007,4,84.0
1008,1,72.0
1009,5,72.0
1010,11,48.0
1011,5,120.0
1012,8,96.0
1013,4,72.0
1014,6,60.0
1015,15,72.0
1016,11,48.0
1017,14,48.0
1018,3,24.0
1019,4,84.0
1020,6,96.0
1021,6,72.0
1022,8,72.0
1023,7,72.0
1024,4,72.0
1025,4,120.0
1026,3,24.0
1027,1,72.0
1028,4,48.0
1029,4,72.0
1030,5,72.0
1031,5,120.0
1032,3,120.0
1033,7,96.0
1034,0,96.0
1035,1,24.0
1036,4,72.0
1037,3,72.0
1038,1,144.0
1039,5,120.0
1040,2,84.0
1041,2,96.0
1042,1,96.0
1043,1,72.0
1044,0,72.0
1045,2,132.0
1046,9,24.0
1047,4,96.0
1048,5,72.0
1049,0,72.0
1050,3,96.0
1051,3,72.0
1052,1,120.0
1053,4,24.0
1054,2,96.0
1055,1,72.0
1056,2,48.0
1057,0,48.0
1058,2,48.0
1059,3,48.0
1060,0,48.0
1061,7,96.0
1062,7,72.0
1063,1,96.0
1064,3,24.0
1065,0,24.0
1066,2,36.0
1067,0,36.0
1068,2,120.0
1069,4,24.0
1070,3,72.0
1071,3,48.0
1072,2,48.0
1073,0,48.0
1074,1,120.0
1075,1,96.0
1076,2,60.0
1077,0,60.0
1078,1,72.0
1079,4,48.0
1080,3,120.0
1081,2,144.0
1082,0,144.0
1083,0,144.0
1084,0,144.0
1085,2,96.0
1086,1,48.0
1087,2,84.0
1088,1,120.0
1089,1,234.0
1090,2,96.0
1091,0,96.0
1092,0,96.0
1093,0,96.0
1094,0,96.0
1095,1,93.0
1096,2,149.0
1097,1,24.0
1098,0,24.0
1099,2,80.0
1100,1,190.0
1101,2,73.0
1102,1,108.0
1103,0,108.0
1104,0,108.0
1105,0,108.0
1106,2,89.0
1107,0,89.0
1108,3,118.0
1109,3,97.0
1110,1,72.0
1111,0,72.0
1112,0,72.0
1113,1,161.0
1114,2,90.0
1115,0,90.0
1116,0,90.0
1117,2,92.5
1118,0,92.5
1119,1,83.0
1120,0,83.0
1121,1,81.0
1122,0,81.0
1123,2,86.5
1124,0,86.5
1125,0,86.5
1126,0,86.5
1127,0,86.5
1128,2,47.5
1129,2,62.5
1130,1,523.0
1131,0,523.0
1132,0,523.0
1133,2,52.5
1134,2,225.0
1135,1,52.0
1136,2,57.0
1137,2,117.0
1138,0,117.0
1139,0,117.0
1140,1,211.0
1141,0,211.0
1142,3,52.0
1143,0,52.0
1144,0,52.0
1145,0,52.0
1146,0,52.0
1147,0,52.0
1148,0,52.0
1149,1,112.0
1150,4,85.5
1151,0,85.5
1152,0,85.5
1153,1,25.0
1154,2,30.5
