,Demand,Response_Time
0,25,1.0
1,21,4.0
2,31,3.0
3,26,3.0
4,17,2.0
5,16,4.0
6,20,2.0
7,27,4.0
8,22,2.0
9,16,4.5
10,19,3.0
11,23,3.0
12,24,2.0
13,18,1.5
14,24,3.0
15,22,5.0
16,15,4.0
17,19,3.0
18,23,4.0
19,21,3.0
20,17,4.0
21,20,2.0
22,17,1.0
23,19,2.0
24,9,5.0
25,15,2.0
26,9,2.0
27,17,2.0
28,15,2.0
29,23,2.0
30,30,3.0
31,29,5.0
32,24,2.0
33,15,2.0
34,21,2.0
35,16,2.5
36,21,2.0
37,28,2.0
38,22,1.5
39,28,3.5
40,19,3.0
41,15,2.0
42,19,1.0
43,27,4.0
44,23,3.0
45,17,5.0
46,22,4.0
47,14,2.0
48,15,1.0
49,8,2.5
50,14,3.0
51,21,2.0
52,16,3.0
53,11,2.0
54,19,1.0
55,18,1.0
56,19,2.0
57,13,4.0
58,11,1.0
59,26,3.0
60,25,3.0
61,9,2.0
62,15,2.0
63,18,2.0
64,18,4.0
65,22,2.0
66,16,3.5
67,16,3.5
68,15,1.0
69,19,2.0
70,11,2.0
71,26,2.0
72,19,4.0
73,15,1.0
74,26,1.0
75,16,1.5
76,23,5.0
77,37,3.0
78,30,1.0
79,22,3.0
80,14,1.0
81,18,1.5
82,16,1.5
83,16,2.0
84,18,1.5
85,19,2.0
86,25,4.0
87,23,2.0
88,26,3.0
89,13,1.0
90,20,1.0
91,17,2.0
92,29,3.0
93,18,5.5
94,23,3.0
95,19,5.0
96,17,2.0
97,25,2.0
98,22,2.0
99,31,2.0
100,22,2.0
101,13,1.0
102,28,2.0
103,19,3.0
104,24,1.5
105,19,4.0
106,17,4.0
107,14,2.5
108,11,3.0
109,21,2.0
110,17,2.0
111,8,1.5
112,19,3.0
113,17,2.0
114,13,5.0
115,22,1.5
116,15,2.0
117,13,1.0
118,19,1.0
119,22,1.0
120,24,0.5
121,20,2.5
122,13,4.0
123,17,2.0
124,13,0.0
125,19,2.0
126,16,1.5
127,17,3.0
128,16,2.0
129,17,2.0
130,11,2.0
131,14,5.0
132,16,1.5
133,19,3.0
134,20,2.0
135,6,4.0
136,11,3.0
137,13,3.0
138,14,2.0
139,22,1.0
140,17,2.0
141,11,4.0
142,18,3.0
143,14,0.5
144,12,3.0
145,8,1.5
146,18,1.0
147,11,1.0
148,20,2.0
149,16,2.0
150,27,3.0
151,11,2.0
152,13,2.0
153,13,2.0
154,16,3.0
155,18,1.0
156,15,2.0
157,14,4.0
158,17,3.0
159,18,1.0
160,10,3.0
161,16,1.0
162,18,2.5
163,30,2.0
164,19,2.0
165,31,2.0
166,17,3.0
167,25,5.0
168,21,2.0
169,30,1.0
170,31,4.0
171,22,2.0
172,15,5.0
173,28,3.0
174,21,2.0
175,25,1.0
176,20,1.0
177,9,1.0
178,22,3.0
179,12,3.0
180,12,2.5
181,15,2.0
182,21,2.0
183,14,1.5
184,31,1.0
185,13,2.0
186,18,2.0
187,11,3.0
188,11,1.0
189,11,2.0
190,21,3.0
191,14,1.0
192,14,2.0
193,10,3.0
194,19,2.0
195,22,3.0
196,15,2.0
197,9,1.0
198,19,1.0
199,21,2.0
200,17,2.0
201,14,3.5
202,16,1.0
203,18,2.0
204,23,1.0
205,17,1.0
206,26,1.0
207,14,1.5
208,26,3.0
209,18,2.0
210,23,2.0
211,20,2.0
212,17,2.0
213,14,1.0
214,15,2.0
215,13,4.0
216,16,2.0
217,18,3.5
218,18,2.5
219,14,4.0
220,19,4.0
221,23,4.0
222,19,2.0
223,17,2.0
224,22,1.5
225,15,5.0
226,22,1.5
227,20,1.0
228,13,3.0
229,23,3.0
230,21,2.0
231,19,1.0
232,17,4.0
233,18,3.5
234,17,2.0
235,11,1.0
236,14,1.0
237,15,1.0
238,14,3.5
239,15,1.0
240,23,2.0
241,18,2.0
242,19,2.0
243,21,2.0
244,20,1.0
245,23,3.0
246,24,0.0
247,17,2.0
248,23,2.0
249,17,5.0
250,12,4.0
251,17,3.0
252,22,1.5
253,26,2.0
254,23,3.0
255,22,2.5
256,24,3.0
257,15,2.0
258,11,2.0
259,22,1.0
260,15,1.0
261,20,3.0
262,12,3.0
263,17,3.0
264,13,6.0
265,12,1.5
266,17,2.0
267,25,2.0
268,21,1.0
269,18,1.0
270,7,1.0
271,14,3.5
272,24,1.0
273,17,4.0
274,17,2.0
275,17,1.0
276,21,4.0
277,15,2.0
278,11,4.0
279,15,2.0
280,15,3.0
281,22,3.0
282,26,2.0
283,18,3.0
284,17,2.0
285,15,3.0
286,18,2.0
287,14,1.0
288,15,4.0
289,24,2.0
290,19,3.0
291,17,2.0
292,13,4.0
293,14,2.5
294,15,2.0
295,17,2.0
296,24,2.5
297,28,3.0
298,17,3.0
299,15,2.0
300,8,1.5
301,14,2.0
302,12,5.5
303,16,2.5
304,27,4.0
305,17,3.0
306,23,2.0
307,17,1.0
308,25,2.0
309,23,3.0
310,12,2.0
311,16,1.5
312,18,4.0
313,27,3.0
314,24,3.5
315,30,3.0
316,19,3.0
317,28,2.5
318,27,2.0
319,13,3.0
320,10,1.0
321,17,2.0
322,24,2.0
323,10,1.5
324,9,4.0
325,19,2.0
326,21,3.0
327,23,2.0
328,19,1.0
329,15,1.0
330,31,5.0
331,18,2.0
332,17,2.0
333,10,0.5
334,18,3.5
335,18,1.5
336,14,2.0
337,18,2.0
338,13,1.0
339,15,1.0
340,24,2.5
341,21,2.0
342,13,1.0
343,12,3.5
344,15,1.0
345,16,7.0
346,24,1.5
347,12,3.5
348,23,2.0
349,21,5.0
350,17,4.0
351,27,2.0
352,11,1.0
353,23,1.0
354,15,1.0
355,20,4.5
356,16,2.5
357,24,1.0
358,19,2.0
359,19,3.0
360,15,5.0
361,21,4.0
362,9,2.0
363,15,4.0
364,17,3.0
365,21,4.0
366,17,5.0
367,31,6.0
368,29,3.0
369,23,1.0
370,17,1.0
371,13,5.0
372,12,4.0
373,18,3.5
374,15,3.0
375,14,4.0
376,18,2.0
377,18,2.5
378,20,4.5
379,18,9.0
380,22,2.0
381,17,2.0
382,19,2.0
383,25,2.0
384,18,2.0
385,18,6.5
386,20,2.0
387,15,4.0
388,11,5.0
389,19,5.0
390,23,3.0
391,20,2.0
392,15,2.0
393,21,4.0
394,30,2.5
395,17,5.0
396,22,2.5
397,25,0.0
398,21,1.0
399,18,2.0
400,12,3.0
401,20,4.5
402,19,4.0
403,18,2.0
404,16,3.5
405,15,2.0
406,27,2.0
407,20,2.0
408,23,3.0
409,16,4.0
410,20,1.5
411,14,1.5
412,8,2.0
413,27,2.0
414,16,4.0
415,38,5.0
416,31,2.0
417,29,2.0
418,37,2.0
419,14,1.5
420,10,1.5
421,22,3.0
422,27,3.0
423,17,4.0
424,21,2.0
425,16,2.0
426,19,2.0
427,28,3.0
428,20,4.5
429,10,1.0
430,17,4.0
431,30,0.0
432,20,2.0
433,28,2.5
434,30,3.0
435,26,0.0
436,30,3.0
437,30,1.0
438,20,2.5
439,18,2.0
440,16,6.0
441,24,2.0
442,34,0.0
443,25,3.0
444,14,2.5
445,23,2.0
446,27,0.0
447,15,2.0
448,23,3.0
449,18,4.0
450,31,3.0
451,16,3.0
452,18,2.0
453,12,3.5
454,9,3.0
455,19,5.0
456,20,3.5
457,16,3.5
458,12,1.5
459,19,4.0
460,23,1.0
461,12,6.0
462,18,4.0
463,13,6.0
464,31,2.0
465,27,4.0
466,13,3.0
467,26,2.0
468,15,2.0
469,20,4.5
470,21,3.0
471,16,6.5
472,16,2.5
473,21,1.0
474,25,4.0
475,27,2.0
476,18,4.5
477,16,3.0
478,34,2.0
479,24,2.0
480,23,2.0
481,11,3.0
482,21,2.0
483,24,1.0
484,24,2.0
485,28,0.5
486,18,2.5
487,19,1.0
488,21,2.0
489,19,3.0
490,24,2.5
491,19,3.0
492,19,6.0
493,20,1.0
494,24,2.0
495,11,2.0
496,28,1.5
497,15,4.0
498,19,3.0
499,15,2.0
500,14,3.5
501,27,3.0
502,22,1.0
503,9,1.0
504,14,2.0
505,11,2.0
506,24,2.0
507,30,2.0
508,24,4.0
509,20,1.0
510,15,1.0
511,12,1.0
512,19,2.0
513,19,3.0
514,20,3.5
515,24,2.0
516,23,5.0
517,13,3.0
518,17,4.0
519,20,0.5
520,36,2.0
521,26,3.0
522,27,1.0
523,17,1.0
524,12,1.0
525,17,1.0
526,25,5.0
527,23,4.0
528,14,2.0
529,17,3.0
530,17,2.0
531,30,1.0
532,15,3.0
533,15,4.0
534,24,2.0
535,20,3.5
536,23,2.0
537,20,2.5
538,23,2.0
539,21,5.0
540,15,2.0
541,25,2.0
542,22,6.0
543,25,3.0
544,29,3.0
545,24,2.0
546,21,2.0
547,23,2.0
548,11,3.0
549,25,2.0
550,19,2.0
551,10,1.5
552,11,4.0
553,14,1.0
554,12,3.0
555,18,3.0
556,15,1.0
557,21,3.0
558,29,3.0
559,24,2.0
560,18,3.5
561,26,7.5
562,27,3.0
563,13,5.0
564,14,5.0
565,22,3.0
566,13,2.0
567,19,2.0
568,19,1.0
569,20,6.5
570,18,6.5
571,15,1.0
572,10,2.0
573,19,1.0
574,18,4.0
575,16,2.0
576,26,4.0
577,20,6.5
578,16,4.0
579,24,2.0
580,15,2.0
581,12,1.0
582,15,3.0
583,19,4.0
584,21,5.0
585,27,3.0
586,36,2.0
587,18,1.0
588,24,3.0
589,34,2.0
590,19,1.0
591,8,2.5
592,15,3.0
593,17,1.0
594,23,2.0
595,30,2.0
596,22,3.5
597,21,4.0
598,16,2.0
599,22,2.5
600,18,2.5
601,29,4.0
602,22,2.5
603,14,3.0
604,27,7.0
605,22,4.0
606,31,2.0
607,23,1.0
608,29,2.0
609,24,2.0
610,15,1.0
611,15,3.0
612,26,5.0
613,12,2.0
614,22,3.0
615,13,4.0
616,24,1.0
617,21,6.0
618,19,4.0
619,21,1.0
620,21,2.0
621,32,2.0
622,26,4.0
623,23,3.0
624,24,3.0
625,31,2.0
626,19,2.0
627,31,2.0
628,22,4.5
629,19,4.0
630,25,1.0
631,20,1.0
632,21,4.0
633,25,2.0
634,14,1.0
635,23,3.0
636,25,2.0
637,19,2.0
638,24,1.5
639,25,2.0
640,22,3.0
641,25,2.0
642,24,2.0
643,27,2.0
644,24,2.0
645,37,1.0
646,18,1.5
647,27,2.0
648,19,2.0
649,14,2.5
650,23,2.0
651,20,1.5
652,16,1.0
653,28,2.0
654,17,3.0
655,15,4.0
656,18,3.0
657,14,2.0
658,17,2.0
659,24,2.0
660,27,3.0
661,29,2.0
662,23,3.0
663,22,2.0
664,37,1.0
665,26,2.0
666,14,2.0
667,27,1.0
668,18,1.0
669,26,1.0
670,20,2.0
671,22,1.5
672,18,3.0
673,26,1.0
674,20,1.5
675,29,2.0
676,32,1.5
677,29,3.0
678,28,2.0
679,24,1.0
680,25,2.0
681,24,2.5
682,32,2.5
683,28,1.0
684,20,2.0
685,32,1.0
686,37,2.0
687,31,4.0
688,39,4.0
689,21,3.0
690,14,3.0
691,19,1.0
692,15,2.0
693,24,5.0
694,22,1.5
695,20,3.0
696,19,2.0
697,26,2.0
698,22,2.0
699,16,2.0
700,18,2.0
701,24,2.0
702,23,1.0
703,29,2.0
704,25,1.0
705,17,2.0
706,31,1.0
707,24,2.5
708,23,2.0
709,18,4.0
710,23,3.0
711,13,3.0
712,16,4.0
713,25,1.0
714,22,3.0
715,20,2.0
716,26,2.0
717,25,3.0
718,21,3.0
719,21,1.0
720,19,3.0
721,32,1.0
722,30,1.0
723,21,2.0
724,21,3.0
725,24,1.0
726,23,2.0
727,22,3.5
728,17,1.0
729,14,8.5
730,18,3.0
731,23,2.0
732,24,1.5
733,23,4.0
734,18,3.5
735,23,3.0
736,29,3.0
737,25,2.0
738,31,2.0
739,17,1.0
740,11,4.0
741,22,2.0
742,22,3.0
743,21,4.0
744,21,3.0
745,21,3.0
746,22,2.0
747,30,2.0
748,14,1.0
749,22,1.5
750,21,1.0
751,26,3.0
752,27,3.0
753,11,2.0
754,33,1.0
755,23,2.0
756,14,3.0
757,18,2.0
758,19,2.0
759,24,3.5
760,28,3.0
761,23,2.0
762,25,2.0
763,28,2.0
764,31,3.0
765,19,3.0
766,16,3.0
767,19,4.0
768,38,1.0
769,24,2.5
770,41,1.0
771,41,2.0
772,30,2.5
773,24,1.0
774,15,3.0
775,29,4.0
776,17,1.0
777,26,2.0
778,25,7.0
779,24,1.0
780,25,2.0
781,21,3.0
782,34,2.0
783,22,2.0
784,23,2.0
785,19,2.0
786,30,3.0
787,22,4.0
788,23,1.0
789,30,2.0
790,23,1.0
791,21,3.0
792,27,2.0
793,25,1.0
794,26,3.5
795,23,3.0
796,26,2.0
797,28,2.0
798,27,3.0
799,16,2.0
800,28,3.5
801,21,4.0
802,28,2.5
803,18,1.5
804,27,3.0
805,19,3.0
806,27,3.0
807,18,1.5
808,17,3.0
809,18,1.5
810,22,1.0
811,20,4.0
812,28,3.0
813,13,5.0
814,22,1.5
815,21,2.0
816,29,2.0
817,28,2.0
818,24,2.0
819,29,2.0
820,27,2.0
821,36,3.0
822,32,2.0
823,25,1.0
824,20,1.0
825,31,2.0
826,32,4.0
827,23,2.0
828,20,2.0
829,23,2.0
830,28,2.0
831,16,3.0
832,21,3.0
833,14,2.0
834,27,3.0
835,23,3.0
836,16,2.0
837,30,2.0
838,19,1.0
839,17,1.0
840,14,1.5
841,22,2.5
842,19,5.0
843,26,2.0
844,18,1.0
845,17,2.0
846,27,1.0
847,25,2.0
848,17,2.0
849,19,3.0
850,1,1.0
851,0,1.0
852,0,1.0
853,0,1.0
854,0,1.0
855,0,1.0
856,0,1.0
857,0,1.0
858,0,1.0
859,0,1.0
860,0,1.0
861,0,1.0
862,0,1.0
863,1,2.0
864,1,2.0
865,0,2.0
866,0,2.0
867,0,2.0
868,0,2.0
869,0,2.0
870,0,2.0
871,1,2.0
872,0,2.0
873,0,2.0
874,0,2.0
875,0,2.0
876,0,2.0
877,0,2.0
878,0,2.0
879,0,2.0
880,0,2.0
881,0,2.0
882,0,2.0
883,0,2.0
884,0,2.0
885,0,2.0
886,0,2.0
887,0,2.0
888,0,2.0
889,0,2.0
890,0,2.0
891,1,2.0
892,0,2.0
893,3,2.0
894,0,2.0
895,0,2.0
896,0,2.0
897,0,2.0
898,5,3.0
899,11,4.0
900,31,2.0
901,25,2.0
902,26,2.0
903,22,2.0
904,23,2.0
905,13,3.0
906,15,2.0
907,27,3.0
908,25,1.0
909,18,2.0
910,23,3.0
911,14,3.0
912,20,3.0
913,27,1.0
914,16,1.0
915,21,2.0
916,17,2.0
917,24,3.5
918,24,2.0
919,19,2.0
920,16,1.0
921,19,1.0
922,24,3.0
923,16,0.5
924,15,1.0
925,22,1.0
926,19,1.0
927,17,2.0
928,25,3.0
929,31,2.0
930,27,1.0
931,27,3.0
932,0,3.0
933,0,0.0
934,9,2.0
935,17,3.0
936,13,2.0
937,15,3.0
938,11,2.0
939,7,3.0
940,15,4.0
941,16,2.5
942,10,4.0
943,9,1.0
944,12,5.0
945,21,3.0
946,17,2.0
947,11,2.0
948,16,1.5
949,8,1.0
950,2,0.0
951,7,3.0
952,20,0.5
953,20,3.0
954,20,1.0
955,15,0.0
956,7,1.0
957,10,1.5
958,9,2.0
959,13,1.0
960,7,2.0
961,17,5.0
962,10,1.5
963,27,1.0
964,12,2.0
965,14,3.5
966,18,3.0
967,18,1.0
968,19,1.0
969,17,0.0
970,13,4.0
971,10,1.5
972,21,3.0
973,13,2.0
974,14,3.5
975,13,1.0
976,14,1.5
977,21,1.0
978,11,1.0
979,7,2.0
980,10,2.5
981,17,4.0
982,12,3.0
983,12,3.0
984,12,0.5
985,17,1.0
986,15,2.0
987,34,2.0
988,25,2.0
989,19,4.0
990,13,3.0
991,22,2.0
992,22,4.0
993,17,1.0
994,23,3.0
995,13,2.0
996,15,3.0
997,8,2.0
998,14,2.0
999,17,2.0
1000,26,5.5
1001,17,3.0
1002,18,2.0
1003,13,2.0
1004,14,3.0
1005,20,3.0
1006,15,4.0
1007,19,2.0
1008,26,3.5
1009,23,1.0
1010,13,1.0
1011,13,3.0
1012,24,4.0
1013,12,2.0
1014,21,1.0
1015,19,3.0
1016,21,1.0
1017,15,1.0
1018,25,1.0
1019,12,2.0
1020,8,3.0
1021,14,1.5
1022,20,2.0
1023,21,1.0
1024,17,4.0
1025,15,2.0
1026,11,2.0
1027,8,4.0
1028,11,2.0
1029,6,1.5
1030,12,4.5
1031,9,2.0
1032,4,2.0
1033,14,1.5
1034,12,2.5
1035,14,2.0
1036,24,1.0
1037,13,1.0
1038,12,2.0
1039,12,5.0
1040,22,2.0
1041,10,1.5
1042,19,1.0
1043,11,1.0
1044,17,2.0
1045,18,1.5
1046,18,1.0
1047,16,1.5
1048,10,3.0
1049,17,2.0
1050,14,1.5
1051,22,2.0
1052,16,1.5
1053,19,3.0
1054,23,1.0
1055,16,2.0
1056,15,1.0
1057,18,2.5
1058,20,2.5
1059,18,2.5
1060,17,2.0
1061,11,3.0
1062,19,4.0
1063,20,1.5
1064,23,1.0
1065,24,2.0
1066,24,3.0
1067,18,3.5
1068,12,3.5
1069,11,2.0
1070,12,4.5
1071,22,3.0
1072,15,2.0
1073,17,2.0
1074,11,2.0
1075,7,4.0
1076,9,1.0
1077,9,2.0
1078,12,2.5
1079,16,2.5
1080,18,1.0
1081,18,3.0
1082,17,4.0
1083,14,3.0
1084,11,1.0
1085,12,2.0
1086,18,2.0
1087,26,1.0
1088,14,2.5
1089,21,2.0
1090,22,2.0
1091,12,1.0
1092,17,1.0
1093,10,3.0
1094,13,4.0
1095,13,6.0
1096,13,2.0
1097,13,1.0
1098,12,3.0
1099,16,3.5
1100,29,2.0
1101,20,2.5
1102,19,3.0
1103,20,2.0
1104,9,4.0
1105,10,3.0
1106,25,5.0
1107,10,4.5
1108,14,3.5
1109,15,3.0
1110,22,3.0
1111,21,2.0
1112,23,2.0
1113,26,2.0
1114,23,3.0
1115,14,2.0
1116,8,2.5
1117,10,2.5
1118,7,0.0
1119,16,3.0
1120,16,2.5
1121,12,1.5
1122,14,3.0
1123,21,3.0
1124,21,5.0
1125,12,2.0
1126,19,2.0
1127,24,2.0
1128,17,2.0
1129,13,2.0
1130,14,1.0
1131,25,2.0
1132,21,2.0
1133,21,3.0
1134,12,3.5
1135,20,2.0
1136,22,3.0
1137,13,1.0
1138,15,4.0
1139,23,2.0
1140,14,4.5
1141,18,3.0
1142,24,2.0
1143,18,1.5
1144,11,3.0
1145,21,2.0
1146,23,2.0
1147,17,3.0
1148,19,2.0
1149,21,3.0
1150,19,3.0
1151,18,4.0
1152,19,3.0
1153,12,6.5
1154,20,2.5
