,Demand,Response_Time
0,1.0,83.0
1,2.0,44.5
2,5.0,91.0
3,26.0,24.0
4,26.0,24.0
5,13.0,24.0
6,14.0,24.0
7,7.0,24.0
8,14.0,24.0
9,23.0,24.0
10,21.0,24.0
11,28.0,24.0
12,14.0,24.0
13,4.0,65.5
14,16.0,24.0
15,5.0,24.0
16,19.0,24.0
17,11.0,24.0
18,13.0,24.0
19,19.0,24.0
20,16.0,24.0
21,17.0,24.0
22,7.0,24.0
23,6.0,24.0
24,2.0,35.0
25,25.0,24.0
26,16.0,24.0
27,15.0,24.0
28,21.0,24.0
29,7.0,24.0
30,18.0,24.0
31,5.0,24.0
32,29.0,24.0
33,17.0,24.0
34,16.0,24.0
35,11.0,20.0
36,11.0,24.0
37,16.0,24.0
38,9.0,24.0
39,11.0,24.0
40,18.0,24.0
41,16.0,24.0
42,10.0,24.0
43,10.0,24.0
44,11.0,24.0
45,12.0,24.0
46,2.0,139.5
47,15.0,24.0
48,16.0,24.0
49,13.0,24.0
50,14.0,24.0
51,21.0,24.0
52,15.0,24.0
53,12.0,24.0
54,42.0,24.0
55,38.0,24.0
56,63.0,24.0
57,5.0,113.0
58,38.0,24.0
59,42.0,24.0
60,14.0,24.0
61,23.0,24.0
62,14.0,24.0
63,19.0,24.0
64,27.0,24.0
65,12.0,24.0
66,3.0,24.0
67,9.0,24.0
68,9.0,91.0
69,5.0,24.0
70,10.0,24.0
71,28.0,24.0
72,35.0,24.0
73,21.0,24.0
74,28.0,24.0
75,19.0,24.0
76,8.0,24.0
77,8.0,24.0
78,29.0,24.0
79,6.0,69.5
80,26.0,24.0
81,24.0,24.0
82,23.0,24.0
83,11.0,24.0
84,5.0,24.0
85,16.0,24.0
86,17.0,24.0
87,14.0,24.0
88,13.0,24.0
89,16.0,24.0
90,4.0,39.0
91,9.0,24.0
92,7.0,24.0
93,8.0,24.0
94,13.0,24.0
95,21.0,24.0
96,21.0,24.0
97,7.0,24.0
98,10.0,24.0
99,4.0,24.0
100,3.0,24.0
101,6.0,16.0
102,7.0,24.0
103,9.0,24.0
104,17.0,24.0
105,16.0,24.0
106,12.0,24.0
107,10.0,24.0
108,9.0,24.0
109,13.0,24.0
110,25.0,24.0
111,13.0,24.0
112,7.0,15.0
113,12.0,21.0
114,12.0,24.0
115,12.0,24.0
116,17.0,24.0
117,16.0,24.0
118,18.0,24.0
119,23.0,24.0
120,15.0,24.0
121,28.0,24.0
122,17.0,24.0
123,15.0,24.0
124,4.0,140.0
125,12.0,24.0
126,29.0,24.0
127,32.0,24.0
128,18.0,24.0
129,27.0,24.0
130,14.0,24.0
131,7.0,24.0
132,15.0,24.0
133,16.0,24.0
134,18.0,24.0
135,7.0,117.0
136,14.0,24.0
137,21.0,24.0
138,15.0,24.0
139,12.0,24.0
140,7.0,24.0
141,22.0,24.0
142,17.0,24.0
143,13.0,24.0
144,29.0,24.0
145,23.0,24.0
146,9.0,90.0
147,6.0,24.0
148,8.0,24.0
149,14.0,24.0
150,26.0,24.0
151,17.0,24.0
152,21.0,24.0
153,22.0,24.0
154,8.0,24.0
155,20.0,24.0
156,13.0,24.0
157,4.0,66.5
158,13.0,24.0
159,14.0,24.0
160,14.0,24.0
161,20.0,24.0
162,8.0,24.0
163,10.0,24.0
164,7.0,24.0
165,18.0,24.0
166,21.0,24.0
167,25.0,24.0
168,4.0,47.5
169,17.0,24.0
170,0.0,0.0
171,0.0,0.0
172,0.0,0.0
173,0.0,0.0
174,1.0,12.0
175,5.0,71.0
176,1.0,46.0
177,6.0,18.0
178,4.0,188.0
179,15.0,93.0
180,5.0,69.0
181,3.0,42.0
182,1.0,11.0
183,5.0,164.0
184,8.0,141.5
185,6.0,114.5
186,5.0,90.0
187,8.0,65.0
188,3.0,45.0
189,6.0,165.5
190,2.0,26.0
191,10.0,47.0
192,8.0,24.5
193,5.0,51.0
194,4.0,26.5
195,3.0,72.0
196,3.0,49.0
197,2.0,21.0
198,10.0,18.5
199,4.0,21.0
200,1.0,143.0
201,4.0,22.0
202,3.0,110.0
203,2.0,99.0
204,1.0,62.0
205,8.0,46.0
206,3.0,39.0
207,6.0,19.5
208,5.0,115.0
209,7.0,91.0
210,7.0,69.0
211,4.0,117.5
212,1.0,36.0
213,3.0,20.0
214,8.0,90.5
215,3.0,68.0
216,8.0,46.5
217,7.0,20.0
218,5.0,70.0
219,5.0,45.0
220,2.0,17.0
221,5.0,77.0
222,5.0,92.0
223,2.0,46.5
224,4.0,25.0
225,8.0,90.5
226,7.0,69.0
227,3.0,41.0
228,2.0,26.0
229,10.0,51.5
230,3.0,25.0
231,4.0,22.5
232,7.0,20.0
233,4.0,70.0
234,46.0,141.0
235,17.0,122.0
236,8.0,97.0
237,17.0,72.0
238,11.0,48.0
239,11.0,24.0
240,3.0,113.0
241,5.0,88.0
242,5.0,61.0
243,21.0,35.0
244,2.0,46.0
245,41.0,20.0
246,11.0,142.0
247,6.0,118.5
248,3.0,88.0
249,1.0,73.0
250,6.0,42.0
251,4.0,69.0
252,9.0,38.0
253,7.0,6.0
254,6.0,114.5
255,5.0,18.0
256,11.0,92.0
257,6.0,65.5
258,4.0,42.5
259,4.0,113.0
260,11.0,94.0
261,12.0,70.0
262,11.0,47.0
263,6.0,24.0
264,2.0,69.0
265,5.0,44.0
266,11.0,63.0
267,8.0,49.0
268,2.0,22.5
269,13.0,24.0
270,4.0,43.5
271,5.0,21.0
272,8.0,90.5
273,6.0,7.0
274,2.0,5.0
275,6.0,189.0
276,11.0,22.0
277,7.0,139.0
278,4.0,27.5
279,7.0,115.0
280,9.0,93.0
281,7.0,71.0
282,5.0,48.0
283,3.0,67.0
284,7.0,44.0
285,12.0,18.0
286,9.0,111.0
287,9.0,89.0
288,12.0,67.5
289,5.0,92.0
290,2.0,37.0
291,1.0,21.0
292,5.0,21.0
293,8.0,47.0
294,5.0,25.0
295,7.0,93.0
296,3.0,65.0
297,1.0,38.0
298,0.0,0.0
299,7.0,21.0
300,7.0,69.0
301,7.0,19.0
302,3.0,25.0
303,4.0,24.0
304,6.0,65.0
305,5.0,47.0
306,4.0,116.0
307,6.0,125.5
308,6.0,137.5
309,6.0,117.0
310,4.0,95.0
311,5.0,47.0
312,10.0,70.0
313,1.0,41.0
314,4.0,34.5
315,6.0,18.5
316,7.0,11.0
317,8.0,7.5
318,5.0,128.0
319,6.0,106.0
320,4.0,80.5
321,4.0,58.5
322,6.0,91.0
323,1.0,144.0
324,3.0,129.0
325,6.0,103.0
326,9.0,94.0
327,7.0,65.0
328,3.0,45.0
329,4.0,15.5
330,8.0,162.0
331,6.0,139.5
332,2.0,113.0
333,2.0,68.5
334,5.0,93.0
335,6.0,68.0
336,2.0,44.0
337,2.0,86.0
338,7.0,67.0
339,6.0,40.0
340,4.0,22.5
341,7.0,90.0
342,3.0,63.0
343,3.0,44.0
344,4.0,40.5
345,5.0,185.0
346,6.0,163.5
347,6.0,136.5
348,8.0,114.0
349,9.0,89.0
350,3.0,68.0
351,3.0,35.0
352,3.0,28.0
353,8.0,9.5
354,3.0,12.0
355,5.0,20.0
356,5.0,10.0
357,9.0,9.0
358,3.0,55.0
359,5.0,30.0
360,3.0,10.0
361,3.0,12.0
362,8.0,31.0
363,8.0,11.5
364,6.0,9.0
365,4.0,56.5
366,3.0,10.0
367,2.0,36.0
368,5.0,10.0
369,10.0,131.0
370,5.0,166.0
371,9.0,147.0
372,5.0,119.0
373,3.0,95.0
374,3.0,75.0
375,2.0,40.5
376,8.0,27.5
377,12.0,41.0
378,7.0,73.0
379,10.0,42.5
380,4.0,15.5
381,4.0,88.5
382,5.0,69.0
383,3.0,38.0
384,9.0,67.0
385,26.0,43.0
386,6.0,21.5
387,36.0,190.0
388,3.0,173.0
389,4.0,40.0
390,10.0,146.0
391,3.0,122.0
392,3.0,93.0
393,31.0,71.0
394,8.0,49.0
395,5.0,20.0
396,1.0,104.0
397,3.0,65.0
398,3.0,46.0
399,3.0,19.0
400,4.0,19.5
401,24.0,71.0
402,4.0,45.0
403,19.0,22.0
404,2.0,94.0
405,6.0,67.0
406,3.0,40.0
407,3.0,48.0
408,26.0,22.0
409,6.0,138.5
410,2.0,110.5
411,8.0,17.0
412,1.0,90.0
413,4.0,68.0
414,4.0,41.0
415,4.0,89.5
416,5.0,68.0
417,68.0,41.5
418,35.0,25.0
419,4.0,97.0
420,4.0,69.0
421,5.0,41.0
422,5.0,137.0
423,8.0,66.5
424,8.0,44.0
425,4.0,23.5
426,5.0,113.0
427,2.0,88.0
428,2.0,62.0
429,1.0,48.0
430,4.0,20.5
431,6.0,93.5
432,32.0,72.0
433,5.0,114.0
434,6.0,49.0
435,6.0,21.5
436,5.0,26.0
437,6.0,8.5
438,4.0,8.5
439,8.0,12.0
440,4.0,8.5
441,7.0,24.0
442,4.0,24.0
443,4.0,24.0
444,4.0,93.5
445,8.0,24.0
446,6.0,24.0
447,8.0,24.0
448,8.0,24.0
449,6.0,170.0
450,3.0,148.0
451,4.0,114.0
452,9.0,97.0
453,6.0,70.5
454,12.0,48.5
455,6.0,66.0
456,10.0,22.0
457,9.0,138.0
458,9.0,110.0
459,6.0,90.0
460,7.0,65.0
461,5.0,46.0
462,8.0,19.0
463,12.0,47.5
464,13.0,23.0
465,4.0,24.0
466,7.0,44.0
467,10.0,93.0
468,24.0,65.5
469,9.0,39.0
470,25.0,17.0
471,27.0,41.0
472,28.0,18.5
473,54.0,24.0
474,48.0,90.0
475,19.0,72.0
476,24.0,44.0
477,6.0,23.5
478,48.0,18.0
479,28.0,23.0
480,48.0,24.0
481,67.0,24.0
482,60.0,24.0
483,29.0,48.0
484,34.0,48.0
485,31.0,24.0
486,33.0,28.0
487,43.0,39.0
488,2.0,14.5
489,15.0,185.0
490,26.0,21.5
491,24.0,78.0
492,29.0,51.0
493,32.0,27.0
494,86.0,24.0
495,73.0,24.0
496,49.0,24.0
497,59.0,24.0
498,24.0,24.0
499,19.0,24.0
500,3.0,161.0
501,19.0,24.0
502,22.0,24.0
503,32.0,24.0
504,40.0,24.0
505,28.0,24.0
506,19.0,24.0
507,7.0,24.0
508,20.0,24.0
509,30.0,24.0
510,43.0,24.0
511,7.0,138.0
512,26.0,24.0
513,23.0,24.0
514,18.0,24.0
515,21.0,24.0
516,13.0,24.0
517,28.0,24.0
518,16.0,24.0
519,22.0,24.0
520,34.0,24.0
521,22.0,24.0
522,1.0,114.0
523,21.0,24.0
524,32.0,24.0
525,32.0,24.0
526,29.0,24.0
527,38.0,24.0
528,74.0,24.0
529,67.0,24.0
530,32.0,24.0
531,26.0,24.0
532,64.0,24.0
533,3.0,92.0
534,38.0,24.0
535,64.0,24.0
536,14.0,24.0
537,14.0,24.0
538,81.0,24.0
539,80.0,24.0
540,70.0,24.0
541,91.0,24.0
542,71.0,24.0
543,95.0,24.0
544,2.0,64.0
545,53.0,24.0
546,44.0,24.0
547,33.0,24.0
548,97.0,24.0
549,75.0,24.0
550,14.0,24.0
551,14.0,24.0
552,96.0,24.0
553,70.0,24.0
554,88.0,24.0
555,2.0,48.5
556,112.0,24.0
557,65.0,24.0
558,66.0,24.0
559,62.0,24.0
560,67.0,24.0
561,42.0,24.0
562,43.0,24.0
563,59.0,24.0
564,61.0,24.0
565,63.0,24.0
566,3.0,167.0
567,42.0,24.0
568,31.0,24.0
569,20.0,24.0
570,23.0,24.0
571,54.0,24.0
572,39.0,24.0
573,47.0,24.0
574,59.0,24.0
575,35.0,24.0
576,18.0,24.0
577,9.0,140.0
578,24.0,24.0
579,45.0,24.0
580,38.0,24.0
581,35.0,24.0
582,59.0,24.0
583,45.0,24.0
584,19.0,24.0
585,34.0,24.0
586,34.0,24.0
587,76.0,24.0
588,2.0,114.5
589,41.0,24.0
590,48.0,24.0
591,44.0,24.0
592,19.0,24.0
593,15.0,24.0
594,41.0,24.0
595,31.0,24.0
596,22.0,24.0
597,39.0,24.0
598,32.0,24.0
599,2.0,163.5
600,7.0,90.0
601,17.0,24.0
602,20.0,24.0
603,21.0,24.0
604,44.0,24.0
605,51.0,24.0
606,26.0,24.0
607,21.0,24.0
608,19.0,24.0
609,13.0,24.0
610,23.0,24.0
611,7.0,70.0
612,31.0,24.0
613,23.0,24.0
614,31.0,24.0
615,11.0,24.0
616,11.0,24.0
617,5.0,24.0
618,12.0,24.0
619,24.0,24.0
620,36.0,24.0
621,42.0,24.0
622,2.0,88.5
623,21.0,24.0
624,17.0,24.0
625,15.0,24.0
626,19.0,24.0
627,33.0,24.0
628,18.0,24.0
629,17.0,24.0
630,14.0,24.0
631,10.0,24.0
632,11.0,24.0
633,4.0,21.5
634,26.0,24.0
635,30.0,24.0
636,25.0,24.0
637,19.0,24.0
638,15.0,24.0
639,12.0,24.0
640,7.0,24.0
641,39.0,24.0
642,13.0,24.0
643,32.0,24.0
644,4.0,84.5
645,29.0,24.0
646,24.0,24.0
647,20.0,24.0
648,19.0,24.0
649,23.0,24.0
650,45.0,24.0
651,28.0,24.0
652,36.0,24.0
653,26.0,24.0
654,11.0,24.0
655,3.0,69.0
656,7.0,24.0
657,8.0,24.0
658,29.0,24.0
659,32.0,24.0
660,19.0,24.0
661,15.0,24.0
662,6.0,24.0
663,12.0,24.0
664,27.0,24.0
665,28.0,24.0
666,2.0,44.0
667,14.0,24.0
668,64.0,24.0
669,39.0,24.0
670,16.0,24.0
671,14.0,24.0
672,32.0,24.0
673,44.0,24.0
674,42.0,24.0
675,26.0,24.0
676,27.0,24.0
677,6.0,13.0
678,7.0,24.0
679,10.0,24.0
680,23.0,24.0
681,27.0,24.0
682,30.0,24.0
683,21.0,24.0
684,21.0,24.0
685,14.0,24.0
686,70.0,24.0
687,47.0,24.0
688,6.0,71.5
689,44.0,24.0
690,29.0,24.0
691,23.0,24.0
692,17.0,24.0
693,14.0,24.0
694,10.0,24.0
695,20.0,24.0
696,30.0,24.0
697,28.0,24.0
698,30.0,24.0
699,4.0,40.5
700,45.0,24.0
701,24.0,24.0
702,10.0,24.0
703,29.0,24.0
704,30.0,24.0
705,27.0,24.0
706,22.0,24.0
707,30.0,24.0
708,8.0,24.0
709,6.0,24.0
710,6.0,139.5
711,6.0,15.5
712,23.0,24.0
713,26.0,24.0
714,20.0,24.0
715,14.0,24.0
716,12.0,24.0
717,13.0,24.0
718,9.0,24.0
719,27.0,24.0
720,22.0,24.0
721,40.0,24.0
722,5.0,74.0
723,33.0,24.0
724,20.0,24.0
725,15.0,24.0
726,11.0,24.0
727,10.0,24.0
728,20.0,24.0
729,45.0,24.0
730,21.0,24.0
731,15.0,24.0
732,8.0,24.0
733,9.0,52.0
734,9.0,24.0
735,30.0,24.0
736,14.0,24.0
737,37.0,24.0
738,26.0,24.0
739,15.0,24.0
740,8.0,24.0
741,14.0,24.0
742,25.0,24.0
743,23.0,24.0
744,1.0,27.0
745,32.0,24.0
746,34.0,24.0
747,16.0,24.0
748,12.0,24.0
749,17.0,24.0
750,27.0,24.0
751,13.0,24.0
752,26.0,24.0
753,22.0,24.0
754,18.0,24.0
755,2.0,86.5
756,7.0,24.0
757,4.0,24.0
758,16.0,24.0
759,18.0,24.0
760,20.0,24.0
761,14.0,24.0
762,10.0,24.0
763,7.0,24.0
764,11.0,24.0
765,20.0,24.0
766,4.0,69.5
767,18.0,24.0
768,20.0,24.0
769,13.0,24.0
770,15.0,24.0
771,6.0,24.0
772,8.0,24.0
773,14.0,24.0
774,21.0,24.0
775,14.0,24.0
776,14.0,24.0
777,4.0,35.5
778,22.0,24.0
779,6.0,24.0
780,9.0,24.0
781,21.0,24.0
782,25.0,24.0
783,15.0,24.0
784,20.0,24.0
785,13.0,24.0
786,12.0,24.0
787,12.0,24.0
788,3.0,98.0
789,14.0,24.0
790,20.0,24.0
791,13.0,24.0
792,12.0,24.0
793,15.0,24.0
794,10.0,24.0
795,8.0,24.0
796,22.0,24.0
797,15.0,24.0
798,9.0,24.0
799,4.0,72.5
800,18.0,24.0
801,18.0,24.0
802,8.0,24.0
803,15.0,24.0
804,32.0,24.0
805,28.0,24.0
806,12.0,24.0
807,33.0,24.0
808,18.0,24.0
809,3.0,24.0
810,9.0,46.0
811,14.0,24.0
812,25.0,24.0
813,13.0,24.0
814,8.0,24.0
815,3.0,24.0
816,12.0,24.0
817,6.0,24.0
818,12.0,24.0
819,11.0,24.0
820,24.0,24.0
821,5.0,117.0
822,5.0,29.0
823,11.0,24.0
824,14.0,24.0
825,12.0,24.0
826,6.0,24.0
827,4.0,24.0
828,17.0,24.0
829,15.0,24.0
830,17.0,24.0
831,15.0,24.0
832,21.0,24.0
833,3.0,55.0
834,6.0,24.0
835,7.0,24.0
836,12.0,24.0
837,11.0,24.0
838,21.0,24.0
839,13.0,24.0
840,13.0,24.0
841,7.0,24.0
842,11.0,24.0
843,15.0,24.0
844,3.0,37.0
845,13.0,24.0
846,26.0,24.0
847,18.0,24.0
848,6.0,24.0
849,7.0,24.0
850,5.0,24.0
851,5.0,24.0
852,13.0,24.0
853,13.0,24.0
854,16.0,24.0
855,8.0,9.5
856,10.0,24.0
857,11.0,24.0
858,2.0,24.0
859,13.0,24.0
860,31.0,24.0
861,23.0,24.0
862,21.0,24.0
863,33.0,24.0
864,7.0,24.0
865,14.0,24.0
866,0.0,0.0
867,51.0,24.0
868,31.0,24.0
869,33.0,24.0
870,21.0,24.0
871,24.0,24.0
872,18.0,24.0
873,14.0,24.0
874,15.0,24.0
875,33.0,24.0
876,29.0,24.0
877,6.0,163.0
878,36.0,24.0
879,13.0,24.0
880,6.0,24.0
881,16.0,24.0
882,27.0,24.0
883,29.0,24.0
884,35.0,24.0
885,34.0,24.0
886,26.0,24.0
887,18.0,24.0
888,11.0,140.0
889,18.0,24.0
890,30.0,24.0
891,23.0,24.0
892,56.0,24.0
893,75.0,24.0
894,71.0,24.0
895,83.0,24.0
896,63.0,24.0
897,73.0,24.0
898,80.0,24.0
899,2.0,112.5
900,99.0,24.0
901,68.0,24.0
902,104.0,24.0
903,51.0,24.0
904,23.0,24.0
905,74.0,24.0
906,34.0,24.0
907,67.0,24.0
908,44.0,24.0
909,48.0,24.0
910,6.0,88.5
911,17.0,24.0
912,11.0,24.0
913,19.0,24.0
914,22.0,24.0
915,32.0,24.0
916,39.0,24.0
917,27.0,24.0
918,10.0,24.0
919,17.0,24.0
920,41.0,24.0
921,5.0,71.0
922,34.0,24.0
923,35.0,24.0
924,73.0,24.0
925,49.0,24.0
926,19.0,24.0
927,24.0,24.0
928,23.0,24.0
929,34.0,24.0
930,23.0,24.0
931,28.0,24.0
932,4.0,90.5
933,8.0,44.5
934,28.0,24.0
935,18.0,24.0
936,13.0,24.0
937,20.0,24.0
938,25.0,24.0
939,78.0,24.0
940,26.0,24.0
941,41.0,24.0
942,20.0,24.0
943,14.0,24.0
944,2.0,17.0
945,33.0,24.0
946,28.0,24.0
947,38.0,24.0
948,23.0,24.0
949,14.0,24.0
950,11.0,24.0
951,14.0,24.0
952,32.0,24.0
953,37.0,24.0
954,39.0,24.0
955,11.0,161.0
956,48.0,24.0
957,16.0,24.0
958,23.0,24.0
959,11.0,24.0
960,28.0,24.0
961,25.0,24.0
962,23.0,24.0
963,25.0,24.0
964,15.0,24.0
965,9.0,24.0
966,20.0,141.0
967,14.0,24.0
968,16.0,24.0
969,17.0,24.0
970,26.0,24.0
971,25.0,24.0
972,15.0,24.0
973,8.0,24.0
974,16.0,24.0
975,28.0,24.0
976,47.0,24.0
977,17.0,115.0
978,30.0,24.0
979,46.0,24.0
980,27.0,24.0
981,17.0,24.0
982,12.0,24.0
983,32.0,24.0
984,19.0,24.0
985,28.0,24.0
986,29.0,24.0
987,17.0,24.0
988,8.0,90.0
989,25.0,24.0
990,27.0,24.0
991,27.0,24.0
992,33.0,24.0
993,26.0,24.0
994,33.0,24.0
995,66.0,24.0
996,11.0,24.0
997,15.0,24.0
998,26.0,24.0
999,7.0,69.0
1000,27.0,24.0
1001,29.0,24.0
1002,34.0,24.0
1003,21.0,24.0
1004,20.0,24.0
1005,9.0,24.0
1006,18.0,24.0
1007,25.0,24.0
1008,25.0,24.0
1009,19.0,24.0
1010,9.0,45.0
1011,18.0,24.0
1012,15.0,24.0
1013,14.0,24.0
1014,21.0,24.0
1015,23.0,24.0
1016,19.0,24.0
1017,14.0,24.0
1018,5.0,24.0
1019,6.0,24.0
1020,10.0,24.0
1021,7.0,12.0
1022,15.0,24.0
1023,23.0,24.0
1024,36.0,24.0
1025,48.0,24.0
1026,19.0,24.0
1027,7.0,24.0
1028,18.0,24.0
1029,26.0,24.0
1030,41.0,24.0
1031,22.0,24.0
1032,12.0,165.5
1033,20.0,24.0
1034,20.0,24.0
1035,11.0,24.0
1036,6.0,24.0
1037,33.0,24.0
1038,22.0,24.0
1039,32.0,24.0
1040,21.0,24.0
1041,11.0,24.0
1042,10.0,24.0
1043,5.0,63.0
1044,9.0,145.0
1045,11.0,24.0
1046,27.0,24.0
1047,23.0,24.0
1048,15.0,24.0
1049,15.0,24.0
1050,10.0,24.0
1051,5.0,24.0
1052,14.0,24.0
1053,17.0,24.0
1054,18.0,24.0
1055,6.0,117.5
1056,18.0,24.0
1057,14.0,24.0
1058,10.0,24.0
1059,12.0,24.0
1060,9.0,24.0
1061,14.0,24.0
1062,4.0,24.0
1063,12.0,24.0
1064,16.0,24.0
1065,16.0,24.0
1066,3.0,97.0
1067,14.0,24.0
1068,10.0,24.0
1069,13.0,24.0
1070,17.0,24.0
1071,24.0,24.0
1072,19.0,24.0
1073,20.0,24.0
1074,7.0,24.0
1075,9.0,24.0
1076,26.0,24.0
1077,6.0,70.0
1078,17.0,24.0
1079,20.0,24.0
1080,19.0,24.0
1081,18.0,24.0
1082,10.0,24.0
1083,10.0,24.0
1084,16.0,24.0
1085,22.0,24.0
1086,32.0,24.0
1087,29.0,24.0
1088,1.0,43.0
1089,15.0,24.0
1090,12.0,24.0
1091,15.0,24.0
1092,22.0,24.0
1093,24.0,24.0
1094,16.0,24.0
1095,16.0,24.0
1096,21.0,24.0
1097,10.0,24.0
1098,9.0,24.0
1099,3.0,26.0
1100,17.0,24.0
1101,17.0,24.0
1102,11.0,24.0
1103,13.0,24.0
1104,16.0,24.0
1105,8.0,24.0
1106,7.0,24.0
1107,17.0,24.0
1108,13.0,24.0
1109,12.0,24.0
1110,4.0,34.5
1111,17.0,24.0
1112,15.0,24.0
1113,10.0,24.0
1114,12.0,24.0
1115,39.0,24.0
1116,33.0,24.0
1117,20.0,24.0
1118,21.0,24.0
1119,17.0,24.0
1120,8.0,24.0
1121,4.0,11.0
1122,8.0,24.0
1123,18.0,24.0
1124,16.0,24.0
1125,15.0,24.0
1126,16.0,24.0
1127,13.0,24.0
1128,7.0,24.0
1129,4.0,24.0
1130,10.0,24.0
1131,32.0,24.0
1132,9.0,33.0
1133,17.0,24.0
1134,16.0,24.0
1135,13.0,24.0
1136,7.0,24.0
1137,18.0,24.0
1138,18.0,24.0
1139,19.0,24.0
1140,22.0,24.0
1141,23.0,24.0
1142,21.0,24.0
1143,3.0,9.0
1144,5.0,24.0
1145,12.0,24.0
1146,13.0,24.0
1147,27.0,24.0
1148,17.0,24.0
1149,11.0,24.0
1150,16.0,24.0
1151,14.0,24.0
1152,7.0,24.0
1153,25.0,24.0
