,Demand,Response_Time
0,40,1.0
1,22,1.0
2,91,2.0
3,146,3.0
4,148,2.0
5,174,1.0
6,268,2.0
7,393,2.0
8,406,1.0
9,203,1.0
10,181,1.0
11,200,1.0
12,162,2.0
13,172,1.0
14,277,2.0
15,457,2.0
16,337,2.0
17,97,2.0
18,197,2.0
19,142,2.0
20,158,1.0
21,239,1.0
22,421,2.0
23,415,2.0
24,166,2.0
25,106,2.0
26,93,1.0
27,118,2.0
28,190,2.0
29,302,2.0
30,470,1.0
31,436,2.0
32,189,1.0
33,90,1.0
34,163,2.0
35,86,1.0
36,79,1.0
37,195,2.0
38,358,1.0
39,213,2.0
40,87,1.0
41,99,1.0
42,117,1.0
43,161,1.0
44,184,1.0
45,209,1.0
46,84,2.0
47,195,1.0
48,86,1.0
49,60,2.0
50,75,1.0
51,90,1.0
52,57,2.0
53,103,2.0
54,117,1.0
55,75,1.0
56,75,1.0
57,127,1.0
58,56,1.0
59,72,1.0
60,74,2.0
61,95,2.0
62,104,1.0
63,43,1.0
64,66,1.0
65,70,1.0
66,60,1.0
67,74,1.0
68,99,2.0
69,135,1.0
70,124,1.0
71,52,1.0
72,70,2.0
73,71,2.0
74,67,1.0
75,96,1.0
76,176,2.0
77,120,2.0
78,61,1.0
79,243,2.0
80,70,3.0
81,60,2.5
82,65,1.0
83,70,1.0
84,69,1.0
85,60,1.0
86,68,2.0
87,52,1.0
88,42,1.0
89,48,1.0
90,374,1.0
91,37,1.0
92,48,1.0
93,77,1.0
94,71,2.0
95,71,1.0
96,44,3.0
97,79,1.0
98,73,2.0
99,70,1.0
100,54,1.0
101,198,1.5
102,46,1.0
103,17,2.0
104,20,0.0
105,16,1.0
106,34,2.0
107,37,1.0
108,32,2.0
109,54,2.0
110,12,1.0
111,30,1.0
112,39,1.0
113,47,1.0
114,16,1.5
115,9,2.0
116,13,2.0
117,17,2.0
118,16,1.0
119,30,1.0
120,33,2.0
121,66,1.0
122,53,2.0
123,73,2.0
124,100,2.0
125,40,2.0
126,42,1.5
127,37,1.0
128,23,1.0
129,37,1.0
130,48,1.0
131,123,1.0
132,126,1.0
133,60,1.0
134,58,1.0
135,67,2.0
136,40,1.0
137,37,2.0
138,57,2.0
139,142,1.0
140,102,2.0
141,81,1.0
142,87,1.0
143,42,1.0
144,63,1.0
145,48,2.0
146,51,2.0
147,50,1.0
148,51,1.0
149,50,1.5
150,60,2.0
151,30,2.0
152,38,2.0
153,58,1.0
154,94,1.0
155,60,1.0
156,76,1.0
157,65,2.0
158,50,1.0
159,59,2.0
160,77,1.0
161,47,1.0
162,72,1.0
163,76,2.0
164,73,1.0
165,164,1.0
166,192,1.0
167,63,2.0
168,162,1.0
169,63,2.0
170,94,1.0
171,97,1.0
172,61,1.0
173,5,1.0
174,179,1.0
175,98,1.0
176,136,1.5
177,127,2.0
178,22,2.0
179,103,2.0
180,121,2.0
181,187,1.0
182,295,1.0
183,186,2.0
184,183,2.0
185,221,1.0
186,177,2.0
187,265,1.0
188,321,1.0
189,11,1.0
190,478,1.0
191,210,2.0
192,163,2.0
193,126,1.0
194,136,1.0
195,203,2.0
196,236,1.0
197,260,2.0
198,126,2.0
199,137,2.0
200,24,1.0
201,104,2.0
202,95,1.0
203,202,2.0
204,279,2.0
205,457,2.0
206,546,2.0
207,199,1.0
208,118,2.0
209,168,2.0
210,260,2.0
211,20,0.0
212,426,2.0
213,187,2.0
214,48,1.0
215,47,1.0
216,143,1.0
217,138,2.0
218,182,2.0
219,414,2.0
220,366,2.0
221,132,2.0
222,31,2.0
223,120,1.5
224,200,2.0
225,194,1.0
226,208,2.0
227,409,2.0
228,299,1.0
229,58,1.0
230,86,2.0
231,128,3.0
232,146,1.0
233,37,1.0
234,247,2.0
235,354,2.0
236,412,2.0
237,187,2.0
238,136,2.0
239,189,2.0
240,184,2.0
241,268,2.0
242,238,2.0
243,276,1.0
244,40,2.0
245,238,1.0
246,187,2.0
247,200,2.0
248,251,2.0
249,375,2.0
250,487,1.0
251,500,1.0
252,193,2.0
253,140,3.0
254,129,2.0
255,39,1.0
256,89,2.0
257,192,2.0
258,416,2.0
259,427,1.0
260,187,2.0
261,126,2.0
262,146,2.0
263,210,2.0
264,258,2.0
265,389,2.0
266,38,1.0
267,30,1.0
268,276,2.0
269,120,2.0
270,113,2.0
271,172,3.0
272,231,2.0
273,262,2.0
274,500,1.0
275,277,1.0
276,160,2.0
277,146,2.0
278,28,1.0
279,131,3.0
280,118,2.0
281,217,2.0
282,372,2.0
283,311,2.0
284,162,2.0
285,167,2.0
286,170,3.0
287,183,2.0
288,248,2.0
289,25,1.0
290,444,2.0
291,394,2.0
292,148,2.0
293,100,2.0
294,168,1.5
295,174,2.0
296,277,2.0
297,416,2.0
298,346,2.0
299,118,2.0
300,38,2.0
301,147,2.0
302,143,2.0
303,152,2.0
304,183,2.0
305,496,2.0
306,409,2.0
307,168,2.0
308,175,1.0
309,213,1.0
310,215,2.0
311,36,1.0
312,300,2.0
313,496,2.0
314,351,2.0
315,129,2.0
316,115,2.0
317,144,2.0
318,137,3.0
319,237,2.0
320,417,2.0
321,435,2.0
322,46,0.5
323,442,2.0
324,103,2.0
325,106,3.0
326,65,2.0
327,183,2.0
328,281,2.0
329,238,1.0
330,133,3.0
331,141,2.0
332,150,2.0
333,23,1.0
334,138,2.0
335,268,1.0
336,417,2.0
337,322,1.0
338,128,3.0
339,162,2.0
340,196,2.0
341,211,2.0
342,256,2.0
343,371,2.0
344,24,0.0
345,321,2.0
346,132,2.0
347,110,2.0
348,76,2.0
349,101,1.0
350,53,1.0
351,101,2.0
352,164,1.0
353,132,1.5
354,129,2.0
355,17,1.0
356,125,1.0
357,108,1.0
358,119,2.0
359,186,2.0
360,235,2.0
361,119,2.0
362,104,2.0
363,116,2.0
364,94,2.0
365,148,2.0
366,32,1.0
367,144,2.0
368,81,2.0
369,45,2.0
370,92,2.0
371,154,2.0
372,135,2.0
373,154,2.0
374,225,1.0
375,203,2.0
376,73,2.0
377,47,2.0
378,31,2.0
379,76,2.0
380,47,2.0
381,96,1.5
382,110,2.0
383,186,1.0
384,169,1.0
385,87,2.0
386,110,2.0
387,99,2.0
388,93,2.0
389,25,1.0
390,183,2.0
391,214,2.0
392,121,1.0
393,82,3.0
394,58,0.0
395,70,2.0
396,60,2.0
397,82,2.0
398,108,3.0
399,93,1.0
400,42,1.0
401,83,1.0
402,65,2.0
403,73,2.0
404,59,1.0
405,87,2.0
406,135,1.0
407,133,2.0
408,30,2.0
409,56,1.0
410,66,2.0
411,10,0.5
412,92,2.0
413,115,2.0
414,113,2.0
415,77,2.0
416,51,2.0
417,45,1.0
418,50,1.0
419,64,2.0
420,63,2.0
421,153,2.0
422,30,2.0
423,114,2.0
424,88,1.0
425,71,1.0
426,75,1.0
427,91,2.0
428,127,1.0
429,268,1.0
430,168,2.0
431,57,3.0
432,56,1.0
433,19,2.0
434,64,2.0
435,60,2.0
436,73,3.0
437,64,2.0
438,60,1.0
439,40,1.0
440,64,2.0
441,50,1.0
442,143,1.0
443,154,3.0
444,22,3.0
445,92,2.0
446,82,2.0
447,35,1.0
448,39,1.0
449,53,2.0
450,60,1.0
451,86,2.0
452,72,1.0
453,59,1.0
454,40,2.0
455,17,1.0
456,26,1.0
457,35,2.0
458,45,2.0
459,65,2.0
460,97,2.0
461,59,1.0
462,38,1.0
463,27,1.0
464,27,1.0
465,38,2.0
466,42,1.0
467,67,1.0
468,105,2.0
469,59,2.0
470,24,2.5
471,23,2.0
472,29,2.0
473,34,1.5
474,36,1.0
475,38,2.0
476,33,1.0
477,37,1.0
478,33,1.0
479,26,2.0
480,52,1.0
481,29,2.0
482,69,1.0
483,76,1.0
484,82,2.0
485,30,3.0
486,48,2.0
487,45,2.0
488,51,2.0
489,13,1.0
490,65,1.0
491,35,2.0
492,78,2.0
493,70,1.0
494,31,2.0
495,35,1.0
496,42,1.0
497,28,3.5
498,28,1.5
499,34,1.5
500,28,0.5
501,31,1.0
502,12,2.0
503,48,2.0
504,32,1.0
505,37,1.0
506,51,1.0
507,111,2.0
508,110,2.0
509,59,2.0
510,31,3.0
511,29,1.0
512,21,1.0
513,52,1.5
514,31,2.0
515,95,2.0
516,109,2.0
517,54,2.0
518,44,2.0
519,26,2.0
520,31,1.0
521,40,1.0
522,42,0.0
523,74,1.0
524,89,2.0
525,74,1.5
526,83,2.0
527,180,2.0
528,227,2.0
529,160,2.0
530,169,2.0
531,146,2.0
532,36,2.0
533,23,1.0
534,50,2.0
535,77,3.0
536,92,2.0
537,130,2.0
538,98,2.0
539,79,2.0
540,45,2.0
541,82,1.5
542,167,1.0
543,116,2.0
544,33,2.0
545,168,2.0
546,150,2.0
547,119,1.0
548,58,3.0
549,61,2.0
550,62,2.0
551,120,2.0
552,189,2.0
553,219,2.0
554,78,1.0
555,18,1.0
556,27,2.0
557,49,1.0
558,45,3.0
559,76,1.5
560,74,1.0
561,97,1.0
562,116,1.0
563,76,1.0
564,73,2.0
565,125,2.0
566,21,1.0
567,148,1.0
568,155,2.0
569,226,1.0
570,338,1.0
571,224,1.0
572,262,1.0
573,110,2.0
574,213,2.0
575,353,1.0
576,331,2.0
577,14,0.5
578,287,1.0
579,247,1.0
580,176,1.0
581,144,1.0
582,152,2.0
583,118,2.0
584,204,1.0
585,136,2.0
586,135,1.0
587,140,0.0
588,21,1.0
589,188,0.0
590,129,0.0
591,111,1.0
592,355,2.0
593,246,1.0
594,173,1.0
595,153,1.0
596,262,2.0
597,265,2.0
598,172,2.0
599,37,3.0
600,16,1.0
601,346,1.0
602,190,1.0
603,120,1.0
604,135,2.0
605,118,1.0
606,201,2.0
607,330,2.0
608,312,2.0
609,327,2.0
610,187,2.0
611,18,1.0
612,146,2.0
613,361,1.0
614,368,2.0
615,334,2.0
616,454,2.0
617,528,2.0
618,334,2.0
619,219,2.0
620,220,2.0
621,175,2.0
622,24,1.5
623,203,2.0
624,373,2.0
625,201,2.0
626,208,2.0
627,209,2.0
628,125,2.0
629,209,1.0
630,349,2.0
631,536,2.0
632,416,1.5
633,31,1.0
634,146,2.0
635,221,1.0
636,287,1.0
637,187,2.0
638,304,2.0
639,660,2.0
640,707,2.0
641,244,2.0
642,236,2.0
643,219,2.0
644,14,2.0
645,212,2.0
646,337,2.0
647,585,2.0
648,538,2.5
649,174,3.0
650,141,2.0
651,255,1.0
652,298,2.0
653,181,2.0
654,456,1.0
655,24,2.0
656,616,2.0
657,605,1.0
658,274,1.0
659,218,2.0
660,140,2.0
661,136,3.0
662,466,3.0
663,445,1.0
664,210,3.0
665,220,2.0
666,27,1.0
667,184,2.0
668,142,2.0
669,276,2.0
670,437,2.0
671,435,2.0
672,169,3.0
673,198,2.0
674,215,3.0
675,188,2.0
676,225,2.0
677,32,3.0
678,365,2.0
679,419,2.0
680,92,3.0
681,145,2.0
682,132,3.0
683,110,2.0
684,193,2.0
685,282,2.0
686,186,2.0
687,154,2.0
688,27,1.0
689,203,1.0
690,220,1.0
691,227,2.0
692,307,2.0
693,473,2.0
694,469,2.0
695,194,2.0
696,175,2.0
697,139,2.0
698,161,3.0
699,61,1.0
700,192,2.0
701,330,2.0
702,336,2.0
703,151,3.0
704,130,2.0
705,127,2.0
706,141,2.0
707,205,3.0
708,434,2.0
709,246,2.0
710,33,0.0
711,30,1.0
712,127,2.0
713,181,2.0
714,171,2.0
715,158,3.0
716,201,2.0
717,471,2.0
718,451,2.0
719,152,2.0
720,153,2.0
721,135,2.0
722,26,0.0
723,129,2.0
724,269,2.0
725,637,3.0
726,597,2.0
727,457,1.0
728,132,2.0
729,158,2.0
730,176,2.0
731,187,2.0
732,401,2.0
733,22,1.0
734,505,2.0
735,188,2.0
736,223,1.0
737,166,2.0
738,171,1.0
739,236,2.0
740,509,2.0
741,376,2.0
742,120,2.5
743,150,2.0
744,58,1.0
745,151,2.0
746,176,2.0
747,264,2.0
748,404,2.0
749,409,2.0
750,124,2.0
751,129,1.0
752,107,2.0
753,83,1.0
754,78,2.0
755,31,2.0
756,253,2.0
757,292,1.0
758,169,2.0
759,171,1.0
760,150,1.0
761,166,2.0
762,248,2.0
763,289,2.0
764,163,1.0
765,162,1.0
766,30,1.0
767,136,2.0
768,181,2.0
769,146,1.0
770,161,2.0
771,301,2.0
772,294,2.0
773,141,2.0
774,164,2.0
775,156,2.0
776,123,2.0
777,35,1.0
778,157,2.0
779,120,2.0
780,153,2.0
781,101,2.0
782,73,2.0
783,46,1.0
784,34,1.0
785,77,1.0
786,221,2.0
787,201,2.0
788,52,1.5
789,103,2.0
790,102,1.0
791,167,1.0
792,96,2.0
793,120,2.0
794,189,2.0
795,123,2.0
796,81,3.0
797,102,1.0
798,46,2.0
799,63,2.0
800,79,3.0
801,72,2.0
802,109,2.0
803,123,2.0
804,61,1.0
805,75,2.0
806,82,2.0
807,114,1.0
808,146,2.0
809,176,1.0
810,41,1.0
811,44,2.0
812,28,1.5
813,32,1.0
814,61,2.0
815,95,2.0
816,115,2.0
817,126,2.0
818,92,2.0
819,49,2.0
820,34,2.0
821,29,1.0
822,92,1.5
823,41,2.0
824,64,2.0
825,87,1.0
826,117,2.0
827,100,2.0
828,47,2.0
829,45,1.0
830,47,2.0
831,44,2.0
832,37,2.0
833,59,2.0
834,99,2.0
835,86,1.0
836,60,2.0
837,56,2.0
838,63,1.0
839,26,1.0
840,42,2.0
841,76,1.5
842,57,1.0
843,27,2.0
844,53,1.0
845,41,2.0
846,54,2.0
847,46,1.0
848,45,1.0
849,66,2.0
850,74,1.0
851,53,1.0
852,62,2.5
853,134,2.0
854,124,1.0
855,50,1.0
856,162,8.0
857,94,1.0
858,137,2.0
859,30,2.0
860,19,1.0
861,98,5.0
862,29,2.0
863,39,2.0
864,45,2.0
865,38,1.0
866,67,2.0
867,22,1.0
868,21,2.0
869,49,2.0
870,117,2.0
871,93,1.0
872,64,2.0
873,94,2.0
874,51,2.0
875,32,1.0
876,51,1.0
877,55,2.0
878,62,2.0
879,58,2.5
880,124,1.0
881,102,2.0
882,46,1.0
883,30,1.0
884,68,1.0
885,52,1.0
886,62,2.0
887,87,2.0
888,42,2.0
889,123,1.0
890,39,2.0
891,33,1.0
892,51,2.0
893,32,2.0
894,39,1.0
895,70,1.0
896,77,2.0
897,57,2.0
898,40,2.0
899,48,2.0
900,47,2.0
901,28,2.0
902,28,3.0
903,69,2.0
904,84,1.0
905,30,1.0
906,44,1.0
907,26,1.0
908,24,1.0
909,33,1.0
910,47,3.0
911,168,1.0
912,196,2.0
913,76,3.0
914,45,2.0
915,93,1.0
916,146,2.0
917,195,2.0
918,193,2.0
919,77,1.0
920,85,2.0
921,25,2.0
922,92,2.0
923,98,1.5
924,59,2.0
925,43,2.0
926,48,1.0
927,44,1.0
928,51,2.0
929,57,1.0
930,88,2.0
931,54,2.5
932,23,2.0
933,80,1.0
934,42,2.0
935,47,2.0
936,90,2.0
937,35,2.0
938,18,1.5
939,21,1.0
940,23,2.0
941,76,1.0
942,61,2.0
943,79,1.0
944,66,1.0
945,75,2.0
946,87,1.0
947,54,3.0
948,41,2.0
949,94,3.0
950,154,2.0
951,106,1.0
952,82,2.0
953,35,1.0
954,75,2.0
955,30,1.0
956,70,2.0
957,24,2.5
958,106,1.0
959,207,1.0
960,117,2.0
961,71,1.0
962,136,1.0
963,58,1.0
964,75,1.0
965,154,2.0
966,47,1.0
967,219,1.0
968,251,1.0
969,382,1.0
970,268,2.0
971,185,1.0
972,234,2.0
973,263,2.0
974,541,2.0
975,237,2.0
976,135,2.0
977,41,1.0
978,120,2.0
979,156,2.0
980,109,1.0
981,241,1.0
982,237,1.0
983,96,1.0
984,45,2.0
985,83,1.0
986,124,2.0
987,438,2.0
988,46,1.0
989,711,2.0
990,431,2.0
991,198,1.0
992,182,2.0
993,126,1.0
994,113,2.0
995,84,1.0
996,219,1.0
997,222,2.0
998,113,1.0
999,68,2.0
1000,145,1.0
1001,155,2.0
1002,154,2.0
1003,220,2.0
1004,113,2.0
1005,246,1.0
1006,183,2.0
1007,250,2.0
1008,368,2.0
1009,435,2.0
1010,67,1.0
1011,405,2.0
1012,414,2.0
1013,332,2.0
1014,77,2.0
1015,197,2.0
1016,204,2.0
1017,94,2.0
1018,287,2.0
1019,656,2.0
1020,649,2.0
1021,50,2.0
1022,312,2.0
1023,145,1.0
1024,218,2.0
1025,310,2.0
1026,375,1.0
1027,692,2.0
1028,600,1.0
1029,148,2.0
1030,98,1.0
1031,177,2.0
1032,53,1.0
1033,252,1.0
1034,393,2.0
1035,702,2.0
1036,701,2.0
1037,246,2.0
1038,171,2.0
1039,222,2.0
1040,279,2.0
1041,258,1.0
1042,443,1.0
1043,19,1.0
1044,44,1.0
1045,887,2.0
1046,193,2.0
1047,167,1.0
1048,228,1.0
1049,265,2.0
1050,247,2.0
1051,631,2.0
1052,821,2.0
1053,330,2.0
1054,257,2.0
1055,81,1.0
1056,294,2.0
1057,305,2.0
1058,380,2.0
1059,428,2.0
1060,596,2.0
1061,396,2.0
1062,910,1.0
1063,516,2.0
1064,206,2.0
1065,177,2.0
1066,117,2.0
1067,488,1.0
1068,670,1.0
1069,202,2.0
1070,175,2.0
1071,193,2.0
1072,120,2.0
1073,121,2.0
1074,554,2.0
1075,708,2.0
1076,229,2.0
1077,94,1.0
1078,79,3.0
1079,173,2.0
1080,175,2.0
1081,276,1.0
1082,399,2.0
1083,280,1.0
1084,114,2.0
1085,215,2.0
1086,303,2.0
1087,255,2.0
1088,116,1.0
1089,322,1.0
1090,597,2.0
1091,779,2.0
1092,230,2.0
1093,200,2.0
1094,147,1.0
1095,202,2.0
1096,288,2.0
1097,537,2.0
1098,637,2.0
1099,135,1.0
1100,142,1.0
1101,90,5.0
1102,302,2.0
1103,262,1.0
1104,337,2.0
1105,500,1.0
1106,659,2.0
1107,208,2.0
1108,137,2.0
1109,220,2.0
1110,113,2.0
1111,220,2.0
1112,186,2.0
1113,501,2.0
1114,575,2.0
1115,203,2.0
1116,149,2.0
1117,175,2.0
1118,253,2.0
1119,336,1.5
1120,652,2.0
1121,83,1.0
1122,638,1.0
1123,239,1.0
1124,99,1.0
1125,227,1.0
1126,266,1.0
1127,344,1.0
1128,378,1.0
1129,437,1.0
1130,712,1.0
1131,209,2.0
1132,59,1.0
1133,88,1.0
1134,177,1.0
1135,314,1.0
1136,613,1.0
1137,487,2.0
1138,223,1.0
1139,234,1.0
1140,198,2.0
1141,178,1.5
1142,306,1.0
1143,60,2.0
1144,601,2.0
1145,543,1.0
1146,179,2.0
1147,115,2.0
1148,176,2.0
1149,246,2.0
1150,385,1.0
1151,619,1.0
1152,502,2.0
1153,185,2.0
