,Demand,Response_Time
0,51,9.0
1,60,10.0
2,69,6.0
3,138,17.0
4,141,13.0
5,164,13.0
6,148,14.5
7,123,23.0
8,68,12.0
9,82,15.0
10,143,15.0
11,173,6.0
12,230,6.5
13,141,20.0
14,125,18.0
15,82,11.5
16,73,22.0
17,115,23.0
18,142,11.0
19,168,12.0
20,131,9.0
21,123,8.0
22,84,16.5
23,73,8.0
24,224,12.0
25,186,10.5
26,156,8.0
27,125,13.0
28,101,7.0
29,103,12.0
30,112,6.5
31,152,14.0
32,152,21.5
33,159,20.0
34,172,1.0
35,162,71.0
36,68,11.0
37,77,15.0
38,145,23.0
39,153,10.0
40,63,11.0
41,90,21.0
42,76,12.5
43,51,18.0
44,62,13.5
45,92,9.5
46,75,11.0
47,102,12.0
48,70,16.0
49,92,18.5
50,82,22.0
51,62,15.0
52,144,8.0
53,136,28.5
54,158,16.0
55,187,39.0
56,75,15.0
57,71,15.0
58,62,16.0
59,137,15.0
60,139,15.0
61,157,43.0
62,133,81.0
63,107,65.0
64,92,10.0
65,58,19.5
66,190,48.5
67,188,31.0
68,221,23.0
69,175,9.0
70,110,65.5
71,143,10.0
72,70,9.5
73,166,25.0
74,163,24.0
75,176,28.5
76,145,28.0
77,251,6.0
78,121,16.0
79,75,9.0
80,185,48.0
81,194,42.0
82,143,27.0
83,158,24.0
84,92,15.0
85,91,71.0
86,83,28.0
87,231,47.0
88,439,18.0
89,213,24.0
90,174,69.0
91,188,68.0
92,62,52.0
93,48,74.5
94,136,48.0
95,196,57.0
96,175,32.0
97,174,87.0
98,136,69.0
99,86,17.5
100,74,52.5
101,195,66.0
102,297,7.0
103,193,111.0
104,203,69.0
105,135,59.0
106,67,14.0
107,75,69.0
108,144,64.0
109,188,62.5
110,157,57.0
111,132,68.0
112,134,133.0
113,76,8.0
114,70,6.5
115,149,43.0
116,218,6.0
117,153,137.0
118,145,101.0
119,123,144.0
120,80,58.0
121,81,65.0
122,225,20.0
123,151,64.0
124,142,115.5
125,158,95.5
126,124,70.0
127,60,51.5
128,51,36.0
129,120,45.5
130,133,67.0
131,147,8.0
132,125,104.0
133,118,73.0
134,81,68.0
135,67,30.0
136,151,47.0
137,128,27.5
138,127,46.0
139,149,32.0
140,104,70.0
141,62,68.0
142,80,90.0
143,152,18.0
144,203,11.0
145,180,25.0
146,129,112.0
147,143,87.0
148,77,93.0
149,65,17.0
150,96,19.0
151,155,114.0
152,183,109.0
153,280,8.0
154,167,61.0
155,72,39.0
156,79,13.0
157,218,22.0
158,189,37.0
159,158,49.0
160,95,27.0
161,100,72.5
162,73,70.0
163,53,74.0
164,188,21.5
165,129,49.0
166,120,54.5
167,117,35.0
168,134,90.5
169,64,26.5
170,103,18.0
171,153,18.0
172,225,3.0
173,209,4.0
174,167,17.0
175,137,14.0
176,102,21.0
177,143,4.0
178,192,4.0
179,188,4.0
180,197,22.0
181,155,25.0
182,182,18.0
183,65,24.0
184,95,2.0
185,207,0.0
186,359,0.0
187,400,0.0
188,315,0.0
189,210,1.0
190,102,4.0
191,104,38.5
192,198,25.0
193,179,21.0
194,131,32.0
195,197,15.0
196,191,72.0
197,176,0.0
198,172,0.0
199,239,0.0
200,205,0.0
201,269,0.0
202,170,18.0
203,189,7.0
204,203,0.0
205,139,0.0
206,163,22.0
207,159,45.0
208,163,39.0
209,129,25.0
210,105,45.0
211,75,25.0
212,75,52.0
213,149,66.0
214,155,37.0
215,147,22.0
216,256,41.0
217,218,46.0
218,80,58.5
219,81,34.0
220,136,17.5
221,175,21.0
222,169,15.0
223,137,35.0
224,121,63.0
225,99,17.0
226,65,15.0
227,170,43.0
228,137,37.0
229,119,39.0
230,126,26.5
231,116,7.0
232,76,74.5
233,161,17.0
234,296,19.0
235,148,20.5
236,192,18.0
237,152,35.0
238,132,73.0
239,78,79.5
240,71,62.0
241,157,6.0
242,173,19.0
243,228,24.5
244,151,28.0
245,103,63.0
246,86,76.5
247,62,85.0
248,58,53.5
249,173,22.0
250,99,22.0
251,117,29.0
252,132,48.0
253,88,45.0
254,66,10.0
255,141,21.0
256,194,19.5
257,147,27.0
258,157,36.0
259,121,67.0
260,81,45.0
261,76,66.5
262,136,31.5
263,168,39.0
264,135,28.0
265,152,37.0
266,131,22.0
267,74,34.5
268,61,14.0
269,148,20.5
270,135,28.0
271,166,28.0
272,202,24.0
273,365,14.0
274,120,50.5
275,74,13.0
276,114,19.0
277,128,48.0
278,145,35.0
279,109,91.0
280,183,15.0
281,103,103.0
282,68,9.5
283,82,24.0
284,151,14.0
285,167,38.0
286,175,20.0
287,125,30.0
288,84,14.5
289,68,65.0
290,120,23.5
291,132,31.0
292,140,90.0
293,241,1.0
294,264,1.0
295,91,66.0
296,64,29.5
297,147,38.0
298,180,20.0
299,133,48.0
300,135,43.0
301,91,24.0
302,46,35.5
303,26,26.5
304,120,39.5
305,111,27.0
306,124,26.0
307,127,19.0
308,119,62.0
309,75,36.0
310,65,15.0
311,146,11.5
312,151,21.0
313,152,10.0
314,90,24.0
315,132,20.5
316,96,45.0
317,73,54.0
318,132,21.5
319,134,62.5
320,140,25.5
321,131,17.0
322,124,55.0
323,82,51.0
324,83,66.0
325,136,86.5
326,150,27.0
327,105,19.0
328,61,99.0
329,104,67.5
330,97,5.0
331,72,31.0
332,128,41.0
333,126,23.5
334,227,18.0
335,144,15.0
336,110,42.0
337,66,51.0
338,54,24.0
339,149,16.0
340,124,19.0
341,167,22.0
342,172,4.0
343,176,15.0
344,97,11.0
345,113,7.0
346,182,24.5
347,110,21.0
348,147,19.0
349,153,18.0
350,147,11.0
351,95,37.0
352,67,22.0
353,167,14.0
354,149,3.0
355,140,15.0
356,108,3.0
357,100,10.5
358,30,26.0
359,38,79.5
360,20,34.5
361,52,8.0
362,82,2.5
363,120,21.0
364,70,7.0
365,56,13.5
366,95,18.0
367,132,15.0
368,122,5.5
369,159,6.0
370,139,13.0
371,113,2.0
372,78,4.5
373,71,5.0
374,135,5.0
375,135,8.0
376,122,6.0
377,87,6.0
378,92,17.0
379,85,18.0
380,70,11.0
381,95,19.0
382,253,7.0
383,150,10.0
384,109,13.0
385,95,21.0
386,82,9.5
387,57,11.0
388,153,18.0
389,201,7.0
390,96,23.5
391,79,6.0
392,76,18.0
393,96,17.0
394,187,13.0
395,113,9.0
396,122,10.5
397,190,8.0
398,155,6.0
399,100,7.0
400,94,7.5
401,74,15.5
402,134,9.5
403,137,9.0
404,141,17.0
405,119,7.0
406,129,14.0
407,85,16.0
408,51,14.0
409,110,24.0
410,131,23.0
411,123,15.0
412,146,12.0
413,170,37.0
414,117,8.0
415,70,13.5
416,78,15.5
417,132,19.5
418,119,18.0
419,122,21.0
420,194,10.0
421,103,21.0
422,56,12.5
423,131,28.0
424,168,24.5
425,146,24.0
426,198,33.5
427,142,58.5
428,94,35.5
429,119,8.0
430,158,19.0
431,153,18.0
432,180,30.0
433,191,16.0
434,175,20.0
435,71,18.0
436,64,13.5
437,123,24.0
438,145,12.0
439,146,39.5
440,150,82.0
441,121,83.0
442,87,101.0
443,56,39.5
444,127,28.0
445,178,21.5
446,117,22.0
447,130,12.0
448,107,71.0
449,88,41.0
450,50,45.5
451,139,23.0
452,116,62.0
453,172,29.5
454,106,23.0
455,73,19.0
456,70,44.0
457,67,23.0
458,133,27.0
459,116,20.5
460,124,28.0
461,118,41.0
462,110,73.0
463,88,44.0
464,56,53.5
465,159,23.0
466,146,26.0
467,132,21.5
468,139,29.0
469,118,73.5
470,80,20.0
471,98,15.5
472,120,28.0
473,109,18.0
474,158,38.0
475,118,111.5
476,110,85.0
477,111,27.0
478,52,22.5
479,161,43.0
480,149,47.0
481,132,112.5
482,154,37.0
483,132,69.0
484,85,60.0
485,43,119.0
486,121,31.0
487,145,63.0
488,141,13.0
489,131,65.0
490,137,18.0
491,89,78.0
492,69,67.0
493,170,18.5
494,134,32.5
495,144,89.0
496,154,47.5
497,129,81.0
498,77,54.0
499,91,25.0
500,96,20.5
501,243,24.0
502,231,21.0
503,142,9.0
504,125,70.0
505,92,102.5
506,60,20.5
507,129,19.0
508,140,24.0
509,154,18.5
510,134,121.0
511,123,39.0
512,73,80.0
513,43,34.0
514,101,21.0
515,172,22.5
516,136,21.0
517,117,23.0
518,112,60.0
519,80,58.0
520,60,28.5
521,136,23.0
522,164,23.0
523,218,2.0
524,340,0.0
525,203,43.0
526,100,53.0
527,71,47.0
528,145,23.0
529,140,72.0
530,135,25.0
531,173,21.0
532,223,42.0
533,177,15.0
534,105,30.0
535,200,7.5
536,147,69.0
537,138,24.5
538,159,49.0
539,127,84.0
540,76,91.5
541,64,43.5
542,123,42.0
543,145,21.0
544,179,27.0
545,133,95.0
546,141,116.0
547,94,37.0
548,57,110.0
549,83,21.0
550,205,26.0
551,226,49.5
552,155,96.0
553,145,91.0
554,74,64.0
555,73,40.0
556,149,21.0
557,188,17.5
558,185,34.0
559,133,28.0
560,134,42.0
561,87,22.0
562,68,20.0
563,134,10.0
564,177,3.0
565,197,1.0
566,296,0.0
567,315,0.0
568,348,0.0
569,209,0.0
570,130,19.0
571,174,19.0
572,129,41.0
573,140,42.0
574,203,22.0
575,120,46.5
576,106,12.5
577,163,25.0
578,152,26.0
579,116,20.5
580,138,94.0
581,136,73.5
582,77,52.0
583,48,20.0
584,123,25.0
585,220,24.0
586,216,8.0
587,152,14.0
588,144,70.0
589,76,22.5
590,164,16.0
591,281,9.0
592,198,22.0
593,147,22.0
594,111,88.0
595,176,18.0
596,125,18.0
597,93,9.0
598,167,40.0
599,157,29.0
600,161,44.0
601,409,121.0
602,231,144.0
603,118,29.5
604,147,2.0
605,173,14.0
606,198,22.5
607,117,40.0
608,147,43.0
609,143,94.0
610,101,12.0
611,46,21.0
612,81,41.0
613,138,74.0
614,162,53.5
615,226,14.0
616,185,5.0
617,89,22.0
618,77,12.0
619,154,36.0
620,156,34.5
621,167,20.0
622,122,52.5
623,149,130.0
624,117,54.0
625,44,28.0
626,133,53.0
627,155,48.0
628,160,73.0
629,147,29.0
630,201,21.0
631,90,63.0
632,53,48.0
633,120,40.5
634,224,82.0
635,150,12.0
636,182,20.5
637,119,73.0
638,74,16.5
639,54,49.5
640,111,24.0
641,131,36.0
642,142,88.5
643,265,1.0
644,142,96.5
645,111,31.0
646,66,58.5
647,70,70.0
648,119,70.0
649,130,65.0
650,96,38.0
651,113,93.0
652,52,43.0
653,38,65.0
654,102,48.0
655,134,31.0
656,139,15.0
657,100,97.5
658,94,69.0
659,62,70.5
660,126,19.0
661,151,24.0
662,167,34.0
663,163,25.0
664,100,58.5
665,128,91.0
666,57,15.0
667,43,39.0
668,142,25.5
669,744,0.0
670,188,31.5
671,157,10.0
672,103,119.0
673,73,96.0
674,59,16.0
675,96,45.0
676,136,42.0
677,127,21.0
678,179,2.0
679,87,95.0
680,57,71.0
681,59,24.0
682,127,30.0
683,121,26.0
684,128,38.5
685,86,19.5
686,99,46.0
687,70,14.0
688,43,23.0
689,91,21.0
690,152,19.0
691,98,24.0
692,40,17.5
693,73,69.0
694,76,47.5
695,58,52.0
696,93,24.0
697,85,18.0
698,105,29.0
699,99,29.0
700,93,67.0
701,59,47.0
702,52,37.0
703,116,26.0
704,89,43.0
705,128,15.0
706,124,24.0
707,138,73.5
708,55,48.0
709,42,33.0
710,123,23.0
711,101,23.0
712,117,22.0
713,99,18.0
714,88,89.5
715,72,78.5
716,35,17.0
717,118,2.0
718,97,18.0
719,83,21.0
720,78,24.5
721,74,5.0
722,43,16.0
723,24,6.0
724,41,16.0
725,107,11.0
726,106,23.0
727,108,9.0
728,87,45.0
729,56,68.0
730,47,14.0
731,60,29.5
732,106,24.0
733,124,18.5
734,153,21.0
735,145,67.0
736,70,60.5
737,45,25.0
738,96,16.5
739,81,33.0
740,95,24.0
741,109,10.0
742,71,42.0
743,42,33.0
744,26,57.0
745,64,32.0
746,71,24.0
747,186,13.5
748,103,23.0
749,84,7.0
750,46,4.0
751,56,10.0
752,80,4.5
753,94,13.5
754,101,28.0
755,79,20.0
756,112,14.0
757,95,42.0
758,80,21.0
759,104,18.0
760,115,19.0
761,113,17.0
762,78,15.5
763,101,15.0
764,67,39.0
765,50,20.5
766,97,7.0
767,99,27.0
768,98,20.5
769,185,0.0
770,82,68.5
771,54,14.0
772,47,10.0
773,79,13.0
774,84,30.0
775,119,25.0
776,92,23.0
777,106,78.0
778,64,24.5
779,46,17.5
780,57,25.0
781,98,24.0
782,198,2.0
783,114,28.0
784,88,10.0
785,58,14.0
786,76,7.5
787,153,5.0
788,110,21.5
789,81,23.0
790,111,26.0
791,133,22.0
792,77,3.0
793,51,39.0
794,145,18.0
795,142,17.5
796,177,2.0
797,112,23.0
798,93,69.0
799,62,50.5
800,40,33.0
801,103,18.0
802,96,14.0
803,136,19.5
804,117,26.0
805,81,63.0
806,57,50.0
807,47,51.0
808,122,38.5
809,122,19.5
810,123,21.0
811,111,19.0
812,125,25.0
813,80,65.5
814,40,11.5
815,117,25.0
816,97,21.0
817,122,23.5
818,95,13.0
819,132,41.5
820,47,38.0
821,67,15.0
822,114,7.0
823,139,17.0
824,116,21.0
825,112,21.0
826,78,60.0
827,64,22.0
828,31,14.0
829,106,19.5
830,119,23.0
831,108,21.0
832,95,21.0
833,106,24.0
834,74,28.0
835,43,8.0
836,95,39.0
837,100,17.5
838,104,20.0
839,107,22.0
840,105,49.0
841,57,28.0
842,75,11.0
843,147,9.0
844,116,22.0
845,136,17.5
846,100,27.0
847,88,26.5
848,71,57.0
849,28,13.0
850,110,19.5
851,152,9.5
852,113,19.0
853,139,10.0
854,171,28.0
855,80,23.0
856,73,26.0
857,118,19.5
858,110,21.0
859,138,18.0
860,115,21.0
861,93,40.0
862,91,49.0
863,30,25.5
864,105,23.0
865,114,16.5
866,123,22.0
867,98,18.0
868,137,52.0
869,89,54.0
870,63,36.0
871,189,21.0
872,138,20.0
873,107,15.0
874,98,10.5
875,156,18.0
876,87,38.0
877,61,62.0
878,141,24.0
879,175,25.0
880,220,18.0
881,188,17.0
882,128,66.5
883,105,19.0
884,71,24.0
885,137,18.0
886,122,20.0
887,157,20.0
888,107,26.0
889,147,8.0
890,95,25.0
891,54,39.5
892,106,26.0
893,137,44.0
894,144,20.0
895,101,22.0
896,94,21.5
897,97,104.0
898,53,22.0
899,105,25.0
900,156,27.0
901,221,4.0
902,310,0.0
903,221,10.0
904,187,16.0
905,93,27.0
906,207,20.0
907,131,50.0
908,168,23.0
909,158,17.5
910,287,0.0
911,263,0.0
912,262,0.0
913,164,21.0
914,196,42.0
915,151,127.0
916,241,2.0
917,207,0.0
918,165,0.0
919,141,0.0
920,148,24.5
921,167,22.0
922,176,34.0
923,126,62.0
924,102,68.5
925,114,41.0
926,71,25.0
927,157,7.0
928,218,0.0
929,351,3.0
930,177,19.0
931,133,17.0
932,83,62.0
933,84,31.5
934,134,21.5
935,173,16.0
936,137,22.0
937,144,21.0
938,143,17.0
939,83,56.0
940,44,36.5
941,83,39.0
942,143,21.0
943,306,6.0
944,149,17.0
945,148,22.5
946,110,12.0
947,74,18.5
948,118,17.0
949,115,10.0
950,137,26.0
951,103,21.0
952,239,21.0
953,86,67.5
954,49,43.0
955,87,21.0
956,141,21.0
957,335,11.0
958,224,11.0
959,136,44.0
960,64,40.5
961,54,25.0
962,157,11.0
963,154,5.0
964,137,18.0
965,120,24.0
966,101,48.0
967,91,46.0
968,41,34.0
969,146,14.0
970,120,16.5
971,167,20.0
972,108,22.0
973,93,42.0
974,75,40.0
975,38,20.5
976,60,22.5
977,104,19.5
978,129,12.0
979,110,22.0
980,119,68.0
981,239,8.0
982,62,11.0
983,154,19.0
984,131,18.0
985,113,20.0
986,201,2.0
987,111,12.0
988,82,42.0
989,68,17.0
990,167,6.0
991,156,16.0
992,135,22.0
993,189,18.0
994,123,20.0
995,84,40.0
996,54,22.0
997,109,21.0
998,233,0.0
999,161,14.0
1000,128,21.5
1001,143,20.0
1002,67,14.0
1003,75,15.0
1004,134,20.0
1005,98,19.5
1006,104,22.0
1007,123,27.0
1008,129,47.0
1009,80,21.0
1010,52,40.0
1011,68,24.0
1012,102,22.0
1013,102,16.5
1014,91,18.0
1015,103,15.0
1016,51,12.0
1017,65,21.0
1018,165,11.0
1019,140,11.0
1020,125,15.0
1021,98,19.0
1022,96,41.0
1023,95,24.0
1024,49,14.0
1025,119,20.0
1026,77,19.0
1027,97,32.0
1028,126,18.5
1029,154,68.0
1030,112,51.5
1031,56,27.0
1032,119,9.0
1033,113,4.0
1034,140,7.0
1035,74,5.0
1036,99,13.0
1037,69,28.0
1038,53,25.0
1039,74,6.0
1040,97,12.0
1041,82,6.0
1042,95,5.0
1043,69,12.0
1044,97,49.0
1045,54,20.5
1046,120,20.5
1047,92,14.0
1048,87,10.0
1049,103,8.0
1050,82,17.0
1051,80,44.5
1052,80,20.0
1053,101,19.0
1054,114,14.5
1055,128,22.5
1056,70,27.0
1057,107,9.0
1058,91,16.0
1059,70,26.5
1060,104,19.0
1061,127,6.0
1062,105,19.0
1063,102,8.0
1064,99,22.0
1065,65,38.0
1066,52,26.0
1067,141,11.0
1068,99,9.0
1069,120,19.0
1070,118,14.5
1071,93,8.0
1072,87,24.0
1073,74,4.0
1074,121,20.0
1075,91,47.0
1076,107,7.0
1077,112,11.0
1078,210,1.0
1079,83,5.0
1080,54,3.5
1081,104,14.5
1082,125,10.0
1083,133,18.0
1084,123,8.0
1085,138,6.5
1086,59,11.0
1087,40,17.0
1088,107,7.0
1089,33,29.0
1090,119,15.0
1091,180,8.5
1092,137,4.0
1093,72,44.0
1094,40,24.0
1095,80,23.0
1096,77,8.0
1097,153,9.0
1098,123,10.0
1099,125,22.0
1100,173,2.0
1101,71,21.0
1102,127,15.0
1103,218,2.0
1104,123,19.0
1105,117,23.0
1106,142,8.5
1107,75,44.0
1108,63,25.0
1109,98,8.5
1110,108,14.0
1111,122,20.0
1112,121,21.0
1113,117,8.0
1114,55,80.0
1115,39,6.0
1116,86,21.5
1117,98,19.5
1118,152,22.0
1119,155,24.0
1120,140,39.5
1121,90,15.5
1122,78,14.0
1123,184,16.5
1124,279,19.0
1125,326,12.0
1126,162,25.0
1127,132,27.0
1128,91,47.0
1129,44,22.5
1130,105,24.0
1131,117,19.0
1132,108,20.0
1133,116,21.0
1134,111,12.0
1135,73,3.0
1136,51,4.0
1137,163,12.0
1138,122,19.0
1139,94,4.5
1140,131,20.0
1141,106,10.0
1142,64,26.0
1143,42,23.0
1144,80,8.5
1145,131,17.0
1146,96,25.0
1147,120,21.5
1148,109,13.0
1149,59,7.0
1150,65,23.0
1151,98,20.0
1152,103,10.0
1153,157,13.0
1154,103,18.0
1155,90,20.5
1156,69,43.0
1157,69,3.0
1158,113,22.0
1159,108,22.0
1160,91,15.0
1161,93,7.0
1162,57,13.0
1163,79,10.0
1164,60,20.0
1165,114,23.0
1166,138,19.0
1167,132,21.0
1168,86,17.0
1169,98,20.0
1170,78,42.0
1171,54,3.0
1172,74,17.5
1173,135,22.0
1174,89,21.0
1175,84,19.5
1176,81,12.0
1177,68,50.5
1178,63,22.0
1179,71,44.0
1180,107,21.0
1181,119,23.0
1182,119,23.0
1183,117,53.0
1184,67,72.0
1185,32,17.5
1186,80,22.0
1187,131,18.0
1188,104,27.0
1189,111,20.0
1190,86,62.5
1191,60,46.0
1192,60,19.0
1193,101,27.0
1194,124,26.5
1195,128,24.0
1196,83,17.0
1197,141,23.0
1198,71,39.0
1199,66,13.5
1200,121,19.0
1201,160,11.0
1202,140,23.0
1203,161,25.0
1204,116,15.5
1205,67,47.0
1206,38,13.0
1207,101,17.0
1208,94,17.5
1209,116,24.0
1210,112,20.0
1211,120,60.0
1212,68,53.5
1213,59,19.0
1214,136,21.0
1215,97,23.0
1216,101,20.0
1217,99,23.0
1218,117,57.0
1219,146,5.0
1220,71,22.0
1221,119,20.0
1222,164,22.5
1223,267,12.0
1224,278,10.0
1225,93,30.0
1226,128,13.5
1227,119,15.0
1228,152,11.5
1229,123,24.0
1230,167,17.0
1231,113,17.0
1232,109,64.0
1233,98,54.0
1234,43,17.0
1235,121,22.0
1236,124,21.0
1237,118,18.0
1238,81,8.0
1239,95,17.0
1240,62,26.5
1241,49,21.0
1242,53,21.0
1243,117,15.0
1244,123,20.0
1245,136,22.0
1246,118,10.0
1247,101,43.0
1248,97,5.0
1249,164,9.5
1250,121,22.0
1251,114,22.5
1252,99,24.0
1253,231,13.0
1254,109,39.0
1255,80,29.0
1256,183,16.0
1257,171,20.0
1258,164,26.5
1259,164,13.0
1260,140,17.0
1261,86,50.5
1262,58,26.5
1263,130,17.0
1264,127,17.0
1265,111,19.0
1266,118,23.5
1267,119,47.0
1268,77,38.0
1269,77,26.0
1270,137,20.0
1271,152,8.0
1272,136,17.0
1273,221,12.0
1274,126,45.0
1275,107,35.0
1276,64,7.0
1277,139,7.0
1278,137,7.0
1279,148,22.0
1280,83,18.0
1281,122,22.0
1282,113,17.0
1283,116,8.0
1284,134,6.0
1285,142,16.0
1286,184,21.0
1287,96,20.5
1288,87,36.0
1289,52,47.5
1290,92,12.0
1291,171,3.0
1292,219,0.0
1293,267,0.0
1294,258,0.0
1295,305,0.0
1296,215,0.0
1297,153,12.0
1298,169,10.0
1299,175,17.0
1300,146,16.0
1301,111,16.0
1302,126,18.0
1303,62,55.5
1304,63,16.0
1305,124,6.0
1306,124,12.0
1307,96,19.5
1308,68,20.0
1309,94,32.5
1310,68,51.0
1311,46,15.5
1312,107,22.0
1313,108,21.0
1314,103,23.0
1315,98,24.5
1316,79,28.0
1317,41,23.0
1318,45,26.0
1319,104,17.0
1320,123,21.0
1321,99,21.0
1322,87,20.0
1323,90,6.0
1324,70,49.0
1325,46,16.0
1326,105,22.0
1327,120,16.5
1328,93,17.0
1329,100,16.0
1330,72,13.5
1331,68,65.5
1332,48,36.5
1333,74,22.5
1334,117,41.0
1335,111,24.0
1336,117,22.0
1337,72,16.5
1338,40,64.0
1339,33,41.0
1340,69,5.0
1341,96,11.5
1342,116,21.0
1343,114,11.0
1344,69,60.0
1345,58,44.0
1346,37,24.0
1347,99,22.0
1348,131,16.0
1349,130,23.0
1350,110,6.0
1351,105,22.0
1352,118,5.0
1353,46,16.5
1354,86,26.0
1355,126,5.5
1356,90,21.5
1357,79,20.0
1358,94,48.5
1359,53,73.0
1360,59,25.0
1361,91,23.0
1362,110,22.0
1363,116,23.5
1364,104,22.0
1365,81,65.0
1366,76,51.0
1367,40,18.5
1368,88,15.5
1369,248,3.0
1370,111,22.0
1371,162,12.0
1372,71,44.0
1373,60,45.5
1374,57,15.0
1375,94,16.0
1376,102,18.0
1377,100,15.0
1378,70,18.0
1379,75,24.0
1380,69,70.0
1381,51,21.0
1382,87,21.0
1383,100,22.0
1384,94,16.0
1385,113,15.0
1386,80,21.0
1387,74,48.0
1388,39,35.0
1389,92,21.5
1390,99,22.0
1391,88,6.0
1392,72,16.5
1393,61,13.0
1394,50,29.5
1395,33,35.0
1396,83,14.0
1397,91,9.0
1398,98,16.0
1399,95,14.0
1400,94,8.5
1401,57,49.0
1402,33,18.0
1403,90,6.0
1404,63,21.0
1405,80,17.5
1406,95,26.0
1407,77,17.0
1408,60,55.5
1409,50,41.0
1410,86,20.0
1411,71,4.0
1412,96,6.0
1413,105,12.0
1414,93,17.0
1415,82,9.0
1416,44,8.0
1417,63,4.0
1418,99,20.0
1419,87,15.0
1420,97,13.0
1421,72,35.5
1422,46,87.0
1423,44,17.0
1424,90,8.0
1425,93,12.0
1426,152,2.5
1427,39,6.0
1428,47,2.0
1429,48,11.0
1430,66,12.5
1431,67,5.0
1432,107,11.0
1433,116,11.0
1434,83,12.0
1435,69,36.0
1436,64,21.5
1437,43,6.0
1438,71,14.0
1439,60,14.0
1440,70,17.0
1441,76,13.5
1442,87,17.0
1443,84,4.0
1444,143,11.0
1445,96,13.5
1446,52,11.5
1447,87,18.0
1448,100,10.5
1449,97,7.0
1450,70,37.5
1451,59,24.0
1452,78,14.5
1453,72,12.0
1454,40,16.5
1455,86,7.0
1456,69,2.0
1457,78,2.0
1458,119,3.0
1459,117,5.0
1460,84,6.5
1461,50,1.5
1462,77,4.0
1463,110,4.0
1464,76,7.0
1465,72,15.5
1466,175,14.0
1467,193,14.0
1468,224,4.0
1469,205,8.0
1470,147,6.0
1471,130,3.0
1472,94,20.5
1473,170,24.0
1474,143,15.0
1475,142,13.5
1476,127,6.0
1477,97,4.0
1478,73,53.0
1479,89,8.0
1480,116,19.0
1481,93,5.0
1482,117,2.0
1483,150,5.0
1484,117,4.0
1485,89,3.0
1486,98,18.0
1487,156,13.0
1488,186,9.0
1489,123,6.0
1490,174,3.0
1491,114,2.0
1492,177,1.0
1493,126,9.5
1494,108,3.0
1495,135,3.0
1496,145,6.0
1497,113,8.0
1498,81,10.0
1499,77,34.0
1500,77,12.0
1501,104,8.5
1502,96,11.5
1503,110,5.5
1504,116,12.0
1505,216,23.0
1506,71,16.0
1507,51,5.0
1508,82,6.0
1509,71,16.0
1510,115,17.0
1511,112,5.0
1512,105,3.0
1513,75,37.0
1514,83,11.0
1515,109,4.0
1516,123,15.0
1517,107,8.0
1518,125,18.0
1519,133,22.0
1520,92,20.0
1521,64,11.0
1522,83,6.0
1523,102,10.5
1524,235,1.0
1525,106,5.5
1526,129,7.0
1527,102,13.0
1528,51,17.0
1529,107,8.0
1530,110,20.0
1531,123,10.0
1532,98,4.0
1533,129,65.0
1534,75,51.0
1535,63,16.0
1536,109,23.0
1537,142,12.0
1538,127,10.0
1539,140,13.5
1540,105,63.0
1541,84,40.0
1542,67,25.0
1543,115,10.0
1544,95,11.0
1545,73,17.0
1546,119,13.0
1547,88,17.0
1548,103,6.0
1549,156,10.0
1550,136,21.5
1551,135,23.0
1552,121,13.0
1553,135,21.0
1554,88,13.5
1555,109,13.0
1556,62,16.5
1557,97,16.0
1558,144,25.0
1559,126,24.0
1560,130,26.5
1561,133,68.0
1562,70,44.5
1563,84,64.5
1564,131,20.0
1565,100,20.0
1566,124,12.5
1567,110,20.0
1568,113,57.0
1569,71,46.0
1570,61,21.0
1571,154,16.0
1572,106,17.0
1573,118,26.0
1574,109,20.0
1575,111,68.0
1576,76,73.5
1577,75,23.0
1578,119,27.0
1579,119,20.0
1580,350,14.0
1581,430,8.0
1582,180,31.5
1583,126,51.0
1584,76,23.0
1585,124,18.5
1586,122,22.5
1587,118,16.5
1588,151,23.0
1589,136,67.5
1590,144,43.0
1591,106,20.0
1592,161,28.0
1593,183,24.0
1594,160,22.0
1595,125,21.0
1596,196,16.0
1597,190,27.0
1598,96,23.5
1599,156,21.0
1600,175,23.0
1601,172,22.0
1602,155,26.0
1603,159,39.0
1604,106,68.0
1605,68,64.0
1606,87,24.0
1607,144,24.5
1608,139,18.0
1609,135,70.0
1610,137,66.0
1611,105,73.0
1612,89,23.0
1613,119,30.0
1614,153,16.0
1615,180,11.5
1616,180,21.5
1617,130,64.0
1618,90,51.5
1619,74,27.5
1620,212,23.0
1621,142,20.5
1622,157,26.0
1623,121,72.0
1624,195,13.0
1625,129,40.0
1626,75,46.0
1627,118,22.0
1628,142,29.5
1629,167,19.0
1630,128,33.0
1631,165,26.0
1632,171,18.0
1633,93,25.0
1634,184,10.0
1635,139,20.0
1636,196,17.5
1637,167,12.0
1638,125,71.0
1639,123,47.0
1640,79,53.0
1641,166,24.0
1642,176,37.0
1643,198,18.0
1644,175,15.0
1645,49,45.0
1646,62,45.0
1647,83,14.0
1648,200,16.5
1649,164,10.0
1650,139,15.0
1651,151,23.0
1652,154,65.0
1653,123,11.0
1654,74,15.5
1655,145,10.0
1656,288,5.0
1657,200,21.5
1658,205,15.0
1659,163,19.0
1660,111,78.0
1661,82,45.5
1662,121,27.0
1663,139,22.0
1664,139,14.0
1665,114,13.0
1666,126,18.5
1667,87,59.0
1668,88,17.0
1669,138,18.0
1670,130,21.5
1671,120,24.0
1672,121,11.0
1673,120,60.0
1674,85,44.0
1675,70,20.5
1676,94,24.0
1677,144,10.5
1678,138,22.0
1679,153,16.0
1680,113,67.0
1681,102,57.0
1682,70,25.0
1683,132,30.5
1684,115,22.0
1685,146,22.0
1686,128,21.5
1687,105,67.0
1688,101,77.0
1689,66,26.0
1690,129,20.0
1691,140,19.0
1692,141,25.0
1693,116,24.5
1694,109,10.0
1695,109,41.0
1696,77,18.0
1697,130,25.5
1698,101,18.0
1699,116,25.5
1700,127,61.0
1701,104,46.5
1702,103,21.0
1703,89,16.0
1704,120,16.0
1705,130,27.5
1706,123,23.0
1707,120,26.0
1708,111,71.0
1709,70,49.0
1710,53,29.0
1711,124,43.0
1712,125,20.0
1713,93,15.0
1714,115,23.0
1715,77,68.0
1716,79,118.0
1717,44,37.0
1718,110,49.5
1719,91,20.0
1720,124,24.0
1721,182,5.0
1722,153,72.0
1723,113,51.0
1724,67,28.0
1725,118,24.0
1726,140,25.0
1727,153,25.0
1728,88,22.5
1729,120,25.0
1730,112,43.5
1731,79,23.0
1732,134,12.5
1733,125,28.0
1734,110,25.0
1735,105,12.0
1736,103,13.0
1737,107,12.0
1738,55,50.0
1739,127,18.0
1740,140,21.0
1741,117,15.0
1742,106,13.5
1743,78,19.5
1744,66,54.5
1745,56,40.5
1746,70,20.5
1747,158,19.0
1748,100,17.0
1749,128,18.0
1750,92,56.5
1751,74,156.5
1752,59,25.0
1753,104,29.0
1754,112,19.5
1755,119,3.0
1756,107,15.0
1757,114,3.5
1758,91,47.0
1759,64,17.0
1760,106,8.0
1761,143,20.0
1762,123,3.0
1763,128,26.5
1764,97,3.0
1765,76,27.5
1766,54,37.5
1767,97,46.0
1768,100,19.0
1769,117,21.0
1770,91,18.0
1771,100,25.0
1772,98,52.0
1773,70,34.0
1774,119,39.0
1775,116,25.0
1776,93,16.0
1777,102,20.0
1778,92,22.5
1779,79,47.0
1780,77,29.0
1781,233,12.0
1782,99,7.0
1783,106,21.0
1784,125,26.0
1785,125,5.0
1786,98,21.0
1787,69,28.0
1788,125,5.0
1789,86,6.0
1790,188,1.0
1791,49,22.0
1792,84,5.5
1793,83,50.0
1794,129,15.0
1795,129,4.0
1796,115,21.0
1797,121,16.0
1798,126,24.0
1799,114,4.0
1800,115,18.0
1801,105,22.0
1802,140,22.0
1803,444,5.0
1804,129,7.0
1805,93,19.0
1806,123,13.0
1807,124,16.5
1808,93,19.0
1809,133,22.0
1810,110,20.0
1811,120,3.0
1812,142,6.5
1813,114,6.0
1814,89,7.0
1815,80,16.5
1816,110,6.0
1817,89,3.0
1818,112,3.0
1819,47,4.0
1820,87,5.0
1821,90,35.5
1822,48,7.5
1823,111,10.0
1824,104,19.5
1825,71,47.0
1826,38,4.5
1827,98,47.0
1828,95,46.0
1829,68,14.5
1830,110,11.0
1831,72,19.0
1832,106,3.0
1833,203,12.0
1834,113,3.0
1835,129,16.0
1836,100,17.0
1837,164,15.5
1838,163,14.0
1839,158,15.0
1840,139,14.0
1841,152,14.5
1842,166,7.0
1843,185,20.0
1844,139,29.0
1845,169,21.0
1846,152,7.5
1847,118,5.0
1848,133,5.0
1849,120,5.0
1850,82,13.5
1851,89,2.0
1852,91,1.0
1853,84,4.0
1854,70,4.0
1855,92,61.0
1856,87,13.0
1857,102,12.0
1858,164,7.0
1859,83,4.0
1860,115,8.0
1861,89,4.0
1862,145,2.0
1863,89,2.0
1864,76,3.0
1865,120,4.0
1866,100,6.5
1867,104,5.0
1868,90,2.5
1869,117,17.0
1870,90,24.5
1871,74,2.5
1872,479,21.0
1873,288,10.5
1874,216,3.0
1875,182,6.5
1876,250,16.5
1877,351,89.0
1878,301,20.0
1879,259,9.0
1880,233,9.0
1881,191,20.0
1882,169,5.0
1883,116,4.0
1884,98,15.5
1885,78,3.0
1886,147,16.0
1887,128,4.5
1888,234,20.0
1889,128,2.0
1890,132,5.0
1891,95,12.0
1892,146,39.5
1893,161,15.0
1894,163,21.0
1895,219,14.0
1896,198,10.5
1897,162,34.0
1898,162,11.5
1899,115,10.0
1900,182,20.0
1901,151,23.0
1902,185,15.0
1903,145,12.0
1904,138,3.5
1905,129,13.0
1906,85,35.0
1907,139,19.0
1908,160,49.0
1909,157,25.0
1910,140,15.5
1911,123,22.0
1912,113,52.0
1913,73,40.0
1914,167,24.0
1915,126,21.5
1916,123,25.0
1917,145,27.0
1918,105,71.0
1919,110,108.5
1920,75,25.0
1921,158,12.0
1922,152,18.0
1923,150,11.0
1924,142,25.0
1925,125,24.0
1926,112,71.0
1927,101,9.0
1928,185,21.0
1929,152,16.5
1930,131,23.0
1931,192,23.0
1932,127,69.0
1933,126,48.0
1934,113,42.0
1935,185,15.0
1936,166,22.0
1937,168,20.5
1938,142,8.5
1939,112,27.0
1940,117,117.0
1941,91,20.0
1942,184,22.0
1943,148,18.5
1944,131,20.0
1945,115,24.0
1946,110,65.0
1947,107,47.0
1948,78,24.5
1949,161,24.0
1950,147,12.0
1951,127,21.0
1952,144,21.0
1953,142,65.0
1954,112,162.0
1955,72,46.0
1956,165,37.0
1957,191,16.0
1958,139,23.0
1959,141,12.0
1960,148,64.0
1961,111,58.0
1962,92,25.0
1963,112,23.0
1964,117,24.0
1965,164,21.0
1966,117,21.0
1967,123,65.0
1968,102,66.0
1969,71,68.0
1970,93,28.0
1971,166,46.5
1972,124,28.0
1973,151,62.0
1974,151,44.0
1975,103,51.0
1976,282,16.0
1977,281,17.0
1978,154,14.0
1979,206,24.0
1980,190,9.0
1981,139,25.0
1982,98,46.0
1983,94,23.5
1984,152,18.0
1985,135,24.0
1986,148,40.0
1987,171,23.0
1988,146,54.0
1989,116,47.0
1990,109,27.0
1991,188,15.5
1992,171,25.0
1993,151,27.0
1994,159,72.0
1995,149,67.0
1996,105,96.0
1997,77,38.0
1998,182,21.0
1999,158,18.0
2000,164,24.5
2001,176,79.5
2002,115,59.0
2003,95,126.0
2004,118,34.5
2005,166,53.0
2006,156,141.0
2007,160,124.5
2008,138,96.0
2009,142,42.0
2010,80,40.0
2011,72,23.5
2012,193,14.0
2013,213,8.0
2014,159,15.0
2015,124,20.5
2016,126,16.0
2017,177,42.0
2018,128,23.0
2019,177,21.0
2020,146,7.0
2021,155,21.0
2022,127,16.0
2023,131,45.0
2024,107,65.0
2025,123,19.0
2026,145,15.0
2027,180,6.0
2028,153,18.0
2029,176,15.5
2030,111,71.0
2031,122,47.5
2032,91,39.0
2033,130,22.0
2034,139,28.0
2035,198,14.5
2036,245,9.0
2037,210,1.5
2038,123,4.0
2039,114,2.0
2040,176,4.0
2041,156,9.5
2042,158,45.5
2043,166,42.0
2044,113,54.0
2045,115,127.0
2046,79,136.0
2047,166,22.0
2048,196,23.5
2049,125,22.0
2050,132,23.5
2051,98,81.5
2052,93,144.0
2053,69,11.0
2054,122,13.5
2055,145,21.0
2056,151,23.0
2057,96,26.0
2058,158,25.0
2059,93,94.0
2060,68,54.5
2061,119,17.0
2062,136,20.5
2063,99,30.0
2064,96,23.5
2065,125,67.0
2066,90,47.5
2067,61,23.0
2068,120,15.5
2069,125,15.0
2070,164,8.5
2071,166,2.0
2072,148,16.5
2073,67,73.0
2074,75,15.0
2075,101,21.0
2076,161,21.0
2077,99,23.0
2078,166,41.5
2079,117,27.0
2080,97,64.0
2081,59,43.0
2082,155,17.0
2083,152,43.0
2084,121,23.0
2085,134,37.0
2086,117,59.0
2087,83,165.0
2088,75,31.0
2089,149,16.0
2090,154,26.0
2091,153,38.0
2092,111,26.0
2093,100,68.5
2094,117,147.0
2095,78,30.0
2096,138,24.5
2097,106,30.0
2098,174,15.5
2099,135,26.0
2100,159,20.0
2101,87,11.0
2102,82,5.5
2103,105,17.0
2104,140,21.5
2105,138,22.0
2106,130,13.5
2107,136,9.0
2108,100,86.0
2109,72,45.5
2110,117,38.0
2111,158,23.0
2112,129,41.0
2113,124,21.5
2114,145,66.0
2115,107,82.0
2116,65,49.0
2117,128,28.0
2118,137,20.0
2119,168,35.0
2120,144,30.0
2121,124,73.0
2122,117,123.0
2123,62,24.5
2124,141,28.0
2125,143,40.0
2126,221,17.0
2127,168,18.5
2128,191,12.0
2129,143,36.0
2130,91,23.0
2131,191,43.0
2132,145,29.0
2133,159,49.0
2134,158,34.5
2135,152,22.0
2136,112,116.0
2137,73,27.0
2138,128,29.5
2139,91,42.0
2140,117,22.0
2141,124,22.0
2142,149,3.0
2143,90,83.5
2144,89,24.0
2145,140,46.0
2146,146,22.0
2147,141,17.0
2148,148,18.0
2149,136,68.0
2150,93,153.0
2151,72,36.0
2152,119,22.0
2153,121,23.0
2154,124,48.0
2155,71,12.0
2156,100,19.5
2157,95,41.0
2158,86,14.0
2159,136,2.0
2160,123,17.0
2161,124,22.0
2162,136,5.0
2163,131,40.0
2164,109,47.0
2165,94,30.5
2166,421,17.0
2167,177,17.0
2168,157,20.0
2169,119,22.0
2170,199,1.0
2171,135,45.0
2172,93,44.0
2173,143,12.0
2174,124,40.0
2175,158,16.5
2176,156,15.0
2177,101,14.0
2178,83,39.0
2179,80,17.5
2180,109,7.0
2181,99,21.0
2182,204,14.0
2183,111,10.0
2184,44,4.0
2185,70,58.5
2186,61,22.0
2187,113,25.0
2188,88,16.5
2189,112,20.0
2190,86,95.0
2191,32,63.0
2192,90,41.5
2193,69,20.0
2194,104,20.5
2195,176,25.5
2196,183,25.0
2197,160,23.0
2198,127,30.0
2199,95,45.0
2200,147,14.0
2201,145,16.0
2202,115,24.0
2203,86,21.0
2204,154,17.0
2205,113,22.0
2206,69,73.0
2207,49,68.0
2208,96,29.0
2209,158,15.5
2210,151,26.0
2211,158,17.5
2212,126,68.5
2213,37,46.0
2214,69,17.0
2215,112,13.5
2216,118,10.0
2217,94,22.5
2218,113,24.0
2219,118,60.5
2220,78,47.0
2221,95,32.0
2222,120,21.0
2223,106,23.0
2224,162,17.0
2225,146,16.0
2226,107,6.0
2227,94,7.0
2228,89,19.0
2229,349,3.0
2230,199,4.0
2231,134,19.0
2232,112,20.0
2233,154,96.0
2234,86,154.5
2235,194,48.0
2236,230,20.5
2237,388,4.0
2238,220,10.5
2239,178,8.5
2240,218,63.5
2241,130,60.0
2242,92,20.0
2243,179,6.0
2244,156,21.5
2245,245,16.0
2246,152,19.5
2247,142,2.0
2248,120,44.5
2249,113,24.0
2250,154,16.5
2251,194,15.0
2252,187,23.0
2253,131,10.0
2254,91,9.0
2255,130,80.5
2256,89,20.0
2257,148,24.0
2258,155,21.0
2259,166,21.0
2260,142,23.0
2261,181,68.0
2262,123,72.0
2263,108,24.0
2264,185,49.0
2265,117,8.0
2266,179,24.0
2267,226,24.0
2268,197,24.0
2269,128,61.0
2270,107,34.0
2271,134,24.0
2272,188,24.0
2273,141,26.0
2274,153,24.0
2275,125,24.0
2276,124,75.5
2277,82,21.5
2278,176,24.0
2279,184,18.0
2280,245,24.0
2281,174,24.0
2282,137,24.0
2283,124,27.5
2284,96,16.0
2285,135,16.0
2286,144,13.0
2287,149,22.0
2288,167,16.0
2289,156,18.0
2290,88,24.0
2291,81,29.0
2292,146,22.5
2293,115,24.0
2294,149,24.0
2295,142,21.0
2296,136,44.0
2297,123,138.0
2298,61,29.0
2299,143,24.0
2300,152,23.0
2301,137,25.0
2302,162,24.0
2303,148,79.5
2304,117,96.0
2305,69,24.0
2306,143,26.0
2307,131,24.0
2308,143,23.0
2309,147,26.0
2310,143,19.0
2311,108,42.0
2312,67,18.0
2313,127,24.0
2314,154,22.0
2315,108,22.5
2316,135,18.0
2317,191,24.0
2318,113,100.0
2319,79,34.0
2320,158,24.0
2321,159,20.0
2322,158,23.5
2323,160,15.0
2324,118,64.0
2325,114,46.0
2326,72,17.0
2327,125,43.0
2328,126,24.0
2329,141,23.0
2330,118,28.0
2331,137,64.0
2332,110,46.5
2333,92,18.5
2334,151,26.0
2335,163,25.0
2336,150,29.5
2337,160,24.0
2338,141,24.0
2339,138,95.0
2340,94,66.0
2341,145,13.0
2342,273,9.0
2343,192,12.5
2344,181,22.0
2345,139,68.0
2346,150,45.0
2347,117,13.0
2348,174,20.5
2349,122,19.0
2350,155,13.0
2351,140,24.0
2352,120,72.0
2353,152,20.0
2354,78,15.5
2355,138,23.0
2356,153,22.0
2357,148,24.0
2358,104,18.5
2359,122,55.5
2360,126,46.5
2361,98,19.0
2362,148,24.0
2363,148,20.5
2364,140,18.5
2365,131,19.0
2366,124,24.0
2367,114,50.0
2368,110,35.0
2369,162,26.5
2370,141,24.0
2371,162,24.0
2372,175,24.0
2373,148,24.0
2374,98,113.0
2375,73,47.0
2376,85,17.0
2377,156,14.0
2378,242,10.0
2379,195,15.0
2380,167,7.0
2381,125,88.0
2382,77,24.0
2383,149,22.0
2384,163,23.0
2385,221,24.0
2386,203,20.0
2387,155,9.0
2388,124,17.0
2389,147,17.0
2390,171,9.0
2391,155,8.0
2392,148,26.0
2393,183,22.0
2394,162,7.0
2395,178,1.0
2396,128,5.0
2397,300,14.0
2398,212,5.0
2399,195,2.0
2400,229,1.0
2401,201,4.0
2402,169,24.0
2403,115,13.0
2404,240,10.0
2405,187,24.0
2406,164,23.0
2407,159,20.0
2408,159,79.0
2409,121,26.0
2410,95,14.0
2411,119,24.0
2412,173,24.0
2413,168,29.0
2414,171,21.0
2415,231,1.0
2416,205,0.0
2417,165,0.0
2418,207,1.0
2419,199,3.0
2420,186,0.0
2421,150,10.5
2422,201,20.0
2423,147,42.0
2424,86,17.0
2425,166,18.5
2426,179,25.0
2427,168,24.0
2428,133,24.0
2429,159,20.0
2430,107,72.0
2431,90,18.0
2432,172,16.5
2433,148,11.5
2434,188,17.5
2435,141,18.0
2436,138,31.0
2437,83,67.0
2438,60,25.5
2439,96,10.5
2440,124,24.0
2441,139,22.0
2442,153,19.0
2443,123,64.0
2444,135,75.0
2445,100,17.0
2446,128,24.0
2447,137,24.0
2448,181,17.0
2449,143,22.0
2450,192,27.5
2451,128,93.5
2452,86,24.0
2453,140,14.0
2454,146,11.5
2455,189,24.0
2456,159,20.0
2457,114,52.0
2458,117,81.0
2459,66,51.5
2460,121,24.0
2461,130,3.5
2462,121,41.0
2463,113,30.0
2464,84,42.0
2465,101,103.0
2466,131,27.0
2467,126,43.0
2468,138,25.0
2469,139,25.0
2470,144,23.5
2471,142,20.0
2472,77,97.0
2473,42,24.5
2474,86,46.5
2475,127,31.0
2476,123,24.0
2477,130,21.0
2478,125,14.0
2479,86,64.5
2480,59,23.0
2481,136,24.0
2482,103,23.0
2483,144,23.0
2484,170,41.0
2485,179,15.0
2486,74,49.5
2487,55,41.0
2488,121,27.0
2489,116,24.0
2490,144,44.0
2491,88,24.0
2492,108,61.5
2493,75,70.0
2494,112,22.5
2495,148,8.0
2496,157,17.0
2497,145,45.0
2498,143,30.0
2499,121,39.0
2500,110,64.5
2501,50,22.0
2502,94,12.5
2503,112,24.0
2504,85,21.0
2505,141,92.0
2506,93,69.0
2507,67,102.0
2508,63,42.0
2509,134,23.0
2510,216,16.5
2511,143,24.0
2512,113,24.0
2513,124,61.5
2514,89,103.0
2515,78,23.0
2516,89,24.0
2517,96,27.5
2518,73,45.0
2519,59,9.0
2520,104,62.5
2521,75,24.0
2522,72,14.5
2523,120,24.0
2524,214,19.0
2525,199,4.0
2526,130,17.5
2527,153,11.0
2528,125,51.0
2529,73,24.0
2530,152,17.5
2531,108,24.0
2532,124,6.5
2533,96,24.0
2534,120,7.5
2535,93,59.0
2536,75,24.0
2537,95,21.0
2538,111,6.0
2539,105,19.0
2540,98,11.5
2541,123,24.0
2542,94,52.5
2543,69,17.0
2544,114,3.0
2545,137,21.0
2546,125,4.0
2547,112,4.5
2548,94,3.5
2549,112,24.5
2550,55,36.0
2551,82,15.5
2552,112,6.0
2553,107,25.0
2554,119,24.0
2555,81,12.0
2556,71,35.0
2557,31,41.0
2558,62,8.5
2559,124,15.0
2560,109,15.0
2561,111,9.0
2562,77,9.0
2563,64,59.0
2564,65,3.0
2565,120,17.0
2566,101,19.0
2567,161,19.0
2568,175,18.0
2569,147,4.0
2570,112,24.0
2571,58,12.5
2572,177,49.0
2573,120,11.0
2574,137,12.0
2575,109,16.0
2576,128,69.5
2577,88,70.5
2578,59,29.0
2579,149,12.0
2580,169,8.0
2581,156,18.5
2582,142,28.5
2583,130,50.5
2584,115,74.0
2585,83,50.0
2586,111,21.0
2587,137,20.0
2588,112,15.5
2589,119,24.0
2590,92,60.0
2591,103,44.0
2592,65,2.0
2593,115,15.0
2594,101,14.0
2595,113,24.0
2596,79,2.0
2597,67,6.0
2598,67,69.0
2599,60,23.5
2600,90,19.5
2601,119,10.0
2602,112,21.5
2603,106,9.0
2604,120,12.5
2605,89,41.0
2606,89,24.0
2607,103,22.0
2608,116,25.0
2609,123,20.0
2610,149,24.0
2611,122,69.0
2612,117,96.0
2613,56,25.5
2614,97,25.0
2615,118,24.0
2616,136,24.0
2617,184,24.0
2618,140,34.0
2619,90,57.0
2620,84,24.0
2621,108,21.0
2622,108,11.5
2623,124,23.0
2624,115,6.0
2625,78,13.0
2626,84,40.5
2627,65,20.0
2628,76,24.0
2629,99,3.0
2630,88,24.0
2631,92,17.0
2632,80,22.0
2633,77,47.0
2634,72,23.0
2635,139,28.0
2636,200,19.0
2637,125,24.0
2638,77,20.0
2639,119,19.0
2640,72,78.0
2641,60,24.0
2642,114,17.0
2643,177,14.0
2644,122,24.0
2645,135,26.0
2646,229,10.0
2647,123,29.0
2648,81,28.0
2649,199,4.0
2650,195,5.0
2651,192,24.0
2652,259,17.0
2653,154,63.0
2654,114,55.0
2655,94,27.0
2656,201,24.0
2657,185,19.0
2658,166,24.0
2659,161,24.0
2660,140,33.0
2661,105,24.0
2662,79,11.0
2663,184,22.0
2664,188,15.0
2665,199,4.0
2666,175,24.0
2667,141,54.0
2668,155,5.0
2669,163,6.0
2670,202,2.0
2671,122,21.0
2672,199,17.0
2673,165,24.0
2674,165,87.0
2675,113,40.0
2676,109,44.0
2677,149,17.0
2678,170,24.0
2679,162,36.5
2680,190,24.0
2681,409,15.0
2682,135,39.0
2683,110,23.5
2684,192,15.0
2685,170,24.0
2686,152,24.0
2687,179,22.0
2688,137,89.0
2689,170,8.0
2690,85,24.0
2691,149,11.0
2692,133,14.0
2693,176,27.5
2694,195,17.0
2695,171,56.0
2696,138,43.0
2697,101,19.0
2698,150,8.5
2699,156,20.5
2700,171,20.0
2701,177,21.0
2702,122,2.0
2703,135,46.0
2704,391,25.0
2705,99,15.0
2706,156,16.5
2707,171,24.0
2708,161,24.0
2709,158,67.5
2710,137,46.0
2711,530,33.0
2712,186,24.5
2713,162,22.0
2714,182,19.5
2715,157,11.0
2716,175,24.0
2717,141,95.0
2718,116,15.0
2719,217,1.0
2720,221,0.0
2721,224,21.0
2722,191,21.0
2723,159,11.0
2724,164,48.0
2725,100,26.0
2726,217,10.0
2727,196,15.5
2728,173,18.0
2729,177,25.0
2730,150,47.0
2731,206,16.5
2732,114,24.0
2733,197,14.0
2734,141,24.0
2735,122,24.0
2736,146,22.0
2737,139,78.0
2738,119,96.0
2739,103,32.0
2740,106,39.5
2741,97,18.0
2742,175,10.0
2743,170,24.0
2744,271,7.0
2745,145,40.0
2746,102,19.0
2747,182,15.0
2748,161,16.0
2749,165,23.0
2750,178,14.5
2751,128,24.0
2752,108,49.0
2753,86,24.0
2754,163,18.0
2755,130,22.5
2756,188,3.5
2757,177,1.0
2758,162,0.5
2759,157,0.0
2760,106,9.5
2761,172,23.0
2762,126,23.5
2763,142,24.5
2764,145,19.0
2765,115,42.0
2766,88,51.0
2767,75,31.0
2768,128,25.5
2769,139,22.0
2770,138,17.5
2771,140,24.0
2772,146,45.0
2773,115,20.0
2774,74,27.5
2775,139,16.0
2776,110,25.5
2777,133,31.0
2778,140,13.0
2779,146,53.5
2780,87,70.0
2781,80,49.5
2782,142,10.0
2783,152,22.0
2784,97,48.0
2785,109,14.0
2786,239,6.0
2787,106,37.5
2788,66,47.0
2789,143,27.0
2790,120,23.0
2791,136,12.5
2792,122,9.5
2793,116,33.0
2794,102,109.0
2795,85,24.0
2796,133,19.0
2797,115,48.0
2798,168,27.0
2799,168,7.5
2800,115,90.0
2801,106,77.0
2802,77,50.0
2803,71,20.0
2804,113,24.0
2805,108,27.0
2806,140,18.0
2807,134,3.0
2808,199,1.0
2809,90,21.0
2810,161,23.0
2811,147,24.0
2812,117,47.0
2813,113,24.0
2814,96,50.0
2815,94,72.5
2816,87,36.0
2817,98,47.5
2818,118,23.0
2819,125,30.0
2820,108,24.0
2821,113,47.0
2822,112,49.0
2823,72,24.5
2824,95,24.0
2825,158,21.5
2826,153,21.0
2827,122,19.0
2828,137,68.0
2829,95,77.0
2830,69,24.0
2831,153,25.0
2832,107,19.0
2833,290,18.0
2834,132,95.0
2835,115,96.0
2836,112,92.5
2837,69,25.0
2838,73,27.0
2839,128,24.0
2840,127,24.0
2841,116,22.0
2842,99,63.0
2843,104,62.0
2844,40,32.0
2845,122,21.5
2846,133,18.0
2847,99,21.0
2848,121,27.0
2849,109,68.0
2850,108,72.5
2851,80,27.5
2852,145,23.0
2853,128,20.5
2854,139,26.0
2855,101,24.0
2856,113,24.0
2857,102,127.0
2858,129,15.0
2859,132,24.5
2860,102,20.0
2861,128,43.0
2862,130,25.0
2863,119,28.0
2864,103,92.0
2865,70,35.5
2866,130,27.5
2867,114,93.5
2868,124,29.0
2869,123,44.0
2870,84,24.0
2871,105,61.0
2872,72,24.0
2873,124,24.0
2874,143,24.0
2875,136,24.0
2876,127,22.0
2877,106,6.5
2878,102,18.5
2879,64,23.0
2880,119,17.0
2881,119,20.0
2882,93,69.0
2883,66,26.5
2884,68,22.0
2885,82,41.5
2886,64,24.5
2887,106,21.0
2888,108,16.5
2889,126,22.5
2890,145,19.0
2891,102,20.0
2892,96,52.5
2893,95,26.0
2894,174,24.5
2895,140,24.0
2896,120,3.0
2897,116,16.5
2898,117,5.0
2899,58,19.0
2900,65,22.0
2901,124,10.0
2902,95,8.0
2903,108,18.0
2904,97,15.0
2905,101,24.0
2906,63,24.0
2907,67,15.0
2908,134,21.5
2909,120,15.0
2910,102,10.5
2911,93,14.0
2912,146,9.0
2913,78,21.0
2914,61,5.0
2915,38,12.0
2916,100,3.0
2917,113,22.0
2918,119,12.0
2919,152,4.0
2920,73,24.0
2921,52,46.0
2922,141,17.0
2923,264,3.0
2924,228,4.0
2925,89,12.0
2926,128,2.5
2927,178,11.0
2928,252,20.0
2929,304,7.0
2930,327,3.0
2931,315,3.0
2932,248,11.0
2933,285,5.0
2934,238,50.5
2935,171,41.0
2936,245,16.0
2937,265,22.0
2938,160,8.0
2939,215,24.0
2940,215,16.0
2941,179,38.0
2942,124,13.0
2943,151,1.0
2944,156,10.0
2945,173,3.0
2946,199,14.0
2947,201,1.0
2948,109,13.0
2949,69,6.0
2950,139,5.0
2951,137,3.0
2952,153,21.0
2953,126,3.0
2954,132,3.0
2955,113,39.0
2956,89,13.0
2957,164,3.0
2958,134,7.5
2959,129,9.0
2960,122,4.5
2961,121,2.0
2962,93,17.0
2963,82,20.5
2964,121,12.0
2965,129,6.0
2966,113,3.0
2967,105,2.0
2968,67,3.0
2969,58,11.0
2970,54,2.5
2971,39,24.0
2972,94,9.5
2973,83,3.0
2974,150,1.0
2975,74,2.0
2976,65,0.0
2977,36,3.0
2978,18,0.5
2979,0,0.5
