,Demand,Response_Time
0,234,1.0
1,139,1.0
2,105,1.0
3,137,2.0
4,146,2.0
5,136,2.0
6,136,2.0
7,143,2.0
8,155,1.0
9,157,1.0
10,158,2.0
11,137,2.0
12,191,1.0
13,123,2.0
14,207,1.0
15,214,1.0
16,167,1.0
17,143,1.0
18,170,2.0
19,144,2.0
20,180,2.0
21,201,2.0
22,206,1.0
23,164,1.0
24,128,1.5
25,185,1.0
26,163,1.0
27,143,1.0
28,156,1.0
29,191,1.0
30,174,1.0
31,162,1.0
32,153,1.0
33,158,2.0
34,148,1.0
35,194,1.0
36,165,1.0
37,199,1.0
38,171,1.0
39,163,2.0
40,86,1.0
41,110,1.0
42,214,1.0
43,221,1.0
44,216,1.0
45,185,1.0
46,146,2.0
47,177,1.0
48,193,1.0
49,167,1.0
50,240,1.0
51,228,1.0
52,181,1.0
53,158,1.0
54,155,2.0
55,136,1.5
56,167,2.0
57,206,1.0
58,244,1.0
59,176,2.0
60,184,1.0
61,205,1.0
62,168,2.0
63,170,2.0
64,235,1.0
65,174,1.0
66,176,1.0
67,165,2.0
68,152,2.0
69,161,1.0
70,135,2.0
71,108,1.0
72,116,1.5
73,135,1.0
74,160,2.0
75,146,1.0
76,183,2.0
77,203,2.0
78,225,1.0
79,269,1.0
80,143,1.0
81,169,1.0
82,159,1.0
83,156,2.0
84,159,1.0
85,197,1.0
86,205,1.0
87,134,1.0
88,158,1.0
89,168,1.0
90,144,1.0
91,174,1.0
92,219,1.0
93,239,1.0
94,194,2.0
95,163,1.0
96,136,2.0
97,162,1.5
98,179,1.0
99,249,1.0
100,246,1.0
101,201,1.0
102,120,1.0
103,210,1.0
104,178,1.0
105,187,1.0
106,218,1.0
107,241,1.0
108,162,1.5
109,160,2.0
110,184,1.0
111,164,2.0
112,207,1.0
113,236,1.0
114,215,1.0
115,151,2.0
116,158,1.0
117,158,2.0
118,177,2.0
119,214,1.0
120,233,1.0
121,293,2.0
122,192,2.0
123,200,2.0
124,170,2.0
125,208,1.0
126,191,2.0
127,229,1.0
128,232,1.0
129,196,2.0
130,144,2.0
131,148,1.0
132,180,1.0
133,210,2.0
134,278,1.0
135,275,1.0
136,199,1.0
137,159,1.0
138,171,2.0
139,227,1.0
140,200,1.0
141,357,1.0
142,308,1.0
143,201,2.0
144,190,1.0
145,207,1.0
146,181,2.0
147,197,1.0
148,303,1.0
149,335,1.0
150,246,1.0
151,173,1.0
152,154,2.0
153,160,2.0
154,200,1.0
155,237,1.0
156,256,1.0
157,191,2.0
158,168,2.0
159,123,1.0
160,211,1.0
161,184,1.0
162,301,1.0
163,248,1.0
164,225,1.0
165,218,1.0
166,178,2.0
167,182,2.0
168,226,1.0
169,293,1.0
170,291,1.0
171,237,2.0
172,186,1.0
173,179,1.0
174,170,1.0
175,191,1.0
176,248,1.5
177,251,1.0
178,178,1.5
179,152,1.0
180,191,1.0
181,199,1.0
182,208,2.0
183,301,1.0
184,272,1.0
185,239,1.0
186,140,2.0
187,161,2.0
188,185,2.0
189,211,2.0
190,238,1.0
191,233,1.0
192,219,1.0
193,189,2.0
194,185,1.0
195,167,1.0
196,174,1.0
197,236,1.0
198,263,1.0
199,170,1.0
200,171,2.0
201,177,2.0
202,150,2.0
203,159,1.0
204,242,1.0
205,219,1.0
206,159,2.0
207,181,2.0
208,175,1.0
209,147,1.0
210,198,1.0
211,263,1.0
212,246,1.0
213,206,1.5
214,199,2.0
215,186,1.0
216,162,1.5
217,200,1.0
218,276,1.0
219,281,1.0
220,190,2.0
221,192,1.0
222,173,2.0
223,180,1.0
224,188,1.0
225,269,2.0
226,260,1.0
227,206,1.0
228,191,1.0
229,162,1.0
230,171,1.0
231,169,1.0
232,302,1.0
233,241,1.0
234,176,1.0
235,185,1.0
236,172,1.0
237,197,1.0
238,229,1.0
239,321,1.0
240,346,1.0
241,221,1.0
242,150,2.0
243,205,2.0
244,153,1.0
245,201,2.0
246,362,1.0
247,347,1.0
248,293,1.0
249,223,1.0
250,180,2.0
251,192,1.0
252,226,1.0
253,302,1.0
254,296,1.0
255,186,2.0
256,195,2.0
257,225,2.0
258,154,2.0
259,198,1.0
260,347,1.0
261,298,1.0
262,189,2.0
263,202,1.0
264,199,2.0
265,229,1.0
266,233,1.0
267,330,2.0
268,311,1.0
269,193,2.0
270,180,2.0
271,173,1.0
272,158,1.0
273,185,2.0
274,289,1.0
275,266,1.0
276,152,1.0
277,194,1.5
278,187,2.0
279,178,1.0
280,237,1.0
281,273,1.0
282,296,1.0
283,218,1.0
284,178,2.0
285,194,1.0
286,201,2.0
287,195,1.0
288,251,1.0
289,250,1.0
290,168,2.0
291,154,1.0
292,168,2.0
293,163,2.0
294,194,1.0
295,259,1.0
296,246,1.0
297,207,1.0
298,239,2.0
299,191,2.0
300,197,2.0
301,188,2.0
302,207,1.0
303,216,1.0
304,147,2.0
305,163,2.0
306,182,2.0
307,162,1.0
308,170,1.0
309,195,1.0
310,235,1.0
311,185,2.0
312,158,1.0
313,162,2.0
314,152,2.0
315,194,1.0
316,222,1.0
317,221,1.0
318,172,2.0
319,177,2.0
320,138,2.0
321,197,2.0
322,184,1.5
323,203,1.0
324,228,1.0
325,177,2.0
326,161,2.0
327,170,2.0
328,191,1.0
329,183,1.0
330,167,1.0
331,173,1.0
332,177,1.0
333,159,2.0
334,131,2.0
335,168,1.5
336,184,1.0
337,194,1.0
338,179,2.0
339,131,1.0
340,149,1.0
341,150,2.0
342,159,1.0
343,172,1.0
344,191,1.0
345,202,1.0
346,193,1.0
347,146,2.0
348,159,1.0
349,159,2.0
350,162,2.0
351,183,1.0
352,190,1.0
353,153,2.0
354,150,2.0
355,189,1.0
356,158,2.0
357,195,2.0
358,193,1.0
359,154,1.0
360,192,1.0
361,180,2.0
362,209,2.0
363,231,1.0
364,290,1.0
365,303,1.0
366,218,1.0
367,222,2.0
368,216,2.0
369,177,2.0
370,169,3.0
371,152,1.0
372,201,1.0
373,197,1.0
374,168,1.0
375,188,2.0
376,159,1.0
377,189,1.0
378,226,1.5
379,223,1.0
380,198,1.0
381,153,2.0
382,151,2.0
383,183,2.0
384,191,2.0
385,180,2.0
386,202,1.0
387,161,1.0
388,183,1.0
389,186,2.0
390,183,2.0
391,211,1.0
392,309,2.0
393,309,1.0
394,301,1.0
395,289,1.0
396,243,1.0
397,196,2.0
398,250,2.0
399,248,1.0
400,274,1.0
401,268,1.0
402,221,2.0
403,174,1.0
404,202,2.0
405,184,1.0
406,179,2.0
407,187,1.0
408,208,1.0
409,212,2.0
410,182,1.0
411,166,2.0
412,193,2.0
413,227,1.0
414,185,1.0
415,177,1.0
416,154,1.0
417,177,1.0
418,170,2.0
419,176,1.0
420,187,2.0
421,191,1.0
422,202,1.0
423,184,1.0
424,169,1.0
425,166,1.0
426,167,1.0
427,176,1.0
428,226,1.0
429,148,2.0
430,153,1.0
431,191,1.0
432,174,2.0
433,169,2.0
434,186,1.0
435,249,1.0
436,207,1.0
437,198,1.0
438,181,2.0
439,164,1.0
440,193,2.0
441,225,2.0
442,213,1.0
443,198,1.0
444,153,2.0
445,166,2.0
446,132,2.0
447,188,2.0
448,178,2.0
449,191,1.0
450,175,1.0
451,175,1.0
452,151,2.0
453,158,2.0
454,134,1.0
455,177,1.0
456,196,1.0
457,183,1.0
458,162,2.0
459,158,2.0
460,154,1.0
461,171,2.0
462,188,2.0
463,191,1.0
464,185,1.0
465,177,2.0
466,174,2.0
467,150,2.0
468,138,2.0
469,177,2.0
470,177,1.0
471,158,1.0
472,188,1.0
473,161,1.0
474,147,2.0
475,159,1.0
476,155,1.0
477,168,1.0
478,191,1.0
479,187,1.0
480,203,1.0
481,169,1.0
482,165,2.0
483,201,2.0
484,228,1.0
485,210,1.0
486,173,1.0
487,175,1.0
488,167,1.0
489,176,1.5
490,192,1.0
491,255,1.0
492,239,1.0
493,196,2.0
494,196,1.0
495,197,1.0
496,197,2.0
497,211,1.0
498,242,1.0
499,196,1.0
500,176,2.0
501,163,1.0
502,151,1.0
503,148,2.0
504,246,2.0
505,296,2.0
506,236,1.0
507,187,1.0
508,194,2.0
509,199,1.0
510,187,2.0
511,221,2.0
512,295,1.0
513,306,2.0
514,262,1.0
515,189,2.0
516,172,2.0
517,211,2.0
518,219,2.0
519,291,1.0
520,298,1.0
521,211,2.0
522,208,1.0
523,193,2.0
524,142,2.0
525,187,2.0
526,239,2.0
527,274,1.0
528,225,2.0
529,188,2.0
530,204,2.0
531,233,2.0
532,180,1.0
533,307,1.0
534,342,1.0
535,199,2.0
536,214,1.0
537,171,2.0
538,165,2.0
539,194,2.0
540,326,2.0
541,281,2.0
542,225,2.0
543,208,1.0
544,202,2.0
545,198,2.0
546,204,1.0
547,297,1.0
548,231,1.0
549,292,1.0
550,205,2.0
551,147,3.0
552,194,1.0
553,145,2.0
554,276,1.0
555,243,2.0
556,187,1.0
557,169,3.0
558,192,2.0
559,177,2.0
560,208,1.0
561,275,1.0
562,252,2.0
563,165,2.0
564,151,2.0
565,200,2.0
566,154,2.0
567,144,2.0
568,193,2.0
569,187,2.0
570,155,2.0
571,182,2.0
572,157,2.0
573,165,2.0
574,163,2.0
575,253,2.0
576,239,1.0
577,156,2.0
578,157,2.0
579,147,2.0
580,184,2.0
581,218,2.0
582,264,1.0
583,298,2.0
584,198,2.0
585,170,2.0
586,198,2.0
587,180,2.0
588,220,2.0
589,281,2.0
590,208,2.0
591,181,2.0
592,154,2.0
593,194,2.0
594,186,2.0
595,177,2.0
596,282,2.0
597,253,2.0
598,168,2.0
599,130,3.0
600,167,2.0
601,126,2.0
602,59,2.0
603,84,1.0
604,24,1.0
605,143,2.0
606,166,3.0
607,179,2.0
608,177,2.0
609,222,2.0
610,370,2.0
611,401,2.0
612,297,2.0
613,133,2.0
614,133,2.0
615,156,3.0
616,200,3.0
617,322,2.0
618,254,2.0
619,183,2.0
620,165,2.0
621,171,2.0
622,155,2.0
623,210,2.0
624,275,1.0
625,326,2.0
626,187,2.0
627,178,2.0
628,161,2.0
629,184,2.0
630,169,2.0
631,270,1.0
632,270,1.0
633,154,2.0
634,152,2.0
635,201,2.0
636,168,2.0
637,183,2.0
638,227,2.0
639,231,2.0
640,160,2.0
641,177,2.0
642,148,2.0
643,144,2.0
644,210,2.0
645,237,2.0
646,311,1.0
647,153,2.0
648,159,1.0
649,166,2.0
650,122,2.0
651,161,2.0
652,247,1.0
653,221,2.0
654,163,3.0
655,217,2.0
656,151,2.0
657,172,2.0
658,184,2.0
659,234,1.0
660,248,1.0
661,160,2.0
662,142,2.0
663,184,2.0
664,143,2.0
665,176,2.0
666,133,1.0
667,146,2.0
668,178,2.0
669,181,2.0
670,166,2.0
671,183,2.0
672,176,2.0
673,184,1.0
674,205,2.0
675,137,2.0
676,179,2.0
677,153,2.0
678,178,2.0
679,156,2.0
680,213,2.0
681,228,1.5
682,177,2.0
683,146,1.5
684,177,2.0
685,148,2.0
686,142,2.0
687,173,1.0
688,210,1.0
689,145,2.0
690,163,1.0
691,154,3.0
692,196,2.0
693,199,2.0
694,213,2.0
695,176,2.0
696,152,2.0
697,148,2.0
698,172,2.0
699,143,2.0
700,168,2.0
701,201,2.0
702,216,2.0
703,166,2.0
704,163,2.0
705,180,2.0
706,141,2.0
707,193,2.0
708,216,2.0
709,243,2.0
710,164,3.0
711,105,3.0
712,148,3.0
713,142,2.0
714,184,2.0
715,201,2.0
716,193,1.0
717,154,3.0
718,128,2.0
719,169,2.0
720,179,2.0
721,163,2.0
722,181,5.0
723,254,3.0
724,149,2.0
725,138,3.0
726,150,2.0
727,143,2.0
728,192,2.0
729,216,2.0
730,244,2.0
731,99,2.0
732,123,2.0
733,141,3.0
734,157,3.0
735,137,2.0
736,215,2.0
737,177,2.0
738,164,2.0
739,141,2.0
740,141,2.0
741,169,2.0
742,161,2.0
743,177,2.0
744,182,2.0
745,125,2.0
746,132,2.0
747,143,1.0
748,132,1.0
749,152,2.0
750,166,2.0
751,193,1.0
752,167,2.0
753,151,2.0
754,136,2.0
755,110,3.0
756,168,1.0
757,202,2.0
758,154,2.0
759,125,2.0
760,141,2.0
761,156,2.0
762,151,2.0
763,138,2.0
764,177,2.0
765,185,2.0
766,136,2.0
767,146,3.0
768,156,2.0
769,154,2.0
770,157,2.0
771,180,2.0
772,169,2.0
773,154,2.0
774,126,2.0
775,136,2.0
776,138,2.0
777,174,2.0
778,183,2.0
779,203,1.0
780,144,1.5
781,126,2.0
782,133,2.0
783,159,2.0
784,128,2.0
785,180,2.0
786,193,1.0
787,129,2.0
788,154,2.0
789,166,2.0
790,132,2.0
791,136,2.5
792,165,1.0
793,179,1.0
794,146,2.0
795,156,2.0
796,154,2.0
797,159,2.0
798,176,2.0
799,193,2.0
800,196,2.0
801,178,2.0
802,169,2.0
803,186,2.0
804,144,2.0
805,181,2.0
806,245,2.0
807,224,2.0
808,165,2.0
809,109,2.0
810,168,2.0
811,155,2.0
812,177,2.0
813,252,2.0
814,199,2.0
815,135,2.0
816,154,2.0
817,154,2.0
818,141,2.0
819,160,2.0
820,200,2.0
821,222,2.0
822,156,2.5
823,174,2.0
824,153,2.0
825,111,3.0
826,178,1.0
827,226,2.0
828,250,1.0
829,183,2.0
830,158,2.0
831,159,2.0
832,162,2.0
833,208,2.0
834,229,1.0
835,287,2.0
836,194,2.0
837,165,2.0
838,158,2.0
839,156,3.0
840,159,2.0
841,253,2.0
842,184,1.0
843,168,2.5
844,167,2.0
845,180,2.0
846,161,2.0
847,172,3.0
848,234,1.0
849,275,2.0
850,188,2.0
851,158,2.0
852,158,2.0
853,151,3.0
854,181,2.0
855,243,1.0
856,263,2.0
857,189,2.0
858,140,2.0
859,187,2.0
860,191,2.0
861,224,2.0
862,290,2.0
863,379,1.0
864,214,2.0
865,168,1.5
866,200,2.0
867,145,2.0
868,244,2.0
869,285,2.0
870,318,1.0
871,164,2.0
872,162,2.0
873,188,1.0
874,179,2.0
875,230,2.0
876,264,2.0
877,397,1.0
878,340,1.0
879,174,2.0
880,151,2.0
881,202,2.0
882,195,2.0
883,248,2.0
884,316,2.0
885,186,2.0
886,150,2.0
887,192,2.0
888,208,2.0
889,227,2.0
890,355,2.0
891,309,2.0
892,234,2.0
893,174,2.0
894,187,2.0
895,170,2.0
896,261,2.0
897,397,2.0
898,433,2.0
899,244,2.0
900,213,2.0
901,166,2.0
902,161,2.0
903,159,3.0
904,317,2.0
905,327,2.0
906,160,2.0
907,176,2.0
908,153,3.0
909,220,2.0
910,173,3.0
911,303,2.0
912,312,2.0
913,171,2.0
914,181,2.0
915,245,2.0
916,177,2.0
917,182,2.0
918,297,1.0
919,277,1.0
920,192,3.0
921,182,2.0
922,199,2.0
923,171,2.0
924,197,2.0
925,293,2.0
926,323,2.0
927,180,2.0
928,146,2.0
929,125,2.0
930,171,2.0
931,183,2.0
932,387,1.0
933,404,2.0
934,175,2.0
935,168,2.0
936,177,2.0
937,158,2.0
938,190,2.0
939,300,2.0
940,376,2.0
941,184,2.0
942,171,2.0
943,151,2.0
944,149,1.0
945,193,2.0
946,296,2.0
947,306,2.0
948,168,2.0
949,181,2.0
950,168,2.0
951,190,3.0
952,175,2.0
953,323,2.0
954,364,2.0
955,171,2.0
956,186,2.0
957,145,2.0
958,115,2.0
959,238,2.0
960,399,2.0
961,408,2.0
962,191,2.0
963,190,2.0
964,163,2.0
965,169,2.0
966,242,2.0
967,416,1.5
968,411,1.0
969,209,2.0
970,158,2.0
971,206,2.0
972,199,2.0
973,227,2.0
974,362,2.0
975,489,2.0
976,267,1.0
977,198,2.0
978,163,2.0
979,173,2.0
980,209,2.0
981,311,2.0
982,375,2.0
983,194,2.0
984,201,2.0
985,216,2.0
986,208,2.0
987,236,2.0
988,372,2.0
989,450,2.0
990,209,2.0
991,157,2.0
992,212,2.0
993,142,3.0
994,248,2.0
995,308,1.0
996,384,2.0
997,192,2.0
998,180,2.0
999,184,2.0
1000,192,2.0
1001,233,2.0
1002,332,1.0
1003,400,1.0
1004,187,2.0
1005,170,1.0
1006,215,2.0
1007,175,2.0
1008,235,1.0
1009,286,2.0
1010,297,1.0
1011,175,2.0
1012,120,2.0
1013,199,2.0
1014,159,2.0
1015,181,2.0
1016,237,2.0
1017,282,1.0
1018,147,2.0
1019,162,2.0
1020,209,1.0
1021,145,2.0
1022,177,2.0
1023,286,1.0
1024,233,1.0
1025,173,2.0
1026,152,2.0
1027,170,3.0
1028,170,2.0
1029,222,2.0
1030,308,2.0
1031,226,1.0
1032,49,1.0
1033,25,2.0
1034,50,2.0
1035,86,2.0
1036,111,2.0
1037,120,2.0
1038,113,2.0
1039,84,2.0
1040,121,3.0
1041,91,2.0
1042,156,2.0
1043,156,2.5
1044,178,2.0
1045,193,2.0
1046,146,2.0
1047,135,2.0
1048,155,2.0
1049,166,2.0
1050,157,2.0
1051,212,2.0
1052,206,2.0
1053,180,2.0
1054,161,2.0
1055,168,3.0
1056,201,1.0
1057,216,1.5
1058,180,1.0
1059,155,2.0
1060,172,2.0
1061,169,2.0
1062,144,2.0
1063,169,2.0
1064,179,2.0
1065,208,2.0
1066,218,2.0
1067,207,2.0
1068,175,2.0
1069,153,2.0
1070,156,2.0
1071,170,2.0
1072,202,2.0
1073,235,2.0
1074,170,2.0
1075,175,2.0
1076,179,1.0
1077,162,2.0
1078,209,2.0
1079,224,2.0
1080,216,2.0
1081,166,2.0
1082,158,2.0
1083,178,2.0
1084,170,2.0
1085,190,2.0
1086,187,1.0
1087,220,2.0
1088,213,2.0
1089,211,2.0
1090,148,2.0
1091,158,2.0
1092,173,2.0
1093,196,2.0
1094,206,2.0
1095,180,2.0
1096,209,2.0
1097,142,2.0
1098,179,2.0
1099,174,2.0
1100,191,2.0
1101,217,2.0
1102,196,2.0
1103,181,2.0
1104,181,2.0
1105,190,2.0
1106,179,2.0
1107,229,2.0
1108,233,1.0
1109,166,2.0
1110,175,2.0
1111,164,2.0
1112,182,2.0
1113,173,2.0
1114,240,2.0
1115,213,1.0
1116,159,1.0
1117,157,2.0
1118,137,2.0
1119,155,1.0
1120,172,2.0
1121,215,2.0
1122,206,2.0
1123,167,2.0
1124,164,2.0
1125,148,2.0
1126,165,3.0
1127,164,3.0
1128,217,2.0
1129,208,1.0
1130,158,2.5
1131,166,2.0
1132,158,2.0
1133,172,2.0
1134,153,1.0
1135,208,2.0
1136,251,2.0
1137,182,2.0
1138,176,2.0
1139,165,3.0
1140,173,4.0
1141,203,3.0
1142,194,1.0
1143,190,2.0
1144,173,2.0
1145,131,2.0
1146,168,3.0
1147,167,2.0
1148,176,2.0
1149,253,1.0
1150,213,1.0
1151,196,2.0
1152,158,2.0
1153,174,2.0
1154,140,2.0
1155,143,3.0
1156,198,2.0
1157,207,2.0
1158,131,2.0
1159,157,2.0
1160,172,2.0
1161,158,2.5
1162,191,2.0
1163,237,2.0
1164,237,2.0
1165,182,3.0
1166,166,2.0
1167,198,3.0
1168,136,3.0
1169,194,2.0
1170,237,2.0
1171,266,2.0
1172,191,2.0
1173,160,2.0
1174,177,2.0
1175,143,1.0
1176,199,2.0
1177,218,1.0
1178,227,1.0
1179,182,2.0
1180,150,2.0
1181,167,2.0
1182,148,2.0
1183,186,2.0
1184,263,2.0
1185,231,2.0
1186,173,2.0
1187,162,2.0
1188,135,2.0
1189,164,2.0
1190,181,2.0
1191,240,2.0
1192,192,2.0
1193,190,2.0
1194,152,2.0
1195,182,2.5
1196,183,2.0
1197,188,2.0
1198,235,2.0
1199,287,2.0
1200,194,2.0
1201,196,2.0
1202,196,2.0
1203,171,1.0
1204,202,2.0
1205,227,1.0
1206,325,1.0
1207,186,1.0
1208,177,2.0
1209,164,2.0
1210,200,2.0
1211,191,2.0
1212,278,1.0
1213,291,1.0
1214,179,2.0
1215,189,2.0
1216,193,2.0
1217,191,2.0
1218,216,2.0
1219,326,1.0
1220,365,2.0
1221,210,2.0
1222,174,2.0
1223,172,1.0
1224,172,2.0
1225,235,2.0
1226,370,1.0
1227,409,2.0
1228,180,2.0
1229,192,2.0
1230,164,2.0
1231,218,1.0
1232,267,2.0
1233,395,3.0
1234,352,2.0
1235,241,2.0
1236,208,2.0
1237,213,2.0
1238,191,2.0
1239,188,2.0
1240,276,1.0
1241,425,1.0
1242,365,1.0
1243,231,2.0
1244,211,1.0
1245,250,2.0
1246,224,2.0
1247,407,2.0
1248,346,2.0
1249,165,3.0
1250,178,2.0
1251,243,2.0
1252,194,2.0
1253,175,2.0
1254,386,1.0
1255,444,1.0
1256,205,2.0
1257,200,2.0
1258,236,2.0
1259,210,2.0
1260,213,2.0
1261,447,2.0
1262,605,2.0
1263,235,2.0
1264,216,2.0
1265,198,1.0
1266,229,2.0
1267,286,2.0
1268,427,2.0
1269,401,1.0
1270,244,2.0
1271,205,2.0
1272,194,2.0
1273,189,2.0
1274,232,2.0
1275,348,1.5
1276,408,2.0
1277,219,2.0
1278,185,2.0
1279,206,2.0
1280,322,1.0
1281,275,1.0
1282,296,2.0
1283,315,2.0
1284,193,3.0
1285,175,2.0
1286,194,2.0
1287,219,2.0
1288,177,2.0
1289,306,2.0
1290,374,2.0
1291,185,2.0
1292,175,2.0
1293,167,2.0
1294,161,2.0
1295,174,2.0
1296,246,2.0
1297,377,1.0
1298,193,2.0
1299,181,2.0
1300,188,2.0
1301,200,2.0
1302,263,2.0
1303,447,1.0
1304,384,2.0
1305,192,2.0
1306,201,2.0
1307,215,2.0
1308,180,1.0
1309,246,2.0
1310,369,2.0
1311,479,1.0
1312,264,3.0
1313,226,2.0
1314,218,2.0
1315,207,2.0
1316,198,2.0
1317,398,2.0
1318,432,2.0
1319,224,2.0
1320,200,2.0
1321,203,2.0
1322,245,2.0
1323,265,2.0
1324,483,2.0
1325,435,1.0
1326,206,2.0
1327,185,2.0
1328,249,2.0
1329,200,2.0
1330,244,2.0
1331,459,2.0
1332,512,1.0
1333,183,2.0
1334,191,2.0
1335,175,2.0
1336,202,2.0
1337,245,2.0
1338,440,2.0
1339,439,1.0
1340,273,2.0
1341,189,2.0
1342,235,2.0
1343,219,2.0
1344,257,2.0
1345,470,1.0
1346,403,2.0
1347,221,3.0
1348,225,2.0
1349,213,2.0
1350,194,2.0
1351,239,3.0
1352,370,2.0
1353,415,2.0
1354,215,2.0
1355,215,2.0
1356,198,2.0
1357,152,2.0
1358,207,2.0
1359,367,2.0
1360,349,2.0
1361,202,2.0
1362,242,2.0
1363,214,2.0
1364,197,2.0
1365,253,2.0
1366,391,2.0
1367,425,1.0
1368,199,2.0
1369,207,2.0
1370,199,2.0
1371,223,2.0
1372,228,1.0
1373,350,1.0
1374,352,2.0
1375,194,2.0
1376,173,2.0
1377,188,2.0
1378,183,2.0
1379,249,2.0
1380,290,2.0
1381,329,2.0
1382,206,2.0
1383,217,2.0
1384,217,2.0
1385,213,2.0
1386,237,2.0
1387,361,1.0
1388,350,2.0
1389,209,2.0
1390,206,2.0
1391,178,2.0
1392,170,2.0
1393,196,2.0
1394,265,2.0
1395,342,2.0
1396,210,2.0
1397,185,2.0
1398,201,2.0
1399,198,2.0
1400,213,2.0
1401,336,2.0
1402,298,2.0
1403,178,2.0
1404,170,2.0
1405,184,2.0
1406,181,2.0
1407,183,2.0
1408,222,2.0
1409,264,2.0
1410,181,2.0
1411,147,2.0
1412,171,2.0
1413,161,2.0
1414,207,2.0
1415,270,1.0
1416,254,2.0
1417,199,2.0
1418,196,2.0
1419,146,1.0
1420,185,2.0
1421,192,2.0
1422,243,1.0
1423,205,1.0
1424,190,2.0
1425,162,2.0
1426,181,2.0
1427,231,1.0
1428,252,1.0
1429,239,1.0
1430,227,2.0
1431,169,2.0
1432,211,2.0
1433,156,2.0
1434,175,1.0
1435,187,2.0
1436,261,1.0
1437,264,2.0
1438,174,2.0
1439,161,2.0
1440,159,2.0
1441,163,2.0
1442,173,2.0
1443,238,1.0
1444,216,1.0
1445,189,2.0
1446,180,2.0
1447,219,2.0
1448,202,1.0
1449,195,1.0
1450,247,2.0
1451,287,2.0
1452,180,1.0
1453,211,2.0
1454,262,2.0
1455,187,2.0
1456,171,2.0
1457,273,2.0
1458,203,2.0
1459,186,1.0
1460,214,2.0
1461,291,2.0
1462,161,1.0
1463,209,2.0
1464,240,2.0
1465,252,1.0
1466,208,2.0
1467,216,2.0
1468,186,1.0
1469,208,2.0
1470,207,2.0
1471,227,1.0
1472,280,1.0
1473,217,2.0
1474,190,2.0
1475,178,2.0
1476,188,2.0
1477,231,2.0
1478,235,2.0
1479,235,1.0
1480,235,1.0
1481,170,2.0
1482,136,1.0
1483,201,2.0
1484,221,2.0
1485,248,2.0
1486,265,1.0
1487,230,2.0
1488,194,2.0
1489,179,2.0
1490,235,2.0
1491,233,2.0
1492,263,2.0
1493,279,1.0
1494,201,2.0
1495,223,2.0
1496,249,1.0
1497,283,2.0
1498,302,2.0
1499,334,1.0
1500,341,2.0
1501,272,2.0
1502,262,2.0
1503,284,2.0
1504,272,2.0
1505,291,2.0
1506,401,1.0
1507,369,1.0
1508,338,2.0
1509,305,2.0
1510,296,2.0
1511,207,2.0
1512,320,2.0
1513,300,2.0
1514,320,1.0
1515,236,2.0
1516,222,2.0
1517,219,2.0
1518,192,1.0
1519,251,2.0
1520,339,1.0
1521,311,1.0
1522,220,2.0
1523,224,1.0
1524,228,2.0
1525,240,2.0
1526,281,2.0
1527,279,1.0
1528,301,2.0
1529,223,2.0
1530,248,2.0
1531,222,1.0
1532,211,2.0
1533,217,2.0
1534,288,1.0
1535,318,2.0
1536,213,2.0
1537,186,1.5
1538,224,1.0
1539,232,1.5
1540,221,2.0
1541,337,1.0
1542,296,2.0
1543,223,2.0
1544,225,2.0
1545,228,1.0
1546,216,2.0
1547,258,2.0
1548,313,1.0
1549,297,1.0
1550,237,2.0
1551,209,1.0
1552,222,2.0
1553,193,2.0
1554,236,2.0
1555,286,1.0
1556,328,1.0
1557,218,2.0
1558,210,2.0
1559,228,1.0
1560,221,2.0
1561,260,2.0
1562,367,1.0
1563,364,2.0
1564,226,1.0
1565,182,1.0
1566,203,1.0
1567,226,1.0
1568,272,1.0
1569,349,2.0
1570,371,1.0
1571,243,1.0
1572,219,1.0
1573,214,2.0
1574,222,2.0
1575,259,2.0
1576,397,1.0
1577,414,1.0
1578,244,2.0
1579,213,2.0
1580,190,1.0
1581,229,2.0
1582,303,2.0
1583,421,1.0
1584,408,2.0
1585,239,2.0
1586,242,2.0
1587,253,2.0
1588,244,2.0
1589,273,2.0
1590,409,2.0
1591,683,2.0
1592,321,2.0
1593,228,2.0
1594,223,2.0
1595,203,3.0
1596,291,2.0
1597,409,2.0
1598,526,2.0
1599,266,2.0
1600,267,2.0
1601,261,1.0
1602,286,2.0
1603,277,3.0
1604,402,2.0
1605,683,1.0
1606,699,1.0
1607,307,2.0
1608,239,2.0
1609,300,2.0
1610,317,2.0
1611,553,1.0
1612,621,2.0
1613,303,1.0
1614,262,2.0
1615,286,2.0
1616,259,2.0
1617,344,2.0
1618,523,1.0
1619,592,1.0
1620,299,2.0
1621,291,2.0
1622,295,2.0
1623,296,2.0
1624,308,2.0
1625,594,2.0
1626,839,1.0
1627,402,2.0
1628,298,2.0
1629,283,2.0
1630,284,2.0
1631,317,1.0
1632,630,1.0
1633,597,1.0
1634,318,2.0
1635,346,2.0
1636,295,1.0
1637,326,2.0
1638,396,2.0
1639,655,1.0
1640,677,2.0
1641,348,2.0
1642,275,2.0
1643,250,1.0
1644,285,2.0
1645,462,1.0
1646,654,2.0
1647,597,1.0
1648,299,2.0
1649,268,2.0
1650,319,2.0
1651,297,2.0
1652,319,2.0
1653,484,1.0
1654,564,1.0
1655,259,1.0
1656,219,3.0
1657,243,2.0
1658,303,2.0
1659,382,2.0
1660,567,2.0
1661,562,2.0
1662,334,2.0
1663,255,2.0
1664,248,2.0
1665,258,2.0
1666,365,2.0
1667,579,1.0
1668,563,1.0
1669,301,2.0
1670,280,1.0
1671,260,2.0
1672,237,3.0
1673,341,2.0
1674,591,2.0
1675,537,1.0
1676,249,2.0
1677,342,2.0
1678,262,2.0
1679,276,2.0
1680,333,2.0
1681,591,2.0
1682,632,2.0
1683,284,2.0
1684,261,2.0
1685,270,2.0
1686,271,2.0
1687,324,1.0
1688,667,1.0
1689,644,2.0
1690,301,2.0
1691,319,2.0
1692,248,2.0
1693,272,2.0
1694,326,2.0
1695,650,2.0
1696,690,2.0
1697,300,2.0
1698,283,2.0
1699,248,3.0
1700,287,2.0
1701,354,2.0
1702,654,2.0
1703,596,2.0
1704,445,1.0
1705,242,2.0
1706,241,3.0
1707,312,2.0
1708,361,2.0
1709,491,2.0
1710,526,2.0
1711,297,2.0
1712,271,2.0
1713,260,2.0
1714,288,2.0
1715,333,2.0
1716,501,1.0
1717,549,2.0
1718,329,2.0
1719,324,2.0
1720,291,2.0
1721,344,2.0
1722,333,2.0
1723,602,1.0
1724,605,2.0
1725,319,2.0
1726,301,2.0
1727,282,2.0
1728,253,2.0
1729,360,2.0
1730,645,1.0
1731,589,1.0
1732,351,2.0
1733,226,3.0
1734,344,2.0
1735,253,1.0
1736,331,2.0
1737,426,1.0
1738,545,1.0
1739,282,2.0
1740,291,2.0
1741,283,2.0
1742,278,2.0
1743,298,2.0
1744,433,1.0
1745,515,1.0
1746,289,1.0
1747,295,2.0
1748,266,2.0
1749,290,2.0
1750,337,2.0
1751,411,2.0
1752,372,1.0
1753,251,2.0
1754,274,2.0
1755,250,2.0
1756,274,2.0
1757,344,2.0
1758,463,2.0
1759,524,1.0
1760,277,2.0
1761,294,2.0
1762,305,2.0
1763,289,2.0
1764,306,2.0
1765,395,2.0
1766,329,1.0
1767,265,2.0
1768,272,2.0
1769,302,2.0
1770,250,2.0
1771,265,3.0
1772,360,1.0
1773,381,2.0
1774,286,2.0
1775,277,2.0
1776,276,1.0
1777,287,2.0
1778,290,2.0
1779,383,1.0
1780,355,1.0
1781,238,2.0
1782,236,2.0
1783,241,2.0
1784,280,2.0
1785,288,2.0
1786,343,2.0
1787,342,2.0
1788,267,2.0
1789,293,2.0
1790,239,2.0
1791,305,1.0
1792,267,2.0
1793,296,1.0
1794,318,1.0
1795,241,2.0
1796,288,2.0
1797,261,2.0
1798,293,2.0
1799,239,2.0
1800,308,2.0
1801,308,1.0
1802,234,2.0
1803,191,2.0
1804,219,2.0
1805,250,2.0
1806,294,2.0
1807,367,2.0
1808,363,2.0
1809,289,2.0
1810,282,2.0
1811,298,2.0
1812,253,3.0
1813,276,2.0
1814,369,2.0
1815,319,2.0
1816,288,2.0
1817,246,2.0
1818,320,2.0
1819,414,3.0
1820,261,2.0
1821,294,2.0
1822,343,2.0
1823,284,2.0
1824,282,2.0
1825,281,2.0
1826,359,2.0
1827,256,3.0
1828,273,3.0
1829,295,2.0
1830,265,3.0
1831,258,2.0
1832,256,2.0
1833,266,2.0
1834,284,3.0
1835,333,2.0
1836,324,2.0
1837,241,2.0
1838,250,2.0
1839,231,3.0
1840,199,3.0
1841,236,2.0
1842,282,2.0
1843,280,2.0
1844,260,2.0
1845,248,3.0
1846,242,3.0
1847,278,2.0
1848,261,2.0
1849,360,2.5
1850,341,1.0
1851,228,2.0
1852,197,2.0
1853,268,2.0
1854,283,2.0
1855,295,2.0
1856,364,2.0
1857,397,2.0
1858,275,2.0
1859,277,2.0
1860,322,2.0
1861,308,2.0
1862,301,2.0
1863,403,2.0
1864,458,2.0
1865,275,2.0
1866,274,2.0
1867,269,2.0
1868,303,2.0
1869,304,3.0
1870,327,2.0
1871,334,2.0
1872,284,2.0
1873,293,2.0
1874,293,2.0
1875,273,2.0
1876,315,2.0
1877,349,2.0
1878,388,2.0
1879,309,2.0
1880,304,2.0
1881,330,2.0
1882,326,2.0
1883,341,2.0
1884,394,2.0
1885,407,2.0
1886,311,2.0
1887,333,2.0
1888,340,2.0
1889,290,2.0
1890,329,2.0
1891,447,2.0
1892,361,2.0
1893,370,2.0
1894,321,2.0
1895,332,3.0
1896,330,2.0
1897,292,3.0
1898,352,2.0
1899,403,2.0
1900,343,2.0
1901,288,3.0
1902,285,2.0
1903,311,3.0
1904,295,2.0
1905,364,2.0
1906,363,2.0
1907,289,2.0
1908,276,2.0
1909,322,2.0
1910,299,2.0
1911,325,2.0
1912,327,1.0
1913,421,2.0
1914,296,3.0
1915,278,2.0
1916,327,2.0
1917,292,2.0
1918,290,2.0
1919,349,2.0
1920,445,1.0
1921,309,2.0
1922,294,2.0
1923,264,2.0
1924,273,2.0
1925,291,2.0
1926,453,2.0
1927,456,2.0
1928,266,3.0
1929,336,2.0
1930,318,2.0
1931,324,2.0
1932,379,2.0
1933,532,2.0
1934,550,2.0
1935,285,3.0
1936,280,2.0
1937,298,2.0
1938,323,2.0
1939,332,2.0
1940,467,2.0
1941,469,2.0
1942,285,3.0
1943,309,2.0
1944,320,2.0
1945,314,2.0
1946,358,2.0
1947,523,3.0
1948,640,2.0
1949,379,3.0
1950,339,3.0
1951,359,2.0
1952,363,2.0
1953,374,3.0
1954,583,3.0
1955,779,2.0
1956,414,2.0
1957,384,3.0
1958,323,2.0
1959,325,2.0
1960,410,3.0
1961,589,2.0
1962,531,2.0
1963,393,3.0
1964,353,2.0
1965,295,3.0
1966,358,2.0
1967,417,2.0
1968,583,2.0
1969,804,2.0
1970,635,2.0
1971,406,2.0
1972,359,2.0
1973,380,2.0
1974,414,3.0
1975,673,2.0
1976,527,2.0
1977,342,3.0
1978,341,3.0
1979,386,3.0
1980,409,2.0
1981,418,3.0
1982,734,2.0
1983,782,2.0
1984,401,3.0
1985,388,3.0
1986,420,3.0
1987,406,2.0
1988,393,2.0
1989,681,3.0
1990,612,2.0
1991,359,3.0
1992,342,3.0
1993,397,3.0
1994,398,2.0
1995,379,2.0
1996,644,2.0
1997,725,2.0
1998,406,3.0
1999,313,2.0
2000,408,3.0
2001,352,2.0
2002,524,3.0
2003,506,2.0
2004,659,2.0
2005,445,3.0
2006,409,2.0
2007,418,3.0
2008,346,2.0
2009,561,3.0
2010,698,2.0
2011,732,2.0
2012,395,3.0
2013,346,3.0
2014,364,2.0
2015,364,2.0
2016,448,3.0
2017,545,2.0
2018,657,2.0
2019,411,3.0
2020,377,3.0
2021,368,2.0
2022,390,2.0
2023,410,3.0
2024,596,2.0
2025,528,2.0
2026,338,2.5
2027,362,2.0
2028,329,3.0
2029,386,3.0
2030,401,3.0
2031,661,3.0
2032,520,3.0
2033,428,3.0
2034,357,3.0
2035,330,2.0
2036,299,3.0
2037,400,3.0
2038,559,2.0
2039,591,3.0
2040,385,3.0
2041,342,2.0
2042,342,2.0
2043,342,2.0
2044,432,3.0
2045,751,2.0
2046,696,2.0
2047,418,3.0
2048,323,3.0
2049,341,3.0
2050,395,3.0
2051,400,2.0
2052,631,3.0
2053,657,2.0
2054,340,3.0
2055,399,2.0
2056,332,2.0
2057,329,3.0
2058,392,3.0
2059,671,3.0
2060,703,3.0
2061,311,3.0
2062,371,3.0
2063,338,3.0
2064,373,3.0
2065,424,3.0
2066,717,3.0
2067,746,2.0
2068,347,3.0
2069,346,3.0
2070,332,3.0
2071,329,3.0
2072,432,3.0
2073,679,2.0
2074,846,3.0
2075,584,3.0
2076,356,3.0
2077,318,3.0
2078,316,3.0
2079,401,4.0
2080,513,3.0
2081,579,2.0
2082,375,3.0
2083,339,3.0
2084,377,3.0
2085,358,3.0
2086,423,3.0
2087,741,4.0
2088,703,3.0
2089,432,3.5
2090,400,3.0
2091,399,3.0
2092,410,2.5
2093,420,3.0
2094,699,2.0
2095,733,2.0
2096,378,3.0
2097,353,3.0
2098,315,2.0
2099,318,3.0
2100,301,2.0
2101,428,3.0
2102,503,2.0
2103,337,3.0
2104,333,3.0
2105,324,2.0
2106,381,3.0
2107,401,3.0
2108,489,2.0
2109,615,2.0
2110,384,2.0
2111,389,3.0
2112,393,2.0
2113,327,3.0
2114,404,3.0
2115,510,3.0
2116,456,2.0
2117,375,2.0
2118,346,2.0
2119,363,2.0
2120,415,3.0
2121,387,2.0
2122,488,2.0
2123,488,3.0
2124,376,3.0
2125,337,2.0
2126,319,2.0
2127,344,3.0
2128,439,3.0
2129,497,2.0
2130,504,2.0
2131,354,3.0
2132,406,3.0
2133,349,2.0
2134,346,2.0
2135,422,3.0
2136,492,2.0
2137,460,2.0
2138,362,3.0
2139,291,3.0
2140,316,2.0
2141,379,2.0
2142,374,3.0
2143,475,3.0
2144,460,2.0
2145,344,3.0
2146,341,2.0
2147,334,2.0
2148,290,2.0
2149,409,2.0
2150,426,2.0
2151,408,3.0
2152,337,3.0
2153,320,2.0
2154,356,2.5
2155,392,2.0
2156,421,2.0
2157,418,2.0
2158,381,2.0
2159,337,4.0
2160,328,2.0
2161,341,3.0
2162,341,3.0
2163,364,3.0
2164,464,3.0
2165,521,2.0
2166,360,2.0
2167,332,3.0
2168,309,3.0
2169,313,3.0
2170,387,3.0
2171,522,2.0
2172,482,3.0
2173,322,3.0
2174,326,3.0
2175,355,3.0
2176,319,3.0
2177,340,3.0
2178,419,3.0
2179,445,2.0
2180,383,3.0
2181,351,3.0
2182,326,2.0
2183,483,2.0
2184,612,2.0
2185,387,3.0
2186,449,2.0
2187,354,2.0
2188,314,3.0
2189,319,3.0
2190,382,2.0
2191,511,2.0
2192,326,2.0
2193,373,2.0
2194,329,3.0
2195,306,3.0
2196,336,2.0
2197,307,3.0
2198,315,2.0
2199,412,2.0
2200,425,2.0
2201,367,3.0
2202,393,3.0
2203,308,3.0
2204,315,3.0
2205,352,3.0
2206,374,3.0
2207,432,2.0
2208,283,2.0
2209,348,3.0
2210,323,3.0
2211,361,3.0
2212,360,3.0
2213,274,2.0
2214,466,3.0
2215,593,2.0
2216,476,3.0
2217,491,2.0
2218,384,2.0
2219,397,2.0
2220,449,2.0
2221,424,2.0
2222,376,3.0
2223,365,2.0
2224,313,3.0
2225,364,3.0
2226,334,2.0
2227,401,2.0
2228,435,2.0
2229,348,2.0
2230,323,2.0
2231,329,2.0
2232,279,3.0
2233,369,3.0
2234,353,2.0
2235,348,2.0
2236,305,2.0
2237,302,2.0
2238,327,2.0
2239,307,3.0
2240,343,2.0
2241,369,2.0
2242,423,2.0
2243,354,2.0
2244,300,2.0
2245,319,2.0
2246,325,2.0
2247,320,2.0
2248,392,3.0
2249,459,2.0
2250,327,2.0
2251,315,3.0
2252,290,2.0
2253,317,2.0
2254,293,3.0
2255,397,2.0
2256,427,2.0
2257,375,2.0
2258,351,2.0
2259,402,2.0
2260,364,2.0
2261,414,3.0
2262,443,3.0
2263,496,3.0
2264,315,4.0
2265,355,2.0
2266,336,3.0
2267,350,3.0
2268,374,3.0
2269,515,3.0
2270,494,2.0
2271,355,3.0
2272,362,3.0
2273,415,3.0
2274,386,3.0
2275,348,2.0
2276,584,2.0
2277,552,2.0
2278,329,3.0
2279,355,3.0
2280,363,2.0
2281,349,2.0
2282,412,2.0
2283,464,2.0
2284,432,2.0
2285,330,2.0
2286,361,2.0
2287,332,3.0
2288,340,2.0
2289,386,2.0
2290,429,2.0
2291,437,2.0
2292,399,3.0
2293,354,3.0
2294,372,2.0
2295,430,2.0
2296,433,3.0
2297,604,2.0
2298,654,2.0
2299,437,3.0
2300,414,3.0
2301,401,3.0
2302,354,3.0
2303,454,3.0
2304,649,2.0
2305,587,2.0
2306,426,2.0
2307,348,2.0
2308,350,2.0
2309,344,2.0
2310,389,2.0
2311,588,2.0
2312,495,2.0
2313,350,2.0
2314,385,3.0
2315,351,3.0
2316,372,2.0
2317,427,3.0
2318,518,2.0
2319,662,2.0
2320,425,3.0
2321,443,3.0
2322,434,3.0
2323,455,3.0
2324,427,2.0
2325,652,2.0
2326,615,3.0
2327,414,3.0
2328,356,3.0
2329,407,3.0
2330,450,3.0
2331,532,3.0
2332,627,2.0
2333,688,2.0
2334,450,3.0
2335,387,3.0
2336,454,3.0
2337,490,3.0
2338,472,3.0
2339,710,2.0
2340,878,2.0
2341,546,2.0
2342,441,3.0
2343,447,2.0
2344,474,3.0
2345,574,3.0
2346,722,2.0
2347,612,2.0
2348,422,3.0
2349,433,3.0
2350,388,3.0
2351,429,2.0
2352,563,3.0
2353,789,2.0
2354,683,2.0
2355,432,3.0
2356,452,3.0
2357,472,3.0
2358,446,3.0
2359,588,3.0
2360,828,2.0
2361,978,1.0
2362,551,3.0
2363,516,3.0
2364,514,3.0
2365,443,3.0
2366,539,3.0
2367,793,2.0
2368,807,2.0
2369,474,2.0
2370,434,2.0
2371,434,3.0
2372,464,3.0
2373,445,2.0
2374,675,2.0
2375,1030,2.0
2376,760,2.0
2377,479,2.0
2378,468,3.0
2379,406,3.0
2380,389,4.0
2381,653,3.0
2382,675,2.0
2383,537,3.0
2384,440,3.0
2385,428,3.0
2386,392,3.0
2387,503,2.0
2388,664,3.0
2389,701,2.0
2390,467,4.0
2391,446,3.0
2392,416,3.0
2393,442,2.5
2394,379,3.0
2395,581,2.0
2396,696,2.0
2397,384,3.0
2398,385,3.0
2399,438,3.0
2400,384,3.0
2401,364,3.0
2402,564,2.0
2403,606,2.0
2404,442,3.0
2405,470,4.0
2406,436,3.0
2407,451,3.0
2408,444,3.0
2409,675,2.0
2410,710,2.0
2411,409,3.0
2412,403,2.0
2413,375,3.0
2414,398,4.0
2415,418,3.0
2416,560,2.0
2417,605,2.0
2418,395,4.0
2419,381,3.0
2420,387,4.0
2421,403,3.0
2422,429,4.0
2423,630,3.0
2424,630,3.0
2425,479,3.0
2426,427,3.0
2427,392,3.0
2428,365,2.0
2429,402,3.0
2430,644,3.0
2431,725,2.0
2432,447,3.0
2433,442,2.5
2434,411,3.0
2435,421,2.0
2436,465,3.0
2437,745,2.0
2438,918,2.0
2439,600,2.0
2440,383,3.0
2441,461,3.0
2442,445,3.0
2443,464,3.0
2444,655,2.0
2445,864,2.0
2446,480,3.0
2447,448,3.0
2448,409,3.0
2449,502,3.0
2450,511,3.0
2451,719,2.0
2452,851,2.0
2453,420,3.0
2454,463,3.0
2455,457,3.0
2456,469,3.0
2457,503,3.0
2458,739,2.0
2459,847,2.0
2460,454,3.0
2461,442,3.0
2462,412,3.0
2463,429,3.0
2464,445,3.0
2465,661,2.0
2466,681,2.0
2467,460,3.0
2468,374,3.0
2469,427,3.0
2470,487,3.0
2471,499,3.0
2472,678,2.0
2473,523,2.0
2474,339,3.0
2475,419,3.0
2476,455,3.0
2477,408,3.0
2478,481,2.0
2479,584,3.0
2480,602,2.0
2481,472,3.0
2482,422,3.0
2483,423,3.0
2484,424,3.0
2485,438,3.0
2486,529,3.0
2487,552,2.0
2488,406,3.0
2489,401,3.0
2490,367,2.0
2491,347,3.0
2492,433,3.0
2493,540,2.0
2494,656,3.0
2495,445,3.0
2496,428,3.0
2497,432,3.0
2498,483,3.0
2499,411,3.0
2500,546,2.0
2501,405,3.0
2502,579,5.0
2503,360,3.0
2504,359,3.0
2505,402,3.0
2506,402,3.0
2507,509,3.0
2508,443,3.0
2509,409,3.0
2510,322,3.0
2511,407,3.0
2512,429,2.0
2513,468,4.0
2514,534,3.0
2515,449,2.0
2516,394,4.0
2517,404,3.0
2518,416,3.0
2519,503,2.0
2520,500,2.0
2521,458,2.0
2522,444,2.0
2523,376,3.5
2524,343,3.0
2525,348,4.0
2526,382,3.0
2527,413,3.0
2528,473,3.0
2529,504,3.0
2530,410,3.0
2531,343,2.0
2532,402,3.0
2533,321,3.0
2534,482,3.0
2535,503,3.0
2536,530,2.0
2537,385,3.0
2538,400,2.0
2539,426,3.0
2540,402,3.0
2541,395,3.0
2542,512,2.0
2543,509,3.0
2544,388,3.0
2545,416,3.0
2546,405,4.0
2547,376,4.0
2548,440,3.0
2549,437,3.0
2550,510,2.0
2551,376,3.0
2552,369,3.0
2553,389,2.0
2554,374,3.0
2555,436,3.0
2556,436,2.0
2557,614,2.0
2558,369,2.0
2559,418,3.0
2560,427,2.0
2561,438,3.0
2562,430,3.0
2563,410,2.0
2564,444,1.0
2565,381,3.0
2566,401,3.0
2567,362,3.0
2568,452,2.0
2569,433,3.0
2570,458,3.0
2571,458,3.0
2572,424,2.0
2573,389,3.0
2574,420,3.0
2575,213,6.0
2576,452,2.0
2577,472,3.0
2578,580,2.5
2579,324,3.0
2580,396,3.0
2581,424,3.0
2582,440,2.0
2583,480,2.0
2584,559,2.0
2585,489,2.0
2586,426,3.0
2587,401,3.0
2588,375,4.0
2589,346,3.0
2590,421,2.0
2591,440,2.0
2592,521,3.0
2593,443,4.0
2594,365,4.0
2595,448,3.0
2596,285,2.0
2597,404,2.0
2598,502,2.0
2599,507,2.0
2600,378,3.0
2601,359,2.0
2602,387,3.0
2603,451,3.0
2604,422,3.0
2605,476,2.0
2606,527,2.0
2607,425,2.0
2608,360,3.0
2609,389,2.0
2610,402,2.5
2611,452,2.0
2612,435,2.0
2613,446,2.0
2614,365,2.0
2615,417,3.0
2616,387,3.0
2617,396,2.0
2618,408,2.0
2619,460,2.0
2620,466,2.0
2621,396,3.0
2622,419,3.0
2623,407,3.0
2624,355,4.0
2625,429,2.0
2626,427,2.0
2627,484,2.0
2628,435,3.0
2629,313,2.0
2630,484,2.0
2631,521,3.0
2632,583,3.0
2633,553,2.0
2634,636,2.0
2635,517,3.0
2636,456,3.0
2637,423,2.0
2638,307,3.0
2639,448,3.0
2640,534,2.0
2641,502,2.0
2642,427,2.0
2643,384,2.0
2644,456,2.0
2645,435,2.0
2646,387,2.0
2647,505,2.0
2648,562,2.0
2649,440,3.0
2650,386,2.0
2651,401,3.0
2652,349,3.0
2653,376,2.0
2654,540,2.0
2655,585,2.0
2656,403,2.0
2657,449,2.0
2658,432,2.0
2659,411,3.0
2660,415,2.0
2661,511,2.0
2662,755,2.0
2663,502,3.0
2664,392,2.0
2665,418,2.0
2666,428,3.0
2667,470,2.0
2668,562,2.0
2669,633,2.0
2670,455,3.0
2671,389,2.0
2672,386,2.0
2673,427,2.0
2674,581,3.0
2675,874,2.0
2676,776,2.0
2677,482,2.0
2678,471,2.0
2679,480,2.0
2680,495,3.0
2681,483,2.0
2682,632,2.0
2683,644,2.0
2684,524,2.0
2685,499,2.0
2686,522,2.0
2687,432,2.0
2688,480,2.0
2689,537,2.0
2690,711,2.0
2691,528,3.0
2692,515,3.0
2693,553,2.0
2694,533,3.0
2695,530,3.0
2696,730,3.0
2697,800,2.0
2698,469,2.0
2699,573,2.0
2700,547,2.0
2701,441,2.0
2702,456,3.0
2703,961,2.0
2704,1085,2.0
2705,540,1.0
2706,571,2.0
2707,502,2.0
2708,549,3.0
2709,620,3.0
2710,959,2.0
2711,956,2.0
2712,542,2.0
2713,502,2.0
2714,551,2.0
2715,563,2.0
2716,651,3.0
2717,912,3.0
2718,920,2.0
2719,523,3.0
2720,549,3.0
2721,547,3.0
2722,578,2.0
2723,576,3.0
2724,785,2.0
2725,1108,2.0
2726,579,2.0
2727,579,2.0
2728,509,3.0
2729,530,3.0
2730,557,2.0
2731,743,3.0
2732,1028,2.0
2733,561,4.0
2734,537,3.0
2735,499,3.0
2736,555,3.0
2737,523,3.0
2738,866,2.0
2739,880,2.0
2740,673,3.0
2741,892,2.0
2742,569,3.0
2743,472,3.0
2744,468,2.0
2745,699,2.0
2746,907,2.0
2747,545,3.0
2748,485,3.0
2749,504,3.0
2750,433,3.0
2751,428,2.0
2752,785,2.0
2753,897,3.0
2754,538,3.0
2755,388,4.0
2756,528,3.0
2757,456,3.0
2758,501,3.0
2759,696,2.0
2760,573,2.0
2761,374,3.5
2762,503,3.0
2763,587,3.0
2764,549,2.0
2765,579,3.0
2766,789,3.0
2767,1045,2.0
2768,547,3.0
2769,505,3.0
2770,467,2.0
2771,492,3.0
2772,469,3.0
2773,691,2.0
2774,928,2.0
2775,436,2.0
2776,361,2.0
2777,543,2.0
2778,451,2.0
2779,552,2.0
2780,732,2.0
2781,918,2.0
2782,551,4.0
2783,459,2.0
2784,504,3.0
2785,529,3.0
2786,500,2.0
2787,757,2.0
2788,859,2.0
2789,464,2.0
2790,410,3.0
2791,483,2.0
2792,478,3.0
2793,520,3.0
2794,942,2.0
2795,988,2.0
2796,510,3.0
2797,415,3.0
2798,446,2.0
2799,475,2.0
2800,634,2.0
2801,727,2.0
2802,853,2.0
2803,835,2.0
2804,519,3.0
2805,447,2.0
2806,576,2.0
2807,623,2.0
2808,867,2.0
2809,907,2.0
2810,539,3.0
2811,525,3.0
2812,511,3.0
2813,469,2.0
2814,634,3.0
2815,810,2.0
2816,884,3.0
2817,533,4.0
2818,442,3.0
2819,519,2.0
2820,439,2.0
2821,580,2.0
2822,831,2.0
2823,800,3.0
2824,555,3.0
2825,556,9.0
2826,498,3.0
2827,494,2.0
2828,650,2.0
2829,774,2.0
2830,818,2.0
2831,533,2.0
2832,535,3.0
2833,534,3.0
2834,494,5.0
2835,534,3.0
2836,714,3.0
2837,646,2.0
2838,442,2.0
2839,559,2.0
2840,513,3.0
2841,486,3.0
2842,525,3.0
2843,695,2.0
2844,768,2.0
2845,487,3.0
2846,435,3.0
2847,465,3.0
2848,522,3.0
2849,568,3.0
2850,739,2.0
2851,803,2.0
2852,560,3.0
2853,466,3.0
2854,494,3.0
2855,469,3.0
2856,567,3.0
2857,813,2.0
2858,752,2.0
2859,415,3.0
2860,493,3.0
2861,477,2.0
2862,497,3.0
2863,586,3.0
2864,630,2.0
2865,608,2.0
2866,483,3.0
2867,375,2.0
2868,436,3.0
2869,426,3.0
2870,425,3.0
2871,563,2.0
2872,521,2.0
2873,468,2.0
2874,445,2.0
2875,438,2.0
2876,481,2.0
2877,483,3.0
2878,549,2.0
2879,542,2.0
2880,439,3.0
2881,430,3.0
2882,456,2.0
2883,497,2.0
2884,455,3.0
2885,510,2.0
2886,560,2.0
2887,424,3.0
2888,431,2.0
2889,471,2.0
2890,427,3.0
2891,449,3.0
2892,552,2.0
2893,539,2.0
2894,464,3.0
2895,482,2.0
2896,425,3.0
2897,434,3.0
2898,471,2.0
2899,478,2.0
2900,530,2.0
2901,385,2.0
2902,448,3.0
2903,429,3.0
2904,437,2.0
2905,454,3.0
2906,535,2.0
2907,544,3.0
2908,421,3.0
2909,423,3.0
2910,484,3.0
2911,469,2.0
2912,511,2.0
2913,507,2.0
2914,520,2.0
2915,516,2.0
2916,418,3.0
2917,400,3.0
2918,472,2.0
2919,429,3.0
2920,469,2.0
2921,454,3.0
2922,589,2.0
2923,380,3.0
2924,453,2.0
2925,350,2.0
2926,443,2.0
2927,543,3.0
2928,501,2.0
2929,475,2.0
2930,481,3.0
2931,442,3.0
2932,466,2.0
2933,478,2.0
2934,450,2.0
2935,507,2.0
2936,423,1.0
2937,393,2.0
2938,409,2.0
2939,381,3.0
2940,447,2.0
2941,477,1.0
2942,540,2.0
2943,436,3.0
2944,421,2.0
2945,439,2.0
2946,441,2.0
2947,446,2.0
2948,572,2.0
2949,513,2.0
2950,456,2.0
2951,424,2.0
2952,412,2.0
2953,418,3.0
2954,480,2.5
2955,484,3.0
2956,488,2.0
2957,403,3.0
2958,412,2.0
2959,438,2.0
2960,455,2.0
2961,475,2.0
2962,436,2.0
2963,478,1.0
2964,371,2.0
2965,459,2.0
2966,391,2.0
2967,419,2.0
2968,396,2.0
2969,465,2.0
2970,437,1.0
2971,440,1.0
2972,407,2.0
2973,435,2.0
2974,374,2.0
2975,384,2.0
2976,495,2.0
2977,530,1.0
2978,404,2.0
2979,15,0.0
