,Demand,Response_Time
0,4.0,1209.0
1,3.0,109.0
2,4.0,39.0
3,1.0,30.0
4,1.0,143.0
5,3.0,34.0
6,1.0,137.0
7,3.0,116.0
8,2.0,130.5
9,2.0,0.0
10,7.0,122.0
11,3.0,48.0
12,4.0,31.5
13,6.0,66.5
14,3.0,236.0
15,1.0,67.0
16,2.0,205.0
17,4.0,159.5
18,3.0,144.0
19,3.0,111.0
20,4.0,43.5
21,1.0,289.5
22,6.0,289.5
23,1.0,23.0
24,8.0,44.5
25,10.0,187.0
26,7.0,42.0
27,2.0,0.0
28,5.0,71.0
29,5.0,208.0
30,2.0,185.0
31,7.0,185.0
32,5.0,214.0
33,2.0,289.5
34,3.0,88.0
35,3.0,130.0
36,5.0,44.0
37,0.0,44.0
38,8.0,135.0
39,7.0,0.0
40,65.0,178.0
41,93.0,129.0
42,34.0,140.5
43,6.0,181.0
44,5.0,211.0
45,3.0,186.0
46,2.0,137.0
47,16.0,118.0
48,5.0,261.0
49,12.0,91.0
50,4.0,278.5
51,7.0,98.0
52,12.0,103.5
53,8.0,1.5
54,13.0,116.0
55,17.0,90.0
56,17.0,62.0
57,11.0,49.0
58,6.0,127.5
59,17.0,159.0
60,10.0,24.5
61,7.0,55.0
62,4.0,56.0
63,6.0,289.5
64,3.0,105.0
65,5.0,74.0
66,14.0,162.0
67,17.0,44.0
68,11.0,217.0
69,10.0,197.0
70,6.0,289.5
71,69.0,331.0
72,12.0,261.0
73,12.0,170.0
74,47.0,144.0
75,40.0,124.0
76,49.0,118.0
77,23.0,122.0
78,23.0,96.0
79,13.0,76.0
80,26.0,74.0
81,19.0,87.0
82,25.0,44.0
83,12.0,343.0
84,15.0,230.0
85,15.0,254.0
86,6.0,379.0
87,13.0,361.0
88,31.0,554.0
89,14.0,349.5
90,24.0,289.5
91,20.0,1256.0
92,9.0,234.0
93,8.0,185.5
94,25.0,289.5
95,18.0,444.5
96,17.0,2016.0
97,21.0,1008.0
98,15.0,429.0
99,5.0,208.0
100,9.0,97.0
101,26.0,352.0
102,15.0,405.0
103,17.0,289.5
104,14.0,2229.0
105,9.0,289.5
106,16.0,71.5
107,6.0,1666.5
108,26.0,289.5
109,24.0,199.5
110,20.0,1511.5
111,17.0,289.5
112,14.0,289.5
113,7.0,116.0
114,2.0,289.5
115,17.0,280.0
116,15.0,46.0
117,34.0,95.5
118,17.0,1486.0
119,24.0,289.5
120,11.0,53.0
121,10.0,21.0
122,24.0,289.5
123,26.0,108.0
124,19.0,189.0
125,17.0,334.0
126,20.0,1813.0
127,58.0,71.0
128,30.0,94.0
129,42.0,63.0
130,18.0,289.5
131,11.0,623.0
132,12.0,149.0
133,14.0,112.0
134,6.0,1037.5
135,2.0,289.5
136,17.0,426.0
137,13.0,1380.0
138,12.0,289.5
139,10.0,159.5
140,14.0,289.5
141,3.0,89.0
142,3.0,147.0
143,20.0,413.0
144,14.0,289.5
145,10.0,94.0
146,5.0,312.0
147,6.0,289.5
148,6.0,289.5
149,3.0,181.0
150,2.0,289.5
151,18.0,362.5
152,8.0,289.5
153,8.0,289.5
154,12.0,92.0
155,11.0,71.0
156,12.0,38.5
157,16.0,179.0
158,9.0,401.0
159,7.0,303.0
160,14.0,374.0
161,9.0,289.5
162,5.0,5.0
163,6.0,70.5
164,23.0,289.5
165,13.0,289.5
166,9.0,808.0
167,14.0,296.0
168,13.0,164.0
169,6.0,114.0
170,0.0,114.0
171,8.0,141.0
172,12.0,45.0
173,16.0,289.5
174,8.0,159.5
175,10.0,289.5
176,3.0,289.5
177,2.0,130.5
178,10.0,289.5
179,17.0,159.0
180,13.0,32.0
181,17.0,129.0
182,10.0,97.0
183,8.0,96.0
184,2.0,25.0
185,3.0,24.0
186,12.0,113.5
187,10.0,46.5
188,5.0,118.0
189,10.0,101.0
190,4.0,71.5
191,7.0,83.0
192,22.0,185.0
193,7.0,246.0
194,10.0,159.0
195,11.0,291.0
196,11.0,289.5
197,11.0,66.0
198,8.0,34.5
199,9.0,571.0
200,14.0,835.0
201,14.0,319.5
202,13.0,124.0
203,12.0,464.0
204,4.0,289.5
205,2.0,77.5
206,14.0,798.5
207,6.0,697.0
208,9.0,48.0
209,8.0,98.0
210,6.0,573.0
211,5.0,119.0
212,0.0,119.0
213,13.0,352.0
214,10.0,298.5
215,15.0,20.0
216,10.0,289.5
217,9.0,260.0
218,2.0,384.0
219,4.0,2214.5
220,11.0,289.5
221,14.0,624.5
222,15.0,289.5
223,7.0,289.5
224,10.0,85.0
225,4.0,61.0
226,7.0,289.5
227,15.0,334.0
228,11.0,1342.0
229,4.0,289.5
230,10.0,1860.5
231,4.0,1794.5
232,4.0,1126.0
233,2.0,289.5
234,8.0,1835.0
235,11.0,289.5
236,4.0,289.5
237,9.0,289.5
238,18.0,289.5
239,5.0,276.0
240,0.0,276.0
241,14.0,289.5
242,7.0,50.0
243,9.0,31.0
244,12.0,597.5
245,4.0,2184.5
246,17.0,122.0
247,4.0,1496.5
248,3.0,289.5
249,9.0,289.5
250,14.0,289.5
251,14.0,2250.5
252,10.0,289.5
253,6.0,149.5
254,1.0,1125.0
255,11.0,289.5
256,11.0,1237.0
257,11.0,289.5
258,57.0,335.0
259,48.0,205.5
260,21.0,88.0
261,6.0,476.5
262,20.0,289.5
263,19.0,809.0
264,19.0,1007.0
265,11.0,337.0
266,11.0,1434.0
267,12.0,154.0
268,9.0,187.0
269,12.0,735.5
270,19.0,289.5
271,16.0,1432.0
272,25.0,167.0
273,35.0,329.0
274,13.0,310.0
275,6.0,289.5
276,8.0,153.0
277,12.0,289.5
278,17.0,663.0
279,8.0,761.5
280,11.0,299.0
281,4.0,152.0
282,6.0,273.0
283,11.0,333.0
284,9.0,571.0
285,17.0,289.5
286,13.0,289.5
287,16.0,404.5
288,12.0,139.5
289,7.0,292.0
290,11.0,289.5
291,9.0,67.0
292,11.0,289.5
293,10.0,289.5
294,11.0,289.5
295,4.0,133.5
296,1.0,377.0
297,10.0,159.5
298,9.0,289.5
299,14.0,289.5
300,12.0,289.5
301,13.0,595.0
302,7.0,566.0
303,2.0,148.5
304,7.0,1755.0
305,4.0,173.0
306,10.0,289.5
307,6.0,117.5
308,2.0,289.5
309,7.0,254.0
310,5.0,1601.0
311,8.0,377.5
312,14.0,319.5
313,7.0,289.5
314,6.0,283.5
315,6.0,289.5
316,8.0,289.5
317,1.0,23.0
318,11.0,289.5
319,10.0,344.0
320,23.0,282.0
321,10.0,260.5
322,2.0,289.5
323,6.0,295.5
324,0.0,295.5
325,7.0,1249.0
326,7.0,289.5
327,4.0,289.5
328,1.0,289.5
329,5.0,289.5
330,1.0,66.0
331,2.0,553.0
332,5.0,289.5
333,5.0,289.5
334,13.0,289.5
335,9.0,289.5
336,4.0,289.5
337,3.0,202.0
338,3.0,40.0
339,7.0,289.5
340,9.0,138.0
341,3.0,289.5
342,3.0,289.5
343,0.0,289.5
344,2.0,289.5
345,3.0,289.5
346,6.0,289.5
347,4.0,289.5
348,7.0,289.5
349,7.0,120.0
350,10.0,289.5
351,1.0,69.0
352,1.0,289.5
353,5.0,381.0
354,3.0,289.5
355,3.0,163.0
356,2.0,289.5
357,0.0,289.5
358,1.0,98.0
359,1.0,289.5
360,1.0,23.0
361,3.0,161.0
362,3.0,289.5
363,3.0,4.0
364,2.0,289.5
365,0.0,289.5
366,2.0,15.0
367,3.0,5.0
368,4.0,289.5
369,0.0,289.5
370,3.0,127.0
371,1.0,289.5
372,3.0,114.0
373,0.0,114.0
374,3.0,60.0
375,2.0,108.5
376,0.0,108.5
377,5.0,26.0
378,3.0,579.0
379,1.0,99.0
380,1.0,61.0
381,0.0,61.0
382,4.0,26.0
383,6.0,260.5
384,4.0,289.5
385,3.0,289.5
386,2.0,387.5
387,0.0,387.5
388,0.0,387.5
389,3.0,2249.0
390,3.0,293.0
391,15.0,114.0
392,13.0,243.0
393,4.0,49.5
394,4.0,115.5
395,7.0,164.0
396,8.0,142.0
397,34.0,90.5
398,10.0,110.0
399,11.0,114.0
400,3.0,106.0
401,4.0,62.0
402,7.0,66.0
403,8.0,33.0
404,2.0,116.5
405,4.0,53.5
406,2.0,103.5
407,1.0,51.0
408,2.0,140.5
409,13.0,34.0
410,7.0,241.0
411,9.0,289.5
412,23.0,194.0
413,6.0,289.5
414,17.0,89.0
415,8.0,161.0
416,4.0,43.0
417,15.0,39.0
418,10.0,289.5
419,9.0,261.0
420,14.0,67.0
421,6.0,84.5
422,8.0,46.0
423,11.0,40.0
424,12.0,104.5
425,6.0,194.5
426,5.0,159.0
427,8.0,69.0
428,4.0,133.0
429,1.0,22.0
430,15.0,66.0
431,10.0,289.5
432,6.0,113.0
433,5.0,143.0
434,7.0,471.0
435,3.0,289.5
436,2.0,111.0
437,13.0,289.5
438,18.0,162.5
439,7.0,289.5
440,10.0,136.5
441,28.0,293.0
442,3.0,289.5
443,4.0,289.5
444,11.0,336.0
445,14.0,64.5
446,8.0,81.5
447,7.0,289.5
448,12.0,289.5
449,7.0,289.5
450,2.0,289.5
451,6.0,54.0
452,13.0,53.0
453,11.0,22.0
454,4.0,289.5
455,6.0,92.5
456,7.0,1994.0
457,8.0,289.5
458,16.0,1664.0
459,12.0,83.0
460,19.0,289.5
461,11.0,359.0
462,11.0,289.5
463,6.0,65.5
464,9.0,221.0
465,24.0,289.5
466,24.0,289.5
467,12.0,248.0
468,11.0,289.5
469,8.0,450.5
470,16.0,84.5
471,9.0,39.0
472,17.0,66.0
473,17.0,289.5
474,21.0,289.5
475,16.0,1316.0
476,13.0,99.0
477,6.0,812.5
478,2.0,2153.5
479,19.0,211.0
480,25.0,180.0
481,20.0,210.5
482,19.0,99.0
483,18.0,1022.5
484,11.0,1434.0
485,6.0,163.0
486,23.0,1677.0
487,26.0,793.0
488,13.0,140.0
489,13.0,1336.0
490,18.0,331.5
491,9.0,253.0
492,5.0,1.0
493,25.0,1245.0
494,25.0,164.0
495,18.0,736.0
496,24.0,111.5
497,14.0,549.5
498,9.0,1079.0
499,6.0,51.5
500,25.0,1073.0
501,14.0,2038.0
502,18.0,1145.5
503,20.0,284.5
504,17.0,144.0
505,10.0,174.0
506,7.0,121.0
507,15.0,266.0
508,23.0,249.0
509,14.0,329.5
510,17.0,278.0
511,16.0,289.5
512,13.0,400.0
513,5.0,417.0
514,13.0,104.0
515,25.0,402.0
516,17.0,349.0
517,19.0,430.0
518,21.0,402.0
519,13.0,550.0
520,9.0,240.0
521,27.0,427.0
522,22.0,289.5
523,26.0,400.5
524,7.0,159.0
525,20.0,379.5
526,16.0,146.5
527,4.0,42.5
528,18.0,332.0
529,19.0,381.0
530,19.0,503.0
531,17.0,456.0
532,22.0,290.5
533,6.0,289.5
534,6.0,189.0
535,10.0,294.0
536,22.0,564.5
537,13.0,338.0
538,17.0,282.0
539,19.0,260.0
540,8.0,95.5
541,7.0,69.0
542,15.0,503.0
543,16.0,289.5
544,20.0,1419.5
545,14.0,521.5
546,20.0,401.0
547,6.0,289.5
548,5.0,72.0
549,7.0,401.0
550,25.0,383.0
551,16.0,823.5
552,16.0,390.5
553,16.0,73.0
554,18.0,71.0
555,3.0,1.0
556,25.0,78.0
557,21.0,640.0
558,23.0,327.0
559,30.0,164.5
560,20.0,660.0
561,10.0,101.5
562,6.0,254.5
563,26.0,1325.0
564,19.0,1360.0
565,20.0,289.5
566,29.0,339.0
567,10.0,916.0
568,7.0,289.5
569,6.0,289.5
570,21.0,289.5
571,24.0,485.0
572,36.0,289.5
573,11.0,284.0
574,23.0,1106.0
575,8.0,520.0
576,5.0,288.0
577,34.0,1227.5
578,25.0,289.5
579,13.0,289.5
580,21.0,2229.0
581,16.0,289.5
582,8.0,43.0
583,8.0,119.5
584,20.0,289.5
585,17.0,289.5
586,18.0,114.5
587,13.0,265.0
588,17.0,289.5
589,10.0,88.0
590,19.0,46.0
591,20.0,289.5
592,21.0,289.5
593,16.0,289.5
594,13.0,289.5
595,17.0,603.0
596,7.0,77.0
597,5.0,289.5
598,26.0,289.5
599,17.0,289.5
600,26.0,289.5
601,22.0,2115.5
602,16.0,289.5
603,9.0,1147.0
604,12.0,122.0
605,12.0,119.0
606,74.0,114.5
607,26.0,94.5
608,26.0,90.5
609,24.0,94.0
610,13.0,76.0
611,11.0,198.0
612,7.0,170.0
613,29.0,217.0
614,32.0,1386.5
615,29.0,289.5
616,32.0,1136.0
617,20.0,882.5
618,8.0,1554.0
619,29.0,289.5
620,17.0,289.5
621,30.0,1305.5
622,29.0,289.5
623,20.0,289.5
624,10.0,289.5
625,5.0,718.0
626,17.0,289.5
627,18.0,289.5
628,19.0,289.5
629,11.0,289.5
630,10.0,2084.5
631,15.0,289.5
632,5.0,125.0
633,21.0,289.5
634,15.0,289.5
635,19.0,289.5
636,11.0,688.0
637,9.0,289.5
638,2.0,519.5
639,1.0,17.0
640,11.0,289.5
641,5.0,2178.0
642,10.0,289.5
643,10.0,289.5
644,8.0,289.5
645,6.0,289.5
646,8.0,1230.5
647,8.0,129.5
648,12.0,2058.0
649,15.0,2227.0
650,10.0,289.5
651,14.0,289.5
652,13.0,205.0
653,5.0,42.0
654,13.0,218.0
655,18.0,289.5
656,17.0,1986.0
657,11.0,289.5
658,13.0,1075.0
659,2.0,289.5
660,1.0,23.0
661,11.0,2237.0
662,11.0,289.5
663,14.0,1531.5
664,7.0,1503.0
665,5.0,193.0
666,12.0,98.0
667,12.0,83.0
668,12.0,117.0
669,78.0,111.0
670,47.0,168.0
671,34.0,289.5
672,43.0,1649.0
673,10.0,402.5
674,5.0,289.5
675,27.0,1893.0
676,22.0,2118.0
677,22.0,289.5
678,22.0,289.5
679,16.0,1256.0
680,5.0,470.0
681,5.0,2272.0
682,16.0,1984.5
683,18.0,289.5
684,15.0,289.5
685,14.0,2151.5
686,22.0,1598.5
687,10.0,289.5
688,7.0,289.5
689,16.0,289.5
690,23.0,570.0
691,9.0,479.0
692,3.0,642.0
693,9.0,569.0
694,4.0,1611.5
695,4.0,192.5
696,19.0,1219.0
697,17.0,1374.0
698,12.0,1338.5
699,11.0,1120.0
700,9.0,1484.0
701,3.0,573.0
702,5.0,204.0
703,6.0,1909.0
704,9.0,1874.0
705,4.0,490.5
706,12.0,1601.0
707,8.0,543.0
708,4.0,1285.0
709,4.0,410.0
710,6.0,354.0
711,8.0,289.5
712,7.0,358.0
713,11.0,1507.0
714,11.0,289.5
715,5.0,283.0
716,1.0,376.0
717,6.0,380.0
718,6.0,289.5
719,5.0,2179.0
720,6.0,289.5
721,3.0,300.0
722,1.0,232.0
723,0.0,232.0
724,2.0,1123.5
725,9.0,239.0
726,12.0,434.5
727,10.0,250.5
728,3.0,289.5
729,2.0,259.0
730,1.0,414.0
731,3.0,27.0
732,4.0,224.0
733,7.0,454.0
734,7.0,853.0
735,3.0,289.5
736,8.0,173.5
737,4.0,988.5
738,11.0,333.0
739,13.0,289.5
740,10.0,1107.5
741,13.0,599.0
742,4.0,173.0
743,3.0,554.0
744,2.0,1183.5
745,3.0,1074.0
746,10.0,1520.0
747,6.0,341.0
748,8.0,289.5
749,9.0,1441.0
750,3.0,289.5
751,3.0,385.0
752,3.0,289.5
753,12.0,289.5
754,8.0,289.5
755,8.0,115.0
756,7.0,504.0
757,5.0,570.0
758,4.0,289.5
759,13.0,289.5
760,8.0,64.0
761,7.0,289.5
762,4.0,94.5
763,2.0,47.0
764,8.0,289.5
765,2.0,683.0
766,6.0,289.5
767,5.0,289.5
768,6.0,156.0
769,2.0,289.5
770,7.0,168.0
771,2.0,78.0
772,0.0,78.0
773,5.0,289.5
774,8.0,45.0
775,4.0,289.5
776,9.0,289.5
777,10.0,289.5
778,1.0,116.0
779,1.0,0.0
780,0.0,0.0
781,8.0,66.5
782,8.0,365.5
783,6.0,289.5
784,7.0,289.5
785,3.0,289.5
786,2.0,56.0
787,7.0,289.5
788,10.0,62.0
789,6.0,1342.0
790,5.0,111.0
791,8.0,264.5
792,9.0,289.5
793,6.0,24.0
794,12.0,2034.5
795,20.0,289.5
796,10.0,289.5
797,22.0,174.0
798,24.0,128.0
799,4.0,289.5
800,7.0,14.0
801,14.0,306.0
802,13.0,2085.0
803,13.0,116.0
804,14.0,93.0
805,9.0,289.5
806,7.0,1142.0
807,4.0,289.5
808,13.0,159.0
809,17.0,1916.0
810,18.0,140.5
811,23.0,1036.0
812,27.0,1006.0
813,9.0,289.5
814,10.0,1936.0
815,31.0,1058.0
816,19.0,627.0
817,20.0,765.0
818,10.0,1074.5
819,11.0,844.0
820,8.0,798.0
821,7.0,41.0
822,27.0,1049.0
823,18.0,384.0
824,17.0,786.0
825,14.0,621.5
826,12.0,737.0
827,7.0,423.0
828,4.0,695.0
829,36.0,187.0
830,30.0,613.0
831,23.0,625.0
832,26.0,289.5
833,18.0,289.5
834,13.0,289.5
835,4.0,566.5
836,21.0,425.0
837,25.0,693.0
838,12.0,289.5
839,14.0,2263.0
840,42.0,289.5
841,8.0,1790.0
842,8.0,42.0
843,37.0,880.0
844,29.0,289.5
845,31.0,289.5
846,14.0,1698.5
847,27.0,289.5
848,6.0,556.0
849,9.0,254.0
850,25.0,289.5
851,15.0,289.5
852,13.0,211.0
853,21.0,1344.0
854,19.0,469.0
855,8.0,1355.5
856,9.0,289.5
857,25.0,289.5
858,18.0,141.0
859,16.0,289.5
860,21.0,334.0
861,11.0,759.0
862,4.0,109.5
863,4.0,289.5
864,23.0,289.5
865,21.0,1827.0
866,29.0,2316.0
867,23.0,289.5
868,18.0,784.0
869,19.0,784.0
870,4.0,289.5
871,40.0,289.5
872,33.0,289.5
873,36.0,1694.0
874,27.0,289.5
875,29.0,289.5
876,7.0,1137.0
877,3.0,65.0
878,8.0,215.0
879,41.0,2039.0
880,30.0,289.5
881,38.0,1961.5
882,32.0,289.5
883,19.0,595.0
884,16.0,595.0
885,22.0,530.0
886,21.0,289.5
887,23.0,289.5
888,18.0,289.5
889,30.0,289.5
890,9.0,402.0
891,10.0,289.5
892,17.0,289.5
893,29.0,289.5
894,23.0,289.5
895,19.0,836.0
896,20.0,289.5
897,10.0,145.0
898,11.0,713.0
899,19.0,289.5
900,30.0,1007.5
901,19.0,289.5
902,18.0,1559.0
903,35.0,143.0
904,17.0,380.0
905,8.0,388.5
906,39.0,665.0
907,28.0,2054.0
908,22.0,793.5
909,27.0,289.5
910,20.0,374.0
911,10.0,298.5
912,11.0,194.0
913,25.0,289.5
914,25.0,305.0
915,2.0,73.0
916,30.0,289.5
917,21.0,289.5
918,12.0,203.0
919,9.0,90.0
920,24.0,289.5
921,28.0,273.5
922,20.0,289.5
923,27.0,1793.0
924,26.0,289.5
925,15.0,289.5
926,12.0,289.5
927,32.0,289.5
928,31.0,289.5
929,24.0,204.5
930,27.0,1368.0
931,16.0,728.5
932,12.0,1542.0
933,9.0,883.0
934,23.0,289.5
935,25.0,289.5
936,30.0,289.5
937,74.0,289.5
938,57.0,1099.0
939,17.0,289.5
940,15.0,888.0
941,22.0,289.5
942,40.0,289.5
943,22.0,2010.0
944,24.0,289.5
945,20.0,1106.0
946,11.0,289.5
947,21.0,705.0
948,43.0,1410.0
949,24.0,2136.5
950,23.0,289.5
951,32.0,289.5
952,28.0,289.5
953,19.0,289.5
954,11.0,289.5
955,40.0,289.5
956,32.0,289.5
957,38.0,289.5
958,25.0,289.5
959,23.0,1508.0
960,12.0,289.5
961,6.0,289.5
962,25.0,289.5
963,17.0,289.5
964,19.0,289.5
965,17.0,289.5
966,23.0,289.5
967,10.0,289.5
968,5.0,1.0
969,22.0,289.5
970,25.0,289.5
971,32.0,289.5
972,21.0,289.5
973,19.0,289.5
974,12.0,289.5
975,3.0,289.5
976,10.0,289.5
977,22.0,289.5
978,15.0,2206.0
979,24.0,289.5
980,12.0,289.5
981,17.0,289.5
982,9.0,43.0
983,31.0,289.5
984,23.0,289.5
985,17.0,289.5
986,20.0,289.5
987,18.0,289.5
988,13.0,289.5
989,11.0,289.5
990,16.0,289.5
991,57.0,877.0
992,22.0,122.0
993,4.0,461.0
994,22.0,289.5
995,5.0,1415.0
996,13.0,289.5
997,36.0,289.5
998,20.0,289.5
999,24.0,289.5
1000,26.0,289.5
1001,12.0,289.5
1002,4.0,289.5
1003,5.0,1800.0
1004,27.0,289.5
1005,24.0,289.5
1006,23.0,289.5
1007,17.0,289.5
1008,9.0,289.5
1009,14.0,289.5
1010,5.0,289.5
1011,11.0,289.5
1012,8.0,816.0
1013,21.0,289.5
1014,11.0,289.5
1015,11.0,289.5
1016,9.0,289.5
1017,7.0,904.0
1018,23.0,289.5
1019,19.0,289.5
1020,10.0,289.5
1021,17.0,289.5
1022,20.0,1137.5
1023,6.0,758.5
1024,6.0,289.5
1025,8.0,289.5
1026,16.0,289.5
1027,20.0,289.5
1028,17.0,289.5
1029,36.0,289.5
1030,23.0,289.5
1031,8.0,289.5
1032,12.0,84.5
1033,12.0,79.0
1034,12.0,54.0
1035,12.0,68.5
1036,12.0,72.0
1037,12.0,68.0
1038,92.0,53.5
1039,12.0,43.0
1040,12.0,38.0
1041,12.0,46.0
1042,12.0,71.0
1043,12.0,67.0
1044,76.0,46.0
1045,22.0,105.5
1046,38.0,94.0
1047,33.0,64.0
1048,27.0,114.0
1049,12.0,105.5
1050,16.0,103.0
1051,19.0,140.0
1052,11.0,111.0
1053,31.0,31.0
1054,24.0,725.0
1055,10.0,252.0
1056,5.0,1264.0
1057,12.0,297.0
1058,9.0,211.0
1059,7.0,288.0
1060,29.0,1049.0
1061,16.0,185.0
1062,23.0,1031.0
1063,20.0,821.5
1064,20.0,200.0
1065,10.0,91.5
1066,7.0,735.0
1067,22.0,81.5
1068,19.0,1170.0
1069,13.0,999.0
1070,15.0,1449.0
1071,14.0,289.5
1072,12.0,1974.5
1073,1.0,289.5
1074,17.0,289.5
1075,27.0,908.0
1076,11.0,1054.0
1077,18.0,1895.5
1078,8.0,289.5
1079,12.0,289.5
1080,4.0,289.5
1081,10.0,289.5
1082,7.0,564.0
1083,10.0,769.5
1084,17.0,1144.0
1085,19.0,565.0
1086,7.0,259.0
1087,2.0,289.5
1088,6.0,319.5
1089,1.0,203.0
1090,9.0,869.0
1091,13.0,1505.0
1092,8.0,289.5
1093,2.0,289.5
1094,2.0,231.0
1095,4.0,289.5
1096,2.0,155.0
1097,11.0,187.0
1098,11.0,858.0
1099,13.0,289.5
1100,3.0,38.0
1101,1.0,289.5
1102,12.0,2030.5
1103,13.0,289.5
1104,12.0,289.5
1105,11.0,289.5
1106,9.0,260.0
1107,4.0,289.5
1108,2.0,1290.5
1109,17.0,1216.0
1110,12.0,289.5
1111,15.0,630.0
1112,12.0,488.0
1113,11.0,289.5
1114,4.0,289.5
1115,5.0,91.0
1116,2.0,289.5
1117,7.0,238.0
1118,9.0,289.5
1119,13.0,289.5
1120,5.0,149.0
1121,9.0,1090.0
1122,0.0,1090.0
1123,6.0,289.5
1124,8.0,289.5
1125,7.0,289.5
1126,29.0,618.0
1127,10.0,2146.5
1128,5.0,282.0
1129,3.0,232.0
1130,16.0,289.5
1131,10.0,1100.0
1132,8.0,1461.5
1133,7.0,635.0
1134,3.0,289.5
1135,4.0,289.5
1136,1.0,289.5
1137,3.0,1006.0
1138,7.0,736.0
1139,7.0,976.0
1140,14.0,790.0
1141,9.0,779.0
1142,1.0,1574.0
1143,5.0,289.5
1144,4.0,289.5
1145,8.0,289.5
1146,2.0,642.5
1147,9.0,1094.0
1148,15.0,289.5
1149,4.0,1764.0
1150,3.0,718.0
1151,8.0,289.5
1152,11.0,379.0
1153,12.0,289.5
1154,13.0,289.5
1155,12.0,291.0
1156,0.0,291.0
1157,6.0,1824.0
1158,12.0,294.5
1159,7.0,234.0
1160,10.0,281.5
1161,9.0,2182.0
1162,7.0,496.0
1163,3.0,68.0
1164,6.0,820.0
1165,19.0,289.5
1166,17.0,289.5
1167,16.0,289.5
1168,14.0,402.5
1169,18.0,289.5
1170,5.0,547.0
1171,2.0,289.5
1172,19.0,289.5
1173,14.0,289.5
1174,10.0,921.0
1175,14.0,289.5
1176,3.0,289.5
1177,11.0,289.5
1178,7.0,289.5
1179,12.0,420.0
1180,15.0,289.5
1181,17.0,289.5
1182,10.0,289.5
1183,12.0,882.5
1184,4.0,289.5
1185,3.0,289.5
1186,25.0,289.5
1187,20.0,357.5
1188,15.0,468.0
1189,15.0,289.5
1190,17.0,405.0
1191,12.0,767.5
1192,10.0,289.5
1193,22.0,289.5
1194,18.0,1149.0
1195,23.0,289.5
1196,21.0,289.5
1197,18.0,1062.0
1198,6.0,289.5
1199,10.0,258.5
1200,23.0,289.5
1201,34.0,2060.5
1202,24.0,289.5
1203,17.0,289.5
1204,18.0,289.5
1205,12.0,289.5
1206,5.0,278.0
1207,27.0,289.5
1208,24.0,561.0
1209,25.0,289.5
1210,30.0,289.5
1211,13.0,289.5
1212,15.0,289.5
1213,8.0,289.5
1214,14.0,289.5
1215,25.0,1383.0
1216,25.0,289.5
1217,24.0,289.5
1218,28.0,289.5
1219,10.0,289.5
1220,8.0,289.5
1221,32.0,289.5
1222,25.0,289.5
1223,25.0,1320.0
1224,27.0,289.5
1225,16.0,289.5
1226,11.0,94.0
1227,11.0,372.0
1228,35.0,289.5
1229,23.0,1024.0
1230,24.0,289.5
1231,20.0,289.5
1232,21.0,289.5
1233,13.0,452.0
1234,9.0,2206.0
1235,31.0,1531.0
1236,18.0,1317.0
1237,16.0,289.5
1238,27.0,289.5
1239,26.0,1543.0
1240,31.0,136.0
1241,17.0,111.0
1242,10.0,289.5
1243,35.0,1917.0
1244,29.0,718.0
1245,20.0,1563.5
1246,17.0,2013.0
1247,14.0,1124.5
1248,6.0,289.5
1249,32.0,1233.0
1250,29.0,289.5
1251,24.0,1351.5
1252,25.0,1312.0
1253,29.0,1241.0
1254,13.0,2004.0
1255,10.0,238.0
1256,31.0,289.5
1257,37.0,1673.0
1258,33.0,1173.0
1259,22.0,289.5
1260,26.0,289.5
1261,13.0,289.5
1262,9.0,289.5
1263,40.0,289.5
1264,32.0,289.5
1265,32.0,1577.5
1266,18.0,1248.0
1267,27.0,1180.0
1268,19.0,386.0
1269,11.0,360.0
1270,34.0,1759.0
1271,23.0,289.5
1272,38.0,1671.0
1273,23.0,700.0
1274,24.0,1279.0
1275,15.0,577.0
1276,8.0,2078.0
1277,22.0,289.5
1278,29.0,1864.0
1279,16.0,289.5
1280,5.0,97.0
1281,15.0,1105.0
1282,13.0,645.0
1283,12.0,767.0
1284,28.0,359.5
1285,25.0,999.0
1286,40.0,437.0
1287,17.0,289.5
1288,27.0,289.5
1289,8.0,249.5
1290,9.0,296.0
1291,22.0,689.5
1292,24.0,1218.0
1293,19.0,820.0
1294,18.0,289.5
1295,18.0,689.5
1296,14.0,1139.5
1297,12.0,121.5
1298,27.0,763.0
1299,30.0,872.5
1300,18.0,289.5
1301,27.0,185.0
1302,24.0,1014.0
1303,10.0,289.5
1304,6.0,58.0
1305,24.0,289.5
1306,26.0,2039.5
1307,21.0,289.5
1308,14.0,289.5
1309,18.0,1476.0
1310,8.0,289.5
1311,9.0,949.0
1312,37.0,289.5
1313,37.0,289.5
1314,21.0,1825.0
1315,19.0,838.0
1316,23.0,1839.0
1317,6.0,1109.0
1318,5.0,753.0
1319,24.0,2159.0
1320,15.0,1317.0
1321,31.0,1317.0
1322,14.0,289.5
1323,21.0,1436.0
1324,5.0,289.5
1325,5.0,289.5
1326,18.0,289.5
1327,19.0,289.5
1328,30.0,254.0
1329,15.0,289.5
1330,33.0,1941.0
1331,10.0,289.5
1332,6.0,941.5
1333,22.0,1062.5
1334,26.0,289.5
1335,41.0,2183.0
1336,23.0,2011.0
1337,24.0,706.5
1338,7.0,911.0
1339,7.0,267.0
1340,10.0,758.5
1341,26.0,289.5
1342,19.0,1865.0
1343,38.0,289.5
1344,21.0,289.5
1345,7.0,289.5
1346,9.0,1961.0
1347,22.0,289.5
1348,14.0,289.5
1349,18.0,289.5
1350,33.0,291.0
1351,34.0,348.0
1352,11.0,289.5
1353,7.0,289.5
1354,25.0,289.5
1355,31.0,1013.0
1356,26.0,2044.5
1357,18.0,289.5
1358,14.0,356.0
1359,12.0,261.0
1360,16.0,909.0
1361,16.0,289.5
1362,25.0,289.5
1363,15.0,1284.0
1364,27.0,289.5
1365,9.0,665.0
1366,6.0,2019.5
1367,9.0,436.0
1368,13.0,289.5
1369,26.0,1541.5
1370,24.0,289.5
1371,23.0,289.5
1372,25.0,289.5
1373,17.0,479.0
1374,3.0,449.0
1375,33.0,1217.0
1376,14.0,403.0
1377,19.0,956.0
1378,10.0,977.0
1379,13.0,1263.0
1380,17.0,208.0
1381,9.0,289.5
1382,9.0,289.5
1383,18.0,2059.5
1384,17.0,289.5
1385,12.0,289.5
1386,11.0,1363.0
1387,5.0,289.5
1388,11.0,289.5
1389,15.0,289.5
1390,17.0,289.5
1391,16.0,140.0
1392,19.0,1125.0
1393,9.0,289.5
1394,3.0,141.0
1395,7.0,289.5
1396,21.0,289.5
1397,6.0,289.5
1398,7.0,543.0
1399,9.0,289.5
1400,16.0,1642.0
1401,7.0,285.0
1402,5.0,110.0
1403,12.0,289.5
1404,5.0,361.0
1405,12.0,289.5
1406,10.0,1749.5
1407,7.0,1960.0
1408,5.0,147.0
1409,12.0,171.5
1410,7.0,47.0
1411,16.0,309.0
1412,9.0,152.0
1413,7.0,1772.0
1414,5.0,435.0
1415,10.0,113.5
1416,4.0,289.5
1417,12.0,908.0
1418,12.0,289.5
1419,11.0,289.5
1420,7.0,306.0
1421,5.0,289.5
1422,5.0,208.0
1423,1.0,124.0
1424,12.0,928.5
1425,8.0,1208.5
1426,7.0,2038.0
1427,1.0,125.0
1428,2.0,957.0
1429,5.0,1936.0
1430,7.0,41.0
1431,10.0,1110.0
1432,13.0,289.5
1433,9.0,289.5
1434,9.0,289.5
1435,14.0,1566.0
1436,4.0,1021.5
1437,3.0,112.0
1438,5.0,2253.0
1439,8.0,289.5
1440,11.0,294.0
1441,2.0,289.5
1442,7.0,339.0
1443,3.0,550.0
1444,8.0,466.0
1445,5.0,551.0
1446,10.0,95.0
1447,9.0,615.0
1448,8.0,289.5
1449,4.0,289.5
1450,4.0,289.5
1451,4.0,109.0
1452,8.0,781.0
1453,1.0,289.5
1454,5.0,289.5
1455,3.0,40.0
1456,6.0,571.0
1457,5.0,956.0
1458,1.0,289.5
1459,11.0,289.5
1460,4.0,113.5
1461,0.0,113.5
1462,6.0,207.5
1463,5.0,289.5
1464,6.0,289.5
1465,6.0,161.5
1466,17.0,200.0
1467,4.0,289.5
1468,8.0,158.0
1469,2.0,289.5
1470,6.0,676.0
1471,8.0,99.0
1472,7.0,109.0
1473,11.0,668.0
1474,10.0,189.0
1475,8.0,289.5
1476,9.0,190.0
1477,5.0,255.0
1478,3.0,289.5
1479,7.0,237.0
1480,6.0,289.5
1481,5.0,67.0
1482,7.0,113.0
1483,4.0,522.0
1484,3.0,226.0
1485,5.0,289.5
1486,1.0,289.5
1487,1.0,56.0
1488,3.0,289.5
1489,8.0,289.5
1490,6.0,922.0
1491,6.0,289.5
1492,5.0,431.0
1493,5.0,90.0
1494,20.0,61.5
1495,24.0,47.0
1496,43.0,20.0
1497,11.0,81.0
1498,6.0,91.5
1499,2.0,301.0
1500,5.0,25.0
1501,3.0,257.0
1502,4.0,119.5
1503,4.0,96.0
1504,4.0,128.5
1505,5.0,90.0
1506,1.0,201.0
1507,1.0,41.0
1508,2.0,99.5
1509,4.0,8.5
1510,6.0,114.5
1511,6.0,91.0
1512,7.0,92.0
1513,5.0,68.0
1514,6.0,66.5
1515,15.0,68.0
1516,4.0,94.0
1517,9.0,138.0
1518,11.0,289.5
1519,6.0,540.0
1520,2.0,289.5
1521,3.0,75.0
1522,10.0,289.5
1523,12.0,289.5
1524,20.0,289.5
1525,2.0,289.5
1526,13.0,115.0
1527,3.0,61.0
1528,7.0,289.5
1529,23.0,348.0
1530,18.0,289.5
1531,19.0,1460.0
1532,16.0,289.5
1533,13.0,231.0
1534,15.0,209.0
1535,5.0,289.5
1536,24.0,422.5
1537,22.0,312.0
1538,8.0,160.5
1539,18.0,192.5
1540,12.0,289.5
1541,30.0,289.5
1542,5.0,544.0
1543,16.0,1401.0
1544,10.0,172.5
1545,22.0,816.0
1546,21.0,333.0
1547,15.0,495.0
1548,3.0,412.0
1549,4.0,289.5
1550,26.0,361.5
1551,20.0,1366.0
1552,15.0,289.5
1553,23.0,289.5
1554,11.0,164.0
1555,14.0,609.5
1556,5.0,115.0
1557,20.0,1918.5
1558,26.0,787.5
1559,20.0,289.5
1560,18.0,2015.5
1561,11.0,482.0
1562,18.0,289.5
1563,5.0,259.0
1564,21.0,1070.0
1565,25.0,1318.0
1566,10.0,221.5
1567,14.0,1181.0
1568,11.0,289.5
1569,13.0,1474.0
1570,7.0,956.0
1571,33.0,938.0
1572,21.0,910.0
1573,21.0,888.0
1574,30.0,459.5
1575,30.0,825.0
1576,14.0,808.0
1577,4.0,675.5
1578,24.0,627.0
1579,18.0,289.5
1580,27.0,709.0
1581,21.0,418.0
1582,26.0,289.5
1583,15.0,120.0
1584,8.0,289.5
1585,30.0,783.0
1586,26.0,289.5
1587,27.0,686.0
1588,17.0,2013.0
1589,22.0,1235.0
1590,11.0,812.0
1591,8.0,352.5
1592,18.0,1026.5
1593,20.0,289.5
1594,19.0,289.5
1595,22.0,452.5
1596,12.0,759.5
1597,13.0,739.0
1598,8.0,465.0
1599,37.0,289.5
1600,25.0,816.0
1601,29.0,289.5
1602,20.0,289.5
1603,13.0,289.5
1604,12.0,289.5
1605,7.0,381.0
1606,16.0,479.5
1607,25.0,289.5
1608,23.0,310.0
1609,33.0,809.0
1610,26.0,295.5
1611,11.0,96.0
1612,6.0,52.5
1613,22.0,413.5
1614,36.0,1864.0
1615,24.0,289.5
1616,20.0,289.5
1617,22.0,775.5
1618,17.0,289.0
1619,9.0,36.0
1620,31.0,1873.0
1621,39.0,206.0
1622,36.0,289.5
1623,28.0,1552.5
1624,21.0,289.5
1625,19.0,90.0
1626,12.0,48.5
1627,28.0,289.5
1628,24.0,930.0
1629,29.0,178.0
1630,30.0,289.5
1631,22.0,1760.0
1632,11.0,2220.0
1633,13.0,80.0
1634,41.0,508.0
1635,30.0,1326.5
1636,24.0,289.5
1637,32.0,635.5
1638,21.0,1443.0
1639,11.0,65.0
1640,16.0,38.5
1641,25.0,289.5
1642,39.0,289.5
1643,19.0,1732.0
1644,24.0,27.0
1645,9.0,75.0
1646,14.0,289.5
1647,14.0,562.0
1648,49.0,545.0
1649,77.0,136.0
1650,12.0,119.0
1651,42.0,1001.5
1652,32.0,196.0
1653,10.0,43.0
1654,19.0,94.0
1655,34.0,289.5
1656,44.0,1714.0
1657,19.0,814.0
1658,23.0,1994.0
1659,20.0,1596.5
1660,8.0,848.0
1661,7.0,899.0
1662,28.0,289.5
1663,27.0,289.5
1664,42.0,2209.5
1665,23.0,1444.0
1666,19.0,143.0
1667,14.0,714.5
1668,14.0,1761.5
1669,42.0,289.5
1670,27.0,289.5
1671,23.0,289.5
1672,29.0,451.0
1673,23.0,2135.0
1674,9.0,399.0
1675,14.0,289.5
1676,31.0,289.5
1677,22.0,345.0
1678,24.0,1086.5
1679,24.0,1749.0
1680,30.0,138.0
1681,10.0,289.5
1682,9.0,21.0
1683,32.0,289.5
1684,30.0,693.0
1685,72.0,245.0
1686,34.0,1704.5
1687,17.0,159.0
1688,8.0,61.0
1689,13.0,289.5
1690,29.0,289.5
1691,32.0,2050.5
1692,21.0,190.0
1693,23.0,289.5
1694,12.0,878.5
1695,9.0,308.0
1696,9.0,1944.0
1697,40.0,289.5
1698,26.0,289.5
1699,30.0,289.5
1700,23.0,289.5
1701,18.0,803.5
1702,6.0,733.5
1703,10.0,57.5
1704,13.0,70.0
1705,24.0,289.5
1706,23.0,856.0
1707,27.0,289.5
1708,24.0,289.5
1709,17.0,2299.0
1710,15.0,289.5
1711,18.0,289.5
1712,16.0,1965.5
1713,23.0,1500.0
1714,14.0,2239.5
1715,19.0,639.0
1716,13.0,617.0
1717,6.0,1953.5
1718,27.0,289.5
1719,11.0,289.5
1720,21.0,2182.0
1721,17.0,306.0
1722,17.0,1455.0
1723,10.0,416.5
1724,11.0,449.0
1725,15.0,526.0
1726,14.0,258.0
1727,16.0,1253.0
1728,8.0,289.5
1729,21.0,2079.0
1730,6.0,289.5
1731,7.0,1557.0
1732,22.0,1605.0
1733,18.0,1294.0
1734,12.0,289.5
1735,20.0,289.5
1736,12.0,1841.5
1737,10.0,1534.5
1738,8.0,1065.0
1739,10.0,289.5
1740,27.0,1019.0
1741,19.0,2141.0
1742,17.0,1288.0
1743,17.0,1771.0
1744,6.0,185.5
1745,2.0,177.5
1746,11.0,289.5
1747,18.0,1370.5
1748,28.0,1798.5
1749,19.0,356.0
1750,17.0,289.5
1751,7.0,144.0
1752,8.0,66.5
1753,23.0,1190.0
1754,11.0,289.5
1755,21.0,683.0
1756,18.0,531.5
1757,13.0,1404.0
1758,7.0,1119.0
1759,12.0,243.5
1760,15.0,289.5
1761,9.0,637.0
1762,25.0,844.0
1763,5.0,301.0
1764,7.0,239.0
1765,0.0,239.0
1766,14.0,28.5
1767,14.0,404.0
1768,14.0,387.5
1769,13.0,376.0
1770,7.0,1516.0
1771,15.0,397.0
1772,7.0,121.0
1773,2.0,720.0
1774,15.0,333.0
1775,5.0,147.0
1776,11.0,289.5
1777,15.0,497.0
1778,15.0,952.0
1779,7.0,70.0
1780,2.0,310.5
1781,6.0,932.0
1782,10.0,1088.5
1783,7.0,1346.0
1784,12.0,779.0
1785,10.0,428.0
1786,6.0,166.0
1787,5.0,373.0
1788,11.0,264.0
1789,8.0,147.5
1790,3.0,1218.0
1791,2.0,79.0
1792,3.0,331.0
1793,0.0,331.0
1794,2.0,414.0
1795,12.0,366.5
1796,3.0,386.0
1797,14.0,492.5
1798,3.0,457.0
1799,7.0,307.0
1800,5.0,1947.0
1801,9.0,236.0
1802,9.0,2059.0
1803,10.0,18.5
1804,9.0,137.0
1805,6.0,1078.0
1806,6.0,878.0
1807,3.0,77.0
1808,4.0,289.5
1809,9.0,196.0
1810,9.0,1540.0
1811,10.0,1822.5
1812,7.0,1532.0
1813,4.0,1513.5
1814,1.0,745.0
1815,2.0,289.5
1816,6.0,44.5
1817,6.0,2272.0
1818,2.0,164.5
1819,7.0,1513.0
1820,12.0,1004.5
1821,7.0,1446.0
1822,3.0,23.0
1823,11.0,214.0
1824,6.0,261.0
1825,3.0,954.0
1826,0.0,954.0
1827,4.0,1013.5
1828,4.0,316.5
1829,5.0,1395.0
1830,14.0,1379.5
1831,7.0,341.0
1832,8.0,690.5
1833,5.0,90.0
1834,7.0,94.0
1835,5.0,1278.0
1836,6.0,1220.5
1837,3.0,2.0
1838,2.0,600.5
1839,1.0,357.0
1840,3.0,1127.0
1841,5.0,312.0
1842,3.0,207.0
1843,2.0,529.0
1844,3.0,337.0
1845,7.0,237.0
1846,6.0,80.5
1847,11.0,136.0
1848,8.0,573.0
1849,6.0,25.0
1850,4.0,474.0
1851,4.0,335.5
1852,3.0,41.0
1853,19.0,183.0
1854,11.0,114.0
1855,7.0,108.0
1856,6.0,69.5
1857,3.0,43.0
1858,11.0,34.0
1859,11.0,22.0
1860,5.0,384.0
1861,3.0,701.0
1862,8.0,140.0
1863,6.0,488.5
1864,2.0,320.0
1865,5.0,236.0
1866,4.0,111.0
1867,6.0,308.5
1868,4.0,143.0
1869,3.0,2.0
1870,2.0,5.0
1871,2.0,78.0
1872,7.0,229.0
1873,4.0,40.5
1874,5.0,114.0
1875,6.0,83.0
1876,5.0,87.0
1877,1.0,114.0
1878,6.0,44.0
1879,6.0,68.0
1880,3.0,289.5
1881,1.0,203.0
1882,4.0,2.0
1883,2.0,696.5
1884,3.0,0.0
1885,1.0,0.0
1886,3.0,43.0
1887,4.0,1400.0
1888,3.0,1152.0
1889,4.0,1745.5
1890,2.0,85.0
1891,2.0,585.0
1892,16.0,289.5
1893,8.0,18.5
1894,7.0,8.0
1895,15.0,1052.0
1896,17.0,1264.0
1897,4.0,533.0
1898,5.0,1228.0
1899,5.0,1196.0
1900,13.0,878.0
1901,11.0,563.0
1902,16.0,1125.5
1903,10.0,289.5
1904,8.0,553.5
1905,3.0,1059.0
1906,1.0,0.0
1907,5.0,744.0
1908,9.0,737.0
1909,13.0,328.0
1910,3.0,22.0
1911,7.0,665.0
1912,7.0,260.0
1913,2.0,29.5
1914,15.0,232.0
1915,5.0,189.0
1916,10.0,635.0
1917,16.0,155.5
1918,15.0,121.0
1919,7.0,111.0
1920,4.0,113.5
1921,20.0,68.0
1922,21.0,207.0
1923,12.0,17.0
1924,11.0,101.0
1925,12.0,506.5
1926,6.0,150.0
1927,3.0,0.0
1928,17.0,70.0
1929,22.0,743.0
1930,21.0,34.0
1931,23.0,30.0
1932,36.0,235.0
1933,8.0,112.5
1934,15.0,116.0
1935,37.0,46.0
1936,31.0,45.0
1937,27.0,659.0
1938,26.0,865.0
1939,19.0,66.0
1940,6.0,1166.0
1941,12.0,113.5
1942,18.0,362.0
1943,31.0,139.0
1944,21.0,168.0
1945,27.0,1030.0
1946,22.0,953.0
1947,10.0,649.0
1948,16.0,617.5
1949,32.0,825.0
1950,32.0,611.0
1951,25.0,551.0
1952,20.0,244.5
1953,25.0,166.0
1954,9.0,99.0
1955,11.0,182.0
1956,29.0,63.0
1957,41.0,194.0
1958,55.0,450.0
1959,25.0,192.0
1960,30.0,279.0
1961,4.0,129.0
1962,13.0,92.0
1963,35.0,191.0
1964,33.0,60.0
1965,43.0,146.0
1966,31.0,112.0
1967,24.0,94.5
1968,12.0,116.0
1969,14.0,48.0
1970,11.0,46.0
1971,47.0,141.0
1972,28.0,234.0
1973,41.0,20.0
1974,33.0,73.0
1975,13.0,141.0
1976,18.0,1008.0
1977,48.0,68.5
1978,39.0,71.0
1979,49.0,15.0
1980,32.0,17.0
1981,34.0,116.0
1982,23.0,88.0
1983,18.0,58.0
1984,52.0,39.0
1985,50.0,161.5
1986,46.0,116.5
1987,45.0,90.0
1988,38.0,78.5
1989,19.0,119.0
1990,14.0,223.0
1991,41.0,72.0
1992,29.0,56.0
1993,43.0,12.0
1994,29.0,205.0
1995,27.0,148.0
1996,21.0,40.0
1997,23.0,71.0
1998,45.0,62.0
1999,46.0,70.0
2000,34.0,306.5
2001,34.0,31.5
2002,27.0,65.0
2003,20.0,56.5
2004,15.0,47.0
2005,70.0,1281.0
2006,80.0,443.5
2007,12.0,217.0
2008,41.0,144.0
2009,30.0,72.5
2010,10.0,53.5
2011,15.0,186.0
2012,48.0,209.5
2013,60.0,23.0
2014,46.0,142.5
2015,25.0,18.0
2016,33.0,69.0
2017,14.0,115.0
2018,14.0,17.0
2019,48.0,25.0
2020,36.0,99.5
2021,31.0,1220.0
2022,32.0,20.0
2023,25.0,239.0
2024,21.0,43.0
2025,12.0,62.5
2026,41.0,41.0
2027,34.0,66.0
2028,29.0,40.0
2029,43.0,90.0
2030,23.0,140.0
2031,14.0,45.0
2032,12.0,46.0
2033,39.0,548.0
2034,29.0,24.0
2035,36.0,691.5
2036,32.0,88.5
2037,28.0,63.5
2038,17.0,147.0
2039,9.0,20.0
2040,48.0,69.0
2041,46.0,544.5
2042,27.0,472.0
2043,34.0,321.0
2044,21.0,498.0
2045,11.0,404.0
2046,15.0,39.0
2047,38.0,21.0
2048,36.0,191.0
2049,26.0,91.0
2050,28.0,74.0
2051,39.0,132.0
2052,6.0,95.5
2053,4.0,48.0
2054,20.0,48.0
2055,24.0,83.0
2056,35.0,382.0
2057,41.0,110.0
2058,30.0,474.5
2059,8.0,524.5
2060,9.0,1118.0
2061,35.0,181.0
2062,30.0,20.5
2063,28.0,21.0
2064,31.0,140.0
2065,25.0,120.0
2066,17.0,96.0
2067,13.0,74.0
2068,36.0,213.0
2069,33.0,21.0
2070,31.0,20.0
2071,31.0,278.0
2072,32.0,170.0
2073,16.0,402.0
2074,8.0,2091.5
2075,11.0,78.0
2076,43.0,845.0
2077,43.0,38.0
2078,38.0,21.0
2079,35.0,72.0
2080,20.0,274.0
2081,12.0,126.5
2082,29.0,16.0
2083,43.0,860.0
2084,31.0,638.0
2085,32.0,153.5
2086,23.0,410.0
2087,11.0,723.0
2088,10.0,218.5
2089,26.0,337.0
2090,26.0,620.0
2091,30.0,301.5
2092,32.0,561.5
2093,28.0,403.0
2094,7.0,40.0
2095,7.0,151.0
2096,27.0,675.0
2097,19.0,397.0
2098,61.0,432.0
2099,34.0,683.5
2100,53.0,54.0
2101,40.0,31.5
2102,26.0,83.5
2103,46.0,147.5
2104,46.0,214.0
2105,31.0,888.0
2106,24.0,21.0
2107,29.0,403.0
2108,24.0,410.5
2109,10.0,70.5
2110,26.0,561.0
2111,29.0,337.0
2112,24.0,31.5
2113,25.0,167.0
2114,17.0,571.0
2115,16.0,110.5
2116,4.0,58.0
2117,21.0,219.0
2118,18.0,215.5
2119,30.0,222.5
2120,18.0,15.5
2121,21.0,568.0
2122,14.0,47.5
2123,7.0,37.0
2124,17.0,92.0
2125,15.0,210.0
2126,33.0,19.0
2127,18.0,173.5
2128,24.0,71.0
2129,9.0,44.0
2130,11.0,214.0
2131,24.0,837.0
2132,21.0,235.0
2133,25.0,22.0
2134,23.0,94.0
2135,27.0,263.0
2136,5.0,118.0
2137,3.0,373.0
2138,21.0,500.0
2139,17.0,472.0
2140,19.0,142.0
2141,20.0,372.0
2142,18.0,97.0
2143,11.0,76.0
2144,11.0,242.0
2145,17.0,28.0
2146,21.0,305.0
2147,20.0,20.5
2148,17.0,66.0
2149,13.0,478.0
2150,10.0,852.0
2151,5.0,1444.0
2152,15.0,47.0
2153,15.0,69.0
2154,15.0,118.0
2155,2.0,193.5
2156,4.0,226.0
2157,4.0,1705.5
2158,2.0,1338.0
2159,24.0,678.5
2160,6.0,21.0
2161,13.0,39.0
2162,8.0,191.0
2163,9.0,427.0
2164,9.0,48.0
2165,5.0,15.0
2166,11.0,71.0
2167,7.0,310.0
2168,9.0,26.0
2169,9.0,27.0
2170,11.0,290.0
2171,10.0,44.0
2172,5.0,2.0
2173,7.0,102.0
2174,19.0,192.0
2175,6.0,363.5
2176,10.0,312.0
2177,6.0,179.5
2178,9.0,116.0
2179,5.0,68.0
2180,12.0,31.0
2181,5.0,25.0
2182,8.0,19.0
2183,5.0,446.0
2184,0.0,446.0
2185,2.0,696.0
2186,4.0,112.0
2187,13.0,429.0
2188,8.0,32.5
2189,16.0,217.5
2190,6.0,47.5
2191,2.0,797.0
2192,3.0,43.0
2193,4.0,69.0
2194,7.0,187.0
2195,8.0,22.0
2196,6.0,150.0
2197,13.0,189.0
2198,10.0,115.0
2199,10.0,454.5
2200,19.0,120.0
2201,18.0,96.5
2202,4.0,130.5
2203,12.0,197.5
2204,4.0,599.0
2205,6.0,88.0
2206,2.0,69.0
2207,6.0,46.5
2208,7.0,20.0
2209,10.0,202.0
2210,9.0,173.0
2211,12.0,95.0
2212,20.0,69.5
2213,5.0,114.0
2214,4.0,98.0
2215,6.0,60.5
2216,7.0,48.0
2217,4.0,16.0
2218,9.0,191.0
2219,3.0,305.0
2220,1.0,125.0
2221,3.0,289.5
2222,5.0,20.0
2223,6.0,31.0
2224,4.0,17.0
2225,15.0,46.0
2226,36.0,47.5
2227,8.0,55.5
2228,8.0,16.5
2229,23.0,955.0
2230,10.0,19.5
2231,10.0,8.0
2232,4.0,78.5
2233,6.0,100.0
2234,1.0,91.0
2235,3.0,1.0
2236,4.0,129.0
2237,5.0,764.0
2238,11.0,479.0
2239,9.0,99.0
2240,8.0,69.0
2241,10.0,77.5
2242,4.0,864.0
2243,12.0,16.5
2244,11.0,19.0
2245,20.0,44.5
2246,30.0,25.0
2247,15.0,169.0
2248,5.0,503.0
2249,10.0,15.5
2250,17.0,53.0
2251,9.0,22.0
2252,19.0,64.0
2253,7.0,100.0
2254,7.0,90.0
2255,6.0,46.5
2256,10.0,37.5
2257,10.0,38.5
2258,15.0,43.0
2259,25.0,26.0
2260,19.0,113.0
2261,10.0,82.0
2262,6.0,69.5
2263,9.0,49.0
2264,15.0,43.0
2265,12.0,21.0
2266,17.0,117.0
2267,10.0,114.5
2268,16.0,68.5
2269,1.0,67.0
2270,1.0,13.0
2271,11.0,19.0
2272,12.0,64.5
2273,22.0,55.5
2274,10.0,130.5
2275,16.0,66.5
2276,6.0,46.5
2277,5.0,1558.0
2278,26.0,161.5
2279,26.0,21.5
2280,16.0,154.0
2281,20.0,57.5
2282,20.0,96.0
2283,10.0,4.0
2284,12.0,44.0
2285,46.0,39.5
2286,42.0,59.0
2287,22.0,48.0
2288,28.0,157.5
2289,21.0,96.0
2290,10.0,84.0
2291,7.0,68.0
2292,14.0,205.0
2293,16.0,450.5
2294,16.0,452.5
2295,15.0,275.0
2296,20.0,124.5
2297,15.0,102.0
2298,11.0,71.0
2299,33.0,69.0
2300,23.0,171.0
2301,35.0,24.0
2302,21.0,115.0
2303,15.0,309.0
2304,9.0,271.0
2305,11.0,57.0
2306,25.0,28.0
2307,27.0,92.0
2308,14.0,201.5
2309,19.0,150.0
2310,25.0,963.0
2311,7.0,55.0
2312,5.0,238.0
2313,18.0,70.5
2314,21.0,24.0
2315,12.0,86.0
2316,20.0,9.5
2317,18.0,104.0
2318,14.0,91.0
2319,14.0,66.5
2320,36.0,204.0
2321,26.0,168.0
2322,26.0,43.0
2323,26.0,20.5
2324,24.0,210.0
2325,21.0,89.0
2326,28.0,69.0
2327,27.0,73.0
2328,28.0,68.0
2329,34.0,36.5
2330,22.0,142.0
2331,26.0,72.0
2332,8.0,62.5
2333,6.0,53.5
2334,34.0,91.5
2335,20.0,22.0
2336,34.0,140.5
2337,22.0,202.5
2338,20.0,103.0
2339,9.0,100.0
2340,4.0,339.0
2341,21.0,334.0
2342,35.0,311.0
2343,25.0,123.0
2344,38.0,74.5
2345,27.0,282.0
2346,14.0,50.5
2347,12.0,117.0
2348,32.0,84.5
2349,31.0,187.0
2350,38.0,82.0
2351,40.0,132.0
2352,37.0,74.0
2353,21.0,266.0
2354,25.0,68.0
2355,40.0,23.0
2356,32.0,115.0
2357,39.0,16.0
2358,37.0,21.0
2359,30.0,69.0
2360,17.0,55.0
2361,11.0,239.0
2362,38.0,40.0
2363,32.0,20.0
2364,27.0,18.0
2365,36.0,24.0
2366,19.0,37.0
2367,13.0,96.0
2368,12.0,70.5
2369,34.0,52.0
2370,53.0,42.0
2371,46.0,33.5
2372,36.0,21.5
2373,33.0,92.0
2374,17.0,77.0
2375,11.0,52.0
2376,6.0,436.5
2377,42.0,21.0
2378,28.0,15.0
2379,24.0,25.5
2380,27.0,73.0
2381,18.0,183.5
2382,10.0,149.5
2383,39.0,46.0
2384,43.0,54.0
2385,29.0,26.0
2386,20.0,261.5
2387,34.0,85.0
2388,11.0,49.0
2389,18.0,141.0
2390,12.0,24.0
2391,12.0,71.0
2392,84.0,54.5
2393,60.0,47.5
2394,50.0,126.5
2395,25.0,266.0
2396,19.0,290.0
2397,65.0,81.0
2398,56.0,314.5
2399,37.0,291.0
2400,29.0,141.0
2401,35.0,72.0
2402,11.0,142.0
2403,27.0,172.0
2404,41.0,46.0
2405,34.0,95.5
2406,42.0,185.0
2407,33.0,483.0
2408,28.0,192.0
2409,14.0,45.0
2410,13.0,24.0
2411,37.0,21.0
2412,29.0,41.0
2413,24.0,143.5
2414,29.0,141.0
2415,22.0,100.0
2416,20.0,284.5
2417,15.0,231.0
2418,38.0,240.0
2419,31.0,20.0
2420,46.0,116.5
2421,37.0,93.0
2422,27.0,94.0
2423,15.0,306.0
2424,10.0,317.0
2425,38.0,53.5
2426,29.0,44.0
2427,19.0,19.0
2428,25.0,170.0
2429,25.0,66.0
2430,18.0,96.0
2431,13.0,19.0
2432,35.0,22.0
2433,34.0,73.5
2434,28.0,22.0
2435,25.0,19.0
2436,30.0,46.5
2437,11.0,68.0
2438,13.0,23.0
2439,7.0,27.0
2440,52.0,48.0
2441,33.0,20.0
2442,28.0,20.0
2443,17.0,263.0
2444,10.0,60.0
2445,18.0,119.5
2446,39.0,99.0
2447,24.0,21.0
2448,35.0,48.0
2449,22.0,81.5
2450,23.0,237.0
2451,18.0,416.5
2452,10.0,34.5
2453,35.0,24.0
2454,28.0,25.0
2455,20.0,190.5
2456,22.0,134.0
2457,19.0,188.0
2458,10.0,131.5
2459,12.0,21.0
2460,30.0,70.5
2461,18.0,41.0
2462,24.0,80.0
2463,19.0,21.0
2464,30.0,68.0
2465,8.0,104.0
2466,11.0,23.0
2467,25.0,21.0
2468,18.0,11.5
2469,16.0,23.5
2470,20.0,228.0
2471,14.0,548.5
2472,17.0,306.0
2473,20.0,164.0
2474,7.0,239.0
2475,16.0,47.0
2476,18.0,282.5
2477,11.0,2.0
2478,19.0,141.0
2479,7.0,482.0
2480,6.0,35.5
2481,17.0,69.0
2482,16.0,152.5
2483,14.0,1093.0
2484,14.0,16.5
2485,21.0,117.0
2486,15.0,618.0
2487,13.0,123.0
2488,25.0,165.0
2489,18.0,21.0
2490,13.0,111.0
2491,17.0,11.0
2492,11.0,669.0
2493,7.0,289.5
2494,7.0,437.0
2495,14.0,42.0
2496,17.0,24.0
2497,17.0,383.0
2498,24.0,85.5
2499,19.0,330.0
2500,8.0,1002.0
2501,4.0,43.5
2502,15.0,23.0
2503,9.0,239.0
2504,4.0,68.0
2505,11.0,88.0
2506,10.0,68.5
2507,5.0,39.0
2508,4.0,69.5
2509,15.0,163.0
2510,15.0,45.0
2511,11.0,22.0
2512,16.0,320.0
2513,6.0,64.5
2514,6.0,44.0
2515,11.0,18.0
2516,31.0,42.0
2517,10.0,6.5
2518,16.0,51.5
2519,5.0,102.0
2520,5.0,58.0
2521,11.0,47.0
2522,2.0,316.0
2523,11.0,120.0
2524,10.0,686.5
2525,6.0,601.5
2526,5.0,17.0
2527,6.0,62.5
2528,10.0,41.0
2529,2.0,9.0
2530,11.0,50.0
2531,5.0,41.0
2532,7.0,114.0
2533,5.0,19.0
2534,8.0,441.5
2535,6.0,45.0
2536,4.0,333.5
2537,3.0,595.0
2538,12.0,20.0
2539,9.0,115.0
2540,7.0,107.0
2541,6.0,450.0
2542,2.0,311.5
2543,9.0,31.0
2544,11.0,565.0
2545,9.0,23.0
2546,12.0,518.5
2547,5.0,19.0
2548,7.0,138.0
2549,1.0,406.0
2550,1.0,93.0
2551,2.0,1713.0
2552,7.0,236.0
2553,9.0,328.0
2554,12.0,305.0
2555,9.0,298.0
2556,3.0,299.0
2557,6.0,86.5
2558,5.0,791.0
2559,19.0,385.0
2560,8.0,318.0
2561,11.0,90.0
2562,5.0,287.0
2563,2.0,605.5
2564,5.0,116.0
2565,10.0,52.0
2566,4.0,187.0
2567,8.0,783.0
2568,7.0,288.0
2569,11.0,243.0
2570,5.0,255.0
2571,2.0,39.0
2572,4.0,20.0
2573,11.0,23.0
2574,6.0,16.5
2575,9.0,94.0
2576,5.0,69.0
2577,4.0,48.5
2578,3.0,30.0
2579,26.0,6.0
2580,20.0,22.0
2581,14.0,112.0
2582,8.0,56.0
2583,17.0,89.0
2584,5.0,262.0
2585,5.0,46.0
2586,12.0,49.5
2587,9.0,43.0
2588,9.0,42.0
2589,5.0,28.0
2590,7.0,68.0
2591,3.0,99.0
2592,3.0,20.0
2593,6.0,36.5
2594,8.0,276.5
2595,12.0,52.0
2596,10.0,20.0
2597,5.0,262.0
2598,7.0,230.0
2599,4.0,20.5
2600,25.0,42.0
2601,4.0,27.0
2602,12.0,63.5
2603,15.0,21.0
2604,15.0,236.0
2605,7.0,70.0
2606,10.0,444.0
2607,7.0,22.0
2608,14.0,98.5
2609,8.0,116.0
2610,14.0,21.0
2611,13.0,74.0
2612,8.0,38.0
2613,11.0,20.0
2614,17.0,625.0
2615,14.0,94.0
2616,14.0,65.5
2617,46.0,24.5
2618,15.0,119.0
2619,6.0,42.5
2620,5.0,819.0
2621,18.0,85.5
2622,12.0,797.5
2623,10.0,50.0
2624,25.0,95.0
2625,12.0,215.0
2626,3.0,40.0
2627,7.0,20.0
2628,9.0,6.0
2629,17.0,26.0
2630,18.0,24.0
2631,11.0,23.0
2632,11.0,456.0
2633,7.0,56.0
2634,10.0,415.5
2635,8.0,265.5
2636,14.0,144.0
2637,24.0,95.0
2638,11.0,266.0
2639,9.0,262.0
2640,1.0,120.0
2641,7.0,49.0
2642,11.0,20.0
2643,9.0,338.0
2644,19.0,137.0
2645,26.0,26.0
2646,8.0,69.5
2647,9.0,53.0
2648,7.0,25.0
2649,14.0,46.5
2650,15.0,22.0
2651,36.0,46.0
2652,18.0,118.0
2653,29.0,68.0
2654,11.0,42.0
2655,9.0,59.0
2656,22.0,20.0
2657,34.0,43.0
2658,11.0,239.0
2659,21.0,24.0
2660,11.0,74.0
2661,7.0,92.0
2662,14.0,21.5
2663,17.0,121.0
2664,23.0,67.0
2665,26.0,20.0
2666,20.0,21.5
2667,14.0,67.5
2668,8.0,53.5
2669,10.0,18.5
2670,21.0,70.0
2671,27.0,22.0
2672,29.0,170.0
2673,20.0,18.5
2674,22.0,71.0
2675,16.0,75.5
2676,9.0,253.0
2677,29.0,90.0
2678,44.0,235.5
2679,34.0,83.5
2680,24.0,15.5
2681,32.0,65.0
2682,15.0,44.0
2683,9.0,112.0
2684,30.0,66.0
2685,20.0,180.0
2686,22.0,139.0
2687,16.0,180.0
2688,20.0,41.0
2689,15.0,50.0
2690,7.0,42.0
2691,37.0,46.0
2692,38.0,68.0
2693,38.0,47.0
2694,37.0,88.0
2695,24.0,65.0
2696,22.0,85.5
2697,6.0,12.0
2698,36.0,21.0
2699,35.0,13.0
2700,26.0,42.5
2701,32.0,67.5
2702,23.0,83.0
2703,26.0,69.5
2704,11.0,73.0
2705,13.0,22.0
2706,34.0,19.5
2707,30.0,17.5
2708,40.0,16.0
2709,39.0,66.0
2710,16.0,58.0
2711,7.0,24.0
2712,47.0,18.0
2713,31.0,20.0
2714,36.0,148.0
2715,30.0,22.0
2716,36.0,71.5
2717,27.0,41.0
2718,19.0,18.0
2719,48.0,46.5
2720,30.0,28.0
2721,26.0,13.0
2722,37.0,25.0
2723,29.0,29.0
2724,30.0,46.5
2725,8.0,22.0
2726,12.0,25.0
2727,12.0,11.5
2728,43.0,24.0
2729,58.0,101.5
2730,39.0,74.0
2731,25.0,55.0
2732,21.0,30.0
2733,53.0,9.0
2734,27.0,23.0
2735,30.0,46.5
2736,34.0,94.0
2737,27.0,270.0
2738,21.0,57.0
2739,19.0,22.0
2740,40.0,46.0
2741,16.0,48.0
2742,52.0,43.0
2743,34.0,58.5
2744,27.0,96.0
2745,16.0,66.5
2746,21.0,40.0
2747,36.0,25.0
2748,40.0,15.5
2749,46.0,35.5
2750,28.0,18.5
2751,26.0,94.5
2752,24.0,91.5
2753,15.0,240.0
2754,36.0,49.0
2755,31.0,48.0
2756,35.0,42.0
2757,34.0,175.0
2758,28.0,166.0
2759,12.0,319.5
2760,16.0,289.5
2761,42.0,192.0
2762,29.0,48.0
2763,42.0,45.5
2764,42.0,21.5
2765,30.0,75.0
2766,16.0,48.5
2767,15.0,32.0
2768,49.0,39.0
2769,42.0,44.0
2770,22.0,38.0
2771,34.0,21.5
2772,39.0,6.0
2773,27.0,50.0
2774,19.0,49.0
2775,29.0,15.0
2776,52.0,45.0
2777,30.0,26.0
2778,23.0,24.0
2779,31.0,144.0
2780,19.0,113.0
2781,19.0,85.0
2782,37.0,99.0
2783,36.0,141.5
2784,36.0,47.0
2785,34.0,67.5
2786,45.0,114.0
2787,47.0,149.0
2788,13.0,117.0
2789,43.0,97.0
2790,31.0,75.0
2791,47.0,117.0
2792,42.0,99.0
2793,37.0,144.0
2794,21.0,51.0
2795,15.0,95.0
2796,40.0,11.0
2797,26.0,218.5
2798,42.0,47.5
2799,19.0,145.0
2800,22.0,168.5
2801,10.0,72.0
2802,16.0,178.5
2803,13.0,23.0
2804,35.0,43.0
2805,25.0,23.0
2806,35.0,32.0
2807,27.0,67.0
2808,8.0,140.5
2809,16.0,116.0
2810,28.0,169.0
2811,24.0,142.0
2812,25.0,123.0
2813,25.0,98.0
2814,23.0,77.0
2815,14.0,50.0
2816,5.0,30.0
2817,22.0,9.0
2818,37.0,20.0
2819,27.0,118.0
2820,25.0,355.0
2821,26.0,71.0
2822,13.0,48.0
2823,8.0,20.0
2824,21.0,66.0
2825,18.0,46.5
2826,22.0,117.0
2827,37.0,104.0
2828,29.0,72.0
2829,9.0,49.0
2830,6.0,238.5
2831,22.0,25.5
2832,11.0,69.0
2833,21.0,164.0
2834,18.0,25.5
2835,16.0,93.5
2836,13.0,73.0
2837,11.0,52.0
2838,12.0,120.0
2839,21.0,74.0
2840,19.0,46.0
2841,17.0,28.0
2842,19.0,72.0
2843,11.0,76.0
2844,7.0,46.0
2845,15.0,38.0
2846,13.0,19.0
2847,27.0,19.0
2848,10.0,20.0
2849,15.0,74.0
2850,12.0,43.5
2851,6.0,30.5
2852,25.0,22.0
2853,43.0,65.0
2854,24.0,93.5
2855,17.0,117.0
2856,24.0,70.0
2857,11.0,68.0
2858,12.0,37.5
2859,93.0,39.0
2860,19.0,216.0
2861,25.0,307.0
2862,24.0,164.5
2863,23.0,140.0
2864,12.0,120.5
2865,12.0,249.0
2866,14.0,70.5
2867,11.0,52.0
2868,19.0,133.0
2869,21.0,118.0
2870,16.0,119.5
2871,5.0,61.0
2872,3.0,27.0
2873,11.0,18.0
2874,12.0,24.0
2875,10.0,22.5
2876,7.0,20.0
2877,16.0,78.0
2878,8.0,48.5
2879,8.0,550.5
2880,15.0,329.0
2881,12.0,155.5
2882,3.0,188.0
2883,2.0,78.5
2884,9.0,113.0
2885,6.0,69.0
2886,3.0,23.0
2887,7.0,20.0
2888,7.0,20.0
2889,14.0,81.5
2890,12.0,27.5
2891,6.0,85.0
2892,6.0,43.0
2893,3.0,16.0
2894,8.0,34.0
2895,8.0,34.5
2896,12.0,21.0
2897,0.0,21.0
2898,0.0,21.0
2899,0.0,21.0
2900,1.0,1200.0
2901,0.0,1200.0
2902,0.0,1200.0
2903,1.0,1121.0
2904,0.0,1121.0
2905,1.0,1076.0
2906,0.0,1076.0
2907,0.0,1076.0
2908,0.0,1076.0
2909,0.0,1076.0
2910,1.0,2.0
2911,0.0,2.0
2912,0.0,2.0
2913,0.0,2.0
2914,0.0,2.0
2915,0.0,2.0
2916,0.0,2.0
2917,2.0,829.0
2918,1.0,931.0
2919,0.0,931.0
2920,0.0,931.0
2921,1.0,722.0
2922,0.0,722.0
2923,0.0,722.0
2924,0.0,722.0
2925,1.0,505.0
2926,1.0,789.0
2927,0.0,789.0
2928,0.0,789.0
2929,3.0,551.0
2930,1.0,581.0
2931,0.0,581.0
2932,0.0,581.0
2933,2.0,827.5
2934,0.0,827.5
2935,1.0,363.0
2936,1.0,533.0
2937,1.0,313.0
2938,0.0,313.0
2939,0.0,313.0
2940,1.0,412.0
2941,2.0,264.5
2942,2.0,226.5
2943,5.0,185.0
2944,1.0,222.0
2945,8.0,17.5
2946,11.0,91.0
2947,8.0,71.0
2948,5.0,38.0
2949,3.0,19.0
2950,11.0,23.0
2951,5.0,17.0
2952,6.0,39.0
2953,9.0,89.0
2954,6.0,73.5
2955,4.0,76.0
2956,4.0,24.5
2957,6.0,118.5
2958,7.0,17.0
2959,3.0,4.0
2960,6.0,53.0
2961,3.0,70.0
2962,4.0,19.5
2963,5.0,71.0
2964,6.0,20.0
2965,4.0,50.0
2966,6.0,96.5
2967,2.0,108.0
2968,7.0,93.0
2969,3.0,65.0
2970,3.0,192.0
2971,3.0,29.0
2972,11.0,54.0
2973,7.0,1.0
2974,2.0,7.0
2975,2.0,67.5
2976,3.0,51.0
2977,5.0,8.0
2978,2.0,0.0
2979,0.0,0.0
